<?xml version="1.0" encoding="UTF-8" standalone="no"?>
<!DOCTYPE svg PUBLIC "-//W3C//DTD SVG 1.1//EN"
 "http://www.w3.org/Graphics/SVG/1.1/DTD/svg11.dtd">
<!-- Generated by graphviz version 2.38.0 (20140413.2041)
 -->
<!-- Title: C:/Users/palav/Documents/Repos/HoloGen/HoloGenAlgCommonCuda/AlgorithmFFTCuda.cuh Pages: 1 -->
<!--zoomable 341 -->
<svg id="main" version="1.1" xmlns="http://www.w3.org/2000/svg" xmlns:xlink="http://www.w3.org/1999/xlink" xml:space="preserve" onload="init(evt)">
<style type="text/css"><![CDATA[
.edge:hover path { stroke: red; }
.edge:hover polygon { stroke: red; fill: red; }
]]></style>
<script type="text/javascript"><![CDATA[
var edges = document.getElementsByTagName('g');
if (edges && edges.length) {
  for (var i=0;i<edges.length;i++) {
    if (edges[i].id.substr(0,4)=='edge') {
      edges[i].setAttribute('class','edge');
    }
  }
}
]]></script>
        <defs>
                <circle id="rim" cx="0" cy="0" r="7"/>
                <circle id="rim2" cx="0" cy="0" r="3.5"/>
                <g id="zoomPlus">
                        <use xlink:href="#rim" fill="#404040">
                                <set attributeName="fill" to="#808080" begin="zoomplus.mouseover" end="zoomplus.mouseout"/>
                        </use>
                        <path d="M-4,0h8M0,-4v8" fill="none" stroke="white" stroke-width="1.5" pointer-events="none"/>
                </g>
                <g id="zoomMin">
                        <use xlink:href="#rim" fill="#404040">
                                <set attributeName="fill" to="#808080" begin="zoomminus.mouseover" end="zoomminus.mouseout"/>
                        </use>
                        <path d="M-4,0h8" fill="none" stroke="white" stroke-width="1.5" pointer-events="none"/>
                </g>
                <g id="dirArrow">
                        <path fill="none" stroke="white" stroke-width="1.5" d="M0,-3.0v7 M-2.5,-0.5L0,-3.0L2.5,-0.5"/>
                </g>
               <g id="resetDef">
                       <use xlink:href="#rim2" fill="#404040">
                               <set attributeName="fill" to="#808080" begin="reset.mouseover" end="reset.mouseout"/>
                       </use>
               </g>
        </defs>

<script type="text/javascript">
var viewWidth = 1468;
var viewHeight = 341;
var sectionId = 'dynsection-0';
</script>
<script xlink:href="svgpan.js"/>
<svg id="graph" class="graph">
<g id="viewport">
<title>C:/Users/palav/Documents/Repos/HoloGen/HoloGenAlgCommonCuda/AlgorithmFFTCuda.cuh</title>
<polygon fill="white" stroke="none" points="-4,4 -4,-337 1463.71,-337 1463.71,4 -4,4"/>
<!-- Node0 -->
<g id="node1" class="node"><title>Node0</title>
<polygon fill="#bfbfbf" stroke="black" points="950,-291.5 950,-332.5 1132,-332.5 1132,-291.5 950,-291.5"/>
<text text-anchor="start" x="958" y="-320.5" font-family="Helvetica,sans-Serif" font-size="10.00">C:/Users/palav/Documents</text>
<text text-anchor="start" x="958" y="-309.5" font-family="Helvetica,sans-Serif" font-size="10.00">/Repos/HoloGen/HoloGenAlgCommon</text>
<text text-anchor="middle" x="1041" y="-298.5" font-family="Helvetica,sans-Serif" font-size="10.00">Cuda/AlgorithmFFTCuda.cuh</text>
</g>
<!-- Node1 -->
<g id="node2" class="node"><title>Node1</title>
<polygon fill="white" stroke="#bfbfbf" points="113.5,-0.5 113.5,-19.5 166.5,-19.5 166.5,-0.5 113.5,-0.5"/>
<text text-anchor="middle" x="140" y="-7.5" font-family="Helvetica,sans-Serif" font-size="10.00">complex</text>
</g>
<!-- Node0&#45;&gt;Node1 -->
<g id="edge1" class="edge"><title>Node0&#45;&gt;Node1</title>
<path fill="none" stroke="midnightblue" d="M949.985,-308.949C696.339,-302.031 0,-274.358 0,-179 0,-179 0,-179 0,-121 0,-68.2027 62.3243,-36.8904 103.806,-21.8969"/>
<polygon fill="midnightblue" stroke="midnightblue" points="105.029,-25.1773 113.338,-18.6029 102.743,-18.5612 105.029,-25.1773"/>
</g>
<!-- Node2 -->
<g id="node3" class="node"><title>Node2</title>
<polygon fill="white" stroke="#bfbfbf" points="963,-0.5 963,-19.5 1005,-19.5 1005,-0.5 963,-0.5"/>
<text text-anchor="middle" x="984" y="-7.5" font-family="Helvetica,sans-Serif" font-size="10.00">vector</text>
</g>
<!-- Node0&#45;&gt;Node2 -->
<g id="edge2" class="edge"><title>Node0&#45;&gt;Node2</title>
<path fill="none" stroke="midnightblue" d="M1132.24,-299.541C1250.58,-282.081 1442,-243.818 1442,-179 1442,-179 1442,-179 1442,-121 1442,-33.036 1118.55,-15.2322 1015.28,-11.7896"/>
<polygon fill="midnightblue" stroke="midnightblue" points="1015.28,-8.2878 1005.17,-11.4756 1015.06,-15.2844 1015.28,-8.2878"/>
</g>
<!-- Node3 -->
<g id="node4" class="node"><title>Node3</title>
<g id="a_node4"><a xlink:href="_algorithm_cuda_8cuh.html" target="_top" xlink:title="../HoloGenAlgBaseCuda\l/AlgorithmCuda.cuh">
<polygon fill="white" stroke="black" points="732,-224.5 732,-254.5 854,-254.5 854,-224.5 732,-224.5"/>
<text text-anchor="start" x="740" y="-242.5" font-family="Helvetica,sans-Serif" font-size="10.00">../HoloGenAlgBaseCuda</text>
<text text-anchor="middle" x="793" y="-231.5" font-family="Helvetica,sans-Serif" font-size="10.00">/AlgorithmCuda.cuh</text>
</a>
</g>
</g>
<!-- Node0&#45;&gt;Node3 -->
<g id="edge3" class="edge"><title>Node0&#45;&gt;Node3</title>
<path fill="none" stroke="midnightblue" d="M972.248,-291.455C934.642,-280.765 888.515,-267.653 852.472,-257.406"/>
<polygon fill="midnightblue" stroke="midnightblue" points="853.165,-253.965 842.589,-254.597 851.251,-260.698 853.165,-253.965"/>
</g>
<!-- Node18 -->
<g id="node19" class="node"><title>Node18</title>
<g id="a_node19"><a xlink:href="_f_f_t_direction_cuda_8h.html" target="_top" xlink:title="FFTDirectionCuda.h">
<polygon fill="white" stroke="black" points="1196.5,-56.5 1196.5,-75.5 1299.5,-75.5 1299.5,-56.5 1196.5,-56.5"/>
<text text-anchor="middle" x="1248" y="-63.5" font-family="Helvetica,sans-Serif" font-size="10.00">FFTDirectionCuda.h</text>
</a>
</g>
</g>
<!-- Node0&#45;&gt;Node18 -->
<g id="edge53" class="edge"><title>Node0&#45;&gt;Node18</title>
<path fill="none" stroke="midnightblue" d="M1057.59,-291.445C1097.26,-244.682 1197.05,-127.053 1233.98,-83.5289"/>
<polygon fill="midnightblue" stroke="midnightblue" points="1236.87,-85.5257 1240.67,-75.6359 1231.54,-80.9972 1236.87,-85.5257"/>
</g>
<!-- Node3&#45;&gt;Node1 -->
<g id="edge4" class="edge"><title>Node3&#45;&gt;Node1</title>
<path fill="none" stroke="midnightblue" d="M731.699,-238.967C563.224,-239.613 102.617,-236.854 57,-188 11.1314,-138.876 85.887,-59.8424 122.1,-26.5641"/>
<polygon fill="midnightblue" stroke="midnightblue" points="124.491,-29.1209 129.586,-19.8315 119.81,-23.9161 124.491,-29.1209"/>
</g>
<!-- Node3&#45;&gt;Node2 -->
<g id="edge5" class="edge"><title>Node3&#45;&gt;Node2</title>
<path fill="none" stroke="midnightblue" d="M854.326,-236.051C947.835,-229.886 1129,-208.209 1260,-132 1292.96,-112.826 1309.11,-110.663 1325,-76 1328.7,-67.9196 1330.86,-62.6839 1325,-56 1304.7,-32.8486 1095.79,-17.7934 1015.34,-12.8155"/>
<polygon fill="midnightblue" stroke="midnightblue" points="1015.5,-9.31904 1005.31,-12.2061 1015.08,-16.3062 1015.5,-9.31904"/>
</g>
<!-- Node4 -->
<g id="node5" class="node"><title>Node4</title>
<polygon fill="white" stroke="#bfbfbf" points="858.5,-0.5 858.5,-19.5 893.5,-19.5 893.5,-0.5 858.5,-0.5"/>
<text text-anchor="middle" x="876" y="-7.5" font-family="Helvetica,sans-Serif" font-size="10.00">map</text>
</g>
<!-- Node3&#45;&gt;Node4 -->
<g id="edge6" class="edge"><title>Node3&#45;&gt;Node4</title>
<path fill="none" stroke="midnightblue" d="M854.462,-228.472C979.251,-206.714 1255.08,-151.027 1309,-76 1355.61,-11.1476 1033.4,-28.6062 954,-20 937.315,-18.1915 918.638,-16.0409 903.744,-14.2955"/>
<polygon fill="midnightblue" stroke="midnightblue" points="903.991,-10.8005 893.65,-13.1069 903.172,-17.7525 903.991,-10.8005"/>
</g>
<!-- Node5 -->
<g id="node6" class="node"><title>Node5</title>
<polygon fill="white" stroke="#bfbfbf" points="1200,-0.5 1200,-19.5 1252,-19.5 1252,-0.5 1200,-0.5"/>
<text text-anchor="middle" x="1226" y="-7.5" font-family="Helvetica,sans-Serif" font-size="10.00">memory</text>
</g>
<!-- Node3&#45;&gt;Node5 -->
<g id="edge7" class="edge"><title>Node3&#45;&gt;Node5</title>
<path fill="none" stroke="midnightblue" d="M854.254,-236.11C930.197,-231.843 1062.95,-220.087 1172,-188 1228.08,-171.501 1244.32,-167.184 1291,-132 1323.09,-107.809 1362.61,-89.2285 1340,-56 1322.72,-30.6073 1288.69,-19.5432 1262.28,-14.7224"/>
<polygon fill="midnightblue" stroke="midnightblue" points="1262.66,-11.2377 1252.23,-13.1138 1261.55,-18.1498 1262.66,-11.2377"/>
</g>
<!-- Node6 -->
<g id="node7" class="node"><title>Node6</title>
<polygon fill="white" stroke="#bfbfbf" points="1361,-0.5 1361,-19.5 1417,-19.5 1417,-0.5 1361,-0.5"/>
<text text-anchor="middle" x="1389" y="-7.5" font-family="Helvetica,sans-Serif" font-size="10.00">algorithm</text>
</g>
<!-- Node3&#45;&gt;Node6 -->
<g id="edge8" class="edge"><title>Node3&#45;&gt;Node6</title>
<path fill="none" stroke="midnightblue" d="M854.079,-237.256C937.394,-234.204 1090.64,-223.739 1216,-188 1329.2,-155.728 1392.77,-175.285 1456,-76 1469.3,-55.1229 1442.88,-36.0212 1419.4,-24.0071"/>
<polygon fill="midnightblue" stroke="midnightblue" points="1420.84,-20.8122 1410.31,-19.6098 1417.79,-27.1141 1420.84,-20.8122"/>
</g>
<!-- Node7 -->
<g id="node8" class="node"><title>Node7</title>
<g id="a_node8"><a xlink:href="_image_8h.html" target="_top" xlink:title="Image.h">
<polygon fill="white" stroke="black" points="958.5,-56.5 958.5,-75.5 1009.5,-75.5 1009.5,-56.5 958.5,-56.5"/>
<text text-anchor="middle" x="984" y="-63.5" font-family="Helvetica,sans-Serif" font-size="10.00">Image.h</text>
</a>
</g>
</g>
<!-- Node3&#45;&gt;Node7 -->
<g id="edge9" class="edge"><title>Node3&#45;&gt;Node7</title>
<path fill="none" stroke="midnightblue" d="M854.161,-224.526C877.485,-216.806 903.002,-205.18 922,-188 953.403,-159.601 971.238,-111.594 979.102,-85.399"/>
<polygon fill="midnightblue" stroke="midnightblue" points="982.511,-86.2045 981.872,-75.629 975.777,-84.2951 982.511,-86.2045"/>
</g>
<!-- Node8 -->
<g id="node9" class="node"><title>Node8</title>
<g id="a_node9"><a xlink:href="_s_l_m_modulation_scheme_cuda_8h.html" target="_top" xlink:title="SLMModulationSchemeCuda.h">
<polygon fill="white" stroke="black" points="1027.5,-56.5 1027.5,-75.5 1178.5,-75.5 1178.5,-56.5 1027.5,-56.5"/>
<text text-anchor="middle" x="1103" y="-63.5" font-family="Helvetica,sans-Serif" font-size="10.00">SLMModulationSchemeCuda.h</text>
</a>
</g>
</g>
<!-- Node3&#45;&gt;Node8 -->
<g id="edge15" class="edge"><title>Node3&#45;&gt;Node8</title>
<path fill="none" stroke="midnightblue" d="M850.061,-224.425C879.39,-215.994 915.145,-203.816 945,-188 1001.72,-157.953 1059.33,-107.792 1086.66,-82.5347"/>
<polygon fill="midnightblue" stroke="midnightblue" points="1089.22,-84.9314 1094.14,-75.5457 1084.44,-79.8176 1089.22,-84.9314"/>
</g>
<!-- Node9 -->
<g id="node10" class="node"><title>Node9</title>
<g id="a_node10"><a xlink:href="_abstract_quantiser_8cuh.html" target="_top" xlink:title="AbstractQuantiser.cuh">
<polygon fill="white" stroke="black" points="765,-112.5 765,-131.5 879,-131.5 879,-112.5 765,-112.5"/>
<text text-anchor="middle" x="822" y="-119.5" font-family="Helvetica,sans-Serif" font-size="10.00">AbstractQuantiser.cuh</text>
</a>
</g>
</g>
<!-- Node3&#45;&gt;Node9 -->
<g id="edge16" class="edge"><title>Node3&#45;&gt;Node9</title>
<path fill="none" stroke="midnightblue" d="M854.126,-225.406C874.113,-217.912 894.192,-206.21 906,-188 921.142,-164.647 889.228,-146.236 860.482,-135.058"/>
<polygon fill="midnightblue" stroke="midnightblue" points="861.522,-131.711 850.928,-131.547 859.107,-138.281 861.522,-131.711"/>
</g>
<!-- Node19 -->
<g id="node20" class="node"><title>Node19</title>
<g id="a_node20"><a xlink:href="_quantiser_nearest_8cuh.html" target="_top" xlink:title="QuantiserNearest.cuh">
<polygon fill="white" stroke="black" points="786.5,-168.5 786.5,-187.5 897.5,-187.5 897.5,-168.5 786.5,-168.5"/>
<text text-anchor="middle" x="842" y="-175.5" font-family="Helvetica,sans-Serif" font-size="10.00">QuantiserNearest.cuh</text>
</a>
</g>
</g>
<!-- Node3&#45;&gt;Node19 -->
<g id="edge31" class="edge"><title>Node3&#45;&gt;Node19</title>
<path fill="none" stroke="midnightblue" d="M804.612,-224.399C811.733,-215.753 820.883,-204.642 828.349,-195.576"/>
<polygon fill="midnightblue" stroke="midnightblue" points="831.215,-197.602 834.87,-187.658 825.811,-193.152 831.215,-197.602"/>
</g>
<!-- Node20 -->
<g id="node21" class="node"><title>Node20</title>
<polygon fill="white" stroke="#bfbfbf" points="66,-168.5 66,-187.5 124,-187.5 124,-168.5 66,-168.5"/>
<text text-anchor="middle" x="95" y="-175.5" font-family="Helvetica,sans-Serif" font-size="10.00">functional</text>
</g>
<!-- Node3&#45;&gt;Node20 -->
<g id="edge45" class="edge"><title>Node3&#45;&gt;Node20</title>
<path fill="none" stroke="midnightblue" d="M731.668,-237.002C616.339,-233.491 359.259,-222.366 134.376,-187.983"/>
<polygon fill="midnightblue" stroke="midnightblue" points="134.787,-184.505 124.369,-186.434 133.716,-191.423 134.787,-184.505"/>
</g>
<!-- Node21 -->
<g id="node22" class="node"><title>Node21</title>
<g id="a_node22"><a xlink:href="_illumination_type_cuda_8h.html" target="_top" xlink:title="IlluminationTypeCuda.h">
<polygon fill="white" stroke="black" points="142.5,-168.5 142.5,-187.5 259.5,-187.5 259.5,-168.5 142.5,-168.5"/>
<text text-anchor="middle" x="201" y="-175.5" font-family="Helvetica,sans-Serif" font-size="10.00">IlluminationTypeCuda.h</text>
</a>
</g>
</g>
<!-- Node3&#45;&gt;Node21 -->
<g id="edge46" class="edge"><title>Node3&#45;&gt;Node21</title>
<path fill="none" stroke="midnightblue" d="M731.893,-233.374C635.768,-225.144 443.119,-207.981 269.877,-188.183"/>
<polygon fill="midnightblue" stroke="midnightblue" points="270.144,-184.691 259.81,-187.027 269.346,-191.645 270.144,-184.691"/>
</g>
<!-- Node22 -->
<g id="node23" class="node"><title>Node22</title>
<g id="a_node23"><a xlink:href="_initial_seed_type_cuda_8h.html" target="_top" xlink:title="InitialSeedTypeCuda.h">
<polygon fill="white" stroke="black" points="277.5,-168.5 277.5,-187.5 390.5,-187.5 390.5,-168.5 277.5,-168.5"/>
<text text-anchor="middle" x="334" y="-175.5" font-family="Helvetica,sans-Serif" font-size="10.00">InitialSeedTypeCuda.h</text>
</a>
</g>
</g>
<!-- Node3&#45;&gt;Node22 -->
<g id="edge47" class="edge"><title>Node3&#45;&gt;Node22</title>
<path fill="none" stroke="midnightblue" d="M731.716,-230.774C656.42,-221.248 524.483,-204.449 400.57,-188.067"/>
<polygon fill="midnightblue" stroke="midnightblue" points="400.895,-184.579 390.522,-186.737 399.976,-191.519 400.895,-184.579"/>
</g>
<!-- Node23 -->
<g id="node24" class="node"><title>Node23</title>
<g id="a_node24"><a xlink:href="_logging_callback_8h.html" target="_top" xlink:title="LoggingCallback.h">
<polygon fill="white" stroke="black" points="409,-168.5 409,-187.5 505,-187.5 505,-168.5 409,-168.5"/>
<text text-anchor="middle" x="457" y="-175.5" font-family="Helvetica,sans-Serif" font-size="10.00">LoggingCallback.h</text>
</a>
</g>
</g>
<!-- Node3&#45;&gt;Node23 -->
<g id="edge48" class="edge"><title>Node3&#45;&gt;Node23</title>
<path fill="none" stroke="midnightblue" d="M731.763,-227.656C670.121,-216.74 575.734,-200.026 515.196,-189.306"/>
<polygon fill="midnightblue" stroke="midnightblue" points="515.5,-185.805 505.043,-187.508 514.279,-192.698 515.5,-185.805"/>
</g>
<!-- Node24 -->
<g id="node25" class="node"><title>Node24</title>
<polygon fill="white" stroke="#bfbfbf" points="523,-168.5 523,-187.5 569,-187.5 569,-168.5 523,-168.5"/>
<text text-anchor="middle" x="546" y="-175.5" font-family="Helvetica,sans-Serif" font-size="10.00">chrono</text>
</g>
<!-- Node3&#45;&gt;Node24 -->
<g id="edge49" class="edge"><title>Node3&#45;&gt;Node24</title>
<path fill="none" stroke="midnightblue" d="M731.662,-224.838C690.914,-215.59 636.007,-202.803 578.96,-188.167"/>
<polygon fill="midnightblue" stroke="midnightblue" points="579.597,-184.717 569.04,-185.609 577.849,-191.495 579.597,-184.717"/>
</g>
<!-- Node25 -->
<g id="node26" class="node"><title>Node25</title>
<polygon fill="white" stroke="#bfbfbf" points="587.5,-168.5 587.5,-187.5 628.5,-187.5 628.5,-168.5 587.5,-168.5"/>
<text text-anchor="middle" x="608" y="-175.5" font-family="Helvetica,sans-Serif" font-size="10.00">ctime</text>
</g>
<!-- Node3&#45;&gt;Node25 -->
<g id="edge50" class="edge"><title>Node3&#45;&gt;Node25</title>
<path fill="none" stroke="midnightblue" d="M749.158,-224.399C714.982,-213.408 668.419,-198.432 638.283,-188.74"/>
<polygon fill="midnightblue" stroke="midnightblue" points="639.325,-185.398 628.734,-185.668 637.182,-192.062 639.325,-185.398"/>
</g>
<!-- Node26 -->
<g id="node27" class="node"><title>Node26</title>
<polygon fill="white" stroke="#bfbfbf" points="647,-168.5 647,-187.5 701,-187.5 701,-168.5 647,-168.5"/>
<text text-anchor="middle" x="674" y="-175.5" font-family="Helvetica,sans-Serif" font-size="10.00">iostream</text>
</g>
<!-- Node3&#45;&gt;Node26 -->
<g id="edge51" class="edge"><title>Node3&#45;&gt;Node26</title>
<path fill="none" stroke="midnightblue" d="M764.799,-224.399C745.278,-214.639 719.475,-201.737 700.365,-192.183"/>
<polygon fill="midnightblue" stroke="midnightblue" points="701.825,-188.999 691.316,-187.658 698.695,-195.26 701.825,-188.999"/>
</g>
<!-- Node27 -->
<g id="node28" class="node"><title>Node27</title>
<polygon fill="white" stroke="#bfbfbf" points="719.5,-168.5 719.5,-187.5 768.5,-187.5 768.5,-168.5 719.5,-168.5"/>
<text text-anchor="middle" x="744" y="-175.5" font-family="Helvetica,sans-Serif" font-size="10.00">fstream</text>
</g>
<!-- Node3&#45;&gt;Node27 -->
<g id="edge52" class="edge"><title>Node3&#45;&gt;Node27</title>
<path fill="none" stroke="midnightblue" d="M781.388,-224.399C774.267,-215.753 765.117,-204.642 757.651,-195.576"/>
<polygon fill="midnightblue" stroke="midnightblue" points="760.189,-193.152 751.13,-187.658 754.785,-197.602 760.189,-193.152"/>
</g>
<!-- Node7&#45;&gt;Node1 -->
<g id="edge10" class="edge"><title>Node7&#45;&gt;Node1</title>
<path fill="none" stroke="midnightblue" d="M958.124,-57.7433C955.067,-57.0653 951.976,-56.4608 949,-56 653.781,-10.2857 291.628,-9.44944 176.76,-10.4922"/>
<polygon fill="midnightblue" stroke="midnightblue" points="176.699,-6.99257 166.735,-10.5941 176.77,-13.9922 176.699,-6.99257"/>
</g>
<!-- Node7&#45;&gt;Node2 -->
<g id="edge11" class="edge"><title>Node7&#45;&gt;Node2</title>
<path fill="none" stroke="midnightblue" d="M984,-56.083C984,-49.0059 984,-38.8611 984,-29.9865"/>
<polygon fill="midnightblue" stroke="midnightblue" points="987.5,-29.751 984,-19.7511 980.5,-29.7511 987.5,-29.751"/>
</g>
<!-- Node7&#45;&gt;Node4 -->
<g id="edge12" class="edge"><title>Node7&#45;&gt;Node4</title>
<path fill="none" stroke="midnightblue" d="M966.648,-56.324C949.328,-47.6641 922.485,-34.2424 902.498,-24.249"/>
<polygon fill="midnightblue" stroke="midnightblue" points="903.819,-20.9962 893.309,-19.6545 900.688,-27.2572 903.819,-20.9962"/>
</g>
<!-- Node7&#45;&gt;Node5 -->
<g id="edge13" class="edge"><title>Node7&#45;&gt;Node5</title>
<path fill="none" stroke="midnightblue" d="M1009.59,-58.0927C1012.42,-57.3677 1015.27,-56.6565 1018,-56 1078.11,-41.5508 1148.5,-26.766 1190.05,-18.2569"/>
<polygon fill="midnightblue" stroke="midnightblue" points="1190.87,-21.6615 1199.97,-16.2328 1189.47,-14.8028 1190.87,-21.6615"/>
</g>
<!-- Node7&#45;&gt;Node6 -->
<g id="edge14" class="edge"><title>Node7&#45;&gt;Node6</title>
<path fill="none" stroke="midnightblue" d="M1009.53,-57.8367C1012.38,-57.1597 1015.24,-56.5297 1018,-56 1138.36,-32.8854 1283.09,-19.3816 1350.7,-13.8904"/>
<polygon fill="midnightblue" stroke="midnightblue" points="1351.18,-17.363 1360.87,-13.0776 1350.62,-10.3852 1351.18,-17.363"/>
</g>
<!-- Node9&#45;&gt;Node1 -->
<g id="edge17" class="edge"><title>Node9&#45;&gt;Node1</title>
<path fill="none" stroke="midnightblue" d="M817.787,-112.346C810.156,-97.7503 792.533,-68.603 768,-56 715.448,-29.0038 303.754,-15.5105 177.009,-11.9673"/>
<polygon fill="midnightblue" stroke="midnightblue" points="176.762,-8.45929 166.669,-11.6828 176.569,-15.4566 176.762,-8.45929"/>
</g>
<!-- Node9&#45;&gt;Node2 -->
<g id="edge18" class="edge"><title>Node9&#45;&gt;Node2</title>
<path fill="none" stroke="midnightblue" d="M828.113,-112.366C838.071,-98.8203 859.009,-72.4287 882,-56 903.888,-40.3599 932.075,-28.4381 953.269,-20.8072"/>
<polygon fill="midnightblue" stroke="midnightblue" points="954.465,-24.0972 962.76,-17.5069 952.165,-17.4856 954.465,-24.0972"/>
</g>
<!-- Node9&#45;&gt;Node4 -->
<g id="edge19" class="edge"><title>Node9&#45;&gt;Node4</title>
<path fill="none" stroke="midnightblue" d="M825.107,-112.408C829.771,-99.7959 839.096,-75.6394 849,-56 853.718,-46.6447 859.645,-36.6136 864.744,-28.4019"/>
<polygon fill="midnightblue" stroke="midnightblue" points="867.832,-30.0678 870.226,-19.7471 861.918,-26.322 867.832,-30.0678"/>
</g>
<!-- Node9&#45;&gt;Node7 -->
<g id="edge30" class="edge"><title>Node9&#45;&gt;Node7</title>
<path fill="none" stroke="midnightblue" d="M847.669,-112.444C874.923,-103.359 918.184,-88.9388 948.651,-78.7831"/>
<polygon fill="midnightblue" stroke="midnightblue" points="950.071,-81.9992 958.451,-75.5164 947.857,-75.3584 950.071,-81.9992"/>
</g>
<!-- Node9&#45;&gt;Node8 -->
<g id="edge29" class="edge"><title>Node9&#45;&gt;Node8</title>
<path fill="none" stroke="midnightblue" d="M866.525,-112.444C915.956,-102.944 995.746,-87.611 1048.78,-77.4198"/>
<polygon fill="midnightblue" stroke="midnightblue" points="1049.52,-80.8408 1058.68,-75.5164 1048.2,-73.9666 1049.52,-80.8408"/>
</g>
<!-- Node10 -->
<g id="node11" class="node"><title>Node10</title>
<polygon fill="white" stroke="#bfbfbf" points="647,-56.5 647,-75.5 695,-75.5 695,-56.5 647,-56.5"/>
<text text-anchor="middle" x="671" y="-63.5" font-family="Helvetica,sans-Serif" font-size="10.00">stdlib.h</text>
</g>
<!-- Node9&#45;&gt;Node10 -->
<g id="edge20" class="edge"><title>Node9&#45;&gt;Node10</title>
<path fill="none" stroke="midnightblue" d="M798.074,-112.444C772.781,-103.399 732.698,-89.064 704.32,-78.9158"/>
<polygon fill="midnightblue" stroke="midnightblue" points="705.409,-75.5882 694.814,-75.5164 703.052,-82.1794 705.409,-75.5882"/>
</g>
<!-- Node11 -->
<g id="node12" class="node"><title>Node11</title>
<polygon fill="white" stroke="#bfbfbf" points="713,-56.5 713,-75.5 759,-75.5 759,-56.5 713,-56.5"/>
<text text-anchor="middle" x="736" y="-63.5" font-family="Helvetica,sans-Serif" font-size="10.00">stdio.h</text>
</g>
<!-- Node9&#45;&gt;Node11 -->
<g id="edge21" class="edge"><title>Node9&#45;&gt;Node11</title>
<path fill="none" stroke="midnightblue" d="M808.183,-112.324C794.767,-103.9 774.176,-90.9709 758.414,-81.0741"/>
<polygon fill="midnightblue" stroke="midnightblue" points="760.113,-78.0081 749.783,-75.6545 756.391,-83.9364 760.113,-78.0081"/>
</g>
<!-- Node12 -->
<g id="node13" class="node"><title>Node12</title>
<polygon fill="white" stroke="#bfbfbf" points="891.5,-56.5 891.5,-75.5 940.5,-75.5 940.5,-56.5 891.5,-56.5"/>
<text text-anchor="middle" x="916" y="-63.5" font-family="Helvetica,sans-Serif" font-size="10.00">string.h</text>
</g>
<!-- Node9&#45;&gt;Node12 -->
<g id="edge22" class="edge"><title>Node9&#45;&gt;Node12</title>
<path fill="none" stroke="midnightblue" d="M837.103,-112.324C851.903,-103.822 874.694,-90.7288 891.982,-80.7975"/>
<polygon fill="midnightblue" stroke="midnightblue" points="894.007,-83.6707 900.935,-75.6545 890.52,-77.6009 894.007,-83.6707"/>
</g>
<!-- Node13 -->
<g id="node14" class="node"><title>Node13</title>
<polygon fill="white" stroke="#bfbfbf" points="244.5,-56.5 244.5,-75.5 291.5,-75.5 291.5,-56.5 244.5,-56.5"/>
<text text-anchor="middle" x="268" y="-63.5" font-family="Helvetica,sans-Serif" font-size="10.00">math.h</text>
</g>
<!-- Node9&#45;&gt;Node13 -->
<g id="edge23" class="edge"><title>Node9&#45;&gt;Node13</title>
<path fill="none" stroke="midnightblue" d="M764.761,-119.582C670.042,-116.468 474.743,-106.803 301.701,-76.0045"/>
<polygon fill="midnightblue" stroke="midnightblue" points="302.113,-72.5222 291.649,-74.1868 300.867,-79.4105 302.113,-72.5222"/>
</g>
<!-- Node14 -->
<g id="node15" class="node"><title>Node14</title>
<polygon fill="white" stroke="#bfbfbf" points="309.5,-56.5 309.5,-75.5 392.5,-75.5 392.5,-56.5 309.5,-56.5"/>
<text text-anchor="middle" x="351" y="-63.5" font-family="Helvetica,sans-Serif" font-size="10.00">cuda_runtime.h</text>
</g>
<!-- Node9&#45;&gt;Node14 -->
<g id="edge24" class="edge"><title>Node9&#45;&gt;Node14</title>
<path fill="none" stroke="midnightblue" d="M764.98,-116.21C685.872,-109.277 538.138,-95.2853 402.839,-76.1813"/>
<polygon fill="midnightblue" stroke="midnightblue" points="403.099,-72.6832 392.706,-74.7375 402.112,-79.6132 403.099,-72.6832"/>
</g>
<!-- Node15 -->
<g id="node16" class="node"><title>Node15</title>
<polygon fill="white" stroke="#bfbfbf" points="410.5,-56.5 410.5,-75.5 453.5,-75.5 453.5,-56.5 410.5,-56.5"/>
<text text-anchor="middle" x="432" y="-63.5" font-family="Helvetica,sans-Serif" font-size="10.00">cufft.h</text>
</g>
<!-- Node9&#45;&gt;Node15 -->
<g id="edge25" class="edge"><title>Node9&#45;&gt;Node15</title>
<path fill="none" stroke="midnightblue" d="M764.772,-116.816C695.435,-111.088 575.011,-99.0305 463.582,-76.0369"/>
<polygon fill="midnightblue" stroke="midnightblue" points="464.025,-72.5537 453.519,-73.925 462.587,-79.4044 464.025,-72.5537"/>
</g>
<!-- Node16 -->
<g id="node17" class="node"><title>Node16</title>
<polygon fill="white" stroke="#bfbfbf" points="471.5,-56.5 471.5,-75.5 522.5,-75.5 522.5,-56.5 471.5,-56.5"/>
<text text-anchor="middle" x="497" y="-63.5" font-family="Helvetica,sans-Serif" font-size="10.00">cufftXt.h</text>
</g>
<!-- Node9&#45;&gt;Node16 -->
<g id="edge26" class="edge"><title>Node9&#45;&gt;Node16</title>
<path fill="none" stroke="midnightblue" d="M764.752,-113.798C708.222,-106.308 619.138,-93.4931 532.546,-75.9286"/>
<polygon fill="midnightblue" stroke="midnightblue" points="533.047,-72.4585 522.547,-73.8767 531.639,-79.3156 533.047,-72.4585"/>
</g>
<!-- Node17 -->
<g id="node18" class="node"><title>Node17</title>
<g id="a_node18"><a xlink:href="_f_f_t_scale_type_8h.html" target="_top" xlink:title="FFTScaleType.h">
<polygon fill="white" stroke="black" points="541,-56.5 541,-75.5 629,-75.5 629,-56.5 541,-56.5"/>
<text text-anchor="middle" x="585" y="-63.5" font-family="Helvetica,sans-Serif" font-size="10.00">FFTScaleType.h</text>
</a>
</g>
</g>
<!-- Node9&#45;&gt;Node17 -->
<g id="edge27" class="edge"><title>Node9&#45;&gt;Node17</title>
<path fill="none" stroke="midnightblue" d="M784.447,-112.444C743.189,-103.043 676.856,-87.9291 632.134,-77.7393"/>
<polygon fill="midnightblue" stroke="midnightblue" points="632.905,-74.3255 622.378,-75.5164 631.35,-81.1506 632.905,-74.3255"/>
</g>
<!-- Node9&#45;&gt;Node18 -->
<g id="edge28" class="edge"><title>Node9&#45;&gt;Node18</title>
<path fill="none" stroke="midnightblue" d="M879.268,-114.367C949.15,-106.178 1071.18,-91.5699 1186.37,-76.0559"/>
<polygon fill="midnightblue" stroke="midnightblue" points="1186.99,-79.505 1196.43,-74.6972 1186.05,-72.568 1186.99,-79.505"/>
</g>
<!-- Node19&#45;&gt;Node1 -->
<g id="edge32" class="edge"><title>Node19&#45;&gt;Node1</title>
<path fill="none" stroke="midnightblue" d="M786.364,-169.01C783.199,-168.645 780.061,-168.305 777,-168 711.424,-161.476 237.946,-171.235 185,-132 152.384,-107.831 143.395,-57.2912 140.926,-29.7952"/>
<polygon fill="midnightblue" stroke="midnightblue" points="144.401,-29.3003 140.218,-19.5661 137.417,-29.784 144.401,-29.3003"/>
</g>
<!-- Node19&#45;&gt;Node2 -->
<g id="edge33" class="edge"><title>Node19&#45;&gt;Node2</title>
<path fill="none" stroke="midnightblue" d="M786.351,-169.135C783.189,-168.738 780.055,-168.356 777,-168 608.937,-148.392 563.386,-167.737 398,-132 319.871,-115.117 180.024,-114.024 235,-56 260.523,-29.0618 865.014,-23.0255 902,-20 918.816,-18.6244 937.522,-16.6088 952.815,-14.8336"/>
<polygon fill="midnightblue" stroke="midnightblue" points="953.274,-18.3039 962.793,-13.6539 952.452,-11.3524 953.274,-18.3039"/>
</g>
<!-- Node19&#45;&gt;Node4 -->
<g id="edge34" class="edge"><title>Node19&#45;&gt;Node4</title>
<path fill="none" stroke="midnightblue" d="M786.364,-169.017C783.199,-168.65 780.061,-168.307 777,-168 713.306,-161.606 245.828,-178.658 202,-132 178.874,-107.381 178.925,-80.6672 202,-56 246.721,-8.1941 726.149,-9.54759 847.974,-10.6746"/>
<polygon fill="midnightblue" stroke="midnightblue" points="848.279,-14.1777 858.314,-10.7779 848.349,-7.17804 848.279,-14.1777"/>
</g>
<!-- Node19&#45;&gt;Node9 -->
<g id="edge44" class="edge"><title>Node19&#45;&gt;Node9</title>
<path fill="none" stroke="midnightblue" d="M838.697,-168.083C836.018,-160.849 832.151,-150.409 828.814,-141.397"/>
<polygon fill="midnightblue" stroke="midnightblue" points="831.996,-139.913 825.241,-131.751 825.432,-142.344 831.996,-139.913"/>
</g>
<!-- Node19&#45;&gt;Node10 -->
<g id="edge35" class="edge"><title>Node19&#45;&gt;Node10</title>
<path fill="none" stroke="midnightblue" d="M817.451,-168.475C796.49,-160.621 766.013,-147.804 742,-132 720.528,-117.868 699.227,-97.2534 685.643,-83.0473"/>
<polygon fill="midnightblue" stroke="midnightblue" points="687.985,-80.427 678.594,-75.521 682.876,-85.2122 687.985,-80.427"/>
</g>
<!-- Node19&#45;&gt;Node11 -->
<g id="edge36" class="edge"><title>Node19&#45;&gt;Node11</title>
<path fill="none" stroke="midnightblue" d="M813.095,-168.377C794.351,-161.391 770.759,-149.752 756,-132 745.041,-118.819 740.079,-99.6817 737.838,-85.584"/>
<polygon fill="midnightblue" stroke="midnightblue" points="741.297,-85.0453 736.56,-75.5685 734.354,-85.931 741.297,-85.0453"/>
</g>
<!-- Node19&#45;&gt;Node12 -->
<g id="edge37" class="edge"><title>Node19&#45;&gt;Node12</title>
<path fill="none" stroke="midnightblue" d="M853.058,-168.343C863.213,-159.936 878.137,-146.369 888,-132 897.986,-117.452 905.58,-98.7712 910.323,-85.1724"/>
<polygon fill="midnightblue" stroke="midnightblue" points="913.694,-86.1253 913.506,-75.5321 907.047,-83.9301 913.694,-86.1253"/>
</g>
<!-- Node19&#45;&gt;Node13 -->
<g id="edge38" class="edge"><title>Node19&#45;&gt;Node13</title>
<path fill="none" stroke="midnightblue" d="M786.34,-169.226C783.181,-168.805 780.051,-168.394 777,-168 643.817,-150.79 608.326,-160.057 477,-132 413.281,-118.387 341.156,-93.849 300.472,-79.1283"/>
<polygon fill="midnightblue" stroke="midnightblue" points="301.424,-75.75 290.83,-75.6098 299.025,-82.3259 301.424,-75.75"/>
</g>
<!-- Node19&#45;&gt;Node14 -->
<g id="edge39" class="edge"><title>Node19&#45;&gt;Node14</title>
<path fill="none" stroke="midnightblue" d="M786.368,-169.102C706.909,-157.739 567.94,-137.537 545,-132 486.203,-117.808 419.79,-93.7372 381.908,-79.2087"/>
<polygon fill="midnightblue" stroke="midnightblue" points="383.052,-75.8982 372.462,-75.5563 380.527,-82.4271 383.052,-75.8982"/>
</g>
<!-- Node19&#45;&gt;Node15 -->
<g id="edge40" class="edge"><title>Node19&#45;&gt;Node15</title>
<path fill="none" stroke="midnightblue" d="M786.318,-169.017C738.317,-161.501 667.412,-148.877 607,-132 554.441,-117.317 495.315,-93.8293 460.998,-79.4711"/>
<polygon fill="midnightblue" stroke="midnightblue" points="462.165,-76.1648 451.59,-75.5033 459.444,-82.6146 462.165,-76.1648"/>
</g>
<!-- Node19&#45;&gt;Node16 -->
<g id="edge41" class="edge"><title>Node19&#45;&gt;Node16</title>
<path fill="none" stroke="midnightblue" d="M803.754,-168.486C768.061,-160.23 713.479,-146.809 667,-132 616.855,-116.023 559.999,-93.3211 526.391,-79.4081"/>
<polygon fill="midnightblue" stroke="midnightblue" points="527.724,-76.1719 517.147,-75.5597 525.033,-82.6342 527.724,-76.1719"/>
</g>
<!-- Node19&#45;&gt;Node17 -->
<g id="edge42" class="edge"><title>Node19&#45;&gt;Node17</title>
<path fill="none" stroke="midnightblue" d="M814.163,-168.484C787.757,-160.128 747.151,-146.55 713,-132 675.996,-116.235 634.779,-94.5149 609.366,-80.6133"/>
<polygon fill="midnightblue" stroke="midnightblue" points="610.89,-77.4567 600.442,-75.6969 607.512,-83.5879 610.89,-77.4567"/>
</g>
<!-- Node19&#45;&gt;Node18 -->
<g id="edge43" class="edge"><title>Node19&#45;&gt;Node18</title>
<path fill="none" stroke="midnightblue" d="M873.52,-168.46C946.15,-148.782 1125.27,-100.252 1206.61,-78.2128"/>
<polygon fill="midnightblue" stroke="midnightblue" points="1207.76,-81.5279 1216.5,-75.5345 1205.93,-74.7715 1207.76,-81.5279"/>
</g>
</g>
</svg>
        <g id="navigator" transform="translate(0 0)" fill="#404254">
                <rect fill="#f2f5e9" fill-opacity="0.5" stroke="#606060" stroke-width=".5" x="0" y="0" width="60" height="60"/>
                <use id="zoomplus" xlink:href="#zoomPlus" x="17" y="9" onmousedown="handleZoom(evt,'in')"/>
                <use id="zoomminus" xlink:href="#zoomMin" x="42" y="9" onmousedown="handleZoom(evt,'out')"/>
                <use id="reset" xlink:href="#resetDef" x="30" y="36" onmousedown="handleReset()"/>
                <g id="arrowUp" xlink:href="#dirArrow" transform="translate(30 24)" onmousedown="handlePan(0,-1)">
                  <use xlink:href="#rim" fill="#404040">
                        <set attributeName="fill" to="#808080" begin="arrowUp.mouseover" end="arrowUp.mouseout"/>
                  </use>
                  <path fill="none" stroke="white" stroke-width="1.5" d="M0,-3.0v7 M-2.5,-0.5L0,-3.0L2.5,-0.5"/>
                </g>
                <g id="arrowRight" xlink:href="#dirArrow" transform="rotate(90) translate(36 -43)" onmousedown="handlePan(1,0)">
                  <use xlink:href="#rim" fill="#404040">
                        <set attributeName="fill" to="#808080" begin="arrowRight.mouseover" end="arrowRight.mouseout"/>
                  </use>
                  <path fill="none" stroke="white" stroke-width="1.5" d="M0,-3.0v7 M-2.5,-0.5L0,-3.0L2.5,-0.5"/>
                </g>
                <g id="arrowDown" xlink:href="#dirArrow" transform="rotate(180) translate(-30 -48)" onmousedown="handlePan(0,1)">
                  <use xlink:href="#rim" fill="#404040">
                        <set attributeName="fill" to="#808080" begin="arrowDown.mouseover" end="arrowDown.mouseout"/>
                  </use>
                  <path fill="none" stroke="white" stroke-width="1.5" d="M0,-3.0v7 M-2.5,-0.5L0,-3.0L2.5,-0.5"/>
                </g>
                <g id="arrowLeft" xlink:href="#dirArrow" transform="rotate(270) translate(-36 17)" onmousedown="handlePan(-1,0)">
                  <use xlink:href="#rim" fill="#404040">
                        <set attributeName="fill" to="#808080" begin="arrowLeft.mouseover" end="arrowLeft.mouseout"/>
                  </use>
                  <path fill="none" stroke="white" stroke-width="1.5" d="M0,-3.0v7 M-2.5,-0.5L0,-3.0L2.5,-0.5"/>
                </g>
        </g>
        <svg viewBox="0 0 15 15" width="100%" height="30px" preserveAspectRatio="xMaxYMin meet">
         <g id="arrow_out" transform="scale(0.3 0.3)">
          <a xlink:href="_algorithm_f_f_t_cuda_8cuh__incl_org.svg" target="_base">
           <rect id="button" ry="5" rx="5" y="6" x="6" height="38" width="38"
                fill="#f2f5e9" fill-opacity="0.5" stroke="#606060" stroke-width="1.0"/>
           <path id="arrow"
             d="M 11.500037,31.436501 C 11.940474,20.09759 22.043105,11.32322 32.158766,21.979434 L 37.068811,17.246167 C 37.068811,17.246167 37.088388,32 37.088388,32 L 22.160133,31.978069 C 22.160133,31.978069 26.997745,27.140456 26.997745,27.140456 C 18.528582,18.264221 13.291696,25.230495 11.500037,31.436501 z"
             style="fill:#404040;"/>
          </a>
         </g>
        </svg>
</svg>
