<?xml version="1.0" encoding="UTF-8" standalone="no"?>
<!DOCTYPE svg PUBLIC "-//W3C//DTD SVG 1.1//EN"
 "http://www.w3.org/Graphics/SVG/1.1/DTD/svg11.dtd">
<!-- Generated by graphviz version 2.38.0 (20140413.2041)
 -->
<!-- Title: C:/Users/palav/Documents/Repos/HoloGen/HoloGenAlgCommonCuda/AlgorithmFFTCuda.cuh Pages: 1 -->
<svg width="190pt" height="128pt"
 viewBox="0.00 0.00 190.00 128.00" xmlns="http://www.w3.org/2000/svg" xmlns:xlink="http://www.w3.org/1999/xlink">
<g id="graph0" class="graph" transform="scale(1 1) rotate(0) translate(4 124)">
<title>C:/Users/palav/Documents/Repos/HoloGen/HoloGenAlgCommonCuda/AlgorithmFFTCuda.cuh</title>
<polygon fill="white" stroke="none" points="-4,4 -4,-124 186,-124 186,4 -4,4"/>
<!-- Node28 -->
<g id="node1" class="node"><title>Node28</title>
<polygon fill="#bfbfbf" stroke="black" points="0,-78.5 0,-119.5 182,-119.5 182,-78.5 0,-78.5"/>
<text text-anchor="start" x="8" y="-107.5" font-family="Helvetica,sans-Serif" font-size="10.00">C:/Users/palav/Documents</text>
<text text-anchor="start" x="8" y="-96.5" font-family="Helvetica,sans-Serif" font-size="10.00">/Repos/HoloGen/HoloGenAlgCommon</text>
<text text-anchor="middle" x="91" y="-85.5" font-family="Helvetica,sans-Serif" font-size="10.00">Cuda/AlgorithmFFTCuda.cuh</text>
</g>
<!-- Node29 -->
<g id="node2" class="node"><title>Node29</title>
<g id="a_node2"><a xlink:href="_algorithm_f_f_t_man_8h.html" target="_top" xlink:title="C:/Users/palav/Documents\l/Repos/HoloGen/HoloGenAlgCommon\lMan/AlgorithmFFTMan.h">
<polygon fill="white" stroke="black" points="0,-0.5 0,-41.5 182,-41.5 182,-0.5 0,-0.5"/>
<text text-anchor="start" x="8" y="-29.5" font-family="Helvetica,sans-Serif" font-size="10.00">C:/Users/palav/Documents</text>
<text text-anchor="start" x="8" y="-18.5" font-family="Helvetica,sans-Serif" font-size="10.00">/Repos/HoloGen/HoloGenAlgCommon</text>
<text text-anchor="middle" x="91" y="-7.5" font-family="Helvetica,sans-Serif" font-size="10.00">Man/AlgorithmFFTMan.h</text>
</a>
</g>
</g>
<!-- Node28&#45;&gt;Node29 -->
<g id="edge1" class="edge"><title>Node28&#45;&gt;Node29</title>
<path fill="none" stroke="midnightblue" d="M91,-68.2965C91,-59.3009 91,-49.6532 91,-41.5056"/>
<polygon fill="midnightblue" stroke="midnightblue" points="87.5001,-68.4281 91,-78.4281 94.5001,-68.4281 87.5001,-68.4281"/>
</g>
</g>
</svg>
