<?xml version="1.0" encoding="UTF-8" standalone="no"?>
<!DOCTYPE svg PUBLIC "-//W3C//DTD SVG 1.1//EN"
 "http://www.w3.org/Graphics/SVG/1.1/DTD/svg11.dtd">
<!-- Generated by graphviz version 2.38.0 (20140413.2041)
 -->
<!-- Title: C:/Users/palav/Documents/Repos/HoloGen/HoloGenAlgBaseMan/AlgorithmMan.h Pages: 1 -->
<svg width="2034pt" height="341pt"
 viewBox="0.00 0.00 2033.50 341.00" xmlns="http://www.w3.org/2000/svg" xmlns:xlink="http://www.w3.org/1999/xlink">
<g id="graph0" class="graph" transform="scale(1 1) rotate(0) translate(4 337)">
<title>C:/Users/palav/Documents/Repos/HoloGen/HoloGenAlgBaseMan/AlgorithmMan.h</title>
<polygon fill="white" stroke="none" points="-4,4 -4,-337 2029.5,-337 2029.5,4 -4,4"/>
<!-- Node0 -->
<g id="node1" class="node"><title>Node0</title>
<polygon fill="#bfbfbf" stroke="black" points="1479,-291.5 1479,-332.5 1663,-332.5 1663,-291.5 1479,-291.5"/>
<text text-anchor="start" x="1487" y="-320.5" font-family="Helvetica,sans-Serif" font-size="10.00">C:/Users/palav/Documents</text>
<text text-anchor="start" x="1487" y="-309.5" font-family="Helvetica,sans-Serif" font-size="10.00">/Repos/HoloGen/HoloGenAlgBaseMan</text>
<text text-anchor="middle" x="1571" y="-298.5" font-family="Helvetica,sans-Serif" font-size="10.00">/AlgorithmMan.h</text>
</g>
<!-- Node1 -->
<g id="node2" class="node"><title>Node1</title>
<polygon fill="white" stroke="#bfbfbf" points="87.5,-0.5 87.5,-19.5 140.5,-19.5 140.5,-0.5 87.5,-0.5"/>
<text text-anchor="middle" x="114" y="-7.5" font-family="Helvetica,sans-Serif" font-size="10.00">complex</text>
</g>
<!-- Node0&#45;&gt;Node1 -->
<g id="edge1" class="edge"><title>Node0&#45;&gt;Node1</title>
<path fill="none" stroke="midnightblue" d="M1478.9,-310.508C1216.55,-308.574 468.709,-299.228 228,-255 122.944,-235.697 0,-285.815 0,-179 0,-179 0,-179 0,-121 0,-74.1149 50.5515,-40.8944 84.3292,-23.9302"/>
<polygon fill="midnightblue" stroke="midnightblue" points="85.8676,-27.0742 93.3555,-19.5787 82.8277,-20.7687 85.8676,-27.0742"/>
</g>
<!-- Node2 -->
<g id="node3" class="node"><title>Node2</title>
<polygon fill="white" stroke="#bfbfbf" points="207,-0.5 207,-19.5 249,-19.5 249,-0.5 207,-0.5"/>
<text text-anchor="middle" x="228" y="-7.5" font-family="Helvetica,sans-Serif" font-size="10.00">vector</text>
</g>
<!-- Node0&#45;&gt;Node2 -->
<g id="edge2" class="edge"><title>Node0&#45;&gt;Node2</title>
<path fill="none" stroke="midnightblue" d="M1478.89,-307.717C1153.29,-295.511 76,-249.778 76,-179 76,-179 76,-179 76,-121 76,-61.7684 152.687,-31.1835 197.12,-18.4336"/>
<polygon fill="midnightblue" stroke="midnightblue" points="198.14,-21.7834 206.865,-15.7736 196.296,-15.0305 198.14,-21.7834"/>
</g>
<!-- Node3 -->
<g id="node4" class="node"><title>Node3</title>
<polygon fill="white" stroke="#bfbfbf" points="1085.5,-0.5 1085.5,-19.5 1120.5,-19.5 1120.5,-0.5 1085.5,-0.5"/>
<text text-anchor="middle" x="1103" y="-7.5" font-family="Helvetica,sans-Serif" font-size="10.00">map</text>
</g>
<!-- Node0&#45;&gt;Node3 -->
<g id="edge3" class="edge"><title>Node0&#45;&gt;Node3</title>
<path fill="none" stroke="midnightblue" d="M1478.54,-311.278C1199.31,-309.765 375.944,-287.212 247,-76 242.368,-68.4132 240.882,-62.4483 247,-56 276.169,-25.2576 931.311,-13.594 1075.22,-11.3984"/>
<polygon fill="midnightblue" stroke="midnightblue" points="1075.46,-14.8953 1085.4,-11.2459 1075.35,-7.89605 1075.46,-14.8953"/>
</g>
<!-- Node4 -->
<g id="node5" class="node"><title>Node4</title>
<polygon fill="white" stroke="#bfbfbf" points="1393,-0.5 1393,-19.5 1445,-19.5 1445,-0.5 1393,-0.5"/>
<text text-anchor="middle" x="1419" y="-7.5" font-family="Helvetica,sans-Serif" font-size="10.00">memory</text>
</g>
<!-- Node0&#45;&gt;Node4 -->
<g id="edge4" class="edge"><title>Node0&#45;&gt;Node4</title>
<path fill="none" stroke="midnightblue" d="M1578.95,-291.409C1582.82,-280.822 1587.05,-267.409 1589,-255 1595.1,-216.077 1592.04,-201.921 1572,-168 1535.9,-106.898 1471.22,-51.511 1438.74,-25.9317"/>
<polygon fill="midnightblue" stroke="midnightblue" points="1440.53,-22.8918 1430.49,-19.5275 1436.24,-28.4226 1440.53,-22.8918"/>
</g>
<!-- Node5 -->
<g id="node6" class="node"><title>Node5</title>
<polygon fill="white" stroke="#bfbfbf" points="1543,-0.5 1543,-19.5 1599,-19.5 1599,-0.5 1543,-0.5"/>
<text text-anchor="middle" x="1571" y="-7.5" font-family="Helvetica,sans-Serif" font-size="10.00">algorithm</text>
</g>
<!-- Node0&#45;&gt;Node5 -->
<g id="edge5" class="edge"><title>Node0&#45;&gt;Node5</title>
<path fill="none" stroke="midnightblue" d="M1593.44,-291.265C1603.66,-281.266 1615.19,-268.416 1623,-255 1640.82,-224.386 1647,-214.422 1647,-179 1647,-179 1647,-179 1647,-121 1647,-81.2757 1613.04,-45.5045 1590.52,-26.1536"/>
<polygon fill="midnightblue" stroke="midnightblue" points="1592.48,-23.2364 1582.54,-19.5672 1588.02,-28.6337 1592.48,-23.2364"/>
</g>
<!-- Node6 -->
<g id="node7" class="node"><title>Node6</title>
<g id="a_node7"><a xlink:href="_algorithm_cuda_8cuh.html" target="_top" xlink:title="../HoloGenAlgBaseCuda\l/AlgorithmCuda.cuh">
<polygon fill="white" stroke="black" points="882,-224.5 882,-254.5 1004,-254.5 1004,-224.5 882,-224.5"/>
<text text-anchor="start" x="890" y="-242.5" font-family="Helvetica,sans-Serif" font-size="10.00">../HoloGenAlgBaseCuda</text>
<text text-anchor="middle" x="943" y="-231.5" font-family="Helvetica,sans-Serif" font-size="10.00">/AlgorithmCuda.cuh</text>
</a>
</g>
</g>
<!-- Node0&#45;&gt;Node6 -->
<g id="edge6" class="edge"><title>Node0&#45;&gt;Node6</title>
<path fill="none" stroke="midnightblue" d="M1478.67,-300.635C1352.42,-286.461 1128.56,-261.332 1014.35,-248.51"/>
<polygon fill="midnightblue" stroke="midnightblue" points="1014.64,-245.02 1004.31,-247.383 1013.86,-251.977 1014.64,-245.02"/>
</g>
<!-- Node8 -->
<g id="node9" class="node"><title>Node8</title>
<g id="a_node9"><a xlink:href="_s_l_m_modulation_scheme_cuda_8h.html" target="_top" xlink:title="SLMModulationSchemeCuda.h">
<polygon fill="white" stroke="black" points="1239.5,-56.5 1239.5,-75.5 1390.5,-75.5 1390.5,-56.5 1239.5,-56.5"/>
<text text-anchor="middle" x="1315" y="-63.5" font-family="Helvetica,sans-Serif" font-size="10.00">SLMModulationSchemeCuda.h</text>
</a>
</g>
</g>
<!-- Node0&#45;&gt;Node8 -->
<g id="edge56" class="edge"><title>Node0&#45;&gt;Node8</title>
<path fill="none" stroke="midnightblue" d="M1574.07,-291.158C1577.55,-261.255 1579.59,-204.286 1552,-168 1511.99,-115.375 1439.18,-89.8494 1384.78,-77.6733"/>
<polygon fill="midnightblue" stroke="midnightblue" points="1385.36,-74.2181 1374.85,-75.5515 1383.9,-81.0636 1385.36,-74.2181"/>
</g>
<!-- Node20 -->
<g id="node21" class="node"><title>Node20</title>
<polygon fill="white" stroke="#bfbfbf" points="1485,-168.5 1485,-187.5 1543,-187.5 1543,-168.5 1485,-168.5"/>
<text text-anchor="middle" x="1514" y="-175.5" font-family="Helvetica,sans-Serif" font-size="10.00">functional</text>
</g>
<!-- Node0&#45;&gt;Node20 -->
<g id="edge60" class="edge"><title>Node0&#45;&gt;Node20</title>
<path fill="none" stroke="midnightblue" d="M1562.47,-291.238C1551.43,-265.688 1532.38,-221.56 1521.74,-196.934"/>
<polygon fill="midnightblue" stroke="midnightblue" points="1524.93,-195.479 1517.75,-187.686 1518.5,-198.254 1524.93,-195.479"/>
</g>
<!-- Node28 -->
<g id="node29" class="node"><title>Node28</title>
<g id="a_node29"><a xlink:href="_s_l_m_modulation_scheme_8h.html" target="_top" xlink:title="SLMModulationScheme.h">
<polygon fill="white" stroke="black" points="1675,-230 1675,-249 1803,-249 1803,-230 1675,-230"/>
<text text-anchor="middle" x="1739" y="-237" font-family="Helvetica,sans-Serif" font-size="10.00">SLMModulationScheme.h</text>
</a>
</g>
</g>
<!-- Node0&#45;&gt;Node28 -->
<g id="edge57" class="edge"><title>Node0&#45;&gt;Node28</title>
<path fill="none" stroke="midnightblue" d="M1617.8,-291.362C1646.94,-279.133 1683.57,-263.762 1708.89,-253.136"/>
<polygon fill="midnightblue" stroke="midnightblue" points="1710.46,-256.27 1718.33,-249.173 1707.76,-249.816 1710.46,-256.27"/>
</g>
<!-- Node29 -->
<g id="node30" class="node"><title>Node29</title>
<g id="a_node30"><a xlink:href="_illumination_type_8h.html" target="_top" xlink:title="IlluminationType.h">
<polygon fill="white" stroke="black" points="1821.5,-230 1821.5,-249 1916.5,-249 1916.5,-230 1821.5,-230"/>
<text text-anchor="middle" x="1869" y="-237" font-family="Helvetica,sans-Serif" font-size="10.00">IlluminationType.h</text>
</a>
</g>
</g>
<!-- Node0&#45;&gt;Node29 -->
<g id="edge58" class="edge"><title>Node0&#45;&gt;Node29</title>
<path fill="none" stroke="midnightblue" d="M1656.99,-291.476C1703.02,-280.908 1760.66,-267.493 1812,-255 1816.59,-253.882 1821.39,-252.694 1826.17,-251.497"/>
<polygon fill="midnightblue" stroke="midnightblue" points="1827.03,-254.889 1835.87,-249.051 1825.32,-248.102 1827.03,-254.889"/>
</g>
<!-- Node30 -->
<g id="node31" class="node"><title>Node30</title>
<g id="a_node31"><a xlink:href="_initial_seed_type_8h.html" target="_top" xlink:title="InitialSeedType.h">
<polygon fill="white" stroke="black" points="1934.5,-230 1934.5,-249 2025.5,-249 2025.5,-230 1934.5,-230"/>
<text text-anchor="middle" x="1980" y="-237" font-family="Helvetica,sans-Serif" font-size="10.00">InitialSeedType.h</text>
</a>
</g>
</g>
<!-- Node0&#45;&gt;Node30 -->
<g id="edge59" class="edge"><title>Node0&#45;&gt;Node30</title>
<path fill="none" stroke="midnightblue" d="M1663.15,-299.02C1734.87,-289.071 1836.71,-273.572 1925,-255 1929.82,-253.986 1934.85,-252.817 1939.82,-251.592"/>
<polygon fill="midnightblue" stroke="midnightblue" points="1941.05,-254.892 1949.87,-249.029 1939.32,-248.109 1941.05,-254.892"/>
</g>
<!-- Node6&#45;&gt;Node1 -->
<g id="edge7" class="edge"><title>Node6&#45;&gt;Node1</title>
<path fill="none" stroke="midnightblue" d="M881.573,-236.441C751.491,-231.559 452.208,-217.42 355,-188 263.005,-160.158 241.841,-139.853 170,-76 153.378,-61.2267 137.098,-41.5774 126.413,-27.764"/>
<polygon fill="midnightblue" stroke="midnightblue" points="129.084,-25.4932 120.253,-19.6393 123.506,-29.7224 129.084,-25.4932"/>
</g>
<!-- Node6&#45;&gt;Node2 -->
<g id="edge8" class="edge"><title>Node6&#45;&gt;Node2</title>
<path fill="none" stroke="midnightblue" d="M881.833,-236.87C790.137,-233.345 612.093,-222.305 465,-188 352.714,-161.813 287.173,-176.69 231,-76 223.174,-61.9727 223.116,-43.4755 224.611,-29.8011"/>
<polygon fill="midnightblue" stroke="midnightblue" points="228.112,-30.0543 226.096,-19.6529 221.185,-29.0409 228.112,-30.0543"/>
</g>
<!-- Node6&#45;&gt;Node3 -->
<g id="edge9" class="edge"><title>Node6&#45;&gt;Node3</title>
<path fill="none" stroke="midnightblue" d="M949.588,-224.308C957.292,-208.914 971.279,-184.355 989,-168 1027.29,-132.661 1044.49,-133.407 1092,-112 1134.68,-92.7648 1164.14,-114.348 1191,-76 1209.88,-49.0475 1162.9,-28.8055 1130.56,-18.5356"/>
<polygon fill="midnightblue" stroke="midnightblue" points="1131.26,-15.0911 1120.67,-15.5557 1129.24,-21.7932 1131.26,-15.0911"/>
</g>
<!-- Node6&#45;&gt;Node4 -->
<g id="edge10" class="edge"><title>Node6&#45;&gt;Node4</title>
<path fill="none" stroke="midnightblue" d="M1004.25,-235.938C1122.39,-230.396 1372.56,-215.524 1400,-188 1442.33,-145.537 1431.41,-65.7817 1423.64,-29.6429"/>
<polygon fill="midnightblue" stroke="midnightblue" points="1426.97,-28.4962 1421.3,-19.5448 1420.15,-30.0768 1426.97,-28.4962"/>
</g>
<!-- Node6&#45;&gt;Node5 -->
<g id="edge11" class="edge"><title>Node6&#45;&gt;Node5</title>
<path fill="none" stroke="midnightblue" d="M1004.11,-237.677C1116.5,-235.252 1351,-225.691 1422,-188 1492.05,-150.812 1542.67,-65.7043 1562.17,-28.7118"/>
<polygon fill="midnightblue" stroke="midnightblue" points="1565.38,-30.1279 1566.84,-19.6337 1559.15,-26.9289 1565.38,-30.1279"/>
</g>
<!-- Node7 -->
<g id="node8" class="node"><title>Node7</title>
<g id="a_node8"><a xlink:href="_image_8h.html" target="_top" xlink:title="Image.h">
<polygon fill="white" stroke="black" points="1131.5,-56.5 1131.5,-75.5 1182.5,-75.5 1182.5,-56.5 1131.5,-56.5"/>
<text text-anchor="middle" x="1157" y="-63.5" font-family="Helvetica,sans-Serif" font-size="10.00">Image.h</text>
</a>
</g>
</g>
<!-- Node6&#45;&gt;Node7 -->
<g id="edge12" class="edge"><title>Node6&#45;&gt;Node7</title>
<path fill="none" stroke="midnightblue" d="M940.254,-224.286C938.121,-209.096 937.11,-184.922 948,-168 962.099,-146.091 1027.54,-123.326 1051,-112 1075.71,-100.07 1104.4,-87.9967 1125.69,-79.363"/>
<polygon fill="midnightblue" stroke="midnightblue" points="1127.24,-82.5141 1135.21,-75.5341 1124.62,-76.0202 1127.24,-82.5141"/>
</g>
<!-- Node6&#45;&gt;Node8 -->
<g id="edge18" class="edge"><title>Node6&#45;&gt;Node8</title>
<path fill="none" stroke="midnightblue" d="M954.814,-224.449C968.716,-208.716 993.196,-183.41 1019,-168 1097.82,-120.927 1201.65,-91.975 1263.07,-77.7425"/>
<polygon fill="midnightblue" stroke="midnightblue" points="1263.95,-81.1327 1272.92,-75.5018 1262.39,-74.307 1263.95,-81.1327"/>
</g>
<!-- Node9 -->
<g id="node10" class="node"><title>Node9</title>
<g id="a_node10"><a xlink:href="_abstract_quantiser_8cuh.html" target="_top" xlink:title="AbstractQuantiser.cuh">
<polygon fill="white" stroke="black" points="733,-112.5 733,-131.5 847,-131.5 847,-112.5 733,-112.5"/>
<text text-anchor="middle" x="790" y="-119.5" font-family="Helvetica,sans-Serif" font-size="10.00">AbstractQuantiser.cuh</text>
</a>
</g>
</g>
<!-- Node6&#45;&gt;Node9 -->
<g id="edge19" class="edge"><title>Node6&#45;&gt;Node9</title>
<path fill="none" stroke="midnightblue" d="M926.568,-224.239C909.532,-209.644 881.949,-186.539 857,-168 842.379,-157.135 825.33,-145.701 812.089,-137.077"/>
<polygon fill="midnightblue" stroke="midnightblue" points="813.906,-134.084 803.608,-131.597 810.108,-139.964 813.906,-134.084"/>
</g>
<!-- Node19 -->
<g id="node20" class="node"><title>Node19</title>
<g id="a_node20"><a xlink:href="_quantiser_nearest_8cuh.html" target="_top" xlink:title="QuantiserNearest.cuh">
<polygon fill="white" stroke="black" points="737.5,-168.5 737.5,-187.5 848.5,-187.5 848.5,-168.5 737.5,-168.5"/>
<text text-anchor="middle" x="793" y="-175.5" font-family="Helvetica,sans-Serif" font-size="10.00">QuantiserNearest.cuh</text>
</a>
</g>
</g>
<!-- Node6&#45;&gt;Node19 -->
<g id="edge34" class="edge"><title>Node6&#45;&gt;Node19</title>
<path fill="none" stroke="midnightblue" d="M907.452,-224.399C882.172,-214.372 848.533,-201.028 824.273,-191.405"/>
<polygon fill="midnightblue" stroke="midnightblue" points="825.412,-188.092 814.826,-187.658 822.831,-194.598 825.412,-188.092"/>
</g>
<!-- Node6&#45;&gt;Node20 -->
<g id="edge48" class="edge"><title>Node6&#45;&gt;Node20</title>
<path fill="none" stroke="midnightblue" d="M1004.25,-234.857C1102.92,-228.491 1303.03,-213.53 1471,-188 1472.27,-187.807 1473.56,-187.6 1474.87,-187.382"/>
<polygon fill="midnightblue" stroke="midnightblue" points="1475.73,-190.782 1484.94,-185.539 1474.47,-183.896 1475.73,-190.782"/>
</g>
<!-- Node21 -->
<g id="node22" class="node"><title>Node21</title>
<g id="a_node22"><a xlink:href="_illumination_type_cuda_8h.html" target="_top" xlink:title="IlluminationTypeCuda.h">
<polygon fill="white" stroke="black" points="1028.5,-168.5 1028.5,-187.5 1145.5,-187.5 1145.5,-168.5 1028.5,-168.5"/>
<text text-anchor="middle" x="1087" y="-175.5" font-family="Helvetica,sans-Serif" font-size="10.00">IlluminationTypeCuda.h</text>
</a>
</g>
</g>
<!-- Node6&#45;&gt;Node21 -->
<g id="edge49" class="edge"><title>Node6&#45;&gt;Node21</title>
<path fill="none" stroke="midnightblue" d="M977.126,-224.399C1001.29,-214.416 1033.4,-201.147 1056.67,-191.534"/>
<polygon fill="midnightblue" stroke="midnightblue" points="1058.14,-194.711 1066.05,-187.658 1055.47,-188.242 1058.14,-194.711"/>
</g>
<!-- Node22 -->
<g id="node23" class="node"><title>Node22</title>
<g id="a_node23"><a xlink:href="_initial_seed_type_cuda_8h.html" target="_top" xlink:title="InitialSeedTypeCuda.h">
<polygon fill="white" stroke="black" points="1163.5,-168.5 1163.5,-187.5 1276.5,-187.5 1276.5,-168.5 1163.5,-168.5"/>
<text text-anchor="middle" x="1220" y="-175.5" font-family="Helvetica,sans-Serif" font-size="10.00">InitialSeedTypeCuda.h</text>
</a>
</g>
</g>
<!-- Node6&#45;&gt;Node22 -->
<g id="edge50" class="edge"><title>Node6&#45;&gt;Node22</title>
<path fill="none" stroke="midnightblue" d="M1004.13,-225.369C1054.15,-214.624 1124,-199.621 1170.55,-189.622"/>
<polygon fill="midnightblue" stroke="midnightblue" points="1171.36,-193.028 1180.4,-187.506 1169.89,-186.184 1171.36,-193.028"/>
</g>
<!-- Node23 -->
<g id="node24" class="node"><title>Node23</title>
<g id="a_node24"><a xlink:href="_logging_callback_8h.html" target="_top" xlink:title="LoggingCallback.h">
<polygon fill="white" stroke="black" points="1295,-168.5 1295,-187.5 1391,-187.5 1391,-168.5 1295,-168.5"/>
<text text-anchor="middle" x="1343" y="-175.5" font-family="Helvetica,sans-Serif" font-size="10.00">LoggingCallback.h</text>
</a>
</g>
</g>
<!-- Node6&#45;&gt;Node23 -->
<g id="edge51" class="edge"><title>Node6&#45;&gt;Node23</title>
<path fill="none" stroke="midnightblue" d="M1004.18,-229.604C1072.63,-219.62 1186.79,-202.871 1285,-188 1285.1,-187.985 1285.2,-187.969 1285.3,-187.954"/>
<polygon fill="midnightblue" stroke="midnightblue" points="1285.54,-191.459 1294.9,-186.492 1284.48,-184.539 1285.54,-191.459"/>
</g>
<!-- Node24 -->
<g id="node25" class="node"><title>Node24</title>
<polygon fill="white" stroke="#bfbfbf" points="474,-168.5 474,-187.5 520,-187.5 520,-168.5 474,-168.5"/>
<text text-anchor="middle" x="497" y="-175.5" font-family="Helvetica,sans-Serif" font-size="10.00">chrono</text>
</g>
<!-- Node6&#45;&gt;Node24 -->
<g id="edge52" class="edge"><title>Node6&#45;&gt;Node24</title>
<path fill="none" stroke="midnightblue" d="M881.855,-233.981C802.724,-227.482 660.518,-213.591 530.458,-188.025"/>
<polygon fill="midnightblue" stroke="midnightblue" points="530.81,-184.526 520.319,-186.003 529.441,-191.391 530.81,-184.526"/>
</g>
<!-- Node25 -->
<g id="node26" class="node"><title>Node25</title>
<polygon fill="white" stroke="#bfbfbf" points="538.5,-168.5 538.5,-187.5 579.5,-187.5 579.5,-168.5 538.5,-168.5"/>
<text text-anchor="middle" x="559" y="-175.5" font-family="Helvetica,sans-Serif" font-size="10.00">ctime</text>
</g>
<!-- Node6&#45;&gt;Node25 -->
<g id="edge53" class="edge"><title>Node6&#45;&gt;Node25</title>
<path fill="none" stroke="midnightblue" d="M881.742,-232.578C812.845,-225.289 697.557,-211.202 589.329,-187.756"/>
<polygon fill="midnightblue" stroke="midnightblue" points="590.068,-184.335 579.55,-185.607 588.566,-191.172 590.068,-184.335"/>
</g>
<!-- Node26 -->
<g id="node27" class="node"><title>Node26</title>
<polygon fill="white" stroke="#bfbfbf" points="598,-168.5 598,-187.5 652,-187.5 652,-168.5 598,-168.5"/>
<text text-anchor="middle" x="625" y="-175.5" font-family="Helvetica,sans-Serif" font-size="10.00">iostream</text>
</g>
<!-- Node6&#45;&gt;Node26 -->
<g id="edge54" class="edge"><title>Node6&#45;&gt;Node26</title>
<path fill="none" stroke="midnightblue" d="M881.982,-228.8C826.944,-219.772 743.571,-205.408 662.016,-188.104"/>
<polygon fill="midnightblue" stroke="midnightblue" points="662.592,-184.648 652.081,-185.979 661.128,-191.493 662.592,-184.648"/>
</g>
<!-- Node27 -->
<g id="node28" class="node"><title>Node27</title>
<polygon fill="white" stroke="#bfbfbf" points="670.5,-168.5 670.5,-187.5 719.5,-187.5 719.5,-168.5 670.5,-168.5"/>
<text text-anchor="middle" x="695" y="-175.5" font-family="Helvetica,sans-Serif" font-size="10.00">fstream</text>
</g>
<!-- Node6&#45;&gt;Node27 -->
<g id="edge55" class="edge"><title>Node6&#45;&gt;Node27</title>
<path fill="none" stroke="midnightblue" d="M881.694,-224.71C840.961,-215.407 786.059,-202.6 729.645,-188.362"/>
<polygon fill="midnightblue" stroke="midnightblue" points="730.395,-184.941 719.841,-185.876 728.675,-191.726 730.395,-184.941"/>
</g>
<!-- Node7&#45;&gt;Node1 -->
<g id="edge13" class="edge"><title>Node7&#45;&gt;Node1</title>
<path fill="none" stroke="midnightblue" d="M1131.37,-61.3681C1117.15,-59.4828 1099.12,-57.3064 1083,-56 690.627,-24.2107 590.59,-48.9847 198,-20 182.581,-18.8616 165.618,-17.1347 150.996,-15.497"/>
<polygon fill="midnightblue" stroke="midnightblue" points="151.152,-11.9921 140.818,-14.33 150.355,-18.9465 151.152,-11.9921"/>
</g>
<!-- Node7&#45;&gt;Node2 -->
<g id="edge14" class="edge"><title>Node7&#45;&gt;Node2</title>
<path fill="none" stroke="midnightblue" d="M1131.36,-61.4436C1117.14,-59.5812 1099.12,-57.4025 1083,-56 761.983,-28.0639 371.544,-15.1722 259.449,-11.8779"/>
<polygon fill="midnightblue" stroke="midnightblue" points="259.287,-8.37178 249.19,-11.5805 259.084,-15.3688 259.287,-8.37178"/>
</g>
<!-- Node7&#45;&gt;Node3 -->
<g id="edge15" class="edge"><title>Node7&#45;&gt;Node3</title>
<path fill="none" stroke="midnightblue" d="M1148.08,-56.083C1140.22,-48.2195 1128.57,-36.5688 1119.08,-27.0813"/>
<polygon fill="midnightblue" stroke="midnightblue" points="1121.3,-24.3473 1111.75,-19.7511 1116.35,-29.2971 1121.3,-24.3473"/>
</g>
<!-- Node7&#45;&gt;Node4 -->
<g id="edge16" class="edge"><title>Node7&#45;&gt;Node4</title>
<path fill="none" stroke="midnightblue" d="M1182.6,-59.7239C1229.44,-50.0705 1329.04,-29.5408 1382.8,-18.4613"/>
<polygon fill="midnightblue" stroke="midnightblue" points="1383.82,-21.8241 1392.91,-16.3775 1382.41,-14.9682 1383.82,-21.8241"/>
</g>
<!-- Node7&#45;&gt;Node5 -->
<g id="edge17" class="edge"><title>Node7&#45;&gt;Node5</title>
<path fill="none" stroke="midnightblue" d="M1182.59,-61.6628C1252.91,-52.4894 1449.46,-26.8533 1532.83,-15.9784"/>
<polygon fill="midnightblue" stroke="midnightblue" points="1533.43,-19.4306 1542.89,-14.6665 1532.52,-12.4894 1533.43,-19.4306"/>
</g>
<!-- Node9&#45;&gt;Node1 -->
<g id="edge20" class="edge"><title>Node9&#45;&gt;Node1</title>
<path fill="none" stroke="midnightblue" d="M785.916,-112.337C778.504,-97.7279 761.322,-68.5609 737,-56 630.34,-0.915648 317.594,-30.3964 198,-20 182.597,-18.661 165.637,-16.8987 151.013,-15.2888"/>
<polygon fill="midnightblue" stroke="midnightblue" points="151.16,-11.7835 140.833,-14.1517 150.382,-18.7402 151.16,-11.7835"/>
</g>
<!-- Node9&#45;&gt;Node2 -->
<g id="edge21" class="edge"><title>Node9&#45;&gt;Node2</title>
<path fill="none" stroke="midnightblue" d="M790.315,-112.18C790.295,-97.875 787.941,-69.8276 771,-56 731.24,-23.5475 368.652,-13.7776 259.164,-11.5549"/>
<polygon fill="midnightblue" stroke="midnightblue" points="259.156,-8.05422 249.089,-11.3574 259.019,-15.0529 259.156,-8.05422"/>
</g>
<!-- Node9&#45;&gt;Node3 -->
<g id="edge22" class="edge"><title>Node9&#45;&gt;Node3</title>
<path fill="none" stroke="midnightblue" d="M795.641,-112.158C805.298,-97.8235 826.45,-69.7334 852,-56 925.594,-16.4423 1027.09,-10.7528 1075.36,-10.4942"/>
<polygon fill="midnightblue" stroke="midnightblue" points="1075.35,-13.9941 1085.36,-10.5165 1075.37,-6.99415 1075.35,-13.9941"/>
</g>
<!-- Node9&#45;&gt;Node7 -->
<g id="edge33" class="edge"><title>Node9&#45;&gt;Node7</title>
<path fill="none" stroke="midnightblue" d="M847.344,-112.563C924.113,-101.267 1057.98,-81.5698 1121.54,-72.2169"/>
<polygon fill="midnightblue" stroke="midnightblue" points="1122.1,-75.6728 1131.48,-70.7543 1121.08,-68.7474 1122.1,-75.6728"/>
</g>
<!-- Node9&#45;&gt;Node8 -->
<g id="edge32" class="edge"><title>Node9&#45;&gt;Node8</title>
<path fill="none" stroke="midnightblue" d="M847.184,-115.118C939.352,-105.638 1121.3,-86.9231 1229.12,-75.8337"/>
<polygon fill="midnightblue" stroke="midnightblue" points="1229.72,-79.2898 1239.31,-74.7849 1229.01,-72.3266 1229.72,-79.2898"/>
</g>
<!-- Node10 -->
<g id="node11" class="node"><title>Node10</title>
<polygon fill="white" stroke="#bfbfbf" points="484,-56.5 484,-75.5 532,-75.5 532,-56.5 484,-56.5"/>
<text text-anchor="middle" x="508" y="-63.5" font-family="Helvetica,sans-Serif" font-size="10.00">stdlib.h</text>
</g>
<!-- Node9&#45;&gt;Node10 -->
<g id="edge23" class="edge"><title>Node9&#45;&gt;Node10</title>
<path fill="none" stroke="midnightblue" d="M734.829,-112.451C686.461,-104.635 614.061,-92.1622 542.22,-76.1186"/>
<polygon fill="midnightblue" stroke="midnightblue" points="542.615,-72.6197 532.09,-73.8312 541.073,-79.4478 542.615,-72.6197"/>
</g>
<!-- Node11 -->
<g id="node12" class="node"><title>Node11</title>
<polygon fill="white" stroke="#bfbfbf" points="550,-56.5 550,-75.5 596,-75.5 596,-56.5 550,-56.5"/>
<text text-anchor="middle" x="573" y="-63.5" font-family="Helvetica,sans-Serif" font-size="10.00">stdio.h</text>
</g>
<!-- Node9&#45;&gt;Node11 -->
<g id="edge24" class="edge"><title>Node9&#45;&gt;Node11</title>
<path fill="none" stroke="midnightblue" d="M753.047,-112.42C717.681,-104.117 662.598,-90.9512 605.898,-76.1683"/>
<polygon fill="midnightblue" stroke="midnightblue" points="606.606,-72.7356 596.045,-73.5871 604.832,-79.5071 606.606,-72.7356"/>
</g>
<!-- Node12 -->
<g id="node13" class="node"><title>Node12</title>
<polygon fill="white" stroke="#bfbfbf" points="614.5,-56.5 614.5,-75.5 663.5,-75.5 663.5,-56.5 614.5,-56.5"/>
<text text-anchor="middle" x="639" y="-63.5" font-family="Helvetica,sans-Serif" font-size="10.00">string.h</text>
</g>
<!-- Node9&#45;&gt;Node12 -->
<g id="edge25" class="edge"><title>Node9&#45;&gt;Node12</title>
<path fill="none" stroke="midnightblue" d="M766.074,-112.444C740.781,-103.399 700.698,-89.064 672.32,-78.9158"/>
<polygon fill="midnightblue" stroke="midnightblue" points="673.409,-75.5882 662.814,-75.5164 671.052,-82.1794 673.409,-75.5882"/>
</g>
<!-- Node13 -->
<g id="node14" class="node"><title>Node13</title>
<polygon fill="white" stroke="#bfbfbf" points="681.5,-56.5 681.5,-75.5 728.5,-75.5 728.5,-56.5 681.5,-56.5"/>
<text text-anchor="middle" x="705" y="-63.5" font-family="Helvetica,sans-Serif" font-size="10.00">math.h</text>
</g>
<!-- Node9&#45;&gt;Node13 -->
<g id="edge26" class="edge"><title>Node9&#45;&gt;Node13</title>
<path fill="none" stroke="midnightblue" d="M776.343,-112.324C763.084,-103.9 742.732,-90.9709 727.154,-81.0741"/>
<polygon fill="midnightblue" stroke="midnightblue" points="728.94,-78.0626 718.623,-75.6545 725.187,-83.9711 728.94,-78.0626"/>
</g>
<!-- Node14 -->
<g id="node15" class="node"><title>Node14</title>
<polygon fill="white" stroke="#bfbfbf" points="861.5,-56.5 861.5,-75.5 944.5,-75.5 944.5,-56.5 861.5,-56.5"/>
<text text-anchor="middle" x="903" y="-63.5" font-family="Helvetica,sans-Serif" font-size="10.00">cuda_runtime.h</text>
</g>
<!-- Node9&#45;&gt;Node14 -->
<g id="edge27" class="edge"><title>Node9&#45;&gt;Node14</title>
<path fill="none" stroke="midnightblue" d="M807.905,-112.444C826.254,-103.675 855.005,-89.9355 876.094,-79.8579"/>
<polygon fill="midnightblue" stroke="midnightblue" points="877.665,-82.9862 885.179,-75.5164 874.647,-76.6703 877.665,-82.9862"/>
</g>
<!-- Node15 -->
<g id="node16" class="node"><title>Node15</title>
<polygon fill="white" stroke="#bfbfbf" points="962.5,-56.5 962.5,-75.5 1005.5,-75.5 1005.5,-56.5 962.5,-56.5"/>
<text text-anchor="middle" x="984" y="-63.5" font-family="Helvetica,sans-Serif" font-size="10.00">cufft.h</text>
</g>
<!-- Node9&#45;&gt;Node15 -->
<g id="edge28" class="edge"><title>Node9&#45;&gt;Node15</title>
<path fill="none" stroke="midnightblue" d="M821.282,-112.495C852.198,-104.062 901.085,-90.6474 952.671,-76.066"/>
<polygon fill="midnightblue" stroke="midnightblue" points="953.662,-79.4229 962.33,-73.3307 951.755,-72.6877 953.662,-79.4229"/>
</g>
<!-- Node16 -->
<g id="node17" class="node"><title>Node16</title>
<polygon fill="white" stroke="#bfbfbf" points="1023.5,-56.5 1023.5,-75.5 1074.5,-75.5 1074.5,-56.5 1023.5,-56.5"/>
<text text-anchor="middle" x="1049" y="-63.5" font-family="Helvetica,sans-Serif" font-size="10.00">cufftXt.h</text>
</g>
<!-- Node9&#45;&gt;Node16 -->
<g id="edge29" class="edge"><title>Node9&#45;&gt;Node16</title>
<path fill="none" stroke="midnightblue" d="M836.057,-112.493C879.322,-104.334 946.09,-91.3172 1013.48,-76.0182"/>
<polygon fill="midnightblue" stroke="midnightblue" points="1014.46,-79.3854 1023.42,-73.7447 1012.9,-72.5615 1014.46,-79.3854"/>
</g>
<!-- Node17 -->
<g id="node18" class="node"><title>Node17</title>
<g id="a_node18"><a xlink:href="_f_f_t_scale_type_8h.html" target="_top" xlink:title="FFTScaleType.h">
<polygon fill="white" stroke="black" points="256,-56.5 256,-75.5 344,-75.5 344,-56.5 256,-56.5"/>
<text text-anchor="middle" x="300" y="-63.5" font-family="Helvetica,sans-Serif" font-size="10.00">FFTScaleType.h</text>
</a>
</g>
</g>
<!-- Node9&#45;&gt;Node17 -->
<g id="edge30" class="edge"><title>Node9&#45;&gt;Node17</title>
<path fill="none" stroke="midnightblue" d="M732.942,-116.327C651.325,-109.377 496.321,-95.1923 354.407,-76.113"/>
<polygon fill="midnightblue" stroke="midnightblue" points="354.593,-72.6062 344.213,-74.7309 353.652,-79.5428 354.593,-72.6062"/>
</g>
<!-- Node18 -->
<g id="node19" class="node"><title>Node18</title>
<g id="a_node19"><a xlink:href="_f_f_t_direction_cuda_8h.html" target="_top" xlink:title="FFTDirectionCuda.h">
<polygon fill="white" stroke="black" points="362.5,-56.5 362.5,-75.5 465.5,-75.5 465.5,-56.5 362.5,-56.5"/>
<text text-anchor="middle" x="414" y="-63.5" font-family="Helvetica,sans-Serif" font-size="10.00">FFTDirectionCuda.h</text>
</a>
</g>
</g>
<!-- Node9&#45;&gt;Node18 -->
<g id="edge31" class="edge"><title>Node9&#45;&gt;Node18</title>
<path fill="none" stroke="midnightblue" d="M732.796,-112.908C671.766,-104.257 571.968,-90.0595 475.507,-76.068"/>
<polygon fill="midnightblue" stroke="midnightblue" points="475.981,-72.6003 465.582,-74.6275 474.976,-79.5277 475.981,-72.6003"/>
</g>
<!-- Node19&#45;&gt;Node1 -->
<g id="edge35" class="edge"><title>Node19&#45;&gt;Node1</title>
<path fill="none" stroke="midnightblue" d="M737.354,-169.105C734.192,-168.715 731.057,-168.344 728,-168 544.024,-147.297 488.946,-189.609 313,-132 239.982,-108.092 165.721,-53.0107 132.292,-26.2057"/>
<polygon fill="midnightblue" stroke="midnightblue" points="134.306,-23.332 124.338,-19.7395 129.89,-28.7635 134.306,-23.332"/>
</g>
<!-- Node19&#45;&gt;Node2 -->
<g id="edge36" class="edge"><title>Node19&#45;&gt;Node2</title>
<path fill="none" stroke="midnightblue" d="M737.335,-169.26C734.177,-168.831 731.049,-168.408 728,-168 620.137,-153.549 324.535,-152.364 247,-76 234.838,-64.0221 230.36,-44.7235 228.762,-30.2605"/>
<polygon fill="midnightblue" stroke="midnightblue" points="232.227,-29.6482 228.006,-19.9304 225.245,-30.1592 232.227,-29.6482"/>
</g>
<!-- Node19&#45;&gt;Node3 -->
<g id="edge37" class="edge"><title>Node19&#45;&gt;Node3</title>
<path fill="none" stroke="midnightblue" d="M825.541,-168.465C856.725,-160.043 904.976,-146.375 946,-132 961.52,-126.562 1071.9,-88.137 1083,-76 1094.57,-63.3484 1099.45,-44.1402 1101.5,-29.8818"/>
<polygon fill="midnightblue" stroke="midnightblue" points="1105.01,-30.0509 1102.62,-19.7278 1098.05,-29.2844 1105.01,-30.0509"/>
</g>
<!-- Node19&#45;&gt;Node9 -->
<g id="edge47" class="edge"><title>Node19&#45;&gt;Node9</title>
<path fill="none" stroke="midnightblue" d="M792.505,-168.083C792.111,-161.006 791.548,-150.861 791.055,-141.986"/>
<polygon fill="midnightblue" stroke="midnightblue" points="794.536,-141.542 790.486,-131.751 787.546,-141.93 794.536,-141.542"/>
</g>
<!-- Node19&#45;&gt;Node10 -->
<g id="edge38" class="edge"><title>Node19&#45;&gt;Node10</title>
<path fill="none" stroke="midnightblue" d="M758.586,-168.449C727.63,-160.358 681.138,-147.209 642,-132 602.72,-116.736 559.141,-94.5612 532.659,-80.4623"/>
<polygon fill="midnightblue" stroke="midnightblue" points="534.181,-77.3073 523.715,-75.6611 530.87,-83.4748 534.181,-77.3073"/>
</g>
<!-- Node19&#45;&gt;Node11 -->
<g id="edge39" class="edge"><title>Node19&#45;&gt;Node11</title>
<path fill="none" stroke="midnightblue" d="M768.717,-168.377C745.911,-159.994 711.046,-146.443 682,-132 650.582,-116.378 616.073,-95.0387 594.476,-81.1406"/>
<polygon fill="midnightblue" stroke="midnightblue" points="596.351,-78.1853 586.057,-75.6783 592.541,-84.0575 596.351,-78.1853"/>
</g>
<!-- Node19&#45;&gt;Node12 -->
<g id="edge40" class="edge"><title>Node19&#45;&gt;Node12</title>
<path fill="none" stroke="midnightblue" d="M774.098,-168.398C756.754,-160.13 730.692,-146.743 710,-132 689.293,-117.246 668.122,-97.0714 654.351,-83.1298"/>
<polygon fill="midnightblue" stroke="midnightblue" points="656.638,-80.4609 647.158,-75.7296 651.619,-85.3399 656.638,-80.4609"/>
</g>
<!-- Node19&#45;&gt;Node13 -->
<g id="edge41" class="edge"><title>Node19&#45;&gt;Node13</title>
<path fill="none" stroke="midnightblue" d="M772.305,-168.347C756.856,-160.876 736.362,-148.65 724,-132 714.035,-118.578 709.278,-100.014 707.018,-86.16"/>
<polygon fill="midnightblue" stroke="midnightblue" points="710.435,-85.2988 705.648,-75.8471 703.496,-86.2211 710.435,-85.2988"/>
</g>
<!-- Node19&#45;&gt;Node14 -->
<g id="edge42" class="edge"><title>Node19&#45;&gt;Node14</title>
<path fill="none" stroke="midnightblue" d="M807.782,-168.373C821.247,-160.087 841.226,-146.689 856,-132 870.603,-117.481 884.018,-98.0473 892.745,-84.2211"/>
<polygon fill="midnightblue" stroke="midnightblue" points="895.743,-86.0272 897.994,-75.6744 889.778,-82.3636 895.743,-86.0272"/>
</g>
<!-- Node19&#45;&gt;Node15 -->
<g id="edge43" class="edge"><title>Node19&#45;&gt;Node15</title>
<path fill="none" stroke="midnightblue" d="M810.33,-168.396C827.84,-159.594 855.578,-145.354 879,-132 908.365,-115.257 941.388,-94.4818 962.424,-80.9922"/>
<polygon fill="midnightblue" stroke="midnightblue" points="964.411,-83.8753 970.924,-75.5189 960.621,-77.9898 964.411,-83.8753"/>
</g>
<!-- Node19&#45;&gt;Node16 -->
<g id="edge44" class="edge"><title>Node19&#45;&gt;Node16</title>
<path fill="none" stroke="midnightblue" d="M816.949,-168.349C840.737,-159.626 878.159,-145.548 910,-132 949.69,-115.112 994.776,-93.5856 1022.56,-80.0433"/>
<polygon fill="midnightblue" stroke="midnightblue" points="1024.18,-83.1457 1031.62,-75.6068 1021.1,-76.8579 1024.18,-83.1457"/>
</g>
<!-- Node19&#45;&gt;Node17 -->
<g id="edge45" class="edge"><title>Node19&#45;&gt;Node17</title>
<path fill="none" stroke="midnightblue" d="M737.25,-169.214C683.782,-161.335 600.936,-148.045 530,-132 460.767,-116.34 381.362,-92.5857 336.292,-78.5465"/>
<polygon fill="midnightblue" stroke="midnightblue" points="337.264,-75.1832 326.675,-75.5355 335.172,-81.8634 337.264,-75.1832"/>
</g>
<!-- Node19&#45;&gt;Node18 -->
<g id="edge46" class="edge"><title>Node19&#45;&gt;Node18</title>
<path fill="none" stroke="midnightblue" d="M747.304,-168.438C706.491,-160.386 645.259,-147.3 593,-132 540.007,-116.485 479.972,-93.5483 444.639,-79.4774"/>
<polygon fill="midnightblue" stroke="midnightblue" points="445.513,-76.0569 434.928,-75.5853 442.909,-82.5544 445.513,-76.0569"/>
</g>
</g>
</svg>
