<?xml version="1.0" encoding="UTF-8" standalone="no"?>
<!DOCTYPE svg PUBLIC "-//W3C//DTD SVG 1.1//EN"
 "http://www.w3.org/Graphics/SVG/1.1/DTD/svg11.dtd">
<!-- Generated by graphviz version 2.38.0 (20140413.2041)
 -->
<!-- Title: C:/Users/palav/Documents/Repos/HoloGen/HoloGenAlgBaseCuda/AlgorithmCuda.cuh Pages: 1 -->
<!--zoomable 274 -->
<svg id="main" version="1.1" xmlns="http://www.w3.org/2000/svg" xmlns:xlink="http://www.w3.org/1999/xlink" xml:space="preserve" onload="init(evt)">
<style type="text/css"><![CDATA[
.edge:hover path { stroke: red; }
.edge:hover polygon { stroke: red; fill: red; }
]]></style>
<script type="text/javascript"><![CDATA[
var edges = document.getElementsByTagName('g');
if (edges && edges.length) {
  for (var i=0;i<edges.length;i++) {
    if (edges[i].id.substr(0,4)=='edge') {
      edges[i].setAttribute('class','edge');
    }
  }
}
]]></script>
        <defs>
                <circle id="rim" cx="0" cy="0" r="7"/>
                <circle id="rim2" cx="0" cy="0" r="3.5"/>
                <g id="zoomPlus">
                        <use xlink:href="#rim" fill="#404040">
                                <set attributeName="fill" to="#808080" begin="zoomplus.mouseover" end="zoomplus.mouseout"/>
                        </use>
                        <path d="M-4,0h8M0,-4v8" fill="none" stroke="white" stroke-width="1.5" pointer-events="none"/>
                </g>
                <g id="zoomMin">
                        <use xlink:href="#rim" fill="#404040">
                                <set attributeName="fill" to="#808080" begin="zoomminus.mouseover" end="zoomminus.mouseout"/>
                        </use>
                        <path d="M-4,0h8" fill="none" stroke="white" stroke-width="1.5" pointer-events="none"/>
                </g>
                <g id="dirArrow">
                        <path fill="none" stroke="white" stroke-width="1.5" d="M0,-3.0v7 M-2.5,-0.5L0,-3.0L2.5,-0.5"/>
                </g>
               <g id="resetDef">
                       <use xlink:href="#rim2" fill="#404040">
                               <set attributeName="fill" to="#808080" begin="reset.mouseover" end="reset.mouseout"/>
                       </use>
               </g>
        </defs>

<script type="text/javascript">
var viewWidth = 1965;
var viewHeight = 274;
var sectionId = 'dynsection-0';
</script>
<script xlink:href="svgpan.js"/>
<svg id="graph" class="graph">
<g id="viewport">
<title>C:/Users/palav/Documents/Repos/HoloGen/HoloGenAlgBaseCuda/AlgorithmCuda.cuh</title>
<polygon fill="white" stroke="none" points="-4,4 -4,-270 1961.08,-270 1961.08,4 -4,4"/>
<!-- Node0 -->
<g id="node1" class="node"><title>Node0</title>
<polygon fill="#bfbfbf" stroke="black" points="1132.58,-224.5 1132.58,-265.5 1320.58,-265.5 1320.58,-224.5 1132.58,-224.5"/>
<text text-anchor="start" x="1140.58" y="-253.5" font-family="Helvetica,sans-Serif" font-size="10.00">C:/Users/palav/Documents</text>
<text text-anchor="start" x="1140.58" y="-242.5" font-family="Helvetica,sans-Serif" font-size="10.00">/Repos/HoloGen/HoloGenAlgBaseCuda</text>
<text text-anchor="middle" x="1226.58" y="-231.5" font-family="Helvetica,sans-Serif" font-size="10.00">/AlgorithmCuda.cuh</text>
</g>
<!-- Node1 -->
<g id="node2" class="node"><title>Node1</title>
<polygon fill="white" stroke="#bfbfbf" points="44.083,-0.5 44.083,-19.5 97.083,-19.5 97.083,-0.5 44.083,-0.5"/>
<text text-anchor="middle" x="70.583" y="-7.5" font-family="Helvetica,sans-Serif" font-size="10.00">complex</text>
</g>
<!-- Node0&#45;&gt;Node1 -->
<g id="edge1" class="edge"><title>Node0&#45;&gt;Node1</title>
<path fill="none" stroke="midnightblue" d="M1132.22,-242.23C880.386,-237.088 205.011,-220.42 109.583,-188 44.399,-165.855 17.4275,-143.224 2.58298,-76 0.666286,-67.3202 -1.62463,-63.83 2.58298,-56 10.2054,-41.8153 24.4796,-31.3516 37.9893,-24.1027"/>
<polygon fill="midnightblue" stroke="midnightblue" points="39.7108,-27.1562 47.1289,-19.5916 36.6126,-20.8791 39.7108,-27.1562"/>
</g>
<!-- Node2 -->
<g id="node3" class="node"><title>Node2</title>
<polygon fill="white" stroke="#bfbfbf" points="263.583,-0.5 263.583,-19.5 305.583,-19.5 305.583,-0.5 263.583,-0.5"/>
<text text-anchor="middle" x="284.583" y="-7.5" font-family="Helvetica,sans-Serif" font-size="10.00">vector</text>
</g>
<!-- Node0&#45;&gt;Node2 -->
<g id="edge2" class="edge"><title>Node0&#45;&gt;Node2</title>
<path fill="none" stroke="midnightblue" d="M1132.49,-244.224C963.352,-243.327 597.146,-235.454 292.583,-188 159.334,-167.238 65.3382,-199.24 10.583,-76 6.97386,-67.8768 4.8294,-62.7756 10.583,-56 41.4707,-19.6256 188.457,-12.5984 253.498,-11.2814"/>
<polygon fill="midnightblue" stroke="midnightblue" points="253.625,-14.7799 263.565,-11.1105 253.507,-7.78088 253.625,-14.7799"/>
</g>
<!-- Node3 -->
<g id="node4" class="node"><title>Node3</title>
<polygon fill="white" stroke="#bfbfbf" points="883.083,-0.5 883.083,-19.5 918.083,-19.5 918.083,-0.5 883.083,-0.5"/>
<text text-anchor="middle" x="900.583" y="-7.5" font-family="Helvetica,sans-Serif" font-size="10.00">map</text>
</g>
<!-- Node0&#45;&gt;Node3 -->
<g id="edge3" class="edge"><title>Node0&#45;&gt;Node3</title>
<path fill="none" stroke="midnightblue" d="M1219.14,-224.441C1202.19,-180.91 1159.92,-78.1155 1130.58,-56 1098.97,-32.1701 982.523,-18.5669 928.478,-13.4121"/>
<polygon fill="midnightblue" stroke="midnightblue" points="928.524,-9.9015 918.245,-12.4664 927.88,-16.8718 928.524,-9.9015"/>
</g>
<!-- Node4 -->
<g id="node5" class="node"><title>Node4</title>
<polygon fill="white" stroke="#bfbfbf" points="1045.58,-0.5 1045.58,-19.5 1097.58,-19.5 1097.58,-0.5 1045.58,-0.5"/>
<text text-anchor="middle" x="1071.58" y="-7.5" font-family="Helvetica,sans-Serif" font-size="10.00">memory</text>
</g>
<!-- Node0&#45;&gt;Node4 -->
<g id="edge4" class="edge"><title>Node0&#45;&gt;Node4</title>
<path fill="none" stroke="midnightblue" d="M1222.16,-224.338C1212.21,-181.556 1187.17,-81.7882 1164.58,-56 1149.69,-38.9951 1126.92,-27.827 1107.64,-20.87"/>
<polygon fill="midnightblue" stroke="midnightblue" points="1108.53,-17.4767 1097.93,-17.6073 1106.3,-24.1118 1108.53,-17.4767"/>
</g>
<!-- Node5 -->
<g id="node6" class="node"><title>Node5</title>
<polygon fill="white" stroke="#bfbfbf" points="1170.58,-0.5 1170.58,-19.5 1226.58,-19.5 1226.58,-0.5 1170.58,-0.5"/>
<text text-anchor="middle" x="1198.58" y="-7.5" font-family="Helvetica,sans-Serif" font-size="10.00">algorithm</text>
</g>
<!-- Node0&#45;&gt;Node5 -->
<g id="edge5" class="edge"><title>Node0&#45;&gt;Node5</title>
<path fill="none" stroke="midnightblue" d="M1224.2,-224.135C1218.85,-179.684 1206,-72.7257 1200.81,-29.5445"/>
<polygon fill="midnightblue" stroke="midnightblue" points="1204.28,-29.0973 1199.61,-19.5863 1197.33,-29.9325 1204.28,-29.0973"/>
</g>
<!-- Node6 -->
<g id="node7" class="node"><title>Node6</title>
<g id="a_node7"><a xlink:href="_image_8h.html" target="_top" xlink:title="Image.h">
<polygon fill="white" stroke="black" points="902.083,-56.5 902.083,-75.5 953.083,-75.5 953.083,-56.5 902.083,-56.5"/>
<text text-anchor="middle" x="927.583" y="-63.5" font-family="Helvetica,sans-Serif" font-size="10.00">Image.h</text>
</a>
</g>
</g>
<!-- Node0&#45;&gt;Node6 -->
<g id="edge6" class="edge"><title>Node0&#45;&gt;Node6</title>
<path fill="none" stroke="midnightblue" d="M1184.78,-224.462C1163.48,-214.162 1137.33,-200.993 1114.58,-188 1052.59,-152.587 982.741,-105.313 948.621,-81.709"/>
<polygon fill="midnightblue" stroke="midnightblue" points="950.191,-78.538 939.981,-75.7087 946.198,-84.2876 950.191,-78.538"/>
</g>
<!-- Node7 -->
<g id="node8" class="node"><title>Node7</title>
<g id="a_node8"><a xlink:href="_s_l_m_modulation_scheme_cuda_8h.html" target="_top" xlink:title="SLMModulationSchemeCuda.h">
<polygon fill="white" stroke="black" points="971.083,-56.5 971.083,-75.5 1122.08,-75.5 1122.08,-56.5 971.083,-56.5"/>
<text text-anchor="middle" x="1046.58" y="-63.5" font-family="Helvetica,sans-Serif" font-size="10.00">SLMModulationSchemeCuda.h</text>
</a>
</g>
</g>
<!-- Node0&#45;&gt;Node7 -->
<g id="edge12" class="edge"><title>Node0&#45;&gt;Node7</title>
<path fill="none" stroke="midnightblue" d="M1188.03,-224.283C1171.21,-214.644 1151.88,-202.082 1136.58,-188 1102.06,-156.227 1071.77,-109.642 1056.7,-84.5532"/>
<polygon fill="midnightblue" stroke="midnightblue" points="1059.62,-82.6208 1051.53,-75.7836 1053.59,-86.1756 1059.62,-82.6208"/>
</g>
<!-- Node8 -->
<g id="node9" class="node"><title>Node8</title>
<g id="a_node9"><a xlink:href="_abstract_quantiser_8cuh.html" target="_top" xlink:title="AbstractQuantiser.cuh">
<polygon fill="white" stroke="black" points="471.583,-112.5 471.583,-131.5 585.583,-131.5 585.583,-112.5 471.583,-112.5"/>
<text text-anchor="middle" x="528.583" y="-119.5" font-family="Helvetica,sans-Serif" font-size="10.00">AbstractQuantiser.cuh</text>
</a>
</g>
</g>
<!-- Node0&#45;&gt;Node8 -->
<g id="edge13" class="edge"><title>Node0&#45;&gt;Node8</title>
<path fill="none" stroke="midnightblue" d="M1132.45,-227.681C986.37,-202.358 709.308,-154.329 587.99,-133.298"/>
<polygon fill="midnightblue" stroke="midnightblue" points="588.237,-129.789 577.787,-131.53 587.042,-136.686 588.237,-129.789"/>
</g>
<!-- Node18 -->
<g id="node19" class="node"><title>Node18</title>
<g id="a_node19"><a xlink:href="_quantiser_nearest_8cuh.html" target="_top" xlink:title="QuantiserNearest.cuh">
<polygon fill="white" stroke="black" points="302.083,-168.5 302.083,-187.5 413.083,-187.5 413.083,-168.5 302.083,-168.5"/>
<text text-anchor="middle" x="357.583" y="-175.5" font-family="Helvetica,sans-Serif" font-size="10.00">QuantiserNearest.cuh</text>
</a>
</g>
</g>
<!-- Node0&#45;&gt;Node18 -->
<g id="edge28" class="edge"><title>Node0&#45;&gt;Node18</title>
<path fill="none" stroke="midnightblue" d="M1132.35,-236.951C955.062,-223.691 576.054,-195.341 423.353,-183.92"/>
<polygon fill="midnightblue" stroke="midnightblue" points="423.424,-180.415 413.191,-183.159 422.902,-187.396 423.424,-180.415"/>
</g>
<!-- Node19 -->
<g id="node20" class="node"><title>Node19</title>
<polygon fill="white" stroke="#bfbfbf" points="1254.58,-168.5 1254.58,-187.5 1312.58,-187.5 1312.58,-168.5 1254.58,-168.5"/>
<text text-anchor="middle" x="1283.58" y="-175.5" font-family="Helvetica,sans-Serif" font-size="10.00">functional</text>
</g>
<!-- Node0&#45;&gt;Node19 -->
<g id="edge42" class="edge"><title>Node0&#45;&gt;Node19</title>
<path fill="none" stroke="midnightblue" d="M1243.68,-224.498C1251.84,-215.203 1261.48,-204.21 1269.24,-195.358"/>
<polygon fill="midnightblue" stroke="midnightblue" points="1272.03,-197.479 1276,-187.652 1266.77,-192.863 1272.03,-197.479"/>
</g>
<!-- Node20 -->
<g id="node21" class="node"><title>Node20</title>
<g id="a_node21"><a xlink:href="_illumination_type_cuda_8h.html" target="_top" xlink:title="IlluminationTypeCuda.h">
<polygon fill="white" stroke="black" points="1331.08,-168.5 1331.08,-187.5 1448.08,-187.5 1448.08,-168.5 1331.08,-168.5"/>
<text text-anchor="middle" x="1389.58" y="-175.5" font-family="Helvetica,sans-Serif" font-size="10.00">IlluminationTypeCuda.h</text>
</a>
</g>
</g>
<!-- Node0&#45;&gt;Node20 -->
<g id="edge43" class="edge"><title>Node0&#45;&gt;Node20</title>
<path fill="none" stroke="midnightblue" d="M1275.49,-224.498C1302.4,-213.766 1334.99,-200.769 1358.44,-191.419"/>
<polygon fill="midnightblue" stroke="midnightblue" points="1359.89,-194.608 1367.89,-187.652 1357.3,-188.106 1359.89,-194.608"/>
</g>
<!-- Node21 -->
<g id="node22" class="node"><title>Node21</title>
<g id="a_node22"><a xlink:href="_initial_seed_type_cuda_8h.html" target="_top" xlink:title="InitialSeedTypeCuda.h">
<polygon fill="white" stroke="black" points="1466.08,-168.5 1466.08,-187.5 1579.08,-187.5 1579.08,-168.5 1466.08,-168.5"/>
<text text-anchor="middle" x="1522.58" y="-175.5" font-family="Helvetica,sans-Serif" font-size="10.00">InitialSeedTypeCuda.h</text>
</a>
</g>
</g>
<!-- Node0&#45;&gt;Node21 -->
<g id="edge44" class="edge"><title>Node0&#45;&gt;Node21</title>
<path fill="none" stroke="midnightblue" d="M1315.39,-224.498C1367.26,-213.108 1430.74,-199.168 1473.66,-189.743"/>
<polygon fill="midnightblue" stroke="midnightblue" points="1474.55,-193.131 1483.57,-187.567 1473.05,-186.293 1474.55,-193.131"/>
</g>
<!-- Node22 -->
<g id="node23" class="node"><title>Node22</title>
<g id="a_node23"><a xlink:href="_logging_callback_8h.html" target="_top" xlink:title="LoggingCallback.h">
<polygon fill="white" stroke="black" points="1597.58,-168.5 1597.58,-187.5 1693.58,-187.5 1693.58,-168.5 1597.58,-168.5"/>
<text text-anchor="middle" x="1645.58" y="-175.5" font-family="Helvetica,sans-Serif" font-size="10.00">LoggingCallback.h</text>
</a>
</g>
</g>
<!-- Node0&#45;&gt;Node22 -->
<g id="edge45" class="edge"><title>Node0&#45;&gt;Node22</title>
<path fill="none" stroke="midnightblue" d="M1320.73,-229.518C1391.37,-218.632 1490.77,-203.275 1587.43,-188.176"/>
<polygon fill="midnightblue" stroke="midnightblue" points="1588.04,-191.623 1597.38,-186.621 1586.96,-184.707 1588.04,-191.623"/>
</g>
<!-- Node23 -->
<g id="node24" class="node"><title>Node23</title>
<polygon fill="white" stroke="#bfbfbf" points="1711.58,-168.5 1711.58,-187.5 1757.58,-187.5 1757.58,-168.5 1711.58,-168.5"/>
<text text-anchor="middle" x="1734.58" y="-175.5" font-family="Helvetica,sans-Serif" font-size="10.00">chrono</text>
</g>
<!-- Node0&#45;&gt;Node23 -->
<g id="edge46" class="edge"><title>Node0&#45;&gt;Node23</title>
<path fill="none" stroke="midnightblue" d="M1320.74,-237.31C1415,-229.614 1564.18,-214.721 1701.41,-187.962"/>
<polygon fill="midnightblue" stroke="midnightblue" points="1702.13,-191.386 1711.27,-186.014 1700.78,-184.519 1702.13,-191.386"/>
</g>
<!-- Node24 -->
<g id="node25" class="node"><title>Node24</title>
<polygon fill="white" stroke="#bfbfbf" points="1776.08,-168.5 1776.08,-187.5 1817.08,-187.5 1817.08,-168.5 1776.08,-168.5"/>
<text text-anchor="middle" x="1796.58" y="-175.5" font-family="Helvetica,sans-Serif" font-size="10.00">ctime</text>
</g>
<!-- Node0&#45;&gt;Node24 -->
<g id="edge47" class="edge"><title>Node0&#45;&gt;Node24</title>
<path fill="none" stroke="midnightblue" d="M1321.04,-239.594C1427.24,-233.424 1604.77,-219.457 1765.95,-187.73"/>
<polygon fill="midnightblue" stroke="midnightblue" points="1766.93,-191.103 1776.05,-185.713 1765.56,-184.239 1766.93,-191.103"/>
</g>
<!-- Node25 -->
<g id="node26" class="node"><title>Node25</title>
<polygon fill="white" stroke="#bfbfbf" points="1835.58,-168.5 1835.58,-187.5 1889.58,-187.5 1889.58,-168.5 1835.58,-168.5"/>
<text text-anchor="middle" x="1862.58" y="-175.5" font-family="Helvetica,sans-Serif" font-size="10.00">iostream</text>
</g>
<!-- Node0&#45;&gt;Node25 -->
<g id="edge48" class="edge"><title>Node0&#45;&gt;Node25</title>
<path fill="none" stroke="midnightblue" d="M1320.69,-239.646C1437.18,-233.261 1641.65,-218.805 1825.43,-187.946"/>
<polygon fill="midnightblue" stroke="midnightblue" points="1826.28,-191.352 1835.55,-186.226 1825.1,-184.451 1826.28,-191.352"/>
</g>
<!-- Node26 -->
<g id="node27" class="node"><title>Node26</title>
<polygon fill="white" stroke="#bfbfbf" points="1908.08,-168.5 1908.08,-187.5 1957.08,-187.5 1957.08,-168.5 1908.08,-168.5"/>
<text text-anchor="middle" x="1932.58" y="-175.5" font-family="Helvetica,sans-Serif" font-size="10.00">fstream</text>
</g>
<!-- Node0&#45;&gt;Node26 -->
<g id="edge49" class="edge"><title>Node0&#45;&gt;Node26</title>
<path fill="none" stroke="midnightblue" d="M1320.73,-241.364C1449.27,-236.603 1686.82,-223.665 1897.79,-187.819"/>
<polygon fill="midnightblue" stroke="midnightblue" points="1898.55,-191.24 1907.81,-186.095 1897.36,-184.341 1898.55,-191.24"/>
</g>
<!-- Node6&#45;&gt;Node1 -->
<g id="edge7" class="edge"><title>Node6&#45;&gt;Node1</title>
<path fill="none" stroke="midnightblue" d="M901.94,-61.4741C887.717,-59.6209 869.696,-57.4414 853.583,-56 705.693,-42.7705 241.499,-19.422 107.274,-12.7975"/>
<polygon fill="midnightblue" stroke="midnightblue" points="107.268,-9.29308 97.1074,-12.2967 106.923,-16.2846 107.268,-9.29308"/>
</g>
<!-- Node6&#45;&gt;Node2 -->
<g id="edge8" class="edge"><title>Node6&#45;&gt;Node2</title>
<path fill="none" stroke="midnightblue" d="M901.927,-61.6102C887.7,-59.7982 869.68,-57.6146 853.583,-56 648.873,-35.4657 401.951,-18.6401 315.934,-13.0139"/>
<polygon fill="midnightblue" stroke="midnightblue" points="316.002,-9.51105 305.796,-12.3541 315.547,-16.4963 316.002,-9.51105"/>
</g>
<!-- Node6&#45;&gt;Node3 -->
<g id="edge9" class="edge"><title>Node6&#45;&gt;Node3</title>
<path fill="none" stroke="midnightblue" d="M923.124,-56.083C919.429,-48.6913 914.06,-37.9533 909.489,-28.8111"/>
<polygon fill="midnightblue" stroke="midnightblue" points="912.561,-27.1301 904.959,-19.7511 906.3,-30.2606 912.561,-27.1301"/>
</g>
<!-- Node6&#45;&gt;Node4 -->
<g id="edge10" class="edge"><title>Node6&#45;&gt;Node4</title>
<path fill="none" stroke="midnightblue" d="M950.4,-56.4435C974.415,-47.4381 1012.41,-33.1891 1039.45,-23.049"/>
<polygon fill="midnightblue" stroke="midnightblue" points="1040.74,-26.3049 1048.87,-19.5164 1038.28,-19.7506 1040.74,-26.3049"/>
</g>
<!-- Node6&#45;&gt;Node5 -->
<g id="edge11" class="edge"><title>Node6&#45;&gt;Node5</title>
<path fill="none" stroke="midnightblue" d="M953.155,-58.0225C955.991,-57.3106 958.844,-56.6217 961.583,-56 1031.26,-40.1845 1113.32,-25.464 1160.32,-17.4025"/>
<polygon fill="midnightblue" stroke="midnightblue" points="1161.09,-20.8215 1170.36,-15.6901 1159.91,-13.9211 1161.09,-20.8215"/>
</g>
<!-- Node8&#45;&gt;Node1 -->
<g id="edge14" class="edge"><title>Node8&#45;&gt;Node1</title>
<path fill="none" stroke="midnightblue" d="M529.161,-112.244C529.568,-98.0319 528.06,-70.1146 511.583,-56 496.289,-42.8983 211.112,-21.1327 107.667,-13.634"/>
<polygon fill="midnightblue" stroke="midnightblue" points="107.613,-10.1211 97.3873,-12.8924 107.11,-17.1029 107.613,-10.1211"/>
</g>
<!-- Node8&#45;&gt;Node2 -->
<g id="edge15" class="edge"><title>Node8&#45;&gt;Node2</title>
<path fill="none" stroke="midnightblue" d="M535.142,-112.363C544.578,-98.8125 559.41,-72.4148 545.583,-56 516.53,-21.5092 378.768,-13.4543 315.943,-11.5732"/>
<polygon fill="midnightblue" stroke="midnightblue" points="315.917,-8.07134 305.828,-11.3048 315.732,-15.0689 315.917,-8.07134"/>
</g>
<!-- Node8&#45;&gt;Node3 -->
<g id="edge16" class="edge"><title>Node8&#45;&gt;Node3</title>
<path fill="none" stroke="midnightblue" d="M538.359,-112.421C555.136,-98.2059 591.047,-69.9556 626.583,-56 712.071,-22.4275 822.074,-13.9018 872.754,-11.7368"/>
<polygon fill="midnightblue" stroke="midnightblue" points="873.057,-15.228 882.919,-11.3556 872.795,-8.23293 873.057,-15.228"/>
</g>
<!-- Node8&#45;&gt;Node6 -->
<g id="edge27" class="edge"><title>Node8&#45;&gt;Node6</title>
<path fill="none" stroke="midnightblue" d="M585.75,-113.263C669.374,-101.946 822.617,-81.206 891.898,-71.8295"/>
<polygon fill="midnightblue" stroke="midnightblue" points="892.443,-75.2878 901.883,-70.4782 891.504,-68.351 892.443,-75.2878"/>
</g>
<!-- Node8&#45;&gt;Node7 -->
<g id="edge26" class="edge"><title>Node8&#45;&gt;Node7</title>
<path fill="none" stroke="midnightblue" d="M585.673,-115.102C666.565,-106.738 819.467,-90.8989 960.879,-76.072"/>
<polygon fill="midnightblue" stroke="midnightblue" points="961.46,-79.5304 971.04,-75.0063 960.729,-72.5686 961.46,-79.5304"/>
</g>
<!-- Node9 -->
<g id="node10" class="node"><title>Node9</title>
<polygon fill="white" stroke="#bfbfbf" points="27.583,-56.5 27.583,-75.5 75.583,-75.5 75.583,-56.5 27.583,-56.5"/>
<text text-anchor="middle" x="51.583" y="-63.5" font-family="Helvetica,sans-Serif" font-size="10.00">stdlib.h</text>
</g>
<!-- Node8&#45;&gt;Node9 -->
<g id="edge17" class="edge"><title>Node8&#45;&gt;Node9</title>
<path fill="none" stroke="midnightblue" d="M471.384,-118.23C388.321,-113.541 229.422,-102.067 85.5216,-75.8795"/>
<polygon fill="midnightblue" stroke="midnightblue" points="86.0968,-72.4266 75.6273,-74.0509 84.8247,-79.31 86.0968,-72.4266"/>
</g>
<!-- Node10 -->
<g id="node11" class="node"><title>Node10</title>
<polygon fill="white" stroke="#bfbfbf" points="93.583,-56.5 93.583,-75.5 139.583,-75.5 139.583,-56.5 93.583,-56.5"/>
<text text-anchor="middle" x="116.583" y="-63.5" font-family="Helvetica,sans-Serif" font-size="10.00">stdio.h</text>
</g>
<!-- Node8&#45;&gt;Node10 -->
<g id="edge18" class="edge"><title>Node8&#45;&gt;Node10</title>
<path fill="none" stroke="midnightblue" d="M471.494,-117.037C398.811,-111.371 269.29,-99.2031 149.94,-75.9959"/>
<polygon fill="midnightblue" stroke="midnightblue" points="150.388,-72.517 139.9,-74.0124 149.032,-79.3842 150.388,-72.517"/>
</g>
<!-- Node11 -->
<g id="node12" class="node"><title>Node11</title>
<polygon fill="white" stroke="#bfbfbf" points="158.083,-56.5 158.083,-75.5 207.083,-75.5 207.083,-56.5 158.083,-56.5"/>
<text text-anchor="middle" x="182.583" y="-63.5" font-family="Helvetica,sans-Serif" font-size="10.00">string.h</text>
</g>
<!-- Node8&#45;&gt;Node11 -->
<g id="edge19" class="edge"><title>Node8&#45;&gt;Node11</title>
<path fill="none" stroke="midnightblue" d="M471.386,-114.925C410.505,-107.979 311.219,-95.2758 217.317,-76.1657"/>
<polygon fill="midnightblue" stroke="midnightblue" points="217.871,-72.7063 207.37,-74.1127 216.456,-79.5618 217.871,-72.7063"/>
</g>
<!-- Node12 -->
<g id="node13" class="node"><title>Node12</title>
<polygon fill="white" stroke="#bfbfbf" points="225.083,-56.5 225.083,-75.5 272.083,-75.5 272.083,-56.5 225.083,-56.5"/>
<text text-anchor="middle" x="248.583" y="-63.5" font-family="Helvetica,sans-Serif" font-size="10.00">math.h</text>
</g>
<!-- Node8&#45;&gt;Node12 -->
<g id="edge20" class="edge"><title>Node8&#45;&gt;Node12</title>
<path fill="none" stroke="midnightblue" d="M473.117,-112.479C424.92,-104.726 353.057,-92.3314 282.264,-76.2318"/>
<polygon fill="midnightblue" stroke="midnightblue" points="282.814,-72.7671 272.284,-73.9356 281.245,-79.5889 282.814,-72.7671"/>
</g>
<!-- Node13 -->
<g id="node14" class="node"><title>Node13</title>
<polygon fill="white" stroke="#bfbfbf" points="290.083,-56.5 290.083,-75.5 373.083,-75.5 373.083,-56.5 290.083,-56.5"/>
<text text-anchor="middle" x="331.583" y="-63.5" font-family="Helvetica,sans-Serif" font-size="10.00">cuda_runtime.h</text>
</g>
<!-- Node8&#45;&gt;Node13 -->
<g id="edge21" class="edge"><title>Node8&#45;&gt;Node13</title>
<path fill="none" stroke="midnightblue" d="M497.368,-112.444C463.65,-103.201 409.783,-88.4356 372.651,-78.2572"/>
<polygon fill="midnightblue" stroke="midnightblue" points="373.222,-74.7846 362.652,-75.5164 371.371,-81.5356 373.222,-74.7846"/>
</g>
<!-- Node14 -->
<g id="node15" class="node"><title>Node14</title>
<polygon fill="white" stroke="#bfbfbf" points="391.083,-56.5 391.083,-75.5 434.083,-75.5 434.083,-56.5 391.083,-56.5"/>
<text text-anchor="middle" x="412.583" y="-63.5" font-family="Helvetica,sans-Serif" font-size="10.00">cufft.h</text>
</g>
<!-- Node8&#45;&gt;Node14 -->
<g id="edge22" class="edge"><title>Node8&#45;&gt;Node14</title>
<path fill="none" stroke="midnightblue" d="M510.202,-112.444C491.366,-103.675 461.852,-89.9355 440.204,-79.8579"/>
<polygon fill="midnightblue" stroke="midnightblue" points="441.42,-76.5637 430.878,-75.5164 438.466,-82.9098 441.42,-76.5637"/>
</g>
<!-- Node15 -->
<g id="node16" class="node"><title>Node15</title>
<polygon fill="white" stroke="#bfbfbf" points="452.083,-56.5 452.083,-75.5 503.083,-75.5 503.083,-56.5 452.083,-56.5"/>
<text text-anchor="middle" x="477.583" y="-63.5" font-family="Helvetica,sans-Serif" font-size="10.00">cufftXt.h</text>
</g>
<!-- Node8&#45;&gt;Node15 -->
<g id="edge23" class="edge"><title>Node8&#45;&gt;Node15</title>
<path fill="none" stroke="midnightblue" d="M520.161,-112.083C512.735,-104.22 501.731,-92.5688 492.771,-83.0813"/>
<polygon fill="midnightblue" stroke="midnightblue" points="495.259,-80.618 485.848,-75.7511 490.17,-85.4244 495.259,-80.618"/>
</g>
<!-- Node16 -->
<g id="node17" class="node"><title>Node16</title>
<g id="a_node17"><a xlink:href="_f_f_t_scale_type_8h.html" target="_top" xlink:title="FFTScaleType.h">
<polygon fill="white" stroke="black" points="635.583,-56.5 635.583,-75.5 723.583,-75.5 723.583,-56.5 635.583,-56.5"/>
<text text-anchor="middle" x="679.583" y="-63.5" font-family="Helvetica,sans-Serif" font-size="10.00">FFTScaleType.h</text>
</a>
</g>
</g>
<!-- Node8&#45;&gt;Node16 -->
<g id="edge24" class="edge"><title>Node8&#45;&gt;Node16</title>
<path fill="none" stroke="midnightblue" d="M552.509,-112.444C577.802,-103.399 617.885,-89.064 646.263,-78.9158"/>
<polygon fill="midnightblue" stroke="midnightblue" points="647.531,-82.1794 655.769,-75.5164 645.174,-75.5882 647.531,-82.1794"/>
</g>
<!-- Node17 -->
<g id="node18" class="node"><title>Node17</title>
<g id="a_node18"><a xlink:href="_f_f_t_direction_cuda_8h.html" target="_top" xlink:title="FFTDirectionCuda.h">
<polygon fill="white" stroke="black" points="742.083,-56.5 742.083,-75.5 845.083,-75.5 845.083,-56.5 742.083,-56.5"/>
<text text-anchor="middle" x="793.583" y="-63.5" font-family="Helvetica,sans-Serif" font-size="10.00">FFTDirectionCuda.h</text>
</a>
</g>
</g>
<!-- Node8&#45;&gt;Node17 -->
<g id="edge25" class="edge"><title>Node8&#45;&gt;Node17</title>
<path fill="none" stroke="midnightblue" d="M570.573,-112.444C616.995,-102.984 691.811,-87.7384 741.823,-77.5472"/>
<polygon fill="midnightblue" stroke="midnightblue" points="742.69,-80.9427 751.789,-75.5164 741.292,-74.0837 742.69,-80.9427"/>
</g>
<!-- Node18&#45;&gt;Node1 -->
<g id="edge29" class="edge"><title>Node18&#45;&gt;Node1</title>
<path fill="none" stroke="midnightblue" d="M302.064,-177.453C242.535,-175.891 146.599,-167.353 72.583,-132 33.2478,-113.212 -8.91187,-94.9897 10.583,-56 17.3114,-42.5432 30.1893,-32.0665 42.2947,-24.6212"/>
<polygon fill="midnightblue" stroke="midnightblue" points="44.3162,-27.4985 51.2866,-19.5195 40.8618,-21.4101 44.3162,-27.4985"/>
</g>
<!-- Node18&#45;&gt;Node2 -->
<g id="edge30" class="edge"><title>Node18&#45;&gt;Node2</title>
<path fill="none" stroke="midnightblue" d="M301.782,-169.035C213.931,-155.166 50.0894,-123.451 18.583,-76 13.6661,-68.5948 12.8457,-62.7894 18.583,-56 48.3033,-20.8295 189.29,-13.1389 253.09,-11.4634"/>
<polygon fill="midnightblue" stroke="midnightblue" points="253.434,-14.9565 263.351,-11.2288 253.274,-7.95837 253.434,-14.9565"/>
</g>
<!-- Node18&#45;&gt;Node3 -->
<g id="edge31" class="edge"><title>Node18&#45;&gt;Node3</title>
<path fill="none" stroke="midnightblue" d="M413.257,-171.403C527.41,-159.02 783.177,-126.355 853.583,-76 870.701,-63.7573 883.987,-43.3171 892.001,-28.6245"/>
<polygon fill="midnightblue" stroke="midnightblue" points="895.212,-30.0337 896.688,-19.5422 888.992,-26.8232 895.212,-30.0337"/>
</g>
<!-- Node18&#45;&gt;Node8 -->
<g id="edge41" class="edge"><title>Node18&#45;&gt;Node8</title>
<path fill="none" stroke="midnightblue" d="M384.678,-168.444C413.571,-159.32 459.508,-144.813 491.688,-134.651"/>
<polygon fill="midnightblue" stroke="midnightblue" points="493.132,-137.865 501.614,-131.516 491.024,-131.19 493.132,-137.865"/>
</g>
<!-- Node18&#45;&gt;Node9 -->
<g id="edge32" class="edge"><title>Node18&#45;&gt;Node9</title>
<path fill="none" stroke="midnightblue" d="M325.151,-168.422C294.351,-160.021 246.894,-146.412 206.583,-132 161.459,-115.867 110.442,-93.6834 79.6629,-79.8513"/>
<polygon fill="midnightblue" stroke="midnightblue" points="80.9681,-76.6003 70.414,-75.672 78.0856,-82.9793 80.9681,-76.6003"/>
</g>
<!-- Node18&#45;&gt;Node10 -->
<g id="edge33" class="edge"><title>Node18&#45;&gt;Node10</title>
<path fill="none" stroke="midnightblue" d="M336.121,-168.369C314.413,-159.546 279.96,-145.291 250.583,-132 212.607,-114.819 169.324,-93.5017 142.476,-80.0702"/>
<polygon fill="midnightblue" stroke="midnightblue" points="143.876,-76.8568 133.369,-75.5007 140.737,-83.1135 143.876,-76.8568"/>
</g>
<!-- Node18&#45;&gt;Node11 -->
<g id="edge34" class="edge"><title>Node18&#45;&gt;Node11</title>
<path fill="none" stroke="midnightblue" d="M343.851,-168.368C313.693,-149.412 241.448,-104.001 204.764,-80.9424"/>
<polygon fill="midnightblue" stroke="midnightblue" points="206.58,-77.9499 196.251,-75.5914 202.855,-83.8764 206.58,-77.9499"/>
</g>
<!-- Node18&#45;&gt;Node12 -->
<g id="edge35" class="edge"><title>Node18&#45;&gt;Node12</title>
<path fill="none" stroke="midnightblue" d="M349.03,-168.368C330.723,-149.894 287.518,-106.293 264.183,-82.7436"/>
<polygon fill="midnightblue" stroke="midnightblue" points="266.621,-80.2312 257.096,-75.5914 261.649,-85.1583 266.621,-80.2312"/>
</g>
<!-- Node18&#45;&gt;Node13 -->
<g id="edge36" class="edge"><title>Node18&#45;&gt;Node13</title>
<path fill="none" stroke="midnightblue" d="M355.543,-168.368C351.347,-150.617 341.668,-109.666 335.979,-85.5974"/>
<polygon fill="midnightblue" stroke="midnightblue" points="339.32,-84.5182 333.614,-75.5914 332.508,-86.1284 339.32,-84.5182"/>
</g>
<!-- Node18&#45;&gt;Node14 -->
<g id="edge37" class="edge"><title>Node18&#45;&gt;Node14</title>
<path fill="none" stroke="midnightblue" d="M361.899,-168.368C370.895,-150.376 391.808,-108.55 403.77,-84.6267"/>
<polygon fill="midnightblue" stroke="midnightblue" points="406.946,-86.101 408.287,-75.5914 400.685,-82.9704 406.946,-86.101"/>
</g>
<!-- Node18&#45;&gt;Node15 -->
<g id="edge38" class="edge"><title>Node18&#45;&gt;Node15</title>
<path fill="none" stroke="midnightblue" d="M366.999,-168.368C387.241,-149.814 435.133,-105.913 460.742,-82.4376"/>
<polygon fill="midnightblue" stroke="midnightblue" points="463.204,-84.9287 468.211,-75.5914 458.474,-79.7686 463.204,-84.9287"/>
</g>
<!-- Node18&#45;&gt;Node16 -->
<g id="edge39" class="edge"><title>Node18&#45;&gt;Node16</title>
<path fill="none" stroke="midnightblue" d="M413.396,-173.704C462.852,-169.11 536.081,-158.143 594.583,-132 621.447,-119.995 647.608,-97.9631 663.651,-82.9072"/>
<polygon fill="midnightblue" stroke="midnightblue" points="666.296,-85.2189 671.069,-75.7599 661.439,-80.1781 666.296,-85.2189"/>
</g>
<!-- Node18&#45;&gt;Node17 -->
<g id="edge40" class="edge"><title>Node18&#45;&gt;Node17</title>
<path fill="none" stroke="midnightblue" d="M413.214,-170.999C467.918,-164.32 553.469,-151.785 625.583,-132 676.147,-118.128 732.537,-94.5469 765.435,-79.9237"/>
<polygon fill="midnightblue" stroke="midnightblue" points="767.169,-82.9821 774.859,-75.6937 764.302,-76.596 767.169,-82.9821"/>
</g>
</g>
</svg>
        <g id="navigator" transform="translate(0 0)" fill="#404254">
                <rect fill="#f2f5e9" fill-opacity="0.5" stroke="#606060" stroke-width=".5" x="0" y="0" width="60" height="60"/>
                <use id="zoomplus" xlink:href="#zoomPlus" x="17" y="9" onmousedown="handleZoom(evt,'in')"/>
                <use id="zoomminus" xlink:href="#zoomMin" x="42" y="9" onmousedown="handleZoom(evt,'out')"/>
                <use id="reset" xlink:href="#resetDef" x="30" y="36" onmousedown="handleReset()"/>
                <g id="arrowUp" xlink:href="#dirArrow" transform="translate(30 24)" onmousedown="handlePan(0,-1)">
                  <use xlink:href="#rim" fill="#404040">
                        <set attributeName="fill" to="#808080" begin="arrowUp.mouseover" end="arrowUp.mouseout"/>
                  </use>
                  <path fill="none" stroke="white" stroke-width="1.5" d="M0,-3.0v7 M-2.5,-0.5L0,-3.0L2.5,-0.5"/>
                </g>
                <g id="arrowRight" xlink:href="#dirArrow" transform="rotate(90) translate(36 -43)" onmousedown="handlePan(1,0)">
                  <use xlink:href="#rim" fill="#404040">
                        <set attributeName="fill" to="#808080" begin="arrowRight.mouseover" end="arrowRight.mouseout"/>
                  </use>
                  <path fill="none" stroke="white" stroke-width="1.5" d="M0,-3.0v7 M-2.5,-0.5L0,-3.0L2.5,-0.5"/>
                </g>
                <g id="arrowDown" xlink:href="#dirArrow" transform="rotate(180) translate(-30 -48)" onmousedown="handlePan(0,1)">
                  <use xlink:href="#rim" fill="#404040">
                        <set attributeName="fill" to="#808080" begin="arrowDown.mouseover" end="arrowDown.mouseout"/>
                  </use>
                  <path fill="none" stroke="white" stroke-width="1.5" d="M0,-3.0v7 M-2.5,-0.5L0,-3.0L2.5,-0.5"/>
                </g>
                <g id="arrowLeft" xlink:href="#dirArrow" transform="rotate(270) translate(-36 17)" onmousedown="handlePan(-1,0)">
                  <use xlink:href="#rim" fill="#404040">
                        <set attributeName="fill" to="#808080" begin="arrowLeft.mouseover" end="arrowLeft.mouseout"/>
                  </use>
                  <path fill="none" stroke="white" stroke-width="1.5" d="M0,-3.0v7 M-2.5,-0.5L0,-3.0L2.5,-0.5"/>
                </g>
        </g>
        <svg viewBox="0 0 15 15" width="100%" height="30px" preserveAspectRatio="xMaxYMin meet">
         <g id="arrow_out" transform="scale(0.3 0.3)">
          <a xlink:href="_algorithm_cuda_8cuh__incl_org.svg" target="_base">
           <rect id="button" ry="5" rx="5" y="6" x="6" height="38" width="38"
                fill="#f2f5e9" fill-opacity="0.5" stroke="#606060" stroke-width="1.0"/>
           <path id="arrow"
             d="M 11.500037,31.436501 C 11.940474,20.09759 22.043105,11.32322 32.158766,21.979434 L 37.068811,17.246167 C 37.068811,17.246167 37.088388,32 37.088388,32 L 22.160133,31.978069 C 22.160133,31.978069 26.997745,27.140456 26.997745,27.140456 C 18.528582,18.264221 13.291696,25.230495 11.500037,31.436501 z"
             style="fill:#404040;"/>
          </a>
         </g>
        </svg>
</svg>
