<?xml version="1.0" encoding="UTF-8" standalone="no"?>
<!DOCTYPE svg PUBLIC "-//W3C//DTD SVG 1.1//EN"
 "http://www.w3.org/Graphics/SVG/1.1/DTD/svg11.dtd">
<!-- Generated by graphviz version 2.38.0 (20140413.2041)
 -->
<!-- Title: C:/Users/palav/Documents/Repos/HoloGen/HoloGenAlgGSMan/AlgorithmGSMan.h Pages: 1 -->
<svg width="184pt" height="128pt"
 viewBox="0.00 0.00 184.00 128.00" xmlns="http://www.w3.org/2000/svg" xmlns:xlink="http://www.w3.org/1999/xlink">
<g id="graph0" class="graph" transform="scale(1 1) rotate(0) translate(4 124)">
<title>C:/Users/palav/Documents/Repos/HoloGen/HoloGenAlgGSMan/AlgorithmGSMan.h</title>
<polygon fill="white" stroke="none" points="-4,4 -4,-124 180,-124 180,4 -4,4"/>
<!-- Node30 -->
<g id="node1" class="node"><title>Node30</title>
<polygon fill="#bfbfbf" stroke="black" points="0,-78.5 0,-119.5 176,-119.5 176,-78.5 0,-78.5"/>
<text text-anchor="start" x="8" y="-107.5" font-family="Helvetica,sans-Serif" font-size="10.00">C:/Users/palav/Documents</text>
<text text-anchor="start" x="8" y="-96.5" font-family="Helvetica,sans-Serif" font-size="10.00">/Repos/HoloGen/HoloGenAlgGSMan</text>
<text text-anchor="middle" x="88" y="-85.5" font-family="Helvetica,sans-Serif" font-size="10.00">/AlgorithmGSMan.h</text>
</g>
<!-- Node31 -->
<g id="node2" class="node"><title>Node31</title>
<g id="a_node2"><a xlink:href="_variant_g_s_standard_man_8h.html" target="_top" xlink:title="C:/Users/palav/Documents\l/Repos/HoloGen/HoloGenAlgGSMan\l/VariantGSStandardMan.h">
<polygon fill="white" stroke="black" points="0,-0.5 0,-41.5 176,-41.5 176,-0.5 0,-0.5"/>
<text text-anchor="start" x="8" y="-29.5" font-family="Helvetica,sans-Serif" font-size="10.00">C:/Users/palav/Documents</text>
<text text-anchor="start" x="8" y="-18.5" font-family="Helvetica,sans-Serif" font-size="10.00">/Repos/HoloGen/HoloGenAlgGSMan</text>
<text text-anchor="middle" x="88" y="-7.5" font-family="Helvetica,sans-Serif" font-size="10.00">/VariantGSStandardMan.h</text>
</a>
</g>
</g>
<!-- Node30&#45;&gt;Node31 -->
<g id="edge1" class="edge"><title>Node30&#45;&gt;Node31</title>
<path fill="none" stroke="midnightblue" d="M88,-68.2965C88,-59.3009 88,-49.6532 88,-41.5056"/>
<polygon fill="midnightblue" stroke="midnightblue" points="84.5001,-68.4281 88,-78.4281 91.5001,-68.4281 84.5001,-68.4281"/>
</g>
</g>
</svg>
