<?xml version="1.0" encoding="UTF-8" standalone="no"?>
<!DOCTYPE svg PUBLIC "-//W3C//DTD SVG 1.1//EN"
 "http://www.w3.org/Graphics/SVG/1.1/DTD/svg11.dtd">
<!-- Generated by graphviz version 2.38.0 (20140413.2041)
 -->
<!-- Title: C:/Users/palav/Documents/Repos/HoloGen/HoloGenAlgGSCuda/AlgorithmGSCuda.cuh Pages: 1 -->
<svg width="244pt" height="284pt"
 viewBox="0.00 0.00 243.50 284.00" xmlns="http://www.w3.org/2000/svg" xmlns:xlink="http://www.w3.org/1999/xlink">
<g id="graph0" class="graph" transform="scale(1 1) rotate(0) translate(4 280)">
<title>C:/Users/palav/Documents/Repos/HoloGen/HoloGenAlgGSCuda/AlgorithmGSCuda.cuh</title>
<polygon fill="white" stroke="none" points="-4,4 -4,-280 239.5,-280 239.5,4 -4,4"/>
<!-- Node28 -->
<g id="node1" class="node"><title>Node28</title>
<polygon fill="#bfbfbf" stroke="black" points="56.5,-234.5 56.5,-275.5 235.5,-275.5 235.5,-234.5 56.5,-234.5"/>
<text text-anchor="start" x="64.5" y="-263.5" font-family="Helvetica,sans-Serif" font-size="10.00">C:/Users/palav/Documents</text>
<text text-anchor="start" x="64.5" y="-252.5" font-family="Helvetica,sans-Serif" font-size="10.00">/Repos/HoloGen/HoloGenAlgGSCuda</text>
<text text-anchor="middle" x="146" y="-241.5" font-family="Helvetica,sans-Serif" font-size="10.00">/AlgorithmGSCuda.cuh</text>
</g>
<!-- Node29 -->
<g id="node2" class="node"><title>Node29</title>
<g id="a_node2"><a xlink:href="_variant_g_s_standard_cuda_8cuh.html" target="_top" xlink:title="C:/Users/palav/Documents\l/Repos/HoloGen/HoloGenAlgGSCuda\l/VariantGSStandardCuda.cuh">
<polygon fill="white" stroke="black" points="56.5,-156.5 56.5,-197.5 235.5,-197.5 235.5,-156.5 56.5,-156.5"/>
<text text-anchor="start" x="64.5" y="-185.5" font-family="Helvetica,sans-Serif" font-size="10.00">C:/Users/palav/Documents</text>
<text text-anchor="start" x="64.5" y="-174.5" font-family="Helvetica,sans-Serif" font-size="10.00">/Repos/HoloGen/HoloGenAlgGSCuda</text>
<text text-anchor="middle" x="146" y="-163.5" font-family="Helvetica,sans-Serif" font-size="10.00">/VariantGSStandardCuda.cuh</text>
</a>
</g>
</g>
<!-- Node28&#45;&gt;Node29 -->
<g id="edge1" class="edge"><title>Node28&#45;&gt;Node29</title>
<path fill="none" stroke="midnightblue" d="M146,-224.297C146,-215.301 146,-205.653 146,-197.506"/>
<polygon fill="midnightblue" stroke="midnightblue" points="142.5,-224.428 146,-234.428 149.5,-224.428 142.5,-224.428"/>
</g>
<!-- Node30 -->
<g id="node3" class="node"><title>Node30</title>
<g id="a_node3"><a xlink:href="_algorithm_g_s_man_8h.html" target="_top" xlink:title="C:/Users/palav/Documents\l/Repos/HoloGen/HoloGenAlgGSMan\l/AlgorithmGSMan.h">
<polygon fill="white" stroke="black" points="0,-78.5 0,-119.5 176,-119.5 176,-78.5 0,-78.5"/>
<text text-anchor="start" x="8" y="-107.5" font-family="Helvetica,sans-Serif" font-size="10.00">C:/Users/palav/Documents</text>
<text text-anchor="start" x="8" y="-96.5" font-family="Helvetica,sans-Serif" font-size="10.00">/Repos/HoloGen/HoloGenAlgGSMan</text>
<text text-anchor="middle" x="88" y="-85.5" font-family="Helvetica,sans-Serif" font-size="10.00">/AlgorithmGSMan.h</text>
</a>
</g>
</g>
<!-- Node29&#45;&gt;Node30 -->
<g id="edge2" class="edge"><title>Node29&#45;&gt;Node30</title>
<path fill="none" stroke="midnightblue" d="M124.889,-148.338C117.594,-138.778 109.577,-128.273 102.886,-119.506"/>
<polygon fill="midnightblue" stroke="midnightblue" points="122.214,-150.602 131.064,-156.428 127.779,-146.355 122.214,-150.602"/>
</g>
<!-- Node31 -->
<g id="node4" class="node"><title>Node31</title>
<g id="a_node4"><a xlink:href="_variant_g_s_standard_man_8h.html" target="_top" xlink:title="C:/Users/palav/Documents\l/Repos/HoloGen/HoloGenAlgGSMan\l/VariantGSStandardMan.h">
<polygon fill="white" stroke="black" points="58,-0.5 58,-41.5 234,-41.5 234,-0.5 58,-0.5"/>
<text text-anchor="start" x="66" y="-29.5" font-family="Helvetica,sans-Serif" font-size="10.00">C:/Users/palav/Documents</text>
<text text-anchor="start" x="66" y="-18.5" font-family="Helvetica,sans-Serif" font-size="10.00">/Repos/HoloGen/HoloGenAlgGSMan</text>
<text text-anchor="middle" x="146" y="-7.5" font-family="Helvetica,sans-Serif" font-size="10.00">/VariantGSStandardMan.h</text>
</a>
</g>
</g>
<!-- Node29&#45;&gt;Node31 -->
<g id="edge4" class="edge"><title>Node29&#45;&gt;Node31</title>
<path fill="none" stroke="midnightblue" d="M170.207,-148.299C176.23,-139.784 181.86,-130.004 185,-120 190.591,-102.19 190.591,-95.8098 185,-78 180.813,-64.6615 172.2,-51.7215 164.13,-41.6466"/>
<polygon fill="midnightblue" stroke="midnightblue" points="167.359,-146.262 164.13,-156.353 172.947,-150.478 167.359,-146.262"/>
</g>
<!-- Node30&#45;&gt;Node31 -->
<g id="edge3" class="edge"><title>Node30&#45;&gt;Node31</title>
<path fill="none" stroke="midnightblue" d="M109.111,-70.3376C116.406,-60.7777 124.423,-50.2731 131.114,-41.5056"/>
<polygon fill="midnightblue" stroke="midnightblue" points="106.221,-68.3552 102.936,-78.4281 111.786,-72.6019 106.221,-68.3552"/>
</g>
</g>
</svg>
