<?xml version="1.0" encoding="UTF-8" standalone="no"?>
<!DOCTYPE svg PUBLIC "-//W3C//DTD SVG 1.1//EN"
 "http://www.w3.org/Graphics/SVG/1.1/DTD/svg11.dtd">
<!-- Generated by graphviz version 2.38.0 (20140413.2041)
 -->
<!-- Title: C:/Users/palav/Documents/Repos/HoloGen/HoloGenAlgBaseCuda/FFTDirectionCuda.h Pages: 1 -->
<!--zoomable 596 -->
<svg id="main" version="1.1" xmlns="http://www.w3.org/2000/svg" xmlns:xlink="http://www.w3.org/1999/xlink" xml:space="preserve" onload="init(evt)">
<style type="text/css"><![CDATA[
.edge:hover path { stroke: red; }
.edge:hover polygon { stroke: red; fill: red; }
]]></style>
<script type="text/javascript"><![CDATA[
var edges = document.getElementsByTagName('g');
if (edges && edges.length) {
  for (var i=0;i<edges.length;i++) {
    if (edges[i].id.substr(0,4)=='edge') {
      edges[i].setAttribute('class','edge');
    }
  }
}
]]></script>
        <defs>
                <circle id="rim" cx="0" cy="0" r="7"/>
                <circle id="rim2" cx="0" cy="0" r="3.5"/>
                <g id="zoomPlus">
                        <use xlink:href="#rim" fill="#404040">
                                <set attributeName="fill" to="#808080" begin="zoomplus.mouseover" end="zoomplus.mouseout"/>
                        </use>
                        <path d="M-4,0h8M0,-4v8" fill="none" stroke="white" stroke-width="1.5" pointer-events="none"/>
                </g>
                <g id="zoomMin">
                        <use xlink:href="#rim" fill="#404040">
                                <set attributeName="fill" to="#808080" begin="zoomminus.mouseover" end="zoomminus.mouseout"/>
                        </use>
                        <path d="M-4,0h8" fill="none" stroke="white" stroke-width="1.5" pointer-events="none"/>
                </g>
                <g id="dirArrow">
                        <path fill="none" stroke="white" stroke-width="1.5" d="M0,-3.0v7 M-2.5,-0.5L0,-3.0L2.5,-0.5"/>
                </g>
               <g id="resetDef">
                       <use xlink:href="#rim2" fill="#404040">
                               <set attributeName="fill" to="#808080" begin="reset.mouseover" end="reset.mouseout"/>
                       </use>
               </g>
        </defs>

<script type="text/javascript">
var viewWidth = 780;
var viewHeight = 596;
var sectionId = 'dynsection-0';
</script>
<script xlink:href="svgpan.js"/>
<svg id="graph" class="graph">
<g id="viewport">
<title>C:/Users/palav/Documents/Repos/HoloGen/HoloGenAlgBaseCuda/FFTDirectionCuda.h</title>
<polygon fill="white" stroke="none" points="-4,4 -4,-592 775.537,-592 775.537,4 -4,4"/>
<!-- Node1 -->
<g id="node1" class="node"><title>Node1</title>
<polygon fill="#bfbfbf" stroke="black" points="487.537,-546.5 487.537,-587.5 675.537,-587.5 675.537,-546.5 487.537,-546.5"/>
<text text-anchor="start" x="495.537" y="-575.5" font-family="Helvetica,sans-Serif" font-size="10.00">C:/Users/palav/Documents</text>
<text text-anchor="start" x="495.537" y="-564.5" font-family="Helvetica,sans-Serif" font-size="10.00">/Repos/HoloGen/HoloGenAlgBaseCuda</text>
<text text-anchor="middle" x="581.537" y="-553.5" font-family="Helvetica,sans-Serif" font-size="10.00">/FFTDirectionCuda.h</text>
</g>
<!-- Node2 -->
<g id="node2" class="node"><title>Node2</title>
<g id="a_node2"><a xlink:href="_abstract_quantiser_8cuh.html" target="_top" xlink:title="C:/Users/palav/Documents\l/Repos/HoloGen/HoloGenAlgBaseCuda\l/AbstractQuantiser.cuh">
<polygon fill="white" stroke="black" points="304.537,-468.5 304.537,-509.5 492.537,-509.5 492.537,-468.5 304.537,-468.5"/>
<text text-anchor="start" x="312.537" y="-497.5" font-family="Helvetica,sans-Serif" font-size="10.00">C:/Users/palav/Documents</text>
<text text-anchor="start" x="312.537" y="-486.5" font-family="Helvetica,sans-Serif" font-size="10.00">/Repos/HoloGen/HoloGenAlgBaseCuda</text>
<text text-anchor="middle" x="398.537" y="-475.5" font-family="Helvetica,sans-Serif" font-size="10.00">/AbstractQuantiser.cuh</text>
</a>
</g>
</g>
<!-- Node1&#45;&gt;Node2 -->
<g id="edge1" class="edge"><title>Node1&#45;&gt;Node2</title>
<path fill="none" stroke="midnightblue" d="M524.877,-542.469C499.409,-531.892 469.708,-519.557 445.504,-509.506"/>
<polygon fill="midnightblue" stroke="midnightblue" points="523.832,-545.825 534.41,-546.428 526.517,-539.36 523.832,-545.825"/>
</g>
<!-- Node5 -->
<g id="node5" class="node"><title>Node5</title>
<g id="a_node5"><a xlink:href="_algorithm_f_f_t_cuda_8cuh.html" target="_top" xlink:title="C:/Users/palav/Documents\l/Repos/HoloGen/HoloGenAlgCommon\lCuda/AlgorithmFFTCuda.cuh">
<polygon fill="white" stroke="black" points="530.537,-234.5 530.537,-275.5 712.537,-275.5 712.537,-234.5 530.537,-234.5"/>
<text text-anchor="start" x="538.537" y="-263.5" font-family="Helvetica,sans-Serif" font-size="10.00">C:/Users/palav/Documents</text>
<text text-anchor="start" x="538.537" y="-252.5" font-family="Helvetica,sans-Serif" font-size="10.00">/Repos/HoloGen/HoloGenAlgCommon</text>
<text text-anchor="middle" x="621.537" y="-241.5" font-family="Helvetica,sans-Serif" font-size="10.00">Cuda/AlgorithmFFTCuda.cuh</text>
</a>
</g>
</g>
<!-- Node1&#45;&gt;Node5 -->
<g id="edge18" class="edge"><title>Node1&#45;&gt;Node5</title>
<path fill="none" stroke="midnightblue" d="M586.652,-536.048C591.182,-508.931 597.794,-467.859 602.537,-432 610.032,-375.33 616.666,-308.099 619.733,-275.57"/>
<polygon fill="midnightblue" stroke="midnightblue" points="583.174,-535.623 584.967,-546.065 590.077,-536.784 583.174,-535.623"/>
</g>
<!-- Node6 -->
<g id="node6" class="node"><title>Node6</title>
<g id="a_node6"><a xlink:href="_algorithm_f_f_t_man_8h.html" target="_top" xlink:title="C:/Users/palav/Documents\l/Repos/HoloGen/HoloGenAlgCommon\lMan/AlgorithmFFTMan.h">
<polygon fill="white" stroke="black" points="589.537,-156.5 589.537,-197.5 771.537,-197.5 771.537,-156.5 589.537,-156.5"/>
<text text-anchor="start" x="597.537" y="-185.5" font-family="Helvetica,sans-Serif" font-size="10.00">C:/Users/palav/Documents</text>
<text text-anchor="start" x="597.537" y="-174.5" font-family="Helvetica,sans-Serif" font-size="10.00">/Repos/HoloGen/HoloGenAlgCommon</text>
<text text-anchor="middle" x="680.537" y="-163.5" font-family="Helvetica,sans-Serif" font-size="10.00">Man/AlgorithmFFTMan.h</text>
</a>
</g>
</g>
<!-- Node1&#45;&gt;Node6 -->
<g id="edge19" class="edge"><title>Node1&#45;&gt;Node6</title>
<path fill="none" stroke="midnightblue" d="M634.869,-541.578C681.068,-516.339 740.537,-472.166 740.537,-412 740.537,-412 740.537,-412 740.537,-332 740.537,-287.633 739.293,-274.659 721.537,-234 715.799,-220.86 706.536,-207.835 698.265,-197.658"/>
<polygon fill="midnightblue" stroke="midnightblue" points="633.022,-538.596 625.827,-546.373 636.302,-544.78 633.022,-538.596"/>
</g>
<!-- Node11 -->
<g id="node11" class="node"><title>Node11</title>
<g id="a_node11"><a xlink:href="_quantiser_nearest_8cuh.html" target="_top" xlink:title="C:/Users/palav/Documents\l/Repos/HoloGen/HoloGenAlgBaseCuda\l/QuantiserNearest.cuh">
<polygon fill="white" stroke="black" points="405.537,-390.5 405.537,-431.5 593.537,-431.5 593.537,-390.5 405.537,-390.5"/>
<text text-anchor="start" x="413.537" y="-419.5" font-family="Helvetica,sans-Serif" font-size="10.00">C:/Users/palav/Documents</text>
<text text-anchor="start" x="413.537" y="-408.5" font-family="Helvetica,sans-Serif" font-size="10.00">/Repos/HoloGen/HoloGenAlgBaseCuda</text>
<text text-anchor="middle" x="499.537" y="-397.5" font-family="Helvetica,sans-Serif" font-size="10.00">/QuantiserNearest.cuh</text>
</a>
</g>
</g>
<!-- Node1&#45;&gt;Node11 -->
<g id="edge17" class="edge"><title>Node1&#45;&gt;Node11</title>
<path fill="none" stroke="midnightblue" d="M566.396,-537.565C550.04,-506.847 524.406,-458.705 510.097,-431.832"/>
<polygon fill="midnightblue" stroke="midnightblue" points="563.362,-539.314 571.152,-546.496 569.541,-536.024 563.362,-539.314"/>
</g>
<!-- Node3 -->
<g id="node3" class="node"><title>Node3</title>
<g id="a_node3"><a xlink:href="_algorithm_cuda_8cuh.html" target="_top" xlink:title="C:/Users/palav/Documents\l/Repos/HoloGen/HoloGenAlgBaseCuda\l/AlgorithmCuda.cuh">
<polygon fill="white" stroke="black" points="285.537,-312.5 285.537,-353.5 473.537,-353.5 473.537,-312.5 285.537,-312.5"/>
<text text-anchor="start" x="293.537" y="-341.5" font-family="Helvetica,sans-Serif" font-size="10.00">C:/Users/palav/Documents</text>
<text text-anchor="start" x="293.537" y="-330.5" font-family="Helvetica,sans-Serif" font-size="10.00">/Repos/HoloGen/HoloGenAlgBaseCuda</text>
<text text-anchor="middle" x="379.537" y="-319.5" font-family="Helvetica,sans-Serif" font-size="10.00">/AlgorithmCuda.cuh</text>
</a>
</g>
</g>
<!-- Node2&#45;&gt;Node3 -->
<g id="edge2" class="edge"><title>Node2&#45;&gt;Node3</title>
<path fill="none" stroke="midnightblue" d="M394.881,-458.365C391.086,-427.606 385.256,-380.358 381.984,-353.832"/>
<polygon fill="midnightblue" stroke="midnightblue" points="391.432,-459 396.131,-468.496 398.38,-458.142 391.432,-459"/>
</g>
<!-- Node7 -->
<g id="node7" class="node"><title>Node7</title>
<g id="a_node7"><a xlink:href="_variant_g_s_standard_cuda_8cuh.html" target="_top" xlink:title="C:/Users/palav/Documents\l/Repos/HoloGen/HoloGenAlgGSCuda\l/VariantGSStandardCuda.cuh">
<polygon fill="white" stroke="black" points="55.037,-156.5 55.037,-197.5 234.037,-197.5 234.037,-156.5 55.037,-156.5"/>
<text text-anchor="start" x="63.037" y="-185.5" font-family="Helvetica,sans-Serif" font-size="10.00">C:/Users/palav/Documents</text>
<text text-anchor="start" x="63.037" y="-174.5" font-family="Helvetica,sans-Serif" font-size="10.00">/Repos/HoloGen/HoloGenAlgGSCuda</text>
<text text-anchor="middle" x="144.537" y="-163.5" font-family="Helvetica,sans-Serif" font-size="10.00">/VariantGSStandardCuda.cuh</text>
</a>
</g>
</g>
<!-- Node2&#45;&gt;Node7 -->
<g id="edge16" class="edge"><title>Node2&#45;&gt;Node7</title>
<path fill="none" stroke="midnightblue" d="M301.209,-465.628C207.404,-438.322 70.6757,-382.056 7.53699,-276 -2.01183,-259.961 -2.86983,-249.497 7.53699,-234 18.8539,-217.148 36.2327,-205.364 54.8543,-197.125"/>
<polygon fill="midnightblue" stroke="midnightblue" points="300.425,-469.044 311.002,-468.419 302.344,-462.312 300.425,-469.044"/>
</g>
<!-- Node2&#45;&gt;Node11 -->
<g id="edge14" class="edge"><title>Node2&#45;&gt;Node11</title>
<path fill="none" stroke="midnightblue" d="M432.624,-462.35C446.018,-452.272 461.14,-440.893 473.615,-431.506"/>
<polygon fill="midnightblue" stroke="midnightblue" points="430.433,-459.619 424.547,-468.428 434.642,-465.212 430.433,-459.619"/>
</g>
<!-- Node4 -->
<g id="node4" class="node"><title>Node4</title>
<g id="a_node4"><a xlink:href="_algorithm_man_8h.html" target="_top" xlink:title="C:/Users/palav/Documents\l/Repos/HoloGen/HoloGenAlgBaseMan\l/AlgorithmMan.h">
<polygon fill="white" stroke="black" points="290.537,-234.5 290.537,-275.5 474.537,-275.5 474.537,-234.5 290.537,-234.5"/>
<text text-anchor="start" x="298.537" y="-263.5" font-family="Helvetica,sans-Serif" font-size="10.00">C:/Users/palav/Documents</text>
<text text-anchor="start" x="298.537" y="-252.5" font-family="Helvetica,sans-Serif" font-size="10.00">/Repos/HoloGen/HoloGenAlgBaseMan</text>
<text text-anchor="middle" x="382.537" y="-241.5" font-family="Helvetica,sans-Serif" font-size="10.00">/AlgorithmMan.h</text>
</a>
</g>
</g>
<!-- Node3&#45;&gt;Node4 -->
<g id="edge3" class="edge"><title>Node3&#45;&gt;Node4</title>
<path fill="none" stroke="midnightblue" d="M380.709,-302.297C381.065,-293.301 381.445,-283.653 381.767,-275.506"/>
<polygon fill="midnightblue" stroke="midnightblue" points="377.207,-302.298 380.31,-312.428 384.201,-302.574 377.207,-302.298"/>
</g>
<!-- Node3&#45;&gt;Node5 -->
<g id="edge4" class="edge"><title>Node3&#45;&gt;Node5</title>
<path fill="none" stroke="midnightblue" d="M451.806,-309.304C486.062,-298.546 526.575,-285.823 559.427,-275.506"/>
<polygon fill="midnightblue" stroke="midnightblue" points="450.35,-306.093 441.858,-312.428 452.447,-312.771 450.35,-306.093"/>
</g>
<!-- Node3&#45;&gt;Node7 -->
<g id="edge6" class="edge"><title>Node3&#45;&gt;Node7</title>
<path fill="none" stroke="midnightblue" d="M312.509,-308.748C291.224,-299.972 268.142,-288.93 248.537,-276 225.969,-261.115 224.197,-252.557 204.537,-234 191.688,-221.872 177.209,-208.355 165.694,-197.639"/>
<polygon fill="midnightblue" stroke="midnightblue" points="311.239,-312.01 321.822,-312.494 313.851,-305.516 311.239,-312.01"/>
</g>
<!-- Node8 -->
<g id="node8" class="node"><title>Node8</title>
<g id="a_node8"><a xlink:href="_algorithm_g_s_man_8h.html" target="_top" xlink:title="C:/Users/palav/Documents\l/Repos/HoloGen/HoloGenAlgGSMan\l/AlgorithmGSMan.h">
<polygon fill="white" stroke="black" points="173.537,-78.5 173.537,-119.5 349.537,-119.5 349.537,-78.5 173.537,-78.5"/>
<text text-anchor="start" x="181.537" y="-107.5" font-family="Helvetica,sans-Serif" font-size="10.00">C:/Users/palav/Documents</text>
<text text-anchor="start" x="181.537" y="-96.5" font-family="Helvetica,sans-Serif" font-size="10.00">/Repos/HoloGen/HoloGenAlgGSMan</text>
<text text-anchor="middle" x="261.537" y="-85.5" font-family="Helvetica,sans-Serif" font-size="10.00">/AlgorithmGSMan.h</text>
</a>
</g>
</g>
<!-- Node3&#45;&gt;Node8 -->
<g id="edge12" class="edge"><title>Node3&#45;&gt;Node8</title>
<path fill="none" stroke="midnightblue" d="M316.275,-307.422C302.826,-299.359 290.113,-289.022 281.537,-276 249.484,-227.332 253.925,-154.277 258.396,-119.606"/>
<polygon fill="midnightblue" stroke="midnightblue" points="314.746,-310.577 325.183,-312.398 318.16,-304.466 314.746,-310.577"/>
</g>
<!-- Node9 -->
<g id="node9" class="node"><title>Node9</title>
<g id="a_node9"><a xlink:href="_variant_g_s_standard_man_8h.html" target="_top" xlink:title="C:/Users/palav/Documents\l/Repos/HoloGen/HoloGenAlgGSMan\l/VariantGSStandardMan.h">
<polygon fill="white" stroke="black" points="173.537,-0.5 173.537,-41.5 349.537,-41.5 349.537,-0.5 173.537,-0.5"/>
<text text-anchor="start" x="181.537" y="-29.5" font-family="Helvetica,sans-Serif" font-size="10.00">C:/Users/palav/Documents</text>
<text text-anchor="start" x="181.537" y="-18.5" font-family="Helvetica,sans-Serif" font-size="10.00">/Repos/HoloGen/HoloGenAlgGSMan</text>
<text text-anchor="middle" x="261.537" y="-7.5" font-family="Helvetica,sans-Serif" font-size="10.00">/VariantGSStandardMan.h</text>
</a>
</g>
</g>
<!-- Node3&#45;&gt;Node9 -->
<g id="edge13" class="edge"><title>Node3&#45;&gt;Node9</title>
<path fill="none" stroke="midnightblue" d="M449.911,-307.553C463.306,-299.606 475.601,-289.287 483.537,-276 493.109,-259.974 489.723,-251.612 483.537,-234 454.096,-150.174 425.947,-135.874 358.537,-78 341.865,-63.6868 321.012,-51.0984 302.917,-41.501"/>
<polygon fill="midnightblue" stroke="midnightblue" points="448.075,-304.568 440.985,-312.441 451.437,-310.708 448.075,-304.568"/>
</g>
<!-- Node10 -->
<g id="node10" class="node"><title>Node10</title>
<g id="a_node10"><a xlink:href="_algorithm_g_s_cuda_8cuh.html" target="_top" xlink:title="C:/Users/palav/Documents\l/Repos/HoloGen/HoloGenAlgGSCuda\l/AlgorithmGSCuda.cuh">
<polygon fill="white" stroke="black" points="17.037,-234.5 17.037,-275.5 196.037,-275.5 196.037,-234.5 17.037,-234.5"/>
<text text-anchor="start" x="25.037" y="-263.5" font-family="Helvetica,sans-Serif" font-size="10.00">C:/Users/palav/Documents</text>
<text text-anchor="start" x="25.037" y="-252.5" font-family="Helvetica,sans-Serif" font-size="10.00">/Repos/HoloGen/HoloGenAlgGSCuda</text>
<text text-anchor="middle" x="106.537" y="-241.5" font-family="Helvetica,sans-Serif" font-size="10.00">/AlgorithmGSCuda.cuh</text>
</a>
</g>
</g>
<!-- Node3&#45;&gt;Node10 -->
<g id="edge10" class="edge"><title>Node3&#45;&gt;Node10</title>
<path fill="none" stroke="midnightblue" d="M299.499,-309.718C260.544,-298.874 214.141,-285.956 176.603,-275.506"/>
<polygon fill="midnightblue" stroke="midnightblue" points="298.66,-313.118 309.233,-312.428 300.538,-306.374 298.66,-313.118"/>
</g>
<!-- Node5&#45;&gt;Node6 -->
<g id="edge5" class="edge"><title>Node5&#45;&gt;Node6</title>
<path fill="none" stroke="midnightblue" d="M643.012,-226.338C650.433,-216.778 658.588,-206.273 665.395,-197.506"/>
<polygon fill="midnightblue" stroke="midnightblue" points="640.099,-224.383 636.731,-234.428 645.628,-228.675 640.099,-224.383"/>
</g>
<!-- Node7&#45;&gt;Node8 -->
<g id="edge7" class="edge"><title>Node7&#45;&gt;Node8</title>
<path fill="none" stroke="midnightblue" d="M183.148,-150.919C198.877,-140.702 216.784,-129.07 231.509,-119.506"/>
<polygon fill="midnightblue" stroke="midnightblue" points="181.147,-148.046 174.667,-156.428 184.96,-153.916 181.147,-148.046"/>
</g>
<!-- Node7&#45;&gt;Node9 -->
<g id="edge9" class="edge"><title>Node7&#45;&gt;Node9</title>
<path fill="none" stroke="midnightblue" d="M144.368,-146.247C145.645,-125.384 150.276,-97.7968 164.537,-78 175.846,-62.3012 193.017,-50.3461 209.786,-41.5961"/>
<polygon fill="midnightblue" stroke="midnightblue" points="140.862,-146.339 143.973,-156.467 147.857,-146.61 140.862,-146.339"/>
</g>
<!-- Node8&#45;&gt;Node9 -->
<g id="edge8" class="edge"><title>Node8&#45;&gt;Node9</title>
<path fill="none" stroke="midnightblue" d="M261.537,-68.2965C261.537,-59.3009 261.537,-49.6532 261.537,-41.5056"/>
<polygon fill="midnightblue" stroke="midnightblue" points="258.037,-68.4281 261.537,-78.4281 265.037,-68.4281 258.037,-68.4281"/>
</g>
<!-- Node10&#45;&gt;Node7 -->
<g id="edge11" class="edge"><title>Node10&#45;&gt;Node7</title>
<path fill="none" stroke="midnightblue" d="M120.804,-225.466C125.466,-216.143 130.533,-206.007 134.784,-197.506"/>
<polygon fill="midnightblue" stroke="midnightblue" points="117.665,-223.919 116.323,-234.428 123.926,-227.049 117.665,-223.919"/>
</g>
<!-- Node11&#45;&gt;Node3 -->
<g id="edge15" class="edge"><title>Node11&#45;&gt;Node3</title>
<path fill="none" stroke="midnightblue" d="M459.936,-384.919C443.803,-374.702 425.437,-363.07 410.335,-353.506"/>
<polygon fill="midnightblue" stroke="midnightblue" points="458.313,-388.034 468.634,-390.428 462.058,-382.121 458.313,-388.034"/>
</g>
</g>
</svg>
        <g id="navigator" transform="translate(0 0)" fill="#404254">
                <rect fill="#f2f5e9" fill-opacity="0.5" stroke="#606060" stroke-width=".5" x="0" y="0" width="60" height="60"/>
                <use id="zoomplus" xlink:href="#zoomPlus" x="17" y="9" onmousedown="handleZoom(evt,'in')"/>
                <use id="zoomminus" xlink:href="#zoomMin" x="42" y="9" onmousedown="handleZoom(evt,'out')"/>
                <use id="reset" xlink:href="#resetDef" x="30" y="36" onmousedown="handleReset()"/>
                <g id="arrowUp" xlink:href="#dirArrow" transform="translate(30 24)" onmousedown="handlePan(0,-1)">
                  <use xlink:href="#rim" fill="#404040">
                        <set attributeName="fill" to="#808080" begin="arrowUp.mouseover" end="arrowUp.mouseout"/>
                  </use>
                  <path fill="none" stroke="white" stroke-width="1.5" d="M0,-3.0v7 M-2.5,-0.5L0,-3.0L2.5,-0.5"/>
                </g>
                <g id="arrowRight" xlink:href="#dirArrow" transform="rotate(90) translate(36 -43)" onmousedown="handlePan(1,0)">
                  <use xlink:href="#rim" fill="#404040">
                        <set attributeName="fill" to="#808080" begin="arrowRight.mouseover" end="arrowRight.mouseout"/>
                  </use>
                  <path fill="none" stroke="white" stroke-width="1.5" d="M0,-3.0v7 M-2.5,-0.5L0,-3.0L2.5,-0.5"/>
                </g>
                <g id="arrowDown" xlink:href="#dirArrow" transform="rotate(180) translate(-30 -48)" onmousedown="handlePan(0,1)">
                  <use xlink:href="#rim" fill="#404040">
                        <set attributeName="fill" to="#808080" begin="arrowDown.mouseover" end="arrowDown.mouseout"/>
                  </use>
                  <path fill="none" stroke="white" stroke-width="1.5" d="M0,-3.0v7 M-2.5,-0.5L0,-3.0L2.5,-0.5"/>
                </g>
                <g id="arrowLeft" xlink:href="#dirArrow" transform="rotate(270) translate(-36 17)" onmousedown="handlePan(-1,0)">
                  <use xlink:href="#rim" fill="#404040">
                        <set attributeName="fill" to="#808080" begin="arrowLeft.mouseover" end="arrowLeft.mouseout"/>
                  </use>
                  <path fill="none" stroke="white" stroke-width="1.5" d="M0,-3.0v7 M-2.5,-0.5L0,-3.0L2.5,-0.5"/>
                </g>
        </g>
        <svg viewBox="0 0 15 15" width="100%" height="30px" preserveAspectRatio="xMaxYMin meet">
         <g id="arrow_out" transform="scale(0.3 0.3)">
          <a xlink:href="_f_f_t_direction_cuda_8h__dep__incl_org.svg" target="_base">
           <rect id="button" ry="5" rx="5" y="6" x="6" height="38" width="38"
                fill="#f2f5e9" fill-opacity="0.5" stroke="#606060" stroke-width="1.0"/>
           <path id="arrow"
             d="M 11.500037,31.436501 C 11.940474,20.09759 22.043105,11.32322 32.158766,21.979434 L 37.068811,17.246167 C 37.068811,17.246167 37.088388,32 37.088388,32 L 22.160133,31.978069 C 22.160133,31.978069 26.997745,27.140456 26.997745,27.140456 C 18.528582,18.264221 13.291696,25.230495 11.500037,31.436501 z"
             style="fill:#404040;"/>
          </a>
         </g>
        </svg>
</svg>
