<?xml version="1.0" encoding="UTF-8" standalone="no"?>
<!DOCTYPE svg PUBLIC "-//W3C//DTD SVG 1.1//EN"
 "http://www.w3.org/Graphics/SVG/1.1/DTD/svg11.dtd">
<!-- Generated by graphviz version 2.38.0 (20140413.2041)
 -->
<!-- Title: C:/Users/palav/Documents/Repos/HoloGen/HoloGenAlgBaseCuda/FFTScaleType.h Pages: 1 -->
<!--zoomable 596 -->
<svg id="main" version="1.1" xmlns="http://www.w3.org/2000/svg" xmlns:xlink="http://www.w3.org/1999/xlink" xml:space="preserve" onload="init(evt)">
<style type="text/css"><![CDATA[
.edge:hover path { stroke: red; }
.edge:hover polygon { stroke: red; fill: red; }
]]></style>
<script type="text/javascript"><![CDATA[
var edges = document.getElementsByTagName('g');
if (edges && edges.length) {
  for (var i=0;i<edges.length;i++) {
    if (edges[i].id.substr(0,4)=='edge') {
      edges[i].setAttribute('class','edge');
    }
  }
}
]]></script>
        <defs>
                <circle id="rim" cx="0" cy="0" r="7"/>
                <circle id="rim2" cx="0" cy="0" r="3.5"/>
                <g id="zoomPlus">
                        <use xlink:href="#rim" fill="#404040">
                                <set attributeName="fill" to="#808080" begin="zoomplus.mouseover" end="zoomplus.mouseout"/>
                        </use>
                        <path d="M-4,0h8M0,-4v8" fill="none" stroke="white" stroke-width="1.5" pointer-events="none"/>
                </g>
                <g id="zoomMin">
                        <use xlink:href="#rim" fill="#404040">
                                <set attributeName="fill" to="#808080" begin="zoomminus.mouseover" end="zoomminus.mouseout"/>
                        </use>
                        <path d="M-4,0h8" fill="none" stroke="white" stroke-width="1.5" pointer-events="none"/>
                </g>
                <g id="dirArrow">
                        <path fill="none" stroke="white" stroke-width="1.5" d="M0,-3.0v7 M-2.5,-0.5L0,-3.0L2.5,-0.5"/>
                </g>
               <g id="resetDef">
                       <use xlink:href="#rim2" fill="#404040">
                               <set attributeName="fill" to="#808080" begin="reset.mouseover" end="reset.mouseout"/>
                       </use>
               </g>
        </defs>

<script type="text/javascript">
var viewWidth = 724;
var viewHeight = 596;
var sectionId = 'dynsection-0';
</script>
<script xlink:href="svgpan.js"/>
<svg id="graph" class="graph">
<g id="viewport">
<title>C:/Users/palav/Documents/Repos/HoloGen/HoloGenAlgBaseCuda/FFTScaleType.h</title>
<polygon fill="white" stroke="none" points="-4,4 -4,-592 719.583,-592 719.583,4 -4,4"/>
<!-- Node1 -->
<g id="node1" class="node"><title>Node1</title>
<polygon fill="#bfbfbf" stroke="black" points="283.797,-546.5 283.797,-587.5 471.797,-587.5 471.797,-546.5 283.797,-546.5"/>
<text text-anchor="start" x="291.797" y="-575.5" font-family="Helvetica,sans-Serif" font-size="10.00">C:/Users/palav/Documents</text>
<text text-anchor="start" x="291.797" y="-564.5" font-family="Helvetica,sans-Serif" font-size="10.00">/Repos/HoloGen/HoloGenAlgBaseCuda</text>
<text text-anchor="middle" x="377.797" y="-553.5" font-family="Helvetica,sans-Serif" font-size="10.00">/FFTScaleType.h</text>
</g>
<!-- Node2 -->
<g id="node2" class="node"><title>Node2</title>
<g id="a_node2"><a xlink:href="_abstract_quantiser_8cuh.html" target="_top" xlink:title="C:/Users/palav/Documents\l/Repos/HoloGen/HoloGenAlgBaseCuda\l/AbstractQuantiser.cuh">
<polygon fill="white" stroke="black" points="222.797,-468.5 222.797,-509.5 410.797,-509.5 410.797,-468.5 222.797,-468.5"/>
<text text-anchor="start" x="230.797" y="-497.5" font-family="Helvetica,sans-Serif" font-size="10.00">C:/Users/palav/Documents</text>
<text text-anchor="start" x="230.797" y="-486.5" font-family="Helvetica,sans-Serif" font-size="10.00">/Repos/HoloGen/HoloGenAlgBaseCuda</text>
<text text-anchor="middle" x="316.797" y="-475.5" font-family="Helvetica,sans-Serif" font-size="10.00">/AbstractQuantiser.cuh</text>
</a>
</g>
</g>
<!-- Node1&#45;&gt;Node2 -->
<g id="edge1" class="edge"><title>Node1&#45;&gt;Node2</title>
<path fill="none" stroke="midnightblue" d="M355.827,-538.627C348.092,-528.99 339.561,-518.362 332.453,-509.506"/>
<polygon fill="midnightblue" stroke="midnightblue" points="353.099,-540.82 362.088,-546.428 358.558,-536.439 353.099,-540.82"/>
</g>
<!-- Node11 -->
<g id="node11" class="node"><title>Node11</title>
<g id="a_node11"><a xlink:href="_quantiser_nearest_8cuh.html" target="_top" xlink:title="C:/Users/palav/Documents\l/Repos/HoloGen/HoloGenAlgBaseCuda\l/QuantiserNearest.cuh">
<polygon fill="white" stroke="black" points="344.797,-390.5 344.797,-431.5 532.797,-431.5 532.797,-390.5 344.797,-390.5"/>
<text text-anchor="start" x="352.797" y="-419.5" font-family="Helvetica,sans-Serif" font-size="10.00">C:/Users/palav/Documents</text>
<text text-anchor="start" x="352.797" y="-408.5" font-family="Helvetica,sans-Serif" font-size="10.00">/Repos/HoloGen/HoloGenAlgBaseCuda</text>
<text text-anchor="middle" x="438.797" y="-397.5" font-family="Helvetica,sans-Serif" font-size="10.00">/QuantiserNearest.cuh</text>
</a>
</g>
</g>
<!-- Node1&#45;&gt;Node11 -->
<g id="edge17" class="edge"><title>Node1&#45;&gt;Node11</title>
<path fill="none" stroke="midnightblue" d="M402.24,-538.561C408.828,-529.927 415.353,-520.018 419.797,-510 431.181,-484.336 435.766,-451.909 437.598,-431.555"/>
<polygon fill="midnightblue" stroke="midnightblue" points="399.477,-536.412 395.97,-546.41 404.946,-540.781 399.477,-536.412"/>
</g>
<!-- Node3 -->
<g id="node3" class="node"><title>Node3</title>
<g id="a_node3"><a xlink:href="_algorithm_cuda_8cuh.html" target="_top" xlink:title="C:/Users/palav/Documents\l/Repos/HoloGen/HoloGenAlgBaseCuda\l/AlgorithmCuda.cuh">
<polygon fill="white" stroke="black" points="344.797,-312.5 344.797,-353.5 532.797,-353.5 532.797,-312.5 344.797,-312.5"/>
<text text-anchor="start" x="352.797" y="-341.5" font-family="Helvetica,sans-Serif" font-size="10.00">C:/Users/palav/Documents</text>
<text text-anchor="start" x="352.797" y="-330.5" font-family="Helvetica,sans-Serif" font-size="10.00">/Repos/HoloGen/HoloGenAlgBaseCuda</text>
<text text-anchor="middle" x="438.797" y="-319.5" font-family="Helvetica,sans-Serif" font-size="10.00">/AlgorithmCuda.cuh</text>
</a>
</g>
</g>
<!-- Node2&#45;&gt;Node3 -->
<g id="edge2" class="edge"><title>Node2&#45;&gt;Node3</title>
<path fill="none" stroke="midnightblue" d="M316.123,-458.154C317.091,-437.248 321.408,-409.645 335.797,-390 347.463,-374.072 365.076,-362.174 382.455,-353.54"/>
<polygon fill="midnightblue" stroke="midnightblue" points="312.619,-458.321 315.887,-468.399 319.617,-458.483 312.619,-458.321"/>
</g>
<!-- Node7 -->
<g id="node7" class="node"><title>Node7</title>
<g id="a_node7"><a xlink:href="_variant_g_s_standard_cuda_8cuh.html" target="_top" xlink:title="C:/Users/palav/Documents\l/Repos/HoloGen/HoloGenAlgGSCuda\l/VariantGSStandardCuda.cuh">
<polygon fill="white" stroke="black" points="269.297,-156.5 269.297,-197.5 448.297,-197.5 448.297,-156.5 269.297,-156.5"/>
<text text-anchor="start" x="277.297" y="-185.5" font-family="Helvetica,sans-Serif" font-size="10.00">C:/Users/palav/Documents</text>
<text text-anchor="start" x="277.297" y="-174.5" font-family="Helvetica,sans-Serif" font-size="10.00">/Repos/HoloGen/HoloGenAlgGSCuda</text>
<text text-anchor="middle" x="358.797" y="-163.5" font-family="Helvetica,sans-Serif" font-size="10.00">/VariantGSStandardCuda.cuh</text>
</a>
</g>
</g>
<!-- Node2&#45;&gt;Node7 -->
<g id="edge16" class="edge"><title>Node2&#45;&gt;Node7</title>
<path fill="none" stroke="midnightblue" d="M249.354,-465C138.24,-423.621 -63.1551,-331.779 19.797,-234 51.1997,-196.984 179.687,-184.4 269.126,-180.144"/>
<polygon fill="midnightblue" stroke="midnightblue" points="248.236,-468.319 258.83,-468.489 250.655,-461.75 248.236,-468.319"/>
</g>
<!-- Node2&#45;&gt;Node11 -->
<g id="edge14" class="edge"><title>Node2&#45;&gt;Node11</title>
<path fill="none" stroke="midnightblue" d="M357.058,-462.919C373.46,-452.702 392.132,-441.07 407.485,-431.506"/>
<polygon fill="midnightblue" stroke="midnightblue" points="354.852,-460.17 348.215,-468.428 358.554,-466.111 354.852,-460.17"/>
</g>
<!-- Node4 -->
<g id="node4" class="node"><title>Node4</title>
<g id="a_node4"><a xlink:href="_algorithm_man_8h.html" target="_top" xlink:title="C:/Users/palav/Documents\l/Repos/HoloGen/HoloGenAlgBaseMan\l/AlgorithmMan.h">
<polygon fill="white" stroke="black" points="226.797,-234.5 226.797,-275.5 410.797,-275.5 410.797,-234.5 226.797,-234.5"/>
<text text-anchor="start" x="234.797" y="-263.5" font-family="Helvetica,sans-Serif" font-size="10.00">C:/Users/palav/Documents</text>
<text text-anchor="start" x="234.797" y="-252.5" font-family="Helvetica,sans-Serif" font-size="10.00">/Repos/HoloGen/HoloGenAlgBaseMan</text>
<text text-anchor="middle" x="318.797" y="-241.5" font-family="Helvetica,sans-Serif" font-size="10.00">/AlgorithmMan.h</text>
</a>
</g>
</g>
<!-- Node3&#45;&gt;Node4 -->
<g id="edge3" class="edge"><title>Node3&#45;&gt;Node4</title>
<path fill="none" stroke="midnightblue" d="M399.196,-306.919C383.063,-296.702 364.697,-285.07 349.595,-275.506"/>
<polygon fill="midnightblue" stroke="midnightblue" points="397.573,-310.034 407.894,-312.428 401.319,-304.121 397.573,-310.034"/>
</g>
<!-- Node5 -->
<g id="node5" class="node"><title>Node5</title>
<g id="a_node5"><a xlink:href="_algorithm_f_f_t_cuda_8cuh.html" target="_top" xlink:title="C:/Users/palav/Documents\l/Repos/HoloGen/HoloGenAlgCommon\lCuda/AlgorithmFFTCuda.cuh">
<polygon fill="white" stroke="black" points="466.797,-234.5 466.797,-275.5 648.797,-275.5 648.797,-234.5 466.797,-234.5"/>
<text text-anchor="start" x="474.797" y="-263.5" font-family="Helvetica,sans-Serif" font-size="10.00">C:/Users/palav/Documents</text>
<text text-anchor="start" x="474.797" y="-252.5" font-family="Helvetica,sans-Serif" font-size="10.00">/Repos/HoloGen/HoloGenAlgCommon</text>
<text text-anchor="middle" x="557.797" y="-241.5" font-family="Helvetica,sans-Serif" font-size="10.00">Cuda/AlgorithmFFTCuda.cuh</text>
</a>
</g>
</g>
<!-- Node3&#45;&gt;Node5 -->
<g id="edge4" class="edge"><title>Node3&#45;&gt;Node5</title>
<path fill="none" stroke="midnightblue" d="M478.068,-306.919C494.066,-296.702 512.279,-285.07 527.255,-275.506"/>
<polygon fill="midnightblue" stroke="midnightblue" points="475.986,-304.096 469.442,-312.428 479.754,-309.995 475.986,-304.096"/>
</g>
<!-- Node3&#45;&gt;Node7 -->
<g id="edge6" class="edge"><title>Node3&#45;&gt;Node7</title>
<path fill="none" stroke="midnightblue" d="M437.854,-302.11C436.089,-281.787 431.483,-254.901 419.797,-234 411.869,-219.821 399.055,-207.248 387.213,-197.626"/>
<polygon fill="midnightblue" stroke="midnightblue" points="434.38,-302.621 438.554,-312.359 441.364,-302.143 434.38,-302.621"/>
</g>
<!-- Node8 -->
<g id="node8" class="node"><title>Node8</title>
<g id="a_node8"><a xlink:href="_algorithm_g_s_man_8h.html" target="_top" xlink:title="C:/Users/palav/Documents\l/Repos/HoloGen/HoloGenAlgGSMan\l/AlgorithmGSMan.h">
<polygon fill="white" stroke="black" points="479.797,-78.5 479.797,-119.5 655.797,-119.5 655.797,-78.5 479.797,-78.5"/>
<text text-anchor="start" x="487.797" y="-107.5" font-family="Helvetica,sans-Serif" font-size="10.00">C:/Users/palav/Documents</text>
<text text-anchor="start" x="487.797" y="-96.5" font-family="Helvetica,sans-Serif" font-size="10.00">/Repos/HoloGen/HoloGenAlgGSMan</text>
<text text-anchor="middle" x="567.797" y="-85.5" font-family="Helvetica,sans-Serif" font-size="10.00">/AlgorithmGSMan.h</text>
</a>
</g>
</g>
<!-- Node3&#45;&gt;Node8 -->
<g id="edge12" class="edge"><title>Node3&#45;&gt;Node8</title>
<path fill="none" stroke="midnightblue" d="M542.975,-317.75C592.035,-308.689 643.02,-295.031 657.797,-276 690.506,-233.874 683.698,-202.622 657.797,-156 649.039,-140.235 633.797,-128.333 618.319,-119.648"/>
<polygon fill="midnightblue" stroke="midnightblue" points="542.102,-314.351 532.875,-319.558 543.336,-321.241 542.102,-314.351"/>
</g>
<!-- Node9 -->
<g id="node9" class="node"><title>Node9</title>
<g id="a_node9"><a xlink:href="_variant_g_s_standard_man_8h.html" target="_top" xlink:title="C:/Users/palav/Documents\l/Repos/HoloGen/HoloGenAlgGSMan\l/VariantGSStandardMan.h">
<polygon fill="white" stroke="black" points="479.797,-0.5 479.797,-41.5 655.797,-41.5 655.797,-0.5 479.797,-0.5"/>
<text text-anchor="start" x="487.797" y="-29.5" font-family="Helvetica,sans-Serif" font-size="10.00">C:/Users/palav/Documents</text>
<text text-anchor="start" x="487.797" y="-18.5" font-family="Helvetica,sans-Serif" font-size="10.00">/Repos/HoloGen/HoloGenAlgGSMan</text>
<text text-anchor="middle" x="567.797" y="-7.5" font-family="Helvetica,sans-Serif" font-size="10.00">/VariantGSStandardMan.h</text>
</a>
</g>
</g>
<!-- Node3&#45;&gt;Node9 -->
<g id="edge13" class="edge"><title>Node3&#45;&gt;Node9</title>
<path fill="none" stroke="midnightblue" d="M542.984,-321.035C600.968,-312.547 664.975,-298.376 682.797,-276 737.849,-206.882 716.92,-149.352 664.797,-78 653.327,-62.2981 636.017,-50.3184 619.179,-41.5488"/>
<polygon fill="midnightblue" stroke="midnightblue" points="542.401,-317.582 532.991,-322.451 543.383,-324.513 542.401,-317.582"/>
</g>
<!-- Node10 -->
<g id="node10" class="node"><title>Node10</title>
<g id="a_node10"><a xlink:href="_algorithm_g_s_cuda_8cuh.html" target="_top" xlink:title="C:/Users/palav/Documents\l/Repos/HoloGen/HoloGenAlgGSCuda\l/AlgorithmGSCuda.cuh">
<polygon fill="white" stroke="black" points="29.297,-234.5 29.297,-275.5 208.297,-275.5 208.297,-234.5 29.297,-234.5"/>
<text text-anchor="start" x="37.297" y="-263.5" font-family="Helvetica,sans-Serif" font-size="10.00">C:/Users/palav/Documents</text>
<text text-anchor="start" x="37.297" y="-252.5" font-family="Helvetica,sans-Serif" font-size="10.00">/Repos/HoloGen/HoloGenAlgGSCuda</text>
<text text-anchor="middle" x="118.797" y="-241.5" font-family="Helvetica,sans-Serif" font-size="10.00">/AlgorithmGSCuda.cuh</text>
</a>
</g>
</g>
<!-- Node3&#45;&gt;Node10 -->
<g id="edge10" class="edge"><title>Node3&#45;&gt;Node10</title>
<path fill="none" stroke="midnightblue" d="M346.428,-310.062C300.472,-299.148 245.393,-286.066 200.926,-275.506"/>
<polygon fill="midnightblue" stroke="midnightblue" points="345.851,-313.523 356.389,-312.428 347.468,-306.712 345.851,-313.523"/>
</g>
<!-- Node6 -->
<g id="node6" class="node"><title>Node6</title>
<g id="a_node6"><a xlink:href="_algorithm_f_f_t_man_8h.html" target="_top" xlink:title="C:/Users/palav/Documents\l/Repos/HoloGen/HoloGenAlgCommon\lMan/AlgorithmFFTMan.h">
<polygon fill="white" stroke="black" points="466.797,-156.5 466.797,-197.5 648.797,-197.5 648.797,-156.5 466.797,-156.5"/>
<text text-anchor="start" x="474.797" y="-185.5" font-family="Helvetica,sans-Serif" font-size="10.00">C:/Users/palav/Documents</text>
<text text-anchor="start" x="474.797" y="-174.5" font-family="Helvetica,sans-Serif" font-size="10.00">/Repos/HoloGen/HoloGenAlgCommon</text>
<text text-anchor="middle" x="557.797" y="-163.5" font-family="Helvetica,sans-Serif" font-size="10.00">Man/AlgorithmFFTMan.h</text>
</a>
</g>
</g>
<!-- Node5&#45;&gt;Node6 -->
<g id="edge5" class="edge"><title>Node5&#45;&gt;Node6</title>
<path fill="none" stroke="midnightblue" d="M557.797,-224.297C557.797,-215.301 557.797,-205.653 557.797,-197.506"/>
<polygon fill="midnightblue" stroke="midnightblue" points="554.297,-224.428 557.797,-234.428 561.297,-224.428 554.297,-224.428"/>
</g>
<!-- Node7&#45;&gt;Node8 -->
<g id="edge7" class="edge"><title>Node7&#45;&gt;Node8</title>
<path fill="none" stroke="midnightblue" d="M422.357,-152.887C451.696,-142.219 486.149,-129.69 514.157,-119.506"/>
<polygon fill="midnightblue" stroke="midnightblue" points="420.822,-149.721 412.62,-156.428 423.214,-156.3 420.822,-149.721"/>
</g>
<!-- Node7&#45;&gt;Node9 -->
<g id="edge9" class="edge"><title>Node7&#45;&gt;Node9</title>
<path fill="none" stroke="midnightblue" d="M386.158,-149.347C408.091,-128.667 440.162,-99.9261 470.797,-78 489.456,-64.6455 511.522,-51.7042 529.891,-41.6326"/>
<polygon fill="midnightblue" stroke="midnightblue" points="383.679,-146.875 378.842,-156.301 388.501,-151.949 383.679,-146.875"/>
</g>
<!-- Node8&#45;&gt;Node9 -->
<g id="edge8" class="edge"><title>Node8&#45;&gt;Node9</title>
<path fill="none" stroke="midnightblue" d="M567.797,-68.2965C567.797,-59.3009 567.797,-49.6532 567.797,-41.5056"/>
<polygon fill="midnightblue" stroke="midnightblue" points="564.297,-68.4281 567.797,-78.4281 571.297,-68.4281 564.297,-68.4281"/>
</g>
<!-- Node10&#45;&gt;Node7 -->
<g id="edge11" class="edge"><title>Node10&#45;&gt;Node7</title>
<path fill="none" stroke="midnightblue" d="M190.469,-231.304C224.442,-220.546 264.619,-207.823 297.201,-197.506"/>
<polygon fill="midnightblue" stroke="midnightblue" points="189.08,-228.072 180.603,-234.428 191.193,-234.746 189.08,-228.072"/>
</g>
<!-- Node11&#45;&gt;Node3 -->
<g id="edge15" class="edge"><title>Node11&#45;&gt;Node3</title>
<path fill="none" stroke="midnightblue" d="M438.797,-380.297C438.797,-371.301 438.797,-361.653 438.797,-353.506"/>
<polygon fill="midnightblue" stroke="midnightblue" points="435.297,-380.428 438.797,-390.428 442.297,-380.428 435.297,-380.428"/>
</g>
</g>
</svg>
        <g id="navigator" transform="translate(0 0)" fill="#404254">
                <rect fill="#f2f5e9" fill-opacity="0.5" stroke="#606060" stroke-width=".5" x="0" y="0" width="60" height="60"/>
                <use id="zoomplus" xlink:href="#zoomPlus" x="17" y="9" onmousedown="handleZoom(evt,'in')"/>
                <use id="zoomminus" xlink:href="#zoomMin" x="42" y="9" onmousedown="handleZoom(evt,'out')"/>
                <use id="reset" xlink:href="#resetDef" x="30" y="36" onmousedown="handleReset()"/>
                <g id="arrowUp" xlink:href="#dirArrow" transform="translate(30 24)" onmousedown="handlePan(0,-1)">
                  <use xlink:href="#rim" fill="#404040">
                        <set attributeName="fill" to="#808080" begin="arrowUp.mouseover" end="arrowUp.mouseout"/>
                  </use>
                  <path fill="none" stroke="white" stroke-width="1.5" d="M0,-3.0v7 M-2.5,-0.5L0,-3.0L2.5,-0.5"/>
                </g>
                <g id="arrowRight" xlink:href="#dirArrow" transform="rotate(90) translate(36 -43)" onmousedown="handlePan(1,0)">
                  <use xlink:href="#rim" fill="#404040">
                        <set attributeName="fill" to="#808080" begin="arrowRight.mouseover" end="arrowRight.mouseout"/>
                  </use>
                  <path fill="none" stroke="white" stroke-width="1.5" d="M0,-3.0v7 M-2.5,-0.5L0,-3.0L2.5,-0.5"/>
                </g>
                <g id="arrowDown" xlink:href="#dirArrow" transform="rotate(180) translate(-30 -48)" onmousedown="handlePan(0,1)">
                  <use xlink:href="#rim" fill="#404040">
                        <set attributeName="fill" to="#808080" begin="arrowDown.mouseover" end="arrowDown.mouseout"/>
                  </use>
                  <path fill="none" stroke="white" stroke-width="1.5" d="M0,-3.0v7 M-2.5,-0.5L0,-3.0L2.5,-0.5"/>
                </g>
                <g id="arrowLeft" xlink:href="#dirArrow" transform="rotate(270) translate(-36 17)" onmousedown="handlePan(-1,0)">
                  <use xlink:href="#rim" fill="#404040">
                        <set attributeName="fill" to="#808080" begin="arrowLeft.mouseover" end="arrowLeft.mouseout"/>
                  </use>
                  <path fill="none" stroke="white" stroke-width="1.5" d="M0,-3.0v7 M-2.5,-0.5L0,-3.0L2.5,-0.5"/>
                </g>
        </g>
        <svg viewBox="0 0 15 15" width="100%" height="30px" preserveAspectRatio="xMaxYMin meet">
         <g id="arrow_out" transform="scale(0.3 0.3)">
          <a xlink:href="_f_f_t_scale_type_8h__dep__incl_org.svg" target="_base">
           <rect id="button" ry="5" rx="5" y="6" x="6" height="38" width="38"
                fill="#f2f5e9" fill-opacity="0.5" stroke="#606060" stroke-width="1.0"/>
           <path id="arrow"
             d="M 11.500037,31.436501 C 11.940474,20.09759 22.043105,11.32322 32.158766,21.979434 L 37.068811,17.246167 C 37.068811,17.246167 37.088388,32 37.088388,32 L 22.160133,31.978069 C 22.160133,31.978069 26.997745,27.140456 26.997745,27.140456 C 18.528582,18.264221 13.291696,25.230495 11.500037,31.436501 z"
             style="fill:#404040;"/>
          </a>
         </g>
        </svg>
</svg>
