<?xml version="1.0" encoding="UTF-8" standalone="no"?>
<!DOCTYPE svg PUBLIC "-//W3C//DTD SVG 1.1//EN"
 "http://www.w3.org/Graphics/SVG/1.1/DTD/svg11.dtd">
<!-- Generated by graphviz version 2.38.0 (20140413.2041)
 -->
<!-- Title: C:/Users/palav/Documents/Repos/HoloGen/HoloGenAlgBaseCuda/LoggingCallback.h Pages: 1 -->
<svg width="696pt" height="440pt"
 viewBox="0.00 0.00 695.87 440.00" xmlns="http://www.w3.org/2000/svg" xmlns:xlink="http://www.w3.org/1999/xlink">
<g id="graph0" class="graph" transform="scale(1 1) rotate(0) translate(4 436)">
<title>C:/Users/palav/Documents/Repos/HoloGen/HoloGenAlgBaseCuda/LoggingCallback.h</title>
<polygon fill="white" stroke="none" points="-4,4 -4,-436 691.868,-436 691.868,4 -4,4"/>
<!-- Node1 -->
<g id="node1" class="node"><title>Node1</title>
<polygon fill="#bfbfbf" stroke="black" points="234,-390.5 234,-431.5 422,-431.5 422,-390.5 234,-390.5"/>
<text text-anchor="start" x="242" y="-419.5" font-family="Helvetica,sans-Serif" font-size="10.00">C:/Users/palav/Documents</text>
<text text-anchor="start" x="242" y="-408.5" font-family="Helvetica,sans-Serif" font-size="10.00">/Repos/HoloGen/HoloGenAlgBaseCuda</text>
<text text-anchor="middle" x="328" y="-397.5" font-family="Helvetica,sans-Serif" font-size="10.00">/LoggingCallback.h</text>
</g>
<!-- Node2 -->
<g id="node2" class="node"><title>Node2</title>
<g id="a_node2"><a xlink:href="_globals_8h.html" target="_top" xlink:title="C:/Users/palav/Documents\l/Repos/HoloGen/HoloGenAlgBaseCuda\l/Globals.h">
<polygon fill="white" stroke="black" points="131,-312.5 131,-353.5 319,-353.5 319,-312.5 131,-312.5"/>
<text text-anchor="start" x="139" y="-341.5" font-family="Helvetica,sans-Serif" font-size="10.00">C:/Users/palav/Documents</text>
<text text-anchor="start" x="139" y="-330.5" font-family="Helvetica,sans-Serif" font-size="10.00">/Repos/HoloGen/HoloGenAlgBaseCuda</text>
<text text-anchor="middle" x="225" y="-319.5" font-family="Helvetica,sans-Serif" font-size="10.00">/Globals.h</text>
</a>
</g>
</g>
<!-- Node1&#45;&gt;Node2 -->
<g id="edge1" class="edge"><title>Node1&#45;&gt;Node2</title>
<path fill="none" stroke="midnightblue" d="M293.238,-384.35C279.579,-374.272 264.158,-362.893 251.435,-353.506"/>
<polygon fill="midnightblue" stroke="midnightblue" points="291.35,-387.307 301.475,-390.428 295.506,-381.674 291.35,-387.307"/>
</g>
<!-- Node3 -->
<g id="node3" class="node"><title>Node3</title>
<g id="a_node3"><a xlink:href="_algorithm_cuda_8cuh.html" target="_top" xlink:title="C:/Users/palav/Documents\l/Repos/HoloGen/HoloGenAlgBaseCuda\l/AlgorithmCuda.cuh">
<polygon fill="white" stroke="black" points="337,-312.5 337,-353.5 525,-353.5 525,-312.5 337,-312.5"/>
<text text-anchor="start" x="345" y="-341.5" font-family="Helvetica,sans-Serif" font-size="10.00">C:/Users/palav/Documents</text>
<text text-anchor="start" x="345" y="-330.5" font-family="Helvetica,sans-Serif" font-size="10.00">/Repos/HoloGen/HoloGenAlgBaseCuda</text>
<text text-anchor="middle" x="431" y="-319.5" font-family="Helvetica,sans-Serif" font-size="10.00">/AlgorithmCuda.cuh</text>
</a>
</g>
</g>
<!-- Node1&#45;&gt;Node3 -->
<g id="edge2" class="edge"><title>Node1&#45;&gt;Node3</title>
<path fill="none" stroke="midnightblue" d="M362.762,-384.35C376.421,-374.272 391.842,-362.893 404.565,-353.506"/>
<polygon fill="midnightblue" stroke="midnightblue" points="360.494,-381.674 354.525,-390.428 364.65,-387.307 360.494,-381.674"/>
</g>
<!-- Node4 -->
<g id="node4" class="node"><title>Node4</title>
<g id="a_node4"><a xlink:href="_algorithm_man_8h.html" target="_top" xlink:title="C:/Users/palav/Documents\l/Repos/HoloGen/HoloGenAlgBaseMan\l/AlgorithmMan.h">
<polygon fill="white" stroke="black" points="0,-234.5 0,-275.5 184,-275.5 184,-234.5 0,-234.5"/>
<text text-anchor="start" x="8" y="-263.5" font-family="Helvetica,sans-Serif" font-size="10.00">C:/Users/palav/Documents</text>
<text text-anchor="start" x="8" y="-252.5" font-family="Helvetica,sans-Serif" font-size="10.00">/Repos/HoloGen/HoloGenAlgBaseMan</text>
<text text-anchor="middle" x="92" y="-241.5" font-family="Helvetica,sans-Serif" font-size="10.00">/AlgorithmMan.h</text>
</a>
</g>
</g>
<!-- Node3&#45;&gt;Node4 -->
<g id="edge3" class="edge"><title>Node3&#45;&gt;Node4</title>
<path fill="none" stroke="midnightblue" d="M333.759,-310.2C284.951,-299.258 226.31,-286.111 179.005,-275.506"/>
<polygon fill="midnightblue" stroke="midnightblue" points="333.176,-313.656 343.699,-312.428 334.707,-306.825 333.176,-313.656"/>
</g>
<!-- Node5 -->
<g id="node5" class="node"><title>Node5</title>
<g id="a_node5"><a xlink:href="_algorithm_f_f_t_cuda_8cuh.html" target="_top" xlink:title="C:/Users/palav/Documents\l/Repos/HoloGen/HoloGenAlgCommon\lCuda/AlgorithmFFTCuda.cuh">
<polygon fill="white" stroke="black" points="202,-234.5 202,-275.5 384,-275.5 384,-234.5 202,-234.5"/>
<text text-anchor="start" x="210" y="-263.5" font-family="Helvetica,sans-Serif" font-size="10.00">C:/Users/palav/Documents</text>
<text text-anchor="start" x="210" y="-252.5" font-family="Helvetica,sans-Serif" font-size="10.00">/Repos/HoloGen/HoloGenAlgCommon</text>
<text text-anchor="middle" x="293" y="-241.5" font-family="Helvetica,sans-Serif" font-size="10.00">Cuda/AlgorithmFFTCuda.cuh</text>
</a>
</g>
</g>
<!-- Node3&#45;&gt;Node5 -->
<g id="edge4" class="edge"><title>Node3&#45;&gt;Node5</title>
<path fill="none" stroke="midnightblue" d="M386.487,-307.486C367.69,-297.134 346.107,-285.247 328.418,-275.506"/>
<polygon fill="midnightblue" stroke="midnightblue" points="385.014,-310.67 395.462,-312.428 388.391,-304.538 385.014,-310.67"/>
</g>
<!-- Node7 -->
<g id="node7" class="node"><title>Node7</title>
<g id="a_node7"><a xlink:href="_variant_g_s_standard_cuda_8cuh.html" target="_top" xlink:title="C:/Users/palav/Documents\l/Repos/HoloGen/HoloGenAlgGSCuda\l/VariantGSStandardCuda.cuh">
<polygon fill="white" stroke="black" points="459.5,-156.5 459.5,-197.5 638.5,-197.5 638.5,-156.5 459.5,-156.5"/>
<text text-anchor="start" x="467.5" y="-185.5" font-family="Helvetica,sans-Serif" font-size="10.00">C:/Users/palav/Documents</text>
<text text-anchor="start" x="467.5" y="-174.5" font-family="Helvetica,sans-Serif" font-size="10.00">/Repos/HoloGen/HoloGenAlgGSCuda</text>
<text text-anchor="middle" x="549" y="-163.5" font-family="Helvetica,sans-Serif" font-size="10.00">/VariantGSStandardCuda.cuh</text>
</a>
</g>
</g>
<!-- Node3&#45;&gt;Node7 -->
<g id="edge6" class="edge"><title>Node3&#45;&gt;Node7</title>
<path fill="none" stroke="midnightblue" d="M437.589,-302.386C443.307,-281.645 453.203,-254.147 469,-234 480.507,-219.325 496.896,-206.922 511.847,-197.548"/>
<polygon fill="midnightblue" stroke="midnightblue" points="434.153,-301.694 435.041,-312.251 440.931,-303.445 434.153,-301.694"/>
</g>
<!-- Node8 -->
<g id="node8" class="node"><title>Node8</title>
<g id="a_node8"><a xlink:href="_algorithm_g_s_man_8h.html" target="_top" xlink:title="C:/Users/palav/Documents\l/Repos/HoloGen/HoloGenAlgGSMan\l/AlgorithmGSMan.h">
<polygon fill="white" stroke="black" points="394,-78.5 394,-119.5 570,-119.5 570,-78.5 394,-78.5"/>
<text text-anchor="start" x="402" y="-107.5" font-family="Helvetica,sans-Serif" font-size="10.00">C:/Users/palav/Documents</text>
<text text-anchor="start" x="402" y="-96.5" font-family="Helvetica,sans-Serif" font-size="10.00">/Repos/HoloGen/HoloGenAlgGSMan</text>
<text text-anchor="middle" x="482" y="-85.5" font-family="Helvetica,sans-Serif" font-size="10.00">/AlgorithmGSMan.h</text>
</a>
</g>
</g>
<!-- Node3&#45;&gt;Node8 -->
<g id="edge12" class="edge"><title>Node3&#45;&gt;Node8</title>
<path fill="none" stroke="midnightblue" d="M430.542,-302.251C430.821,-266.623 433.946,-205.547 450,-156 454.176,-143.111 461.554,-129.895 468.173,-119.541"/>
<polygon fill="midnightblue" stroke="midnightblue" points="427.042,-302.448 430.536,-312.45 434.042,-302.452 427.042,-302.448"/>
</g>
<!-- Node9 -->
<g id="node9" class="node"><title>Node9</title>
<g id="a_node9"><a xlink:href="_variant_g_s_standard_man_8h.html" target="_top" xlink:title="C:/Users/palav/Documents\l/Repos/HoloGen/HoloGenAlgGSMan\l/VariantGSStandardMan.h">
<polygon fill="white" stroke="black" points="510,-0.5 510,-41.5 686,-41.5 686,-0.5 510,-0.5"/>
<text text-anchor="start" x="518" y="-29.5" font-family="Helvetica,sans-Serif" font-size="10.00">C:/Users/palav/Documents</text>
<text text-anchor="start" x="518" y="-18.5" font-family="Helvetica,sans-Serif" font-size="10.00">/Repos/HoloGen/HoloGenAlgGSMan</text>
<text text-anchor="middle" x="598" y="-7.5" font-family="Helvetica,sans-Serif" font-size="10.00">/VariantGSStandardMan.h</text>
</a>
</g>
</g>
<!-- Node3&#45;&gt;Node9 -->
<g id="edge13" class="edge"><title>Node3&#45;&gt;Node9</title>
<path fill="none" stroke="midnightblue" d="M535.519,-320.007C590.606,-311.304 650.191,-297.264 667,-276 724.099,-203.766 648.563,-87.8808 613.814,-41.8127"/>
<polygon fill="midnightblue" stroke="midnightblue" points="534.652,-316.599 525.296,-321.571 535.71,-323.518 534.652,-316.599"/>
</g>
<!-- Node10 -->
<g id="node10" class="node"><title>Node10</title>
<g id="a_node10"><a xlink:href="_algorithm_g_s_cuda_8cuh.html" target="_top" xlink:title="C:/Users/palav/Documents\l/Repos/HoloGen/HoloGenAlgGSCuda\l/AlgorithmGSCuda.cuh">
<polygon fill="white" stroke="black" points="478.5,-234.5 478.5,-275.5 657.5,-275.5 657.5,-234.5 478.5,-234.5"/>
<text text-anchor="start" x="486.5" y="-263.5" font-family="Helvetica,sans-Serif" font-size="10.00">C:/Users/palav/Documents</text>
<text text-anchor="start" x="486.5" y="-252.5" font-family="Helvetica,sans-Serif" font-size="10.00">/Repos/HoloGen/HoloGenAlgGSCuda</text>
<text text-anchor="middle" x="568" y="-241.5" font-family="Helvetica,sans-Serif" font-size="10.00">/AlgorithmGSCuda.cuh</text>
</a>
</g>
</g>
<!-- Node3&#45;&gt;Node10 -->
<g id="edge10" class="edge"><title>Node3&#45;&gt;Node10</title>
<path fill="none" stroke="midnightblue" d="M475.19,-307.486C493.851,-297.134 515.278,-285.247 532.839,-275.506"/>
<polygon fill="midnightblue" stroke="midnightblue" points="473.328,-304.516 466.281,-312.428 476.723,-310.638 473.328,-304.516"/>
</g>
<!-- Node6 -->
<g id="node6" class="node"><title>Node6</title>
<g id="a_node6"><a xlink:href="_algorithm_f_f_t_man_8h.html" target="_top" xlink:title="C:/Users/palav/Documents\l/Repos/HoloGen/HoloGenAlgCommon\lMan/AlgorithmFFTMan.h">
<polygon fill="white" stroke="black" points="202,-156.5 202,-197.5 384,-197.5 384,-156.5 202,-156.5"/>
<text text-anchor="start" x="210" y="-185.5" font-family="Helvetica,sans-Serif" font-size="10.00">C:/Users/palav/Documents</text>
<text text-anchor="start" x="210" y="-174.5" font-family="Helvetica,sans-Serif" font-size="10.00">/Repos/HoloGen/HoloGenAlgCommon</text>
<text text-anchor="middle" x="293" y="-163.5" font-family="Helvetica,sans-Serif" font-size="10.00">Man/AlgorithmFFTMan.h</text>
</a>
</g>
</g>
<!-- Node5&#45;&gt;Node6 -->
<g id="edge5" class="edge"><title>Node5&#45;&gt;Node6</title>
<path fill="none" stroke="midnightblue" d="M293,-224.297C293,-215.301 293,-205.653 293,-197.506"/>
<polygon fill="midnightblue" stroke="midnightblue" points="289.5,-224.428 293,-234.428 296.5,-224.428 289.5,-224.428"/>
</g>
<!-- Node7&#45;&gt;Node8 -->
<g id="edge7" class="edge"><title>Node7&#45;&gt;Node8</title>
<path fill="none" stroke="midnightblue" d="M525.123,-148.916C516.56,-139.203 507.081,-128.45 499.196,-119.506"/>
<polygon fill="midnightblue" stroke="midnightblue" points="522.507,-151.241 531.746,-156.428 527.758,-146.612 522.507,-151.241"/>
</g>
<!-- Node7&#45;&gt;Node9 -->
<g id="edge9" class="edge"><title>Node7&#45;&gt;Node9</title>
<path fill="none" stroke="midnightblue" d="M566.352,-147.578C571.021,-138.963 575.689,-129.311 579,-120 588.349,-93.7103 593.453,-61.7268 595.955,-41.6095"/>
<polygon fill="midnightblue" stroke="midnightblue" points="563.21,-146.024 561.348,-156.454 569.308,-149.461 563.21,-146.024"/>
</g>
<!-- Node8&#45;&gt;Node9 -->
<g id="edge8" class="edge"><title>Node8&#45;&gt;Node9</title>
<path fill="none" stroke="midnightblue" d="M520.281,-72.9194C535.876,-62.702 553.63,-51.0701 568.228,-41.5056"/>
<polygon fill="midnightblue" stroke="midnightblue" points="518.319,-70.0202 511.873,-78.4281 522.156,-75.8754 518.319,-70.0202"/>
</g>
<!-- Node10&#45;&gt;Node7 -->
<g id="edge11" class="edge"><title>Node10&#45;&gt;Node7</title>
<path fill="none" stroke="midnightblue" d="M560.647,-224.59C558.378,-215.511 555.935,-205.742 553.876,-197.506"/>
<polygon fill="midnightblue" stroke="midnightblue" points="557.286,-225.576 563.107,-234.428 564.077,-223.878 557.286,-225.576"/>
</g>
</g>
</svg>
