<?xml version="1.0" encoding="UTF-8" standalone="no"?>
<!DOCTYPE svg PUBLIC "-//W3C//DTD SVG 1.1//EN"
 "http://www.w3.org/Graphics/SVG/1.1/DTD/svg11.dtd">
<!-- Generated by graphviz version 2.38.0 (20140413.2041)
 -->
<!-- Title: C:/Users/palav/Documents/Repos/HoloGen/HoloGenAlgBaseCuda/QuantiserNearest.cuh Pages: 1 -->
<!--zoomable 440 -->
<svg id="main" version="1.1" xmlns="http://www.w3.org/2000/svg" xmlns:xlink="http://www.w3.org/1999/xlink" xml:space="preserve" onload="init(evt)">
<style type="text/css"><![CDATA[
.edge:hover path { stroke: red; }
.edge:hover polygon { stroke: red; fill: red; }
]]></style>
<script type="text/javascript"><![CDATA[
var edges = document.getElementsByTagName('g');
if (edges && edges.length) {
  for (var i=0;i<edges.length;i++) {
    if (edges[i].id.substr(0,4)=='edge') {
      edges[i].setAttribute('class','edge');
    }
  }
}
]]></script>
        <defs>
                <circle id="rim" cx="0" cy="0" r="7"/>
                <circle id="rim2" cx="0" cy="0" r="3.5"/>
                <g id="zoomPlus">
                        <use xlink:href="#rim" fill="#404040">
                                <set attributeName="fill" to="#808080" begin="zoomplus.mouseover" end="zoomplus.mouseout"/>
                        </use>
                        <path d="M-4,0h8M0,-4v8" fill="none" stroke="white" stroke-width="1.5" pointer-events="none"/>
                </g>
                <g id="zoomMin">
                        <use xlink:href="#rim" fill="#404040">
                                <set attributeName="fill" to="#808080" begin="zoomminus.mouseover" end="zoomminus.mouseout"/>
                        </use>
                        <path d="M-4,0h8" fill="none" stroke="white" stroke-width="1.5" pointer-events="none"/>
                </g>
                <g id="dirArrow">
                        <path fill="none" stroke="white" stroke-width="1.5" d="M0,-3.0v7 M-2.5,-0.5L0,-3.0L2.5,-0.5"/>
                </g>
               <g id="resetDef">
                       <use xlink:href="#rim2" fill="#404040">
                               <set attributeName="fill" to="#808080" begin="reset.mouseover" end="reset.mouseout"/>
                       </use>
               </g>
        </defs>

<script type="text/javascript">
var viewWidth = 696;
var viewHeight = 440;
var sectionId = 'dynsection-1';
</script>
<script xlink:href="svgpan.js"/>
<svg id="graph" class="graph">
<g id="viewport">
<title>C:/Users/palav/Documents/Repos/HoloGen/HoloGenAlgBaseCuda/QuantiserNearest.cuh</title>
<polygon fill="white" stroke="none" points="-4,4 -4,-436 691.868,-436 691.868,4 -4,4"/>
<!-- Node18 -->
<g id="node1" class="node"><title>Node18</title>
<polygon fill="#bfbfbf" stroke="black" points="337,-390.5 337,-431.5 525,-431.5 525,-390.5 337,-390.5"/>
<text text-anchor="start" x="345" y="-419.5" font-family="Helvetica,sans-Serif" font-size="10.00">C:/Users/palav/Documents</text>
<text text-anchor="start" x="345" y="-408.5" font-family="Helvetica,sans-Serif" font-size="10.00">/Repos/HoloGen/HoloGenAlgBaseCuda</text>
<text text-anchor="middle" x="431" y="-397.5" font-family="Helvetica,sans-Serif" font-size="10.00">/QuantiserNearest.cuh</text>
</g>
<!-- Node19 -->
<g id="node2" class="node"><title>Node19</title>
<g id="a_node2"><a xlink:href="_algorithm_cuda_8cuh.html" target="_top" xlink:title="C:/Users/palav/Documents\l/Repos/HoloGen/HoloGenAlgBaseCuda\l/AlgorithmCuda.cuh">
<polygon fill="white" stroke="black" points="337,-312.5 337,-353.5 525,-353.5 525,-312.5 337,-312.5"/>
<text text-anchor="start" x="345" y="-341.5" font-family="Helvetica,sans-Serif" font-size="10.00">C:/Users/palav/Documents</text>
<text text-anchor="start" x="345" y="-330.5" font-family="Helvetica,sans-Serif" font-size="10.00">/Repos/HoloGen/HoloGenAlgBaseCuda</text>
<text text-anchor="middle" x="431" y="-319.5" font-family="Helvetica,sans-Serif" font-size="10.00">/AlgorithmCuda.cuh</text>
</a>
</g>
</g>
<!-- Node18&#45;&gt;Node19 -->
<g id="edge1" class="edge"><title>Node18&#45;&gt;Node19</title>
<path fill="none" stroke="midnightblue" d="M431,-380.297C431,-371.301 431,-361.653 431,-353.506"/>
<polygon fill="midnightblue" stroke="midnightblue" points="427.5,-380.428 431,-390.428 434.5,-380.428 427.5,-380.428"/>
</g>
<!-- Node20 -->
<g id="node3" class="node"><title>Node20</title>
<g id="a_node3"><a xlink:href="_algorithm_man_8h.html" target="_top" xlink:title="C:/Users/palav/Documents\l/Repos/HoloGen/HoloGenAlgBaseMan\l/AlgorithmMan.h">
<polygon fill="white" stroke="black" points="0,-234.5 0,-275.5 184,-275.5 184,-234.5 0,-234.5"/>
<text text-anchor="start" x="8" y="-263.5" font-family="Helvetica,sans-Serif" font-size="10.00">C:/Users/palav/Documents</text>
<text text-anchor="start" x="8" y="-252.5" font-family="Helvetica,sans-Serif" font-size="10.00">/Repos/HoloGen/HoloGenAlgBaseMan</text>
<text text-anchor="middle" x="92" y="-241.5" font-family="Helvetica,sans-Serif" font-size="10.00">/AlgorithmMan.h</text>
</a>
</g>
</g>
<!-- Node19&#45;&gt;Node20 -->
<g id="edge2" class="edge"><title>Node19&#45;&gt;Node20</title>
<path fill="none" stroke="midnightblue" d="M333.759,-310.2C284.951,-299.258 226.31,-286.111 179.005,-275.506"/>
<polygon fill="midnightblue" stroke="midnightblue" points="333.176,-313.656 343.699,-312.428 334.707,-306.825 333.176,-313.656"/>
</g>
<!-- Node21 -->
<g id="node4" class="node"><title>Node21</title>
<g id="a_node4"><a xlink:href="_algorithm_f_f_t_cuda_8cuh.html" target="_top" xlink:title="C:/Users/palav/Documents\l/Repos/HoloGen/HoloGenAlgCommon\lCuda/AlgorithmFFTCuda.cuh">
<polygon fill="white" stroke="black" points="202,-234.5 202,-275.5 384,-275.5 384,-234.5 202,-234.5"/>
<text text-anchor="start" x="210" y="-263.5" font-family="Helvetica,sans-Serif" font-size="10.00">C:/Users/palav/Documents</text>
<text text-anchor="start" x="210" y="-252.5" font-family="Helvetica,sans-Serif" font-size="10.00">/Repos/HoloGen/HoloGenAlgCommon</text>
<text text-anchor="middle" x="293" y="-241.5" font-family="Helvetica,sans-Serif" font-size="10.00">Cuda/AlgorithmFFTCuda.cuh</text>
</a>
</g>
</g>
<!-- Node19&#45;&gt;Node21 -->
<g id="edge3" class="edge"><title>Node19&#45;&gt;Node21</title>
<path fill="none" stroke="midnightblue" d="M386.487,-307.486C367.69,-297.134 346.107,-285.247 328.418,-275.506"/>
<polygon fill="midnightblue" stroke="midnightblue" points="385.014,-310.67 395.462,-312.428 388.391,-304.538 385.014,-310.67"/>
</g>
<!-- Node23 -->
<g id="node6" class="node"><title>Node23</title>
<g id="a_node6"><a xlink:href="_variant_g_s_standard_cuda_8cuh.html" target="_top" xlink:title="C:/Users/palav/Documents\l/Repos/HoloGen/HoloGenAlgGSCuda\l/VariantGSStandardCuda.cuh">
<polygon fill="white" stroke="black" points="459.5,-156.5 459.5,-197.5 638.5,-197.5 638.5,-156.5 459.5,-156.5"/>
<text text-anchor="start" x="467.5" y="-185.5" font-family="Helvetica,sans-Serif" font-size="10.00">C:/Users/palav/Documents</text>
<text text-anchor="start" x="467.5" y="-174.5" font-family="Helvetica,sans-Serif" font-size="10.00">/Repos/HoloGen/HoloGenAlgGSCuda</text>
<text text-anchor="middle" x="549" y="-163.5" font-family="Helvetica,sans-Serif" font-size="10.00">/VariantGSStandardCuda.cuh</text>
</a>
</g>
</g>
<!-- Node19&#45;&gt;Node23 -->
<g id="edge5" class="edge"><title>Node19&#45;&gt;Node23</title>
<path fill="none" stroke="midnightblue" d="M437.966,-302.414C443.931,-281.687 454.118,-254.193 470,-234 481.432,-219.464 497.626,-207.081 512.378,-197.684"/>
<polygon fill="midnightblue" stroke="midnightblue" points="434.532,-301.706 435.297,-312.273 441.289,-303.535 434.532,-301.706"/>
</g>
<!-- Node24 -->
<g id="node7" class="node"><title>Node24</title>
<g id="a_node7"><a xlink:href="_algorithm_g_s_man_8h.html" target="_top" xlink:title="C:/Users/palav/Documents\l/Repos/HoloGen/HoloGenAlgGSMan\l/AlgorithmGSMan.h">
<polygon fill="white" stroke="black" points="394,-78.5 394,-119.5 570,-119.5 570,-78.5 394,-78.5"/>
<text text-anchor="start" x="402" y="-107.5" font-family="Helvetica,sans-Serif" font-size="10.00">C:/Users/palav/Documents</text>
<text text-anchor="start" x="402" y="-96.5" font-family="Helvetica,sans-Serif" font-size="10.00">/Repos/HoloGen/HoloGenAlgGSMan</text>
<text text-anchor="middle" x="482" y="-85.5" font-family="Helvetica,sans-Serif" font-size="10.00">/AlgorithmGSMan.h</text>
</a>
</g>
</g>
<!-- Node19&#45;&gt;Node24 -->
<g id="edge11" class="edge"><title>Node19&#45;&gt;Node24</title>
<path fill="none" stroke="midnightblue" d="M430.872,-302.283C431.509,-266.687 435.133,-205.641 451,-156 455.094,-143.192 462.243,-129.981 468.645,-119.609"/>
<polygon fill="midnightblue" stroke="midnightblue" points="427.37,-302.435 430.76,-312.473 434.37,-302.512 427.37,-302.435"/>
</g>
<!-- Node25 -->
<g id="node8" class="node"><title>Node25</title>
<g id="a_node8"><a xlink:href="_variant_g_s_standard_man_8h.html" target="_top" xlink:title="C:/Users/palav/Documents\l/Repos/HoloGen/HoloGenAlgGSMan\l/VariantGSStandardMan.h">
<polygon fill="white" stroke="black" points="510,-0.5 510,-41.5 686,-41.5 686,-0.5 510,-0.5"/>
<text text-anchor="start" x="518" y="-29.5" font-family="Helvetica,sans-Serif" font-size="10.00">C:/Users/palav/Documents</text>
<text text-anchor="start" x="518" y="-18.5" font-family="Helvetica,sans-Serif" font-size="10.00">/Repos/HoloGen/HoloGenAlgGSMan</text>
<text text-anchor="middle" x="598" y="-7.5" font-family="Helvetica,sans-Serif" font-size="10.00">/VariantGSStandardMan.h</text>
</a>
</g>
</g>
<!-- Node19&#45;&gt;Node25 -->
<g id="edge12" class="edge"><title>Node19&#45;&gt;Node25</title>
<path fill="none" stroke="midnightblue" d="M535.519,-320.007C590.606,-311.304 650.191,-297.264 667,-276 724.099,-203.766 648.563,-87.8808 613.814,-41.8127"/>
<polygon fill="midnightblue" stroke="midnightblue" points="534.652,-316.599 525.296,-321.571 535.71,-323.518 534.652,-316.599"/>
</g>
<!-- Node26 -->
<g id="node9" class="node"><title>Node26</title>
<g id="a_node9"><a xlink:href="_algorithm_g_s_cuda_8cuh.html" target="_top" xlink:title="C:/Users/palav/Documents\l/Repos/HoloGen/HoloGenAlgGSCuda\l/AlgorithmGSCuda.cuh">
<polygon fill="white" stroke="black" points="478.5,-234.5 478.5,-275.5 657.5,-275.5 657.5,-234.5 478.5,-234.5"/>
<text text-anchor="start" x="486.5" y="-263.5" font-family="Helvetica,sans-Serif" font-size="10.00">C:/Users/palav/Documents</text>
<text text-anchor="start" x="486.5" y="-252.5" font-family="Helvetica,sans-Serif" font-size="10.00">/Repos/HoloGen/HoloGenAlgGSCuda</text>
<text text-anchor="middle" x="568" y="-241.5" font-family="Helvetica,sans-Serif" font-size="10.00">/AlgorithmGSCuda.cuh</text>
</a>
</g>
</g>
<!-- Node19&#45;&gt;Node26 -->
<g id="edge9" class="edge"><title>Node19&#45;&gt;Node26</title>
<path fill="none" stroke="midnightblue" d="M475.19,-307.486C493.851,-297.134 515.278,-285.247 532.839,-275.506"/>
<polygon fill="midnightblue" stroke="midnightblue" points="473.328,-304.516 466.281,-312.428 476.723,-310.638 473.328,-304.516"/>
</g>
<!-- Node22 -->
<g id="node5" class="node"><title>Node22</title>
<g id="a_node5"><a xlink:href="_algorithm_f_f_t_man_8h.html" target="_top" xlink:title="C:/Users/palav/Documents\l/Repos/HoloGen/HoloGenAlgCommon\lMan/AlgorithmFFTMan.h">
<polygon fill="white" stroke="black" points="202,-156.5 202,-197.5 384,-197.5 384,-156.5 202,-156.5"/>
<text text-anchor="start" x="210" y="-185.5" font-family="Helvetica,sans-Serif" font-size="10.00">C:/Users/palav/Documents</text>
<text text-anchor="start" x="210" y="-174.5" font-family="Helvetica,sans-Serif" font-size="10.00">/Repos/HoloGen/HoloGenAlgCommon</text>
<text text-anchor="middle" x="293" y="-163.5" font-family="Helvetica,sans-Serif" font-size="10.00">Man/AlgorithmFFTMan.h</text>
</a>
</g>
</g>
<!-- Node21&#45;&gt;Node22 -->
<g id="edge4" class="edge"><title>Node21&#45;&gt;Node22</title>
<path fill="none" stroke="midnightblue" d="M293,-224.297C293,-215.301 293,-205.653 293,-197.506"/>
<polygon fill="midnightblue" stroke="midnightblue" points="289.5,-224.428 293,-234.428 296.5,-224.428 289.5,-224.428"/>
</g>
<!-- Node23&#45;&gt;Node24 -->
<g id="edge6" class="edge"><title>Node23&#45;&gt;Node24</title>
<path fill="none" stroke="midnightblue" d="M525.123,-148.916C516.56,-139.203 507.081,-128.45 499.196,-119.506"/>
<polygon fill="midnightblue" stroke="midnightblue" points="522.507,-151.241 531.746,-156.428 527.758,-146.612 522.507,-151.241"/>
</g>
<!-- Node23&#45;&gt;Node25 -->
<g id="edge8" class="edge"><title>Node23&#45;&gt;Node25</title>
<path fill="none" stroke="midnightblue" d="M566.352,-147.578C571.021,-138.963 575.689,-129.311 579,-120 588.349,-93.7103 593.453,-61.7268 595.955,-41.6095"/>
<polygon fill="midnightblue" stroke="midnightblue" points="563.21,-146.024 561.348,-156.454 569.308,-149.461 563.21,-146.024"/>
</g>
<!-- Node24&#45;&gt;Node25 -->
<g id="edge7" class="edge"><title>Node24&#45;&gt;Node25</title>
<path fill="none" stroke="midnightblue" d="M520.281,-72.9194C535.876,-62.702 553.63,-51.0701 568.228,-41.5056"/>
<polygon fill="midnightblue" stroke="midnightblue" points="518.319,-70.0202 511.873,-78.4281 522.156,-75.8754 518.319,-70.0202"/>
</g>
<!-- Node26&#45;&gt;Node23 -->
<g id="edge10" class="edge"><title>Node26&#45;&gt;Node23</title>
<path fill="none" stroke="midnightblue" d="M560.647,-224.59C558.378,-215.511 555.935,-205.742 553.876,-197.506"/>
<polygon fill="midnightblue" stroke="midnightblue" points="557.286,-225.576 563.107,-234.428 564.077,-223.878 557.286,-225.576"/>
</g>
</g>
</svg>
        <g id="navigator" transform="translate(0 0)" fill="#404254">
                <rect fill="#f2f5e9" fill-opacity="0.5" stroke="#606060" stroke-width=".5" x="0" y="0" width="60" height="60"/>
                <use id="zoomplus" xlink:href="#zoomPlus" x="17" y="9" onmousedown="handleZoom(evt,'in')"/>
                <use id="zoomminus" xlink:href="#zoomMin" x="42" y="9" onmousedown="handleZoom(evt,'out')"/>
                <use id="reset" xlink:href="#resetDef" x="30" y="36" onmousedown="handleReset()"/>
                <g id="arrowUp" xlink:href="#dirArrow" transform="translate(30 24)" onmousedown="handlePan(0,-1)">
                  <use xlink:href="#rim" fill="#404040">
                        <set attributeName="fill" to="#808080" begin="arrowUp.mouseover" end="arrowUp.mouseout"/>
                  </use>
                  <path fill="none" stroke="white" stroke-width="1.5" d="M0,-3.0v7 M-2.5,-0.5L0,-3.0L2.5,-0.5"/>
                </g>
                <g id="arrowRight" xlink:href="#dirArrow" transform="rotate(90) translate(36 -43)" onmousedown="handlePan(1,0)">
                  <use xlink:href="#rim" fill="#404040">
                        <set attributeName="fill" to="#808080" begin="arrowRight.mouseover" end="arrowRight.mouseout"/>
                  </use>
                  <path fill="none" stroke="white" stroke-width="1.5" d="M0,-3.0v7 M-2.5,-0.5L0,-3.0L2.5,-0.5"/>
                </g>
                <g id="arrowDown" xlink:href="#dirArrow" transform="rotate(180) translate(-30 -48)" onmousedown="handlePan(0,1)">
                  <use xlink:href="#rim" fill="#404040">
                        <set attributeName="fill" to="#808080" begin="arrowDown.mouseover" end="arrowDown.mouseout"/>
                  </use>
                  <path fill="none" stroke="white" stroke-width="1.5" d="M0,-3.0v7 M-2.5,-0.5L0,-3.0L2.5,-0.5"/>
                </g>
                <g id="arrowLeft" xlink:href="#dirArrow" transform="rotate(270) translate(-36 17)" onmousedown="handlePan(-1,0)">
                  <use xlink:href="#rim" fill="#404040">
                        <set attributeName="fill" to="#808080" begin="arrowLeft.mouseover" end="arrowLeft.mouseout"/>
                  </use>
                  <path fill="none" stroke="white" stroke-width="1.5" d="M0,-3.0v7 M-2.5,-0.5L0,-3.0L2.5,-0.5"/>
                </g>
        </g>
        <svg viewBox="0 0 15 15" width="100%" height="30px" preserveAspectRatio="xMaxYMin meet">
         <g id="arrow_out" transform="scale(0.3 0.3)">
          <a xlink:href="_quantiser_nearest_8cuh__dep__incl_org.svg" target="_base">
           <rect id="button" ry="5" rx="5" y="6" x="6" height="38" width="38"
                fill="#f2f5e9" fill-opacity="0.5" stroke="#606060" stroke-width="1.0"/>
           <path id="arrow"
             d="M 11.500037,31.436501 C 11.940474,20.09759 22.043105,11.32322 32.158766,21.979434 L 37.068811,17.246167 C 37.068811,17.246167 37.088388,32 37.088388,32 L 22.160133,31.978069 C 22.160133,31.978069 26.997745,27.140456 26.997745,27.140456 C 18.528582,18.264221 13.291696,25.230495 11.500037,31.436501 z"
             style="fill:#404040;"/>
          </a>
         </g>
        </svg>
</svg>
