<?xml version="1.0" encoding="UTF-8" standalone="no"?>
<!DOCTYPE svg PUBLIC "-//W3C//DTD SVG 1.1//EN"
 "http://www.w3.org/Graphics/SVG/1.1/DTD/svg11.dtd">
<!-- Generated by graphviz version 2.38.0 (20140413.2041)
 -->
<!-- Title: C:/Users/palav/Source/Repos/HoloGen/HoloGenAlgCommonMan/VariantFFTFwdMan.h Pages: 1 -->
<svg width="582pt" height="117pt"
 viewBox="0.00 0.00 581.50 117.00" xmlns="http://www.w3.org/2000/svg" xmlns:xlink="http://www.w3.org/1999/xlink">
<g id="graph0" class="graph" transform="scale(1 1) rotate(0) translate(4 113)">
<title>C:/Users/palav/Source/Repos/HoloGen/HoloGenAlgCommonMan/VariantFFTFwdMan.h</title>
<polygon fill="white" stroke="none" points="-4,4 -4,-113 577.5,-113 577.5,4 -4,4"/>
<!-- Node0 -->
<g id="node1" class="node"><title>Node0</title>
<polygon fill="#bfbfbf" stroke="black" points="120.5,-67.5 120.5,-108.5 302.5,-108.5 302.5,-67.5 120.5,-67.5"/>
<text text-anchor="start" x="128.5" y="-96.5" font-family="Helvetica,sans-Serif" font-size="10.00">C:/Users/palav/Source</text>
<text text-anchor="start" x="128.5" y="-85.5" font-family="Helvetica,sans-Serif" font-size="10.00">/Repos/HoloGen/HoloGenAlgCommon</text>
<text text-anchor="middle" x="211.5" y="-74.5" font-family="Helvetica,sans-Serif" font-size="10.00">Man/VariantFFTFwdMan.h</text>
</g>
<!-- Node1 -->
<g id="node2" class="node"><title>Node1</title>
<polygon fill="white" stroke="#bfbfbf" points="0,-6 0,-25 53,-25 53,-6 0,-6"/>
<text text-anchor="middle" x="26.5" y="-13" font-family="Helvetica,sans-Serif" font-size="10.00">complex</text>
</g>
<!-- Node0&#45;&gt;Node1 -->
<g id="edge1" class="edge"><title>Node0&#45;&gt;Node1</title>
<path fill="none" stroke="midnightblue" d="M158.633,-67.4732C130.099,-56.8479 94.3044,-43.3798 62.5,-31 60.6634,-30.2851 58.7765,-29.5443 56.8748,-28.7928"/>
<polygon fill="midnightblue" stroke="midnightblue" points="57.9921,-25.4704 47.407,-25.017 55.3991,-31.9724 57.9921,-25.4704"/>
</g>
<!-- Node2 -->
<g id="node3" class="node"><title>Node2</title>
<polygon fill="white" stroke="#bfbfbf" points="71.5,-6 71.5,-25 113.5,-25 113.5,-6 71.5,-6"/>
<text text-anchor="middle" x="92.5" y="-13" font-family="Helvetica,sans-Serif" font-size="10.00">vector</text>
</g>
<!-- Node0&#45;&gt;Node2 -->
<g id="edge2" class="edge"><title>Node0&#45;&gt;Node2</title>
<path fill="none" stroke="midnightblue" d="M178.352,-67.3618C158.44,-55.5655 133.595,-40.846 115.763,-30.2816"/>
<polygon fill="midnightblue" stroke="midnightblue" points="117.528,-27.2592 107.14,-25.1734 113.96,-33.2817 117.528,-27.2592"/>
</g>
<!-- Node3 -->
<g id="node4" class="node"><title>Node3</title>
<polygon fill="white" stroke="#bfbfbf" points="132,-0.5 132,-30.5 291,-30.5 291,-0.5 132,-0.5"/>
<text text-anchor="start" x="140" y="-18.5" font-family="Helvetica,sans-Serif" font-size="10.00">../HoloGenAlgCommonCuda</text>
<text text-anchor="middle" x="211.5" y="-7.5" font-family="Helvetica,sans-Serif" font-size="10.00">/VariantCommonStandardCuda.h</text>
</g>
<!-- Node0&#45;&gt;Node3 -->
<g id="edge3" class="edge"><title>Node0&#45;&gt;Node3</title>
<path fill="none" stroke="midnightblue" d="M211.5,-67.3618C211.5,-59.226 211.5,-49.6997 211.5,-41.105"/>
<polygon fill="midnightblue" stroke="midnightblue" points="215,-40.8916 211.5,-30.8916 208,-40.8916 215,-40.8916"/>
</g>
<!-- Node4 -->
<g id="node5" class="node"><title>Node4</title>
<polygon fill="white" stroke="#bfbfbf" points="309.5,-0.5 309.5,-30.5 431.5,-30.5 431.5,-0.5 309.5,-0.5"/>
<text text-anchor="start" x="317.5" y="-18.5" font-family="Helvetica,sans-Serif" font-size="10.00">../HoloGenAlgBaseCuda</text>
<text text-anchor="middle" x="370.5" y="-7.5" font-family="Helvetica,sans-Serif" font-size="10.00">/AlgorithmCuda.h</text>
</g>
<!-- Node0&#45;&gt;Node4 -->
<g id="edge4" class="edge"><title>Node0&#45;&gt;Node4</title>
<path fill="none" stroke="midnightblue" d="M255.79,-67.3618C278.785,-57.1659 306.706,-44.7862 329.243,-34.7933"/>
<polygon fill="midnightblue" stroke="midnightblue" points="330.819,-37.923 338.542,-30.67 327.982,-31.5239 330.819,-37.923"/>
</g>
<!-- Node5 -->
<g id="node6" class="node"><title>Node5</title>
<polygon fill="white" stroke="#bfbfbf" points="449.5,-6 449.5,-25 573.5,-25 573.5,-6 449.5,-6"/>
<text text-anchor="middle" x="511.5" y="-13" font-family="Helvetica,sans-Serif" font-size="10.00">AlgorithmCommonMan.h</text>
</g>
<!-- Node0&#45;&gt;Node5 -->
<g id="edge5" class="edge"><title>Node0&#45;&gt;Node5</title>
<path fill="none" stroke="midnightblue" d="M294.668,-67.4554C349.803,-54.4988 420.08,-37.9837 465.43,-27.3264"/>
<polygon fill="midnightblue" stroke="midnightblue" points="466.34,-30.7079 475.275,-25.013 464.739,-23.8936 466.34,-30.7079"/>
</g>
</g>
</svg>
