<?xml version="1.0" encoding="UTF-8" standalone="no"?>
<!DOCTYPE svg PUBLIC "-//W3C//DTD SVG 1.1//EN"
 "http://www.w3.org/Graphics/SVG/1.1/DTD/svg11.dtd">
<!-- Generated by graphviz version 2.38.0 (20140413.2041)
 -->
<!-- Title: HoloGen.Serial.JsonImageDeserialiser Pages: 1 -->
<svg width="234pt" height="253pt"
 viewBox="0.00 0.00 234.00 253.00" xmlns="http://www.w3.org/2000/svg" xmlns:xlink="http://www.w3.org/1999/xlink">
<g id="graph0" class="graph" transform="scale(1 1) rotate(0) translate(4 249)">
<title>HoloGen.Serial.JsonImageDeserialiser</title>
<polygon fill="white" stroke="none" points="-4,4 -4,-249 230,-249 230,4 -4,4"/>
<!-- Node0 -->
<g id="node1" class="node"><title>Node0</title>
<polygon fill="#bfbfbf" stroke="black" points="12.5,-0.5 12.5,-30.5 143.5,-30.5 143.5,-0.5 12.5,-0.5"/>
<text text-anchor="start" x="20.5" y="-18.5" font-family="Helvetica,sans-Serif" font-size="10.00">HoloGen.Serial.JsonImage</text>
<text text-anchor="middle" x="78" y="-7.5" font-family="Helvetica,sans-Serif" font-size="10.00">Deserialiser</text>
</g>
<!-- Node1 -->
<g id="node2" class="node"><title>Node1</title>
<g id="a_node2"><a xlink:href="class_holo_gen_1_1_serial_1_1_json_deserialiser.html" target="_top" xlink:title="JsonDeserialiser\&lt; Complex\lImage, ComplexImageVersion \&gt;">
<polygon fill="white" stroke="black" points="0.5,-68.5 0.5,-98.5 155.5,-98.5 155.5,-68.5 0.5,-68.5"/>
<text text-anchor="start" x="8.5" y="-86.5" font-family="Helvetica,sans-Serif" font-size="10.00">JsonDeserialiser&lt; Complex</text>
<text text-anchor="middle" x="78" y="-75.5" font-family="Helvetica,sans-Serif" font-size="10.00">Image, ComplexImageVersion &gt;</text>
</a>
</g>
</g>
<!-- Node1&#45;&gt;Node0 -->
<g id="edge1" class="edge"><title>Node1&#45;&gt;Node0</title>
<path fill="none" stroke="midnightblue" d="M78,-58.0322C78,-48.8606 78,-38.7449 78,-30.7931"/>
<polygon fill="midnightblue" stroke="midnightblue" points="74.5001,-58.1789 78,-68.179 81.5001,-58.179 74.5001,-58.1789"/>
</g>
<!-- Node2 -->
<g id="node3" class="node"><title>Node2</title>
<g id="a_node3"><a xlink:href="class_holo_gen_1_1_serial_1_1_json_deserialiser.html" target="_top" xlink:title="JSON format deserialisation class ">
<polygon fill="white" stroke="black" points="0,-157.5 0,-187.5 156,-187.5 156,-157.5 0,-157.5"/>
<text text-anchor="start" x="8" y="-175.5" font-family="Helvetica,sans-Serif" font-size="10.00">HoloGen.Serial.JsonDeserialiser</text>
<text text-anchor="middle" x="78" y="-164.5" font-family="Helvetica,sans-Serif" font-size="10.00">&lt; S, T &gt;</text>
</a>
</g>
</g>
<!-- Node2&#45;&gt;Node1 -->
<g id="edge2" class="edge"><title>Node2&#45;&gt;Node1</title>
<path fill="none" stroke="orange" stroke-dasharray="5,2" d="M78,-147.09C78,-131.443 78,-111.685 78,-98.599"/>
<polygon fill="orange" stroke="orange" points="74.5001,-147.134 78,-157.134 81.5001,-147.134 74.5001,-147.134"/>
<text text-anchor="start" x="78" y="-131" font-family="Helvetica,sans-Serif" font-size="10.00"> &lt; ComplexImage, ComplexImage</text>
<text text-anchor="middle" x="152" y="-120" font-family="Helvetica,sans-Serif" font-size="10.00">Version &gt;</text>
</g>
<!-- Node3 -->
<g id="node4" class="node"><title>Node3</title>
<g id="a_node4"><a xlink:href="class_holo_gen_1_1_serial_1_1_deserialiser.html" target="_top" xlink:title="Abstract deserialiser class ">
<polygon fill="white" stroke="black" points="26,-225.5 26,-244.5 130,-244.5 130,-225.5 26,-225.5"/>
<text text-anchor="middle" x="78" y="-232.5" font-family="Helvetica,sans-Serif" font-size="10.00">Deserialiser&lt; S, T &gt;</text>
</a>
</g>
</g>
<!-- Node3&#45;&gt;Node2 -->
<g id="edge3" class="edge"><title>Node3&#45;&gt;Node2</title>
<path fill="none" stroke="midnightblue" d="M78,-215.215C78,-206.356 78,-195.958 78,-187.759"/>
<polygon fill="midnightblue" stroke="midnightblue" points="74.5001,-215.332 78,-225.332 81.5001,-215.332 74.5001,-215.332"/>
</g>
</g>
</svg>
