<?xml version="1.0" encoding="UTF-8" standalone="no"?>
<!DOCTYPE svg PUBLIC "-//W3C//DTD SVG 1.1//EN"
 "http://www.w3.org/Graphics/SVG/1.1/DTD/svg11.dtd">
<!-- Generated by graphviz version 2.38.0 (20140413.2041)
 -->
<!-- Title: HoloGen.Options.Algorithm.ErrorCalculation.Type.ErrorType2 Pages: 1 -->
<!--zoomable 256 -->
<svg id="main" version="1.1" xmlns="http://www.w3.org/2000/svg" xmlns:xlink="http://www.w3.org/1999/xlink" xml:space="preserve" onload="init(evt)">
<style type="text/css"><![CDATA[
.edge:hover path { stroke: red; }
.edge:hover polygon { stroke: red; fill: red; }
]]></style>
<script type="text/javascript"><![CDATA[
var edges = document.getElementsByTagName('g');
if (edges && edges.length) {
  for (var i=0;i<edges.length;i++) {
    if (edges[i].id.substr(0,4)=='edge') {
      edges[i].setAttribute('class','edge');
    }
  }
}
]]></script>
        <defs>
                <circle id="rim" cx="0" cy="0" r="7"/>
                <circle id="rim2" cx="0" cy="0" r="3.5"/>
                <g id="zoomPlus">
                        <use xlink:href="#rim" fill="#404040">
                                <set attributeName="fill" to="#808080" begin="zoomplus.mouseover" end="zoomplus.mouseout"/>
                        </use>
                        <path d="M-4,0h8M0,-4v8" fill="none" stroke="white" stroke-width="1.5" pointer-events="none"/>
                </g>
                <g id="zoomMin">
                        <use xlink:href="#rim" fill="#404040">
                                <set attributeName="fill" to="#808080" begin="zoomminus.mouseover" end="zoomminus.mouseout"/>
                        </use>
                        <path d="M-4,0h8" fill="none" stroke="white" stroke-width="1.5" pointer-events="none"/>
                </g>
                <g id="dirArrow">
                        <path fill="none" stroke="white" stroke-width="1.5" d="M0,-3.0v7 M-2.5,-0.5L0,-3.0L2.5,-0.5"/>
                </g>
               <g id="resetDef">
                       <use xlink:href="#rim2" fill="#404040">
                               <set attributeName="fill" to="#808080" begin="reset.mouseover" end="reset.mouseout"/>
                       </use>
               </g>
        </defs>

<script type="text/javascript">
var viewWidth = 1575;
var viewHeight = 256;
var sectionId = 'dynsection-0';
</script>
<script xlink:href="svgpan.js"/>
<svg id="graph" class="graph">
<g id="viewport">
<title>HoloGen.Options.Algorithm.ErrorCalculation.Type.ErrorType2</title>
<polygon fill="white" stroke="none" points="-4,4 -4,-252 1571,-252 1571,4 -4,4"/>
<!-- Node0 -->
<g id="node1" class="node"><title>Node0</title>
<polygon fill="#bfbfbf" stroke="black" points="1407,-149 1407,-179 1567,-179 1567,-149 1407,-149"/>
<text text-anchor="start" x="1415" y="-167" font-family="Helvetica,sans-Serif" font-size="10.00">HoloGen.Options.Algorithm.</text>
<text text-anchor="middle" x="1487" y="-156" font-family="Helvetica,sans-Serif" font-size="10.00">ErrorCalculation.Type.ErrorType2</text>
</g>
<!-- Node1 -->
<g id="node2" class="node"><title>Node1</title>
<g id="a_node2"><a xlink:href="class_holo_gen_1_1_options_1_1_algorithm_1_1_error_calculation_1_1_type_1_1_error_type_possibility.html" target="_top" xlink:title="Base level possibilities for error metric. ">
<polygon fill="white" stroke="black" points="1266,-154.5 1266,-173.5 1370,-173.5 1370,-154.5 1266,-154.5"/>
<text text-anchor="middle" x="1318" y="-161.5" font-family="Helvetica,sans-Serif" font-size="10.00">ErrorTypePossibility</text>
</a>
</g>
</g>
<!-- Node1&#45;&gt;Node0 -->
<g id="edge1" class="edge"><title>Node1&#45;&gt;Node0</title>
<path fill="none" stroke="midnightblue" d="M1380.02,-164C1388.7,-164 1397.73,-164 1406.69,-164"/>
<polygon fill="midnightblue" stroke="midnightblue" points="1380.01,-160.5 1370.01,-164 1380.01,-167.5 1380.01,-160.5"/>
</g>
<!-- Node2 -->
<g id="node3" class="node"><title>Node2</title>
<g id="a_node3"><a xlink:href="class_holo_gen_1_1_hierarchy_1_1_option_types_1_1_possibility.html" target="_top" xlink:title="Possibility for a PossibilityCollection wrapped by a SelectOption. Extends OptionCollection. The base class ReflectiveChildrenElement finds all members assignable from T &#160;and uses them to populate the ReflectiveChildrenElement.Children member collection. ">
<polygon fill="white" stroke="black" points="1167,-154.5 1167,-173.5 1229,-173.5 1229,-154.5 1167,-154.5"/>
<text text-anchor="middle" x="1198" y="-161.5" font-family="Helvetica,sans-Serif" font-size="10.00">Possibility</text>
</a>
</g>
</g>
<!-- Node2&#45;&gt;Node1 -->
<g id="edge2" class="edge"><title>Node2&#45;&gt;Node1</title>
<path fill="none" stroke="midnightblue" d="M1239.2,-164C1247.78,-164 1256.96,-164 1265.88,-164"/>
<polygon fill="midnightblue" stroke="midnightblue" points="1239.08,-160.5 1229.08,-164 1239.08,-167.5 1239.08,-160.5"/>
</g>
<!-- Node3 -->
<g id="node4" class="node"><title>Node3</title>
<g id="a_node4"><a xlink:href="class_holo_gen_1_1_hierarchy_1_1_hierarchy_1_1_option_collection.html" target="_top" xlink:title="Option collection. Extends HierarchyElement. The base class ReflectiveChildrenElement finds all membe...">
<polygon fill="white" stroke="black" points="1042,-154.5 1042,-173.5 1130,-173.5 1130,-154.5 1042,-154.5"/>
<text text-anchor="middle" x="1086" y="-161.5" font-family="Helvetica,sans-Serif" font-size="10.00">OptionCollection</text>
</a>
</g>
</g>
<!-- Node3&#45;&gt;Node2 -->
<g id="edge3" class="edge"><title>Node3&#45;&gt;Node2</title>
<path fill="none" stroke="midnightblue" d="M1140.36,-164C1149.47,-164 1158.64,-164 1166.87,-164"/>
<polygon fill="midnightblue" stroke="midnightblue" points="1140.16,-160.5 1130.16,-164 1140.16,-167.5 1140.16,-160.5"/>
</g>
<!-- Node4 -->
<g id="node5" class="node"><title>Node4</title>
<g id="a_node5"><a xlink:href="class_holo_gen_1_1_hierarchy_1_1_hierarchy_1_1_hierarchy_element.html" target="_top" xlink:title="HierarchyElement\&lt; IOption \&gt;">
<polygon fill="white" stroke="black" points="862,-154.5 862,-173.5 1005,-173.5 1005,-154.5 862,-154.5"/>
<text text-anchor="middle" x="933.5" y="-161.5" font-family="Helvetica,sans-Serif" font-size="10.00">HierarchyElement&lt; IOption &gt;</text>
</a>
</g>
</g>
<!-- Node4&#45;&gt;Node3 -->
<g id="edge4" class="edge"><title>Node4&#45;&gt;Node3</title>
<path fill="none" stroke="midnightblue" d="M1015.61,-164C1024.68,-164 1033.64,-164 1041.95,-164"/>
<polygon fill="midnightblue" stroke="midnightblue" points="1015.34,-160.5 1005.34,-164 1015.34,-167.5 1015.34,-160.5"/>
</g>
<!-- Node5 -->
<g id="node6" class="node"><title>Node5</title>
<g id="a_node6"><a xlink:href="class_holo_gen_1_1_hierarchy_1_1_hierarchy_1_1_hierarchy_element.html" target="_top" xlink:title="Root hierarchy element. Defines Name and ToolTip fields that must be implemented by any implementors...">
<polygon fill="white" stroke="black" points="628,-149 628,-179 774,-179 774,-149 628,-149"/>
<text text-anchor="start" x="636" y="-167" font-family="Helvetica,sans-Serif" font-size="10.00">HoloGen.Hierarchy.Hierarchy.</text>
<text text-anchor="middle" x="701" y="-156" font-family="Helvetica,sans-Serif" font-size="10.00">HierarchyElement&lt; T &gt;</text>
</a>
</g>
</g>
<!-- Node5&#45;&gt;Node4 -->
<g id="edge5" class="edge"><title>Node5&#45;&gt;Node4</title>
<path fill="none" stroke="orange" stroke-dasharray="5,2" d="M784.577,-164C809.791,-164 837.279,-164 861.642,-164"/>
<polygon fill="orange" stroke="orange" points="784.299,-160.5 774.299,-164 784.299,-167.5 784.299,-160.5"/>
<text text-anchor="middle" x="818" y="-167" font-family="Helvetica,sans-Serif" font-size="10.00"> &lt; IOption &gt;</text>
</g>
<!-- Node6 -->
<g id="node7" class="node"><title>Node6</title>
<g id="a_node7"><a xlink:href="class_holo_gen_1_1_hierarchy_1_1_hierarchy_1_1_reflective_children_element.html" target="_top" xlink:title="Reflective hierarchy element template T . The constructor finds all members assignable from T &#160;and us...">
<polygon fill="white" stroke="black" points="439,-183.5 439,-202.5 591,-202.5 591,-183.5 439,-183.5"/>
<text text-anchor="middle" x="515" y="-190.5" font-family="Helvetica,sans-Serif" font-size="10.00">ReflectiveChildrenElement&lt; T &gt;</text>
</a>
</g>
</g>
<!-- Node6&#45;&gt;Node5 -->
<g id="edge6" class="edge"><title>Node6&#45;&gt;Node5</title>
<path fill="none" stroke="midnightblue" d="M586.693,-181.858C600.21,-179.728 614.376,-177.495 627.936,-175.358"/>
<polygon fill="midnightblue" stroke="midnightblue" points="585.836,-178.45 576.503,-183.464 586.926,-185.365 585.836,-178.45"/>
</g>
<!-- Node7 -->
<g id="node8" class="node"><title>Node7</title>
<g id="a_node8"><a xlink:href="class_holo_gen_1_1_hierarchy_1_1_hierarchy_1_1_hierarchy_saveable.html" target="_top" xlink:title="Declares that this object should be serialisable and saveable ">
<polygon fill="white" stroke="black" points="295.5,-228.5 295.5,-247.5 392.5,-247.5 392.5,-228.5 295.5,-228.5"/>
<text text-anchor="middle" x="344" y="-235.5" font-family="Helvetica,sans-Serif" font-size="10.00">HierarchySaveable</text>
</a>
</g>
</g>
<!-- Node7&#45;&gt;Node6 -->
<g id="edge7" class="edge"><title>Node7&#45;&gt;Node6</title>
<path fill="none" stroke="midnightblue" d="M390.629,-225.85C418.14,-218.525 452.68,-209.328 478.211,-202.53"/>
<polygon fill="midnightblue" stroke="midnightblue" points="389.603,-222.501 380.841,-228.457 391.404,-229.266 389.603,-222.501"/>
</g>
<!-- Node8 -->
<g id="node9" class="node"><title>Node8</title>
<g id="a_node9"><a xlink:href="class_holo_gen_1_1_utils_1_1_observable_object.html" target="_top" xlink:title="Observable object with INotifyPropertyChanged implemented ">
<polygon fill="white" stroke="black" points="156,-228.5 156,-247.5 249,-247.5 249,-228.5 156,-228.5"/>
<text text-anchor="middle" x="202.5" y="-235.5" font-family="Helvetica,sans-Serif" font-size="10.00">ObservableObject</text>
</a>
</g>
</g>
<!-- Node8&#45;&gt;Node7 -->
<g id="edge8" class="edge"><title>Node8&#45;&gt;Node7</title>
<path fill="none" stroke="midnightblue" d="M259.44,-238C271.322,-238 283.762,-238 295.303,-238"/>
<polygon fill="midnightblue" stroke="midnightblue" points="259.178,-234.5 249.178,-238 259.177,-241.5 259.178,-234.5"/>
</g>
<!-- Node9 -->
<g id="node10" class="node"><title>Node9</title>
<polygon fill="white" stroke="#bfbfbf" points="0,-228.5 0,-247.5 119,-247.5 119,-228.5 0,-228.5"/>
<text text-anchor="middle" x="59.5" y="-235.5" font-family="Helvetica,sans-Serif" font-size="10.00">INotifyPropertyChanged</text>
</g>
<!-- Node9&#45;&gt;Node8 -->
<g id="edge9" class="edge"><title>Node9&#45;&gt;Node8</title>
<path fill="none" stroke="midnightblue" d="M129.206,-238C138.225,-238 147.283,-238 155.79,-238"/>
<polygon fill="midnightblue" stroke="midnightblue" points="129.072,-234.5 119.072,-238 129.072,-241.5 129.072,-234.5"/>
</g>
<!-- Node10 -->
<g id="node11" class="node"><title>Node10</title>
<g id="a_node11"><a xlink:href="interface_holo_gen_1_1_hierarchy_1_1_hierarchy_1_1_i_hierarchy_element.html" target="_top" xlink:title="Base interface for the HierarchyElement that doesn&#39;t need a template parameter. Necessary for a numbe...">
<polygon fill="white" stroke="black" points="467,-114.5 467,-133.5 563,-133.5 563,-114.5 467,-114.5"/>
<text text-anchor="middle" x="515" y="-121.5" font-family="Helvetica,sans-Serif" font-size="10.00">IHierarchyElement</text>
</a>
</g>
</g>
<!-- Node10&#45;&gt;Node5 -->
<g id="edge10" class="edge"><title>Node10&#45;&gt;Node5</title>
<path fill="none" stroke="midnightblue" d="M570.045,-135.749C589.056,-139.882 610.689,-144.585 630.776,-148.951"/>
<polygon fill="midnightblue" stroke="midnightblue" points="570.588,-132.285 560.073,-133.581 569.101,-139.125 570.588,-132.285"/>
</g>
<!-- Node11 -->
<g id="node12" class="node"><title>Node11</title>
<g id="a_node12"><a xlink:href="interface_holo_gen_1_1_hierarchy_1_1_hierarchy_1_1_i_can_error.html" target="_top" xlink:title="Interface implemented by any classes that can be in an error state. Defines the Valid property that c...">
<polygon fill="white" stroke="black" points="315.5,-190.5 315.5,-209.5 372.5,-209.5 372.5,-190.5 315.5,-190.5"/>
<text text-anchor="middle" x="344" y="-197.5" font-family="Helvetica,sans-Serif" font-size="10.00">ICanError</text>
</a>
</g>
</g>
<!-- Node11&#45;&gt;Node10 -->
<g id="edge11" class="edge"><title>Node11&#45;&gt;Node10</title>
<path fill="none" stroke="midnightblue" d="M382.14,-188.512C388.816,-186.195 395.664,-183.651 402,-181 436.619,-166.516 475.277,-145.764 496.919,-133.705"/>
<polygon fill="midnightblue" stroke="midnightblue" points="380.924,-185.228 372.559,-191.73 383.153,-191.864 380.924,-185.228"/>
</g>
<!-- Node12 -->
<g id="node13" class="node"><title>Node12</title>
<g id="a_node13"><a xlink:href="interface_holo_gen_1_1_hierarchy_1_1_hierarchy_1_1_i_has_name.html" target="_top" xlink:title="Interface implemented by any classes that have a Name property. ">
<polygon fill="white" stroke="black" points="313,-152.5 313,-171.5 375,-171.5 375,-152.5 313,-152.5"/>
<text text-anchor="middle" x="344" y="-159.5" font-family="Helvetica,sans-Serif" font-size="10.00">IHasName</text>
</a>
</g>
</g>
<!-- Node12&#45;&gt;Node10 -->
<g id="edge12" class="edge"><title>Node12&#45;&gt;Node10</title>
<path fill="none" stroke="midnightblue" d="M385.147,-152.973C411.225,-147.109 445.168,-139.477 471.669,-133.518"/>
<polygon fill="midnightblue" stroke="midnightblue" points="384.202,-149.598 375.214,-155.206 385.738,-156.427 384.202,-149.598"/>
</g>
<!-- Node13 -->
<g id="node14" class="node"><title>Node13</title>
<g id="a_node14"><a xlink:href="interface_holo_gen_1_1_hierarchy_1_1_hierarchy_1_1_i_has_tool_tip.html" target="_top" xlink:title="Interface implemented by any classes that have a ToolTip property. ">
<polygon fill="white" stroke="black" points="310.5,-114.5 310.5,-133.5 377.5,-133.5 377.5,-114.5 310.5,-114.5"/>
<text text-anchor="middle" x="344" y="-121.5" font-family="Helvetica,sans-Serif" font-size="10.00">IHasToolTip</text>
</a>
</g>
</g>
<!-- Node13&#45;&gt;Node10 -->
<g id="edge13" class="edge"><title>Node13&#45;&gt;Node10</title>
<path fill="none" stroke="midnightblue" d="M387.847,-124C411.936,-124 442.049,-124 466.812,-124"/>
<polygon fill="midnightblue" stroke="midnightblue" points="387.585,-120.5 377.585,-124 387.585,-127.5 387.585,-120.5"/>
</g>
<!-- Node14 -->
<g id="node15" class="node"><title>Node14</title>
<g id="a_node15"><a xlink:href="interface_holo_gen_1_1_hierarchy_1_1_hierarchy_1_1_i_can_reset.html" target="_top" xlink:title="Interface implemented by any classes that can be reset. ">
<polygon fill="white" stroke="black" points="313,-76.5 313,-95.5 375,-95.5 375,-76.5 313,-76.5"/>
<text text-anchor="middle" x="344" y="-83.5" font-family="Helvetica,sans-Serif" font-size="10.00">ICanReset</text>
</a>
</g>
</g>
<!-- Node14&#45;&gt;Node10 -->
<g id="edge14" class="edge"><title>Node14&#45;&gt;Node10</title>
<path fill="none" stroke="midnightblue" d="M385.147,-95.0272C411.225,-100.891 445.168,-108.523 471.669,-114.482"/>
<polygon fill="midnightblue" stroke="midnightblue" points="385.738,-91.5727 375.214,-92.7936 384.202,-98.4022 385.738,-91.5727"/>
</g>
<!-- Node15 -->
<g id="node16" class="node"><title>Node15</title>
<g id="a_node16"><a xlink:href="interface_holo_gen_1_1_hierarchy_1_1_hierarchy_1_1_i_can_recursively_enable.html" target="_top" xlink:title="Interface implemented by any classes that can be enabled Enabled and have children that can be Enable...">
<polygon fill="white" stroke="black" points="286,-0.5 286,-19.5 402,-19.5 402,-0.5 286,-0.5"/>
<text text-anchor="middle" x="344" y="-7.5" font-family="Helvetica,sans-Serif" font-size="10.00">ICanRecursivelyEnable</text>
</a>
</g>
</g>
<!-- Node15&#45;&gt;Node10 -->
<g id="edge15" class="edge"><title>Node15&#45;&gt;Node10</title>
<path fill="none" stroke="midnightblue" d="M396.604,-22.7147C405.05,-25.7928 413.487,-29.5224 421,-34 458.251,-56.1998 492.193,-96.0802 506.643,-114.364"/>
<polygon fill="midnightblue" stroke="midnightblue" points="397.708,-19.3932 387.114,-19.5112 395.469,-26.0256 397.708,-19.3932"/>
</g>
<!-- Node16 -->
<g id="node17" class="node"><title>Node16</title>
<g id="a_node17"><a xlink:href="interface_holo_gen_1_1_hierarchy_1_1_hierarchy_1_1_i_can_enable.html" target="_top" xlink:title="Interface implemented by any classes that can be enabled Enabled. ">
<polygon fill="white" stroke="black" points="169.5,-23.5 169.5,-42.5 235.5,-42.5 235.5,-23.5 169.5,-23.5"/>
<text text-anchor="middle" x="202.5" y="-30.5" font-family="Helvetica,sans-Serif" font-size="10.00">ICanEnable</text>
</a>
</g>
</g>
<!-- Node16&#45;&gt;Node10 -->
<g id="edge17" class="edge"><title>Node16&#45;&gt;Node10</title>
<path fill="none" stroke="midnightblue" d="M245.625,-36.5073C286.429,-40.7622 349.643,-49.6376 402,-67 438.447,-79.0865 477.717,-101.495 498.701,-114.321"/>
<polygon fill="midnightblue" stroke="midnightblue" points="245.798,-33.0073 235.501,-35.4986 245.104,-39.9728 245.798,-33.0073"/>
</g>
<!-- Node16&#45;&gt;Node15 -->
<g id="edge16" class="edge"><title>Node16&#45;&gt;Node15</title>
<path fill="none" stroke="midnightblue" d="M245.374,-26.0961C258.129,-23.993 272.374,-21.6445 285.953,-19.4055"/>
<polygon fill="midnightblue" stroke="midnightblue" points="244.802,-22.6431 235.504,-27.7233 245.94,-29.5498 244.802,-22.6431"/>
</g>
</g>
</svg>
        <g id="navigator" transform="translate(0 0)" fill="#404254">
                <rect fill="#f2f5e9" fill-opacity="0.5" stroke="#606060" stroke-width=".5" x="0" y="0" width="60" height="60"/>
                <use id="zoomplus" xlink:href="#zoomPlus" x="17" y="9" onmousedown="handleZoom(evt,'in')"/>
                <use id="zoomminus" xlink:href="#zoomMin" x="42" y="9" onmousedown="handleZoom(evt,'out')"/>
                <use id="reset" xlink:href="#resetDef" x="30" y="36" onmousedown="handleReset()"/>
                <g id="arrowUp" xlink:href="#dirArrow" transform="translate(30 24)" onmousedown="handlePan(0,-1)">
                  <use xlink:href="#rim" fill="#404040">
                        <set attributeName="fill" to="#808080" begin="arrowUp.mouseover" end="arrowUp.mouseout"/>
                  </use>
                  <path fill="none" stroke="white" stroke-width="1.5" d="M0,-3.0v7 M-2.5,-0.5L0,-3.0L2.5,-0.5"/>
                </g>
                <g id="arrowRight" xlink:href="#dirArrow" transform="rotate(90) translate(36 -43)" onmousedown="handlePan(1,0)">
                  <use xlink:href="#rim" fill="#404040">
                        <set attributeName="fill" to="#808080" begin="arrowRight.mouseover" end="arrowRight.mouseout"/>
                  </use>
                  <path fill="none" stroke="white" stroke-width="1.5" d="M0,-3.0v7 M-2.5,-0.5L0,-3.0L2.5,-0.5"/>
                </g>
                <g id="arrowDown" xlink:href="#dirArrow" transform="rotate(180) translate(-30 -48)" onmousedown="handlePan(0,1)">
                  <use xlink:href="#rim" fill="#404040">
                        <set attributeName="fill" to="#808080" begin="arrowDown.mouseover" end="arrowDown.mouseout"/>
                  </use>
                  <path fill="none" stroke="white" stroke-width="1.5" d="M0,-3.0v7 M-2.5,-0.5L0,-3.0L2.5,-0.5"/>
                </g>
                <g id="arrowLeft" xlink:href="#dirArrow" transform="rotate(270) translate(-36 17)" onmousedown="handlePan(-1,0)">
                  <use xlink:href="#rim" fill="#404040">
                        <set attributeName="fill" to="#808080" begin="arrowLeft.mouseover" end="arrowLeft.mouseout"/>
                  </use>
                  <path fill="none" stroke="white" stroke-width="1.5" d="M0,-3.0v7 M-2.5,-0.5L0,-3.0L2.5,-0.5"/>
                </g>
        </g>
        <svg viewBox="0 0 15 15" width="100%" height="30px" preserveAspectRatio="xMaxYMin meet">
         <g id="arrow_out" transform="scale(0.3 0.3)">
          <a xlink:href="class_holo_gen_1_1_options_1_1_algorithm_1_1_error_calculation_1_1_type_1_1_error_type2__inherit__graph_org.svg" target="_base">
           <rect id="button" ry="5" rx="5" y="6" x="6" height="38" width="38"
                fill="#f2f5e9" fill-opacity="0.5" stroke="#606060" stroke-width="1.0"/>
           <path id="arrow"
             d="M 11.500037,31.436501 C 11.940474,20.09759 22.043105,11.32322 32.158766,21.979434 L 37.068811,17.246167 C 37.068811,17.246167 37.088388,32 37.088388,32 L 22.160133,31.978069 C 22.160133,31.978069 26.997745,27.140456 26.997745,27.140456 C 18.528582,18.264221 13.291696,25.230495 11.500037,31.436501 z"
             style="fill:#404040;"/>
          </a>
         </g>
        </svg>
</svg>
