<?xml version="1.0" encoding="UTF-8" standalone="no"?>
<!DOCTYPE svg PUBLIC "-//W3C//DTD SVG 1.1//EN"
 "http://www.w3.org/Graphics/SVG/1.1/DTD/svg11.dtd">
<!-- Generated by graphviz version 2.38.0 (20140413.2041)
 -->
<!-- Title: HoloGen.UI.MainWindowViewModel.NewPdfTab Pages: 1 -->
<svg width="336pt" height="88pt"
 viewBox="0.00 0.00 336.00 88.00" xmlns="http://www.w3.org/2000/svg" xmlns:xlink="http://www.w3.org/1999/xlink">
<g id="graph0" class="graph" transform="scale(1 1) rotate(0) translate(4 84)">
<title>HoloGen.UI.MainWindowViewModel.NewPdfTab</title>
<polygon fill="white" stroke="none" points="-4,4 -4,-84 332,-84 332,4 -4,4"/>
<!-- Node22 -->
<g id="node1" class="node"><title>Node22</title>
<polygon fill="#bfbfbf" stroke="black" points="0,-24.5 0,-54.5 146,-54.5 146,-24.5 0,-24.5"/>
<text text-anchor="start" x="8" y="-42.5" font-family="Helvetica,sans-Serif" font-size="10.00">HoloGen.UI.MainWindowView</text>
<text text-anchor="middle" x="73" y="-31.5" font-family="Helvetica,sans-Serif" font-size="10.00">Model.NewPdfTab</text>
</g>
<!-- Node23 -->
<g id="node2" class="node"><title>Node23</title>
<g id="a_node2"><a xlink:href="class_holo_gen_1_1_u_i_1_1_commands_1_1_show_about_command.html#a4a54c8a7c72a28b8fa402e1030e4c489" target="_top" xlink:title="HoloGen.UI.Commands.Show\lAboutCommand.Execute">
<polygon fill="white" stroke="black" points="182,-49.5 182,-79.5 328,-79.5 328,-49.5 182,-49.5"/>
<text text-anchor="start" x="190" y="-67.5" font-family="Helvetica,sans-Serif" font-size="10.00">HoloGen.UI.Commands.Show</text>
<text text-anchor="middle" x="255" y="-56.5" font-family="Helvetica,sans-Serif" font-size="10.00">AboutCommand.Execute</text>
</a>
</g>
</g>
<!-- Node22&#45;&gt;Node23 -->
<g id="edge1" class="edge"><title>Node22&#45;&gt;Node23</title>
<path fill="none" stroke="midnightblue" d="M156.16,-50.9111C164.718,-52.0998 173.372,-53.3017 181.808,-54.4733"/>
<polygon fill="midnightblue" stroke="midnightblue" points="156.562,-47.4335 146.176,-49.5244 155.599,-54.3669 156.562,-47.4335"/>
</g>
<!-- Node24 -->
<g id="node3" class="node"><title>Node24</title>
<g id="a_node3"><a xlink:href="class_holo_gen_1_1_u_i_1_1_commands_1_1_show_help_command.html#a44236b039c8dbe8e4c276467544fdf7e" target="_top" xlink:title="HoloGen.UI.Commands.Show\lHelpCommand.Execute">
<polygon fill="white" stroke="black" points="182,-0.5 182,-30.5 328,-30.5 328,-0.5 182,-0.5"/>
<text text-anchor="start" x="190" y="-18.5" font-family="Helvetica,sans-Serif" font-size="10.00">HoloGen.UI.Commands.Show</text>
<text text-anchor="middle" x="255" y="-7.5" font-family="Helvetica,sans-Serif" font-size="10.00">HelpCommand.Execute</text>
</a>
</g>
</g>
<!-- Node22&#45;&gt;Node24 -->
<g id="edge2" class="edge"><title>Node22&#45;&gt;Node24</title>
<path fill="none" stroke="midnightblue" d="M156.16,-28.5453C164.718,-27.4042 173.372,-26.2504 181.808,-25.1256"/>
<polygon fill="midnightblue" stroke="midnightblue" points="155.625,-25.0855 146.176,-29.8766 156.551,-32.0241 155.625,-25.0855"/>
</g>
</g>
</svg>
