<?xml version="1.0" encoding="UTF-8" standalone="no"?>
<!DOCTYPE svg PUBLIC "-//W3C//DTD SVG 1.1//EN"
 "http://www.w3.org/Graphics/SVG/1.1/DTD/svg11.dtd">
<!-- Generated by graphviz version 2.38.0 (20140413.2041)
 -->
<!-- Title: HoloGen.Options.Target.Target.TieNormalisationToZero Pages: 1 -->
<!--zoomable 345 -->
<svg id="main" version="1.1" xmlns="http://www.w3.org/2000/svg" xmlns:xlink="http://www.w3.org/1999/xlink" xml:space="preserve" onload="init(evt)">
<style type="text/css"><![CDATA[
.edge:hover path { stroke: red; }
.edge:hover polygon { stroke: red; fill: red; }
]]></style>
<script type="text/javascript"><![CDATA[
var edges = document.getElementsByTagName('g');
if (edges && edges.length) {
  for (var i=0;i<edges.length;i++) {
    if (edges[i].id.substr(0,4)=='edge') {
      edges[i].setAttribute('class','edge');
    }
  }
}
]]></script>
        <defs>
                <circle id="rim" cx="0" cy="0" r="7"/>
                <circle id="rim2" cx="0" cy="0" r="3.5"/>
                <g id="zoomPlus">
                        <use xlink:href="#rim" fill="#404040">
                                <set attributeName="fill" to="#808080" begin="zoomplus.mouseover" end="zoomplus.mouseout"/>
                        </use>
                        <path d="M-4,0h8M0,-4v8" fill="none" stroke="white" stroke-width="1.5" pointer-events="none"/>
                </g>
                <g id="zoomMin">
                        <use xlink:href="#rim" fill="#404040">
                                <set attributeName="fill" to="#808080" begin="zoomminus.mouseover" end="zoomminus.mouseout"/>
                        </use>
                        <path d="M-4,0h8" fill="none" stroke="white" stroke-width="1.5" pointer-events="none"/>
                </g>
                <g id="dirArrow">
                        <path fill="none" stroke="white" stroke-width="1.5" d="M0,-3.0v7 M-2.5,-0.5L0,-3.0L2.5,-0.5"/>
                </g>
               <g id="resetDef">
                       <use xlink:href="#rim2" fill="#404040">
                               <set attributeName="fill" to="#808080" begin="reset.mouseover" end="reset.mouseout"/>
                       </use>
               </g>
        </defs>

<script type="text/javascript">
var viewWidth = 533;
var viewHeight = 345;
var sectionId = 'dynsection-0';
</script>
<script xlink:href="svgpan.js"/>
<svg id="graph" class="graph">
<g id="viewport">
<title>HoloGen.Options.Target.Target.TieNormalisationToZero</title>
<polygon fill="white" stroke="none" points="-4,4 -4,-341 528.5,-341 528.5,4 -4,4"/>
<!-- Node0 -->
<g id="node1" class="node"><title>Node0</title>
<polygon fill="#bfbfbf" stroke="black" points="139.5,-0.5 139.5,-30.5 293.5,-30.5 293.5,-0.5 139.5,-0.5"/>
<text text-anchor="start" x="147.5" y="-18.5" font-family="Helvetica,sans-Serif" font-size="10.00">HoloGen.Options.Target.Target.</text>
<text text-anchor="middle" x="216.5" y="-7.5" font-family="Helvetica,sans-Serif" font-size="10.00">TieNormalisationToZero</text>
</g>
<!-- Node1 -->
<g id="node2" class="node"><title>Node1</title>
<g id="a_node2"><a xlink:href="class_holo_gen_1_1_hierarchy_1_1_option_types_1_1_boolean_option.html" target="_top" xlink:title="Extends Option wrapping a boolean parameter. Implements the IHasWatermark interface in addition...">
<polygon fill="white" stroke="black" points="176.5,-68.5 176.5,-87.5 256.5,-87.5 256.5,-68.5 176.5,-68.5"/>
<text text-anchor="middle" x="216.5" y="-75.5" font-family="Helvetica,sans-Serif" font-size="10.00">BooleanOption</text>
</a>
</g>
</g>
<!-- Node1&#45;&gt;Node0 -->
<g id="edge1" class="edge"><title>Node1&#45;&gt;Node0</title>
<path fill="none" stroke="midnightblue" d="M216.5,-58.2154C216.5,-49.3565 216.5,-38.9577 216.5,-30.7587"/>
<polygon fill="midnightblue" stroke="midnightblue" points="213,-58.3318 216.5,-68.3318 220,-58.3319 213,-58.3318"/>
</g>
<!-- Node2 -->
<g id="node3" class="node"><title>Node2</title>
<g id="a_node3"><a xlink:href="class_holo_gen_1_1_hierarchy_1_1_option_types_1_1_option.html" target="_top" xlink:title="Option\&lt; bool \&gt;">
<polygon fill="white" stroke="black" points="101,-125.5 101,-144.5 182,-144.5 182,-125.5 101,-125.5"/>
<text text-anchor="middle" x="141.5" y="-132.5" font-family="Helvetica,sans-Serif" font-size="10.00">Option&lt; bool &gt;</text>
</a>
</g>
</g>
<!-- Node2&#45;&gt;Node1 -->
<g id="edge2" class="edge"><title>Node2&#45;&gt;Node1</title>
<path fill="none" stroke="midnightblue" d="M161.563,-119.287C175.305,-109.21 193.066,-96.1851 204.616,-87.7149"/>
<polygon fill="midnightblue" stroke="midnightblue" points="159.213,-116.67 153.219,-125.406 163.353,-122.315 159.213,-116.67"/>
</g>
<!-- Node3 -->
<g id="node4" class="node"><title>Node3</title>
<g id="a_node4"><a xlink:href="class_holo_gen_1_1_hierarchy_1_1_option_types_1_1_option.html" target="_top" xlink:title="Root hierarchy element. Defines Name and ToolTip fields that must be implemented by any implementors...">
<polygon fill="white" stroke="black" points="76.5,-192.5 76.5,-222.5 206.5,-222.5 206.5,-192.5 76.5,-192.5"/>
<text text-anchor="start" x="84.5" y="-210.5" font-family="Helvetica,sans-Serif" font-size="10.00">HoloGen.Hierarchy.Option</text>
<text text-anchor="middle" x="141.5" y="-199.5" font-family="Helvetica,sans-Serif" font-size="10.00">Types.Option&lt; T &gt;</text>
</a>
</g>
</g>
<!-- Node3&#45;&gt;Node2 -->
<g id="edge3" class="edge"><title>Node3&#45;&gt;Node2</title>
<path fill="none" stroke="orange" stroke-dasharray="5,2" d="M141.5,-182.091C141.5,-169.214 141.5,-154.197 141.5,-144.893"/>
<polygon fill="orange" stroke="orange" points="138,-182.233 141.5,-192.233 145,-182.233 138,-182.233"/>
<text text-anchor="middle" x="161.5" y="-166" font-family="Helvetica,sans-Serif" font-size="10.00"> &lt; bool &gt;</text>
</g>
<!-- Node4 -->
<g id="node5" class="node"><title>Node4</title>
<g id="a_node5"><a xlink:href="class_holo_gen_1_1_utils_1_1_observable_object.html" target="_top" xlink:title="Observable object with INotifyPropertyChanged implemented ">
<polygon fill="white" stroke="black" points="43,-260.5 43,-279.5 136,-279.5 136,-260.5 43,-260.5"/>
<text text-anchor="middle" x="89.5" y="-267.5" font-family="Helvetica,sans-Serif" font-size="10.00">ObservableObject</text>
</a>
</g>
</g>
<!-- Node4&#45;&gt;Node3 -->
<g id="edge4" class="edge"><title>Node4&#45;&gt;Node3</title>
<path fill="none" stroke="midnightblue" d="M103.649,-252.539C111.656,-243.223 121.571,-231.686 129.245,-222.759"/>
<polygon fill="midnightblue" stroke="midnightblue" points="100.814,-250.467 96.9503,-260.332 106.123,-255.029 100.814,-250.467"/>
</g>
<!-- Node5 -->
<g id="node6" class="node"><title>Node5</title>
<polygon fill="white" stroke="#bfbfbf" points="0,-317.5 0,-336.5 119,-336.5 119,-317.5 0,-317.5"/>
<text text-anchor="middle" x="59.5" y="-324.5" font-family="Helvetica,sans-Serif" font-size="10.00">INotifyPropertyChanged</text>
</g>
<!-- Node5&#45;&gt;Node4 -->
<g id="edge5" class="edge"><title>Node5&#45;&gt;Node4</title>
<path fill="none" stroke="midnightblue" d="M69.136,-308.334C74.3527,-298.77 80.5663,-287.378 84.7464,-279.715"/>
<polygon fill="midnightblue" stroke="midnightblue" points="65.9034,-306.951 64.1875,-317.406 72.0487,-310.303 65.9034,-306.951"/>
</g>
<!-- Node6 -->
<g id="node7" class="node"><title>Node6</title>
<g id="a_node7"><a xlink:href="interface_holo_gen_1_1_hierarchy_1_1_option_types_1_1_i_option.html" target="_top" xlink:title="Base interface for the Option that doesn&#39;t need a template parameter. Necessary for a number of refle...">
<polygon fill="white" stroke="black" points="220,-260.5 220,-279.5 267,-279.5 267,-260.5 220,-260.5"/>
<text text-anchor="middle" x="243.5" y="-267.5" font-family="Helvetica,sans-Serif" font-size="10.00">IOption</text>
</a>
</g>
</g>
<!-- Node5&#45;&gt;Node6 -->
<g id="edge11" class="edge"><title>Node5&#45;&gt;Node6</title>
<path fill="none" stroke="midnightblue" d="M98.1346,-314.452C134.938,-303.451 189.156,-287.244 219.916,-278.05"/>
<polygon fill="midnightblue" stroke="midnightblue" points="96.8287,-311.189 88.25,-317.406 98.8335,-317.896 96.8287,-311.189"/>
</g>
<!-- Node6&#45;&gt;Node3 -->
<g id="edge6" class="edge"><title>Node6&#45;&gt;Node3</title>
<path fill="none" stroke="midnightblue" d="M219.909,-255.007C203.463,-245.252 181.606,-232.288 165.147,-222.526"/>
<polygon fill="midnightblue" stroke="midnightblue" points="218.499,-258.241 228.886,-260.332 222.071,-252.22 218.499,-258.241"/>
</g>
<!-- Node7 -->
<g id="node8" class="node"><title>Node7</title>
<g id="a_node8"><a xlink:href="interface_holo_gen_1_1_hierarchy_1_1_hierarchy_1_1_i_can_error.html" target="_top" xlink:title="Interface implemented by any classes that can be in an error state. Defines the Valid property that c...">
<polygon fill="white" stroke="black" points="137,-317.5 137,-336.5 194,-336.5 194,-317.5 137,-317.5"/>
<text text-anchor="middle" x="165.5" y="-324.5" font-family="Helvetica,sans-Serif" font-size="10.00">ICanError</text>
</a>
</g>
</g>
<!-- Node7&#45;&gt;Node6 -->
<g id="edge7" class="edge"><title>Node7&#45;&gt;Node6</title>
<path fill="none" stroke="midnightblue" d="M186.011,-311.537C200.453,-301.354 219.295,-288.068 231.398,-279.533"/>
<polygon fill="midnightblue" stroke="midnightblue" points="183.843,-308.783 177.688,-317.406 187.877,-314.504 183.843,-308.783"/>
</g>
<!-- Node8 -->
<g id="node9" class="node"><title>Node8</title>
<g id="a_node9"><a xlink:href="interface_holo_gen_1_1_hierarchy_1_1_hierarchy_1_1_i_has_name.html" target="_top" xlink:title="Interface implemented by any classes that have a Name property. ">
<polygon fill="white" stroke="black" points="212.5,-317.5 212.5,-336.5 274.5,-336.5 274.5,-317.5 212.5,-317.5"/>
<text text-anchor="middle" x="243.5" y="-324.5" font-family="Helvetica,sans-Serif" font-size="10.00">IHasName</text>
</a>
</g>
</g>
<!-- Node8&#45;&gt;Node6 -->
<g id="edge8" class="edge"><title>Node8&#45;&gt;Node6</title>
<path fill="none" stroke="midnightblue" d="M243.5,-307.117C243.5,-297.817 243.5,-287.056 243.5,-279.715"/>
<polygon fill="midnightblue" stroke="midnightblue" points="240,-307.406 243.5,-317.406 247,-307.406 240,-307.406"/>
</g>
<!-- Node9 -->
<g id="node10" class="node"><title>Node9</title>
<g id="a_node10"><a xlink:href="interface_holo_gen_1_1_hierarchy_1_1_hierarchy_1_1_i_has_tool_tip.html" target="_top" xlink:title="Interface implemented by any classes that have a ToolTip property. ">
<polygon fill="white" stroke="black" points="293,-317.5 293,-336.5 360,-336.5 360,-317.5 293,-317.5"/>
<text text-anchor="middle" x="326.5" y="-324.5" font-family="Helvetica,sans-Serif" font-size="10.00">IHasToolTip</text>
</a>
</g>
</g>
<!-- Node9&#45;&gt;Node6 -->
<g id="edge9" class="edge"><title>Node9&#45;&gt;Node6</title>
<path fill="none" stroke="midnightblue" d="M305.108,-311.824C289.686,-301.605 269.378,-288.148 256.378,-279.533"/>
<polygon fill="midnightblue" stroke="midnightblue" points="303.262,-314.8 313.531,-317.406 307.129,-308.965 303.262,-314.8"/>
</g>
<!-- Node10 -->
<g id="node11" class="node"><title>Node10</title>
<g id="a_node11"><a xlink:href="interface_holo_gen_1_1_hierarchy_1_1_hierarchy_1_1_i_can_enable.html" target="_top" xlink:title="Interface implemented by any classes that can be enabled Enabled. ">
<polygon fill="white" stroke="black" points="378.5,-317.5 378.5,-336.5 444.5,-336.5 444.5,-317.5 378.5,-317.5"/>
<text text-anchor="middle" x="411.5" y="-324.5" font-family="Helvetica,sans-Serif" font-size="10.00">ICanEnable</text>
</a>
</g>
</g>
<!-- Node10&#45;&gt;Node6 -->
<g id="edge10" class="edge"><title>Node10&#45;&gt;Node6</title>
<path fill="none" stroke="midnightblue" d="M375.592,-314.244C342.827,-303.518 295.341,-287.972 267.125,-278.734"/>
<polygon fill="midnightblue" stroke="midnightblue" points="374.657,-317.621 385.25,-317.406 376.835,-310.969 374.657,-317.621"/>
</g>
<!-- Node11 -->
<g id="node12" class="node"><title>Node11</title>
<g id="a_node12"><a xlink:href="interface_holo_gen_1_1_hierarchy_1_1_hierarchy_1_1_i_can_reset.html" target="_top" xlink:title="Interface implemented by any classes that can be reset. ">
<polygon fill="white" stroke="black" points="462.5,-317.5 462.5,-336.5 524.5,-336.5 524.5,-317.5 462.5,-317.5"/>
<text text-anchor="middle" x="493.5" y="-324.5" font-family="Helvetica,sans-Serif" font-size="10.00">ICanReset</text>
</a>
</g>
</g>
<!-- Node11&#45;&gt;Node6 -->
<g id="edge12" class="edge"><title>Node11&#45;&gt;Node6</title>
<path fill="none" stroke="midnightblue" d="M452.608,-316.811C379.121,-300.514 304.341,-284.219 267.13,-276.13"/>
<polygon fill="midnightblue" stroke="midnightblue" points="451.974,-320.256 462.495,-319.006 453.491,-313.422 451.974,-320.256"/>
</g>
<!-- Node12 -->
<g id="node13" class="node"><title>Node12</title>
<g id="a_node13"><a xlink:href="interface_holo_gen_1_1_hierarchy_1_1_hierarchy_1_1_i_has_watermark.html" target="_top" xlink:title="Interface implemented by any classes that have a Watermark property. ">
<polygon fill="white" stroke="black" points="200.5,-125.5 200.5,-144.5 284.5,-144.5 284.5,-125.5 200.5,-125.5"/>
<text text-anchor="middle" x="242.5" y="-132.5" font-family="Helvetica,sans-Serif" font-size="10.00">IHasWatermark</text>
</a>
</g>
</g>
<!-- Node12&#45;&gt;Node1 -->
<g id="edge13" class="edge"><title>Node12&#45;&gt;Node1</title>
<path fill="none" stroke="midnightblue" d="M234.149,-116.334C229.628,-106.77 224.243,-95.3784 220.62,-87.7149"/>
<polygon fill="midnightblue" stroke="midnightblue" points="230.999,-117.861 238.438,-125.406 237.328,-114.87 230.999,-117.861"/>
</g>
</g>
</svg>
        <g id="navigator" transform="translate(0 0)" fill="#404254">
                <rect fill="#f2f5e9" fill-opacity="0.5" stroke="#606060" stroke-width=".5" x="0" y="0" width="60" height="60"/>
                <use id="zoomplus" xlink:href="#zoomPlus" x="17" y="9" onmousedown="handleZoom(evt,'in')"/>
                <use id="zoomminus" xlink:href="#zoomMin" x="42" y="9" onmousedown="handleZoom(evt,'out')"/>
                <use id="reset" xlink:href="#resetDef" x="30" y="36" onmousedown="handleReset()"/>
                <g id="arrowUp" xlink:href="#dirArrow" transform="translate(30 24)" onmousedown="handlePan(0,-1)">
                  <use xlink:href="#rim" fill="#404040">
                        <set attributeName="fill" to="#808080" begin="arrowUp.mouseover" end="arrowUp.mouseout"/>
                  </use>
                  <path fill="none" stroke="white" stroke-width="1.5" d="M0,-3.0v7 M-2.5,-0.5L0,-3.0L2.5,-0.5"/>
                </g>
                <g id="arrowRight" xlink:href="#dirArrow" transform="rotate(90) translate(36 -43)" onmousedown="handlePan(1,0)">
                  <use xlink:href="#rim" fill="#404040">
                        <set attributeName="fill" to="#808080" begin="arrowRight.mouseover" end="arrowRight.mouseout"/>
                  </use>
                  <path fill="none" stroke="white" stroke-width="1.5" d="M0,-3.0v7 M-2.5,-0.5L0,-3.0L2.5,-0.5"/>
                </g>
                <g id="arrowDown" xlink:href="#dirArrow" transform="rotate(180) translate(-30 -48)" onmousedown="handlePan(0,1)">
                  <use xlink:href="#rim" fill="#404040">
                        <set attributeName="fill" to="#808080" begin="arrowDown.mouseover" end="arrowDown.mouseout"/>
                  </use>
                  <path fill="none" stroke="white" stroke-width="1.5" d="M0,-3.0v7 M-2.5,-0.5L0,-3.0L2.5,-0.5"/>
                </g>
                <g id="arrowLeft" xlink:href="#dirArrow" transform="rotate(270) translate(-36 17)" onmousedown="handlePan(-1,0)">
                  <use xlink:href="#rim" fill="#404040">
                        <set attributeName="fill" to="#808080" begin="arrowLeft.mouseover" end="arrowLeft.mouseout"/>
                  </use>
                  <path fill="none" stroke="white" stroke-width="1.5" d="M0,-3.0v7 M-2.5,-0.5L0,-3.0L2.5,-0.5"/>
                </g>
        </g>
        <svg viewBox="0 0 15 15" width="100%" height="30px" preserveAspectRatio="xMaxYMin meet">
         <g id="arrow_out" transform="scale(0.3 0.3)">
          <a xlink:href="class_holo_gen_1_1_options_1_1_target_1_1_target_1_1_tie_normalisation_to_zero__inherit__graph_org.svg" target="_base">
           <rect id="button" ry="5" rx="5" y="6" x="6" height="38" width="38"
                fill="#f2f5e9" fill-opacity="0.5" stroke="#606060" stroke-width="1.0"/>
           <path id="arrow"
             d="M 11.500037,31.436501 C 11.940474,20.09759 22.043105,11.32322 32.158766,21.979434 L 37.068811,17.246167 C 37.068811,17.246167 37.088388,32 37.088388,32 L 22.160133,31.978069 C 22.160133,31.978069 26.997745,27.140456 26.997745,27.140456 C 18.528582,18.264221 13.291696,25.230495 11.500037,31.436501 z"
             style="fill:#404040;"/>
          </a>
         </g>
        </svg>
</svg>
