<?xml version="1.0" encoding="UTF-8" standalone="no"?>
<!DOCTYPE svg PUBLIC "-//W3C//DTD SVG 1.1//EN"
 "http://www.w3.org/Graphics/SVG/1.1/DTD/svg11.dtd">
<!-- Generated by graphviz version 2.38.0 (20140413.2041)
 -->
<!-- Title: HoloGen.Options.Projector.Illumination.Type.IlluminationPossibilities Pages: 1 -->
<svg width="199pt" height="424pt"
 viewBox="0.00 0.00 199.00 424.00" xmlns="http://www.w3.org/2000/svg" xmlns:xlink="http://www.w3.org/1999/xlink">
<g id="graph0" class="graph" transform="scale(1 1) rotate(0) translate(4 420)">
<title>HoloGen.Options.Projector.Illumination.Type.IlluminationPossibilities</title>
<polygon fill="white" stroke="none" points="-4,4 -4,-420 195,-420 195,4 -4,4"/>
<!-- Node0 -->
<g id="node1" class="node"><title>Node0</title>
<polygon fill="#bfbfbf" stroke="black" points="5.5,-0.5 5.5,-41.5 146.5,-41.5 146.5,-0.5 5.5,-0.5"/>
<text text-anchor="start" x="13.5" y="-29.5" font-family="Helvetica,sans-Serif" font-size="10.00">HoloGen.Options.Projector.</text>
<text text-anchor="start" x="13.5" y="-18.5" font-family="Helvetica,sans-Serif" font-size="10.00">Illumination.Type.Illumination</text>
<text text-anchor="middle" x="76" y="-7.5" font-family="Helvetica,sans-Serif" font-size="10.00">Possibilities</text>
</g>
<!-- Node1 -->
<g id="node2" class="node"><title>Node1</title>
<g id="a_node2"><a xlink:href="class_holo_gen_1_1_hierarchy_1_1_hierarchy_1_1_possibility_collection.html" target="_top" xlink:title="PossibilityCollection\l\&lt; IlluminationPossibility \&gt;">
<polygon fill="white" stroke="black" points="12,-79.5 12,-109.5 140,-109.5 140,-79.5 12,-79.5"/>
<text text-anchor="start" x="20" y="-97.5" font-family="Helvetica,sans-Serif" font-size="10.00">PossibilityCollection</text>
<text text-anchor="middle" x="76" y="-86.5" font-family="Helvetica,sans-Serif" font-size="10.00">&lt; IlluminationPossibility &gt;</text>
</a>
</g>
</g>
<!-- Node1&#45;&gt;Node0 -->
<g id="edge1" class="edge"><title>Node1&#45;&gt;Node0</title>
<path fill="none" stroke="midnightblue" d="M76,-69.1008C76,-60.0979 76,-50.0235 76,-41.5096"/>
<polygon fill="midnightblue" stroke="midnightblue" points="72.5001,-69.3739 76,-79.3739 79.5001,-69.3739 72.5001,-69.3739"/>
</g>
<!-- Node2 -->
<g id="node3" class="node"><title>Node2</title>
<g id="a_node3"><a xlink:href="class_holo_gen_1_1_hierarchy_1_1_hierarchy_1_1_possibility_collection.html" target="_top" xlink:title="Collection of Possibilitys. Is wrapped by a SelectOption. Extends ReflectiveChildrenElement. The base class ReflectiveChildrenElement finds all members assignable from T &#160;and uses them to populate the ReflectiveChildrenElement.Children member collection. ">
<polygon fill="white" stroke="black" points="3,-157.5 3,-187.5 149,-187.5 149,-157.5 3,-157.5"/>
<text text-anchor="start" x="11" y="-175.5" font-family="Helvetica,sans-Serif" font-size="10.00">HoloGen.Hierarchy.Hierarchy.</text>
<text text-anchor="middle" x="76" y="-164.5" font-family="Helvetica,sans-Serif" font-size="10.00">PossibilityCollection&lt; T &gt;</text>
</a>
</g>
</g>
<!-- Node2&#45;&gt;Node1 -->
<g id="edge2" class="edge"><title>Node2&#45;&gt;Node1</title>
<path fill="none" stroke="orange" stroke-dasharray="5,2" d="M76,-147.09C76,-134.757 76,-120.224 76,-109.731"/>
<polygon fill="orange" stroke="orange" points="72.5001,-147.205 76,-157.205 79.5001,-147.205 72.5001,-147.205"/>
<text text-anchor="middle" x="133.5" y="-131" font-family="Helvetica,sans-Serif" font-size="10.00"> &lt; IlluminationPossibility &gt;</text>
</g>
<!-- Node3 -->
<g id="node4" class="node"><title>Node3</title>
<g id="a_node4"><a xlink:href="class_holo_gen_1_1_hierarchy_1_1_hierarchy_1_1_reflective_children_element.html" target="_top" xlink:title="Reflective hierarchy element template T . The constructor finds all members assignable from T &#160;and us...">
<polygon fill="white" stroke="black" points="0,-225.5 0,-244.5 152,-244.5 152,-225.5 0,-225.5"/>
<text text-anchor="middle" x="76" y="-232.5" font-family="Helvetica,sans-Serif" font-size="10.00">ReflectiveChildrenElement&lt; T &gt;</text>
</a>
</g>
</g>
<!-- Node3&#45;&gt;Node2 -->
<g id="edge3" class="edge"><title>Node3&#45;&gt;Node2</title>
<path fill="none" stroke="midnightblue" d="M76,-215.215C76,-206.356 76,-195.958 76,-187.759"/>
<polygon fill="midnightblue" stroke="midnightblue" points="72.5001,-215.332 76,-225.332 79.5001,-215.332 72.5001,-215.332"/>
</g>
<!-- Node4 -->
<g id="node5" class="node"><title>Node4</title>
<g id="a_node5"><a xlink:href="class_holo_gen_1_1_hierarchy_1_1_hierarchy_1_1_hierarchy_saveable.html" target="_top" xlink:title="Declares that this object should be serialisable and saveable ">
<polygon fill="white" stroke="black" points="27.5,-282.5 27.5,-301.5 124.5,-301.5 124.5,-282.5 27.5,-282.5"/>
<text text-anchor="middle" x="76" y="-289.5" font-family="Helvetica,sans-Serif" font-size="10.00">HierarchySaveable</text>
</a>
</g>
</g>
<!-- Node4&#45;&gt;Node3 -->
<g id="edge4" class="edge"><title>Node4&#45;&gt;Node3</title>
<path fill="none" stroke="midnightblue" d="M76,-272.117C76,-262.817 76,-252.056 76,-244.715"/>
<polygon fill="midnightblue" stroke="midnightblue" points="72.5001,-272.406 76,-282.406 79.5001,-272.406 72.5001,-272.406"/>
</g>
<!-- Node5 -->
<g id="node6" class="node"><title>Node5</title>
<g id="a_node6"><a xlink:href="class_holo_gen_1_1_utils_1_1_observable_object.html" target="_top" xlink:title="Observable object with INotifyPropertyChanged implemented ">
<polygon fill="white" stroke="black" points="29.5,-339.5 29.5,-358.5 122.5,-358.5 122.5,-339.5 29.5,-339.5"/>
<text text-anchor="middle" x="76" y="-346.5" font-family="Helvetica,sans-Serif" font-size="10.00">ObservableObject</text>
</a>
</g>
</g>
<!-- Node5&#45;&gt;Node4 -->
<g id="edge5" class="edge"><title>Node5&#45;&gt;Node4</title>
<path fill="none" stroke="midnightblue" d="M76,-329.117C76,-319.817 76,-309.056 76,-301.715"/>
<polygon fill="midnightblue" stroke="midnightblue" points="72.5001,-329.406 76,-339.406 79.5001,-329.406 72.5001,-329.406"/>
</g>
<!-- Node6 -->
<g id="node7" class="node"><title>Node6</title>
<polygon fill="white" stroke="#bfbfbf" points="16.5,-396.5 16.5,-415.5 135.5,-415.5 135.5,-396.5 16.5,-396.5"/>
<text text-anchor="middle" x="76" y="-403.5" font-family="Helvetica,sans-Serif" font-size="10.00">INotifyPropertyChanged</text>
</g>
<!-- Node6&#45;&gt;Node5 -->
<g id="edge6" class="edge"><title>Node6&#45;&gt;Node5</title>
<path fill="none" stroke="midnightblue" d="M76,-386.117C76,-376.817 76,-366.056 76,-358.715"/>
<polygon fill="midnightblue" stroke="midnightblue" points="72.5001,-386.406 76,-396.406 79.5001,-386.406 72.5001,-386.406"/>
</g>
</g>
</svg>
