<?xml version="1.0" encoding="UTF-8" standalone="no"?>
<!DOCTYPE svg PUBLIC "-//W3C//DTD SVG 1.1//EN"
 "http://www.w3.org/Graphics/SVG/1.1/DTD/svg11.dtd">
<!-- Generated by graphviz version 2.38.0 (20140413.2041)
 -->
<!-- Title: HoloGen.Hierarchy.Hierarchy.HierarchyFolder Pages: 1 -->
<!--zoomable 872 -->
<svg id="main" version="1.1" xmlns="http://www.w3.org/2000/svg" xmlns:xlink="http://www.w3.org/1999/xlink" xml:space="preserve" onload="init(evt)">
<style type="text/css"><![CDATA[
.edge:hover path { stroke: red; }
.edge:hover polygon { stroke: red; fill: red; }
]]></style>
<script type="text/javascript"><![CDATA[
var edges = document.getElementsByTagName('g');
if (edges && edges.length) {
  for (var i=0;i<edges.length;i++) {
    if (edges[i].id.substr(0,4)=='edge') {
      edges[i].setAttribute('class','edge');
    }
  }
}
]]></script>
        <defs>
                <circle id="rim" cx="0" cy="0" r="7"/>
                <circle id="rim2" cx="0" cy="0" r="3.5"/>
                <g id="zoomPlus">
                        <use xlink:href="#rim" fill="#404040">
                                <set attributeName="fill" to="#808080" begin="zoomplus.mouseover" end="zoomplus.mouseout"/>
                        </use>
                        <path d="M-4,0h8M0,-4v8" fill="none" stroke="white" stroke-width="1.5" pointer-events="none"/>
                </g>
                <g id="zoomMin">
                        <use xlink:href="#rim" fill="#404040">
                                <set attributeName="fill" to="#808080" begin="zoomminus.mouseover" end="zoomminus.mouseout"/>
                        </use>
                        <path d="M-4,0h8" fill="none" stroke="white" stroke-width="1.5" pointer-events="none"/>
                </g>
                <g id="dirArrow">
                        <path fill="none" stroke="white" stroke-width="1.5" d="M0,-3.0v7 M-2.5,-0.5L0,-3.0L2.5,-0.5"/>
                </g>
               <g id="resetDef">
                       <use xlink:href="#rim2" fill="#404040">
                               <set attributeName="fill" to="#808080" begin="reset.mouseover" end="reset.mouseout"/>
                       </use>
               </g>
        </defs>

<script type="text/javascript">
var viewWidth = 1406;
var viewHeight = 872;
var sectionId = 'dynsection-0';
</script>
<script xlink:href="svgpan.js"/>
<svg id="graph" class="graph">
<g id="viewport">
<title>HoloGen.Hierarchy.Hierarchy.HierarchyFolder</title>
<polygon fill="white" stroke="none" points="-4,4 -4,-868 1402,-868 1402,4 -4,4"/>
<!-- Node0 -->
<g id="node1" class="node"><title>Node0</title>
<polygon fill="#bfbfbf" stroke="black" points="1042,-416.5 1042,-446.5 1188,-446.5 1188,-416.5 1042,-416.5"/>
<text text-anchor="start" x="1050" y="-434.5" font-family="Helvetica,sans-Serif" font-size="10.00">HoloGen.Hierarchy.Hierarchy.</text>
<text text-anchor="middle" x="1115" y="-423.5" font-family="Helvetica,sans-Serif" font-size="10.00">HierarchyFolder</text>
</g>
<!-- Node14 -->
<g id="node15" class="node"><title>Node14</title>
<g id="a_node15"><a xlink:href="class_holo_gen_1_1_image_1_1_options_1_1_image_view_folder.html" target="_top" xlink:title="Folder of options relating to the image view style. ">
<polygon fill="white" stroke="black" points="1237,-833.5 1237,-863.5 1386,-863.5 1386,-833.5 1237,-833.5"/>
<text text-anchor="start" x="1245" y="-851.5" font-family="Helvetica,sans-Serif" font-size="10.00">HoloGen.Image.Options.Image</text>
<text text-anchor="middle" x="1311.5" y="-840.5" font-family="Helvetica,sans-Serif" font-size="10.00">ViewFolder</text>
</a>
</g>
</g>
<!-- Node0&#45;&gt;Node14 -->
<g id="edge16" class="edge"><title>Node0&#45;&gt;Node14</title>
<path fill="none" stroke="midnightblue" d="M1119.57,-456.603C1131.2,-534.784 1170.4,-771.761 1225,-823.5 1229.04,-827.329 1233.64,-830.576 1238.55,-833.328"/>
<polygon fill="midnightblue" stroke="midnightblue" points="1123.03,-456.048 1118.12,-446.662 1116.1,-457.063 1123.03,-456.048"/>
</g>
<!-- Node15 -->
<g id="node16" class="node"><title>Node15</title>
<g id="a_node16"><a xlink:href="class_holo_gen_1_1_mask_1_1_options_1_1_mask_folder.html" target="_top" xlink:title="Folder of image mask related options. ">
<polygon fill="white" stroke="black" points="1239,-784.5 1239,-814.5 1384,-814.5 1384,-784.5 1239,-784.5"/>
<text text-anchor="start" x="1247" y="-802.5" font-family="Helvetica,sans-Serif" font-size="10.00">HoloGen.Mask.Options.Mask</text>
<text text-anchor="middle" x="1311.5" y="-791.5" font-family="Helvetica,sans-Serif" font-size="10.00">Folder</text>
</a>
</g>
</g>
<!-- Node0&#45;&gt;Node15 -->
<g id="edge17" class="edge"><title>Node0&#45;&gt;Node15</title>
<path fill="none" stroke="midnightblue" d="M1116.21,-457.133C1118.16,-520.689 1132.37,-686.726 1225,-774.5 1229.15,-778.436 1233.89,-781.756 1238.96,-784.557"/>
<polygon fill="midnightblue" stroke="midnightblue" points="1119.7,-456.75 1115.97,-446.833 1112.7,-456.91 1119.7,-456.75"/>
</g>
<!-- Node16 -->
<g id="node17" class="node"><title>Node16</title>
<g id="a_node17"><a xlink:href="class_holo_gen_1_1_options_1_1_algorithm_1_1_algorithms_1_1_algorithms_folder.html" target="_top" xlink:title="Folder of CGH options related to the algporithm. ">
<polygon fill="white" stroke="black" points="1241.5,-735.5 1241.5,-765.5 1381.5,-765.5 1381.5,-735.5 1241.5,-735.5"/>
<text text-anchor="start" x="1249.5" y="-753.5" font-family="Helvetica,sans-Serif" font-size="10.00">HoloGen.Options.Algorithm.</text>
<text text-anchor="middle" x="1311.5" y="-742.5" font-family="Helvetica,sans-Serif" font-size="10.00">Algorithms.AlgorithmsFolder</text>
</a>
</g>
</g>
<!-- Node0&#45;&gt;Node16 -->
<g id="edge18" class="edge"><title>Node0&#45;&gt;Node16</title>
<path fill="none" stroke="midnightblue" d="M1117.92,-456.763C1123.59,-513.37 1145.28,-651.221 1225,-725.5 1229.75,-729.928 1235.25,-733.576 1241.11,-736.581"/>
<polygon fill="midnightblue" stroke="midnightblue" points="1121.38,-456.207 1116.98,-446.567 1114.41,-456.845 1121.38,-456.207"/>
</g>
<!-- Node17 -->
<g id="node18" class="node"><title>Node17</title>
<g id="a_node18"><a xlink:href="class_holo_gen_1_1_options_1_1_algorithm_1_1_error_calculation_1_1_error_folder.html" target="_top" xlink:title="Folder of error related options. ">
<polygon fill="white" stroke="black" points="1242.5,-686.5 1242.5,-716.5 1380.5,-716.5 1380.5,-686.5 1242.5,-686.5"/>
<text text-anchor="start" x="1250.5" y="-704.5" font-family="Helvetica,sans-Serif" font-size="10.00">HoloGen.Options.Algorithm.</text>
<text text-anchor="middle" x="1311.5" y="-693.5" font-family="Helvetica,sans-Serif" font-size="10.00">ErrorCalculation.ErrorFolder</text>
</a>
</g>
</g>
<!-- Node0&#45;&gt;Node17 -->
<g id="edge19" class="edge"><title>Node0&#45;&gt;Node17</title>
<path fill="none" stroke="midnightblue" d="M1120.02,-456.645C1129.26,-506.201 1156.75,-616.842 1225,-676.5 1230.12,-680.978 1236.01,-684.656 1242.25,-687.675"/>
<polygon fill="midnightblue" stroke="midnightblue" points="1123.46,-456.003 1118.27,-446.767 1116.56,-457.224 1123.46,-456.003"/>
</g>
<!-- Node18 -->
<g id="node19" class="node"><title>Node18</title>
<g id="a_node19"><a xlink:href="class_holo_gen_1_1_options_1_1_algorithm_1_1_target_1_1_target_folder.html" target="_top" xlink:title="Folder of options related to generation target. ">
<polygon fill="white" stroke="black" points="1242.5,-637.5 1242.5,-667.5 1380.5,-667.5 1380.5,-637.5 1242.5,-637.5"/>
<text text-anchor="start" x="1250.5" y="-655.5" font-family="Helvetica,sans-Serif" font-size="10.00">HoloGen.Options.Algorithm.</text>
<text text-anchor="middle" x="1311.5" y="-644.5" font-family="Helvetica,sans-Serif" font-size="10.00">Target.TargetFolder</text>
</a>
</g>
</g>
<!-- Node0&#45;&gt;Node18 -->
<g id="edge20" class="edge"><title>Node0&#45;&gt;Node18</title>
<path fill="none" stroke="midnightblue" d="M1122.96,-456.237C1135.96,-497.887 1167.92,-581.92 1225,-627.5 1230.2,-631.65 1236.06,-635.111 1242.22,-637.997"/>
<polygon fill="midnightblue" stroke="midnightblue" points="1126.3,-455.175 1120.06,-446.61 1119.59,-457.195 1126.3,-455.175"/>
</g>
<!-- Node19 -->
<g id="node20" class="node"><title>Node19</title>
<g id="a_node20"><a xlink:href="class_holo_gen_1_1_options_1_1_algorithm_1_1_termination_1_1_type_1_1_termination_folder.html" target="_top" xlink:title="Folder of options relating to generation termination. ">
<polygon fill="white" stroke="black" points="1226,-588.5 1226,-618.5 1397,-618.5 1397,-588.5 1226,-588.5"/>
<text text-anchor="start" x="1234" y="-606.5" font-family="Helvetica,sans-Serif" font-size="10.00">HoloGen.Options.Algorithm.</text>
<text text-anchor="middle" x="1311.5" y="-595.5" font-family="Helvetica,sans-Serif" font-size="10.00">Termination.Type.TerminationFolder</text>
</a>
</g>
</g>
<!-- Node0&#45;&gt;Node19 -->
<g id="edge21" class="edge"><title>Node0&#45;&gt;Node19</title>
<path fill="none" stroke="midnightblue" d="M1127.63,-455.827C1144.53,-488.568 1178.94,-546.4 1225,-578.5 1230.58,-582.39 1236.77,-585.682 1243.2,-588.466"/>
<polygon fill="midnightblue" stroke="midnightblue" points="1130.58,-453.891 1122.96,-446.528 1124.32,-457.035 1130.58,-453.891"/>
</g>
<!-- Node20 -->
<g id="node21" class="node"><title>Node20</title>
<g id="a_node21"><a xlink:href="class_holo_gen_1_1_options_1_1_hardware_1_1_details_1_1_details_folder.html" target="_top" xlink:title="Folder of options relating to hardware details. ">
<polygon fill="white" stroke="black" points="1243,-539.5 1243,-569.5 1380,-569.5 1380,-539.5 1243,-539.5"/>
<text text-anchor="start" x="1251" y="-557.5" font-family="Helvetica,sans-Serif" font-size="10.00">HoloGen.Options.Hardware.</text>
<text text-anchor="middle" x="1311.5" y="-546.5" font-family="Helvetica,sans-Serif" font-size="10.00">Details.DetailsFolder</text>
</a>
</g>
</g>
<!-- Node0&#45;&gt;Node20 -->
<g id="edge22" class="edge"><title>Node0&#45;&gt;Node20</title>
<path fill="none" stroke="midnightblue" d="M1135.7,-454.388C1155.99,-476.595 1189.56,-509.752 1225,-529.5 1231.89,-533.339 1239.43,-536.641 1247.08,-539.467"/>
<polygon fill="midnightblue" stroke="midnightblue" points="1138.13,-451.855 1128.85,-446.747 1132.92,-456.528 1138.13,-451.855"/>
</g>
<!-- Node21 -->
<g id="node22" class="node"><title>Node21</title>
<g id="a_node22"><a xlink:href="class_holo_gen_1_1_options_1_1_hardware_1_1_hardware_1_1_hardware_folder.html" target="_top" xlink:title="Folder of hardware related options ">
<polygon fill="white" stroke="black" points="1243,-490.5 1243,-520.5 1380,-520.5 1380,-490.5 1243,-490.5"/>
<text text-anchor="start" x="1251" y="-508.5" font-family="Helvetica,sans-Serif" font-size="10.00">HoloGen.Options.Hardware.</text>
<text text-anchor="middle" x="1311.5" y="-497.5" font-family="Helvetica,sans-Serif" font-size="10.00">Hardware.HardwareFolder</text>
</a>
</g>
</g>
<!-- Node0&#45;&gt;Node21 -->
<g id="edge23" class="edge"><title>Node0&#45;&gt;Node21</title>
<path fill="none" stroke="midnightblue" d="M1155.83,-450.998C1176.23,-460.577 1201.64,-471.882 1225,-480.5 1234.58,-484.033 1244.9,-487.406 1254.94,-490.467"/>
<polygon fill="midnightblue" stroke="midnightblue" points="1157.07,-447.715 1146.54,-446.594 1154.07,-454.04 1157.07,-447.715"/>
</g>
<!-- Node22 -->
<g id="node23" class="node"><title>Node22</title>
<g id="a_node23"><a xlink:href="class_holo_gen_1_1_options_1_1_output_1_1_error_1_1_error_folder.html" target="_top" xlink:title="Folder of error related options. ">
<polygon fill="white" stroke="black" points="1236.5,-441.5 1236.5,-471.5 1386.5,-471.5 1386.5,-441.5 1236.5,-441.5"/>
<text text-anchor="start" x="1244.5" y="-459.5" font-family="Helvetica,sans-Serif" font-size="10.00">HoloGen.Options.Output.Error.</text>
<text text-anchor="middle" x="1311.5" y="-448.5" font-family="Helvetica,sans-Serif" font-size="10.00">ErrorFolder</text>
</a>
</g>
</g>
<!-- Node0&#45;&gt;Node22 -->
<g id="edge24" class="edge"><title>Node0&#45;&gt;Node22</title>
<path fill="none" stroke="midnightblue" d="M1198.18,-442.062C1210.79,-443.684 1223.76,-445.351 1236.19,-446.949"/>
<polygon fill="midnightblue" stroke="midnightblue" points="1198.51,-438.577 1188.15,-440.774 1197.62,-445.52 1198.51,-438.577"/>
</g>
<!-- Node23 -->
<g id="node24" class="node"><title>Node23</title>
<g id="a_node24"><a xlink:href="class_holo_gen_1_1_options_1_1_output_1_1_reference_1_1_reference_folder.html" target="_top" xlink:title="Folder of error related options. ">
<polygon fill="white" stroke="black" points="1225,-392.5 1225,-422.5 1398,-422.5 1398,-392.5 1225,-392.5"/>
<text text-anchor="start" x="1233" y="-410.5" font-family="Helvetica,sans-Serif" font-size="10.00">HoloGen.Options.Output.Reference.</text>
<text text-anchor="middle" x="1311.5" y="-399.5" font-family="Helvetica,sans-Serif" font-size="10.00">ReferenceFolder</text>
</a>
</g>
</g>
<!-- Node0&#45;&gt;Node23 -->
<g id="edge25" class="edge"><title>Node0&#45;&gt;Node23</title>
<path fill="none" stroke="midnightblue" d="M1198.1,-421.37C1206.99,-420.272 1216.06,-419.154 1224.99,-418.051"/>
<polygon fill="midnightblue" stroke="midnightblue" points="1197.64,-417.899 1188.15,-422.597 1198.5,-424.846 1197.64,-417.899"/>
</g>
<!-- Node24 -->
<g id="node25" class="node"><title>Node24</title>
<g id="a_node25"><a xlink:href="class_holo_gen_1_1_options_1_1_output_1_1_run_1_1_run_folder.html" target="_top" xlink:title="Folder of options related to running the generation. ">
<polygon fill="white" stroke="black" points="1238.5,-343.5 1238.5,-373.5 1384.5,-373.5 1384.5,-343.5 1238.5,-343.5"/>
<text text-anchor="start" x="1246.5" y="-361.5" font-family="Helvetica,sans-Serif" font-size="10.00">HoloGen.Options.Output.Run.</text>
<text text-anchor="middle" x="1311.5" y="-350.5" font-family="Helvetica,sans-Serif" font-size="10.00">RunFolder</text>
</a>
</g>
</g>
<!-- Node0&#45;&gt;Node24 -->
<g id="edge26" class="edge"><title>Node0&#45;&gt;Node24</title>
<path fill="none" stroke="midnightblue" d="M1155.79,-411.895C1176.18,-402.289 1201.6,-390.992 1225,-382.5 1233.7,-379.345 1243.01,-376.35 1252.18,-373.614"/>
<polygon fill="midnightblue" stroke="midnightblue" points="1154.03,-408.856 1146.5,-416.314 1157.04,-415.177 1154.03,-408.856"/>
</g>
<!-- Node25 -->
<g id="node26" class="node"><title>Node25</title>
<g id="a_node26"><a xlink:href="class_holo_gen_1_1_options_1_1_projector_1_1_hologram_1_1_hologram_folder.html" target="_top" xlink:title="Folder of hologram related options. ">
<polygon fill="white" stroke="black" points="1243.5,-294.5 1243.5,-324.5 1379.5,-324.5 1379.5,-294.5 1243.5,-294.5"/>
<text text-anchor="start" x="1251.5" y="-312.5" font-family="Helvetica,sans-Serif" font-size="10.00">HoloGen.Options.Projector.</text>
<text text-anchor="middle" x="1311.5" y="-301.5" font-family="Helvetica,sans-Serif" font-size="10.00">Hologram.HologramFolder</text>
</a>
</g>
</g>
<!-- Node0&#45;&gt;Node25 -->
<g id="edge27" class="edge"><title>Node0&#45;&gt;Node25</title>
<path fill="none" stroke="midnightblue" d="M1135.66,-408.53C1155.91,-386.26 1189.46,-353.056 1225,-333.5 1231.21,-330.081 1237.95,-327.116 1244.83,-324.552"/>
<polygon fill="midnightblue" stroke="midnightblue" points="1132.87,-406.403 1128.82,-416.195 1138.09,-411.064 1132.87,-406.403"/>
</g>
<!-- Node26 -->
<g id="node27" class="node"><title>Node26</title>
<g id="a_node27"><a xlink:href="class_holo_gen_1_1_options_1_1_projector_1_1_illumination_1_1_illumination_folder.html" target="_top" xlink:title="Folder of illumination related options. ">
<polygon fill="white" stroke="black" points="1239.5,-245.5 1239.5,-275.5 1383.5,-275.5 1383.5,-245.5 1239.5,-245.5"/>
<text text-anchor="start" x="1247.5" y="-263.5" font-family="Helvetica,sans-Serif" font-size="10.00">HoloGen.Options.Projector.</text>
<text text-anchor="middle" x="1311.5" y="-252.5" font-family="Helvetica,sans-Serif" font-size="10.00">Illumination.IlluminationFolder</text>
</a>
</g>
</g>
<!-- Node0&#45;&gt;Node26 -->
<g id="edge28" class="edge"><title>Node0&#45;&gt;Node26</title>
<path fill="none" stroke="midnightblue" d="M1127.58,-407.101C1144.42,-374.277 1178.76,-316.351 1225,-284.5 1229.95,-281.089 1235.38,-278.16 1241.02,-275.646"/>
<polygon fill="midnightblue" stroke="midnightblue" points="1124.26,-405.915 1122.93,-416.425 1130.53,-409.043 1124.26,-405.915"/>
</g>
<!-- Node27 -->
<g id="node28" class="node"><title>Node27</title>
<g id="a_node28"><a xlink:href="class_holo_gen_1_1_options_1_1_target_1_1_region_1_1_region_folder.html" target="_top" xlink:title="Folder of region related options. ">
<polygon fill="white" stroke="black" points="1233,-196.5 1233,-226.5 1390,-226.5 1390,-196.5 1233,-196.5"/>
<text text-anchor="start" x="1241" y="-214.5" font-family="Helvetica,sans-Serif" font-size="10.00">HoloGen.Options.Target.Region.</text>
<text text-anchor="middle" x="1311.5" y="-203.5" font-family="Helvetica,sans-Serif" font-size="10.00">RegionFolder</text>
</a>
</g>
</g>
<!-- Node0&#45;&gt;Node27 -->
<g id="edge29" class="edge"><title>Node0&#45;&gt;Node27</title>
<path fill="none" stroke="midnightblue" d="M1122.91,-406.697C1135.83,-364.948 1167.68,-280.771 1225,-235.5 1229.36,-232.06 1234.18,-229.113 1239.25,-226.588"/>
<polygon fill="midnightblue" stroke="midnightblue" points="1119.53,-405.764 1120.03,-416.347 1126.24,-407.767 1119.53,-405.764"/>
</g>
<!-- Node28 -->
<g id="node29" class="node"><title>Node28</title>
<g id="a_node29"><a xlink:href="class_holo_gen_1_1_options_1_1_target_1_1_target_1_1_target_folder.html" target="_top" xlink:title="Folder of target related options. ">
<polygon fill="white" stroke="black" points="1234.5,-147.5 1234.5,-177.5 1388.5,-177.5 1388.5,-147.5 1234.5,-147.5"/>
<text text-anchor="start" x="1242.5" y="-165.5" font-family="Helvetica,sans-Serif" font-size="10.00">HoloGen.Options.Target.Target.</text>
<text text-anchor="middle" x="1311.5" y="-154.5" font-family="Helvetica,sans-Serif" font-size="10.00">TargetFolder</text>
</a>
</g>
</g>
<!-- Node0&#45;&gt;Node28 -->
<g id="edge30" class="edge"><title>Node0&#45;&gt;Node28</title>
<path fill="none" stroke="midnightblue" d="M1119.96,-406.292C1129.11,-356.622 1156.43,-245.788 1225,-186.5 1228.97,-183.072 1233.39,-180.13 1238.07,-177.608"/>
<polygon fill="midnightblue" stroke="midnightblue" points="1116.5,-405.74 1118.23,-416.193 1123.4,-406.945 1116.5,-405.74"/>
</g>
<!-- Node29 -->
<g id="node30" class="node"><title>Node29</title>
<g id="a_node30"><a xlink:href="class_holo_gen_1_1_process_1_1_options_1_1_process_view_folder.html" target="_top" xlink:title="Folder of options relating to the process view style. ">
<polygon fill="white" stroke="black" points="1245,-98.5 1245,-128.5 1378,-128.5 1378,-98.5 1245,-98.5"/>
<text text-anchor="start" x="1253" y="-116.5" font-family="Helvetica,sans-Serif" font-size="10.00">HoloGen.Process.Options.</text>
<text text-anchor="middle" x="1311.5" y="-105.5" font-family="Helvetica,sans-Serif" font-size="10.00">ProcessViewFolder</text>
</a>
</g>
</g>
<!-- Node0&#45;&gt;Node29 -->
<g id="edge31" class="edge"><title>Node0&#45;&gt;Node29</title>
<path fill="none" stroke="midnightblue" d="M1117.86,-406.176C1123.41,-349.442 1144.88,-211.347 1225,-137.5 1230.78,-132.171 1237.65,-128.013 1244.95,-124.77"/>
<polygon fill="midnightblue" stroke="midnightblue" points="1114.35,-406.123 1116.95,-416.395 1121.32,-406.745 1114.35,-406.123"/>
</g>
<!-- Node30 -->
<g id="node31" class="node"><title>Node30</title>
<g id="a_node31"><a xlink:href="class_holo_gen_1_1_settings_1_1_general_1_1_file_1_1_file_settings_folder.html" target="_top" xlink:title="Folder of CGH options related to the algporithm. ">
<polygon fill="white" stroke="black" points="1245,-49.5 1245,-79.5 1378,-79.5 1378,-49.5 1245,-49.5"/>
<text text-anchor="start" x="1253" y="-67.5" font-family="Helvetica,sans-Serif" font-size="10.00">HoloGen.Settings.General.</text>
<text text-anchor="middle" x="1311.5" y="-56.5" font-family="Helvetica,sans-Serif" font-size="10.00">File.FileSettingsFolder</text>
</a>
</g>
</g>
<!-- Node0&#45;&gt;Node30 -->
<g id="edge32" class="edge"><title>Node0&#45;&gt;Node30</title>
<path fill="none" stroke="midnightblue" d="M1116.31,-405.979C1118.52,-342.681 1133.24,-177.188 1225,-88.5 1230.65,-83.0355 1237.45,-78.7957 1244.7,-75.5096"/>
<polygon fill="midnightblue" stroke="midnightblue" points="1112.81,-406.146 1116.04,-416.237 1119.8,-406.334 1112.81,-406.146"/>
</g>
<!-- Node31 -->
<g id="node32" class="node"><title>Node31</title>
<g id="a_node32"><a xlink:href="class_holo_gen_1_1_settings_1_1_general_1_1_file_1_1_warning_settings_folder.html" target="_top" xlink:title="Folder of CGH options related to the algporithm. ">
<polygon fill="white" stroke="black" points="1244.5,-0.5 1244.5,-30.5 1378.5,-30.5 1378.5,-0.5 1244.5,-0.5"/>
<text text-anchor="start" x="1252.5" y="-18.5" font-family="Helvetica,sans-Serif" font-size="10.00">HoloGen.Settings.General.</text>
<text text-anchor="middle" x="1311.5" y="-7.5" font-family="Helvetica,sans-Serif" font-size="10.00">File.WarningSettingsFolder</text>
</a>
</g>
</g>
<!-- Node0&#45;&gt;Node31 -->
<g id="edge33" class="edge"><title>Node0&#45;&gt;Node31</title>
<path fill="none" stroke="midnightblue" d="M1119.68,-406.504C1131.62,-328.644 1171.63,-92.5136 1225,-39.5 1230.47,-34.0672 1237.06,-29.8411 1244.13,-26.5575"/>
<polygon fill="midnightblue" stroke="midnightblue" points="1116.22,-405.994 1118.18,-416.405 1123.14,-407.041 1116.22,-405.994"/>
</g>
<!-- Node1 -->
<g id="node2" class="node"><title>Node1</title>
<g id="a_node2"><a xlink:href="class_holo_gen_1_1_hierarchy_1_1_hierarchy_1_1_hierarchy_element.html" target="_top" xlink:title="HierarchyElement\&lt; IOption \&gt;">
<polygon fill="white" stroke="black" points="862,-463 862,-482 1005,-482 1005,-463 862,-463"/>
<text text-anchor="middle" x="933.5" y="-470" font-family="Helvetica,sans-Serif" font-size="10.00">HierarchyElement&lt; IOption &gt;</text>
</a>
</g>
</g>
<!-- Node1&#45;&gt;Node0 -->
<g id="edge1" class="edge"><title>Node1&#45;&gt;Node0</title>
<path fill="none" stroke="midnightblue" d="M985.948,-460.749C1005.28,-456.334 1027.52,-451.253 1047.99,-446.578"/>
<polygon fill="midnightblue" stroke="midnightblue" points="985.102,-457.352 976.132,-462.991 986.66,-464.176 985.102,-457.352"/>
</g>
<!-- Node2 -->
<g id="node3" class="node"><title>Node2</title>
<g id="a_node3"><a xlink:href="class_holo_gen_1_1_hierarchy_1_1_hierarchy_1_1_hierarchy_element.html" target="_top" xlink:title="Root hierarchy element. Defines Name and ToolTip fields that must be implemented by any implementors...">
<polygon fill="white" stroke="black" points="628,-528.5 628,-558.5 774,-558.5 774,-528.5 628,-528.5"/>
<text text-anchor="start" x="636" y="-546.5" font-family="Helvetica,sans-Serif" font-size="10.00">HoloGen.Hierarchy.Hierarchy.</text>
<text text-anchor="middle" x="701" y="-535.5" font-family="Helvetica,sans-Serif" font-size="10.00">HierarchyElement&lt; T &gt;</text>
</a>
</g>
</g>
<!-- Node2&#45;&gt;Node1 -->
<g id="edge2" class="edge"><title>Node2&#45;&gt;Node1</title>
<path fill="none" stroke="orange" stroke-dasharray="5,2" d="M760.483,-525.486C805.286,-511.685 865.343,-493.186 901.354,-482.094"/>
<polygon fill="orange" stroke="orange" points="759.41,-522.154 750.883,-528.443 761.47,-528.844 759.41,-522.154"/>
<text text-anchor="middle" x="818" y="-517.5" font-family="Helvetica,sans-Serif" font-size="10.00"> &lt; IOption &gt;</text>
</g>
<!-- Node3 -->
<g id="node4" class="node"><title>Node3</title>
<g id="a_node4"><a xlink:href="class_holo_gen_1_1_hierarchy_1_1_hierarchy_1_1_reflective_children_element.html" target="_top" xlink:title="Reflective hierarchy element template T . The constructor finds all members assignable from T &#160;and us...">
<polygon fill="white" stroke="black" points="439,-625 439,-644 591,-644 591,-625 439,-625"/>
<text text-anchor="middle" x="515" y="-632" font-family="Helvetica,sans-Serif" font-size="10.00">ReflectiveChildrenElement&lt; T &gt;</text>
</a>
</g>
</g>
<!-- Node3&#45;&gt;Node2 -->
<g id="edge3" class="edge"><title>Node3&#45;&gt;Node2</title>
<path fill="none" stroke="midnightblue" d="M544.682,-620.315C578.555,-603.563 634.665,-575.812 669.366,-558.651"/>
<polygon fill="midnightblue" stroke="midnightblue" points="542.756,-617.363 535.343,-624.933 545.859,-623.638 542.756,-617.363"/>
</g>
<!-- Node4 -->
<g id="node5" class="node"><title>Node4</title>
<g id="a_node5"><a xlink:href="class_holo_gen_1_1_hierarchy_1_1_hierarchy_1_1_hierarchy_saveable.html" target="_top" xlink:title="Declares that this object should be serialisable and saveable ">
<polygon fill="white" stroke="black" points="295.5,-667 295.5,-686 392.5,-686 392.5,-667 295.5,-667"/>
<text text-anchor="middle" x="344" y="-674" font-family="Helvetica,sans-Serif" font-size="10.00">HierarchySaveable</text>
</a>
</g>
</g>
<!-- Node4&#45;&gt;Node3 -->
<g id="edge4" class="edge"><title>Node4&#45;&gt;Node3</title>
<path fill="none" stroke="midnightblue" d="M393.397,-664.472C419.454,-657.997 451.152,-650.119 475.511,-644.065"/>
<polygon fill="midnightblue" stroke="midnightblue" points="392.209,-661.161 383.349,-666.97 393.898,-667.954 392.209,-661.161"/>
</g>
<!-- Node5 -->
<g id="node6" class="node"><title>Node5</title>
<g id="a_node6"><a xlink:href="class_holo_gen_1_1_utils_1_1_observable_object.html" target="_top" xlink:title="Observable object with INotifyPropertyChanged implemented ">
<polygon fill="white" stroke="black" points="156,-667 156,-686 249,-686 249,-667 156,-667"/>
<text text-anchor="middle" x="202.5" y="-674" font-family="Helvetica,sans-Serif" font-size="10.00">ObservableObject</text>
</a>
</g>
</g>
<!-- Node5&#45;&gt;Node4 -->
<g id="edge5" class="edge"><title>Node5&#45;&gt;Node4</title>
<path fill="none" stroke="midnightblue" d="M259.44,-676.5C271.322,-676.5 283.762,-676.5 295.303,-676.5"/>
<polygon fill="midnightblue" stroke="midnightblue" points="259.178,-673 249.178,-676.5 259.177,-680 259.178,-673"/>
</g>
<!-- Node6 -->
<g id="node7" class="node"><title>Node6</title>
<polygon fill="white" stroke="#bfbfbf" points="0,-667 0,-686 119,-686 119,-667 0,-667"/>
<text text-anchor="middle" x="59.5" y="-674" font-family="Helvetica,sans-Serif" font-size="10.00">INotifyPropertyChanged</text>
</g>
<!-- Node6&#45;&gt;Node5 -->
<g id="edge6" class="edge"><title>Node6&#45;&gt;Node5</title>
<path fill="none" stroke="midnightblue" d="M129.206,-676.5C138.225,-676.5 147.283,-676.5 155.79,-676.5"/>
<polygon fill="midnightblue" stroke="midnightblue" points="129.072,-673 119.072,-676.5 129.072,-680 129.072,-673"/>
</g>
<!-- Node7 -->
<g id="node8" class="node"><title>Node7</title>
<g id="a_node8"><a xlink:href="interface_holo_gen_1_1_hierarchy_1_1_hierarchy_1_1_i_hierarchy_element.html" target="_top" xlink:title="Base interface for the HierarchyElement that doesn&#39;t need a template parameter. Necessary for a numbe...">
<polygon fill="white" stroke="black" points="467,-534 467,-553 563,-553 563,-534 467,-534"/>
<text text-anchor="middle" x="515" y="-541" font-family="Helvetica,sans-Serif" font-size="10.00">IHierarchyElement</text>
</a>
</g>
</g>
<!-- Node7&#45;&gt;Node2 -->
<g id="edge7" class="edge"><title>Node7&#45;&gt;Node2</title>
<path fill="none" stroke="midnightblue" d="M573.777,-543.5C590.891,-543.5 609.848,-543.5 627.757,-543.5"/>
<polygon fill="midnightblue" stroke="midnightblue" points="573.385,-540 563.385,-543.5 573.385,-547 573.385,-540"/>
</g>
<!-- Node8 -->
<g id="node9" class="node"><title>Node8</title>
<g id="a_node9"><a xlink:href="interface_holo_gen_1_1_hierarchy_1_1_hierarchy_1_1_i_can_error.html" target="_top" xlink:title="Interface implemented by any classes that can be in an error state. Defines the Valid property that c...">
<polygon fill="white" stroke="black" points="315.5,-629 315.5,-648 372.5,-648 372.5,-629 315.5,-629"/>
<text text-anchor="middle" x="344" y="-636" font-family="Helvetica,sans-Serif" font-size="10.00">ICanError</text>
</a>
</g>
</g>
<!-- Node8&#45;&gt;Node7 -->
<g id="edge8" class="edge"><title>Node8&#45;&gt;Node7</title>
<path fill="none" stroke="midnightblue" d="M382.232,-627.734C388.944,-625.333 395.78,-622.574 402,-619.5 441.184,-600.136 482.553,-568.791 502.247,-553.096"/>
<polygon fill="midnightblue" stroke="midnightblue" points="380.932,-624.478 372.574,-630.989 383.168,-631.112 380.932,-624.478"/>
</g>
<!-- Node9 -->
<g id="node10" class="node"><title>Node9</title>
<g id="a_node10"><a xlink:href="interface_holo_gen_1_1_hierarchy_1_1_hierarchy_1_1_i_has_name.html" target="_top" xlink:title="Interface implemented by any classes that have a Name property. ">
<polygon fill="white" stroke="black" points="313,-591 313,-610 375,-610 375,-591 313,-591"/>
<text text-anchor="middle" x="344" y="-598" font-family="Helvetica,sans-Serif" font-size="10.00">IHasName</text>
</a>
</g>
</g>
<!-- Node9&#45;&gt;Node7 -->
<g id="edge9" class="edge"><title>Node9&#45;&gt;Node7</title>
<path fill="none" stroke="midnightblue" d="M383.326,-587.756C389.569,-585.671 395.966,-583.529 402,-581.5 430.609,-571.879 463.292,-560.777 485.937,-553.068"/>
<polygon fill="midnightblue" stroke="midnightblue" points="382.094,-584.477 373.715,-590.962 384.309,-591.118 382.094,-584.477"/>
</g>
<!-- Node10 -->
<g id="node11" class="node"><title>Node10</title>
<g id="a_node11"><a xlink:href="interface_holo_gen_1_1_hierarchy_1_1_hierarchy_1_1_i_has_tool_tip.html" target="_top" xlink:title="Interface implemented by any classes that have a ToolTip property. ">
<polygon fill="white" stroke="black" points="310.5,-553 310.5,-572 377.5,-572 377.5,-553 310.5,-553"/>
<text text-anchor="middle" x="344" y="-560" font-family="Helvetica,sans-Serif" font-size="10.00">IHasToolTip</text>
</a>
</g>
</g>
<!-- Node10&#45;&gt;Node7 -->
<g id="edge10" class="edge"><title>Node10&#45;&gt;Node7</title>
<path fill="none" stroke="midnightblue" d="M387.523,-557.719C411.666,-555.005 441.938,-551.602 466.812,-548.805"/>
<polygon fill="midnightblue" stroke="midnightblue" points="387.131,-554.241 377.585,-558.837 387.913,-561.197 387.131,-554.241"/>
</g>
<!-- Node11 -->
<g id="node12" class="node"><title>Node11</title>
<g id="a_node12"><a xlink:href="interface_holo_gen_1_1_hierarchy_1_1_hierarchy_1_1_i_can_reset.html" target="_top" xlink:title="Interface implemented by any classes that can be reset. ">
<polygon fill="white" stroke="black" points="313,-515 313,-534 375,-534 375,-515 313,-515"/>
<text text-anchor="middle" x="344" y="-522" font-family="Helvetica,sans-Serif" font-size="10.00">ICanReset</text>
</a>
</g>
</g>
<!-- Node11&#45;&gt;Node7 -->
<g id="edge11" class="edge"><title>Node11&#45;&gt;Node7</title>
<path fill="none" stroke="midnightblue" d="M385.252,-529.025C409.749,-531.78 441.157,-535.311 466.819,-538.196"/>
<polygon fill="midnightblue" stroke="midnightblue" points="385.542,-525.536 375.214,-527.897 384.76,-532.492 385.542,-525.536"/>
</g>
<!-- Node12 -->
<g id="node13" class="node"><title>Node12</title>
<g id="a_node13"><a xlink:href="interface_holo_gen_1_1_hierarchy_1_1_hierarchy_1_1_i_can_recursively_enable.html" target="_top" xlink:title="Interface implemented by any classes that can be enabled Enabled and have children that can be Enable...">
<polygon fill="white" stroke="black" points="286,-477 286,-496 402,-496 402,-477 286,-477"/>
<text text-anchor="middle" x="344" y="-484" font-family="Helvetica,sans-Serif" font-size="10.00">ICanRecursivelyEnable</text>
</a>
</g>
</g>
<!-- Node12&#45;&gt;Node7 -->
<g id="edge12" class="edge"><title>Node12&#45;&gt;Node7</title>
<path fill="none" stroke="midnightblue" d="M383.326,-499.244C389.569,-501.329 395.966,-503.471 402,-505.5 430.609,-515.121 463.292,-526.223 485.937,-533.932"/>
<polygon fill="midnightblue" stroke="midnightblue" points="384.309,-495.882 373.715,-496.038 382.094,-502.523 384.309,-495.882"/>
</g>
<!-- Node13 -->
<g id="node14" class="node"><title>Node13</title>
<g id="a_node14"><a xlink:href="interface_holo_gen_1_1_hierarchy_1_1_hierarchy_1_1_i_can_enable.html" target="_top" xlink:title="Interface implemented by any classes that can be enabled Enabled. ">
<polygon fill="white" stroke="black" points="169.5,-439 169.5,-458 235.5,-458 235.5,-439 169.5,-439"/>
<text text-anchor="middle" x="202.5" y="-446" font-family="Helvetica,sans-Serif" font-size="10.00">ICanEnable</text>
</a>
</g>
</g>
<!-- Node13&#45;&gt;Node0 -->
<g id="edge15" class="edge"><title>Node13&#45;&gt;Node0</title>
<path fill="none" stroke="midnightblue" d="M234.322,-435.036C262.164,-424.107 304.548,-410.5 343,-410.5 343,-410.5 343,-410.5 934.5,-410.5 969.955,-410.5 1009.08,-414.592 1041.73,-419.163"/>
<polygon fill="midnightblue" stroke="midnightblue" points="232.711,-431.912 224.757,-438.911 235.339,-438.4 232.711,-431.912"/>
</g>
<!-- Node13&#45;&gt;Node7 -->
<g id="edge14" class="edge"><title>Node13&#45;&gt;Node7</title>
<path fill="none" stroke="midnightblue" d="M246.055,-446.568C287.176,-446.076 350.616,-448.987 402,-467.5 444.004,-482.634 485.353,-517.167 503.881,-533.968"/>
<polygon fill="midnightblue" stroke="midnightblue" points="245.777,-443.073 235.846,-446.766 245.912,-450.071 245.777,-443.073"/>
</g>
<!-- Node13&#45;&gt;Node12 -->
<g id="edge13" class="edge"><title>Node13&#45;&gt;Node12</title>
<path fill="none" stroke="midnightblue" d="M245.243,-459.871C265.153,-465.294 288.714,-471.713 307.717,-476.889"/>
<polygon fill="midnightblue" stroke="midnightblue" points="246.072,-456.469 235.504,-457.218 244.233,-463.223 246.072,-456.469"/>
</g>
</g>
</svg>
        <g id="navigator" transform="translate(0 0)" fill="#404254">
                <rect fill="#f2f5e9" fill-opacity="0.5" stroke="#606060" stroke-width=".5" x="0" y="0" width="60" height="60"/>
                <use id="zoomplus" xlink:href="#zoomPlus" x="17" y="9" onmousedown="handleZoom(evt,'in')"/>
                <use id="zoomminus" xlink:href="#zoomMin" x="42" y="9" onmousedown="handleZoom(evt,'out')"/>
                <use id="reset" xlink:href="#resetDef" x="30" y="36" onmousedown="handleReset()"/>
                <g id="arrowUp" xlink:href="#dirArrow" transform="translate(30 24)" onmousedown="handlePan(0,-1)">
                  <use xlink:href="#rim" fill="#404040">
                        <set attributeName="fill" to="#808080" begin="arrowUp.mouseover" end="arrowUp.mouseout"/>
                  </use>
                  <path fill="none" stroke="white" stroke-width="1.5" d="M0,-3.0v7 M-2.5,-0.5L0,-3.0L2.5,-0.5"/>
                </g>
                <g id="arrowRight" xlink:href="#dirArrow" transform="rotate(90) translate(36 -43)" onmousedown="handlePan(1,0)">
                  <use xlink:href="#rim" fill="#404040">
                        <set attributeName="fill" to="#808080" begin="arrowRight.mouseover" end="arrowRight.mouseout"/>
                  </use>
                  <path fill="none" stroke="white" stroke-width="1.5" d="M0,-3.0v7 M-2.5,-0.5L0,-3.0L2.5,-0.5"/>
                </g>
                <g id="arrowDown" xlink:href="#dirArrow" transform="rotate(180) translate(-30 -48)" onmousedown="handlePan(0,1)">
                  <use xlink:href="#rim" fill="#404040">
                        <set attributeName="fill" to="#808080" begin="arrowDown.mouseover" end="arrowDown.mouseout"/>
                  </use>
                  <path fill="none" stroke="white" stroke-width="1.5" d="M0,-3.0v7 M-2.5,-0.5L0,-3.0L2.5,-0.5"/>
                </g>
                <g id="arrowLeft" xlink:href="#dirArrow" transform="rotate(270) translate(-36 17)" onmousedown="handlePan(-1,0)">
                  <use xlink:href="#rim" fill="#404040">
                        <set attributeName="fill" to="#808080" begin="arrowLeft.mouseover" end="arrowLeft.mouseout"/>
                  </use>
                  <path fill="none" stroke="white" stroke-width="1.5" d="M0,-3.0v7 M-2.5,-0.5L0,-3.0L2.5,-0.5"/>
                </g>
        </g>
        <svg viewBox="0 0 15 15" width="100%" height="30px" preserveAspectRatio="xMaxYMin meet">
         <g id="arrow_out" transform="scale(0.3 0.3)">
          <a xlink:href="class_holo_gen_1_1_hierarchy_1_1_hierarchy_1_1_hierarchy_folder__inherit__graph_org.svg" target="_base">
           <rect id="button" ry="5" rx="5" y="6" x="6" height="38" width="38"
                fill="#f2f5e9" fill-opacity="0.5" stroke="#606060" stroke-width="1.0"/>
           <path id="arrow"
             d="M 11.500037,31.436501 C 11.940474,20.09759 22.043105,11.32322 32.158766,21.979434 L 37.068811,17.246167 C 37.068811,17.246167 37.088388,32 37.088388,32 L 22.160133,31.978069 C 22.160133,31.978069 26.997745,27.140456 26.997745,27.140456 C 18.528582,18.264221 13.291696,25.230495 11.500037,31.436501 z"
             style="fill:#404040;"/>
          </a>
         </g>
        </svg>
</svg>
