<?xml version="1.0" encoding="UTF-8" standalone="no"?>
<!DOCTYPE svg PUBLIC "-//W3C//DTD SVG 1.1//EN"
 "http://www.w3.org/Graphics/SVG/1.1/DTD/svg11.dtd">
<!-- Generated by graphviz version 2.38.0 (20140413.2041)
 -->
<!-- Title: HoloGen.UI.Commands.NewSetupFile Pages: 1 -->
<svg width="363pt" height="220pt"
 viewBox="0.00 0.00 363.00 220.00" xmlns="http://www.w3.org/2000/svg" xmlns:xlink="http://www.w3.org/1999/xlink">
<g id="graph0" class="graph" transform="scale(1 1) rotate(0) translate(4 216)">
<title>HoloGen.UI.Commands.NewSetupFile</title>
<polygon fill="white" stroke="none" points="-4,4 -4,-216 359,-216 359,4 -4,4"/>
<!-- Node5 -->
<g id="node1" class="node"><title>Node5</title>
<polygon fill="#bfbfbf" stroke="black" points="101.5,-0.5 101.5,-19.5 283.5,-19.5 283.5,-0.5 101.5,-0.5"/>
<text text-anchor="middle" x="192.5" y="-7.5" font-family="Helvetica,sans-Serif" font-size="10.00">HoloGen.UI.Commands.NewSetupFile</text>
</g>
<!-- Node6 -->
<g id="node2" class="node"><title>Node6</title>
<g id="a_node2"><a xlink:href="class_holo_gen_1_1_u_i_1_1_commands_1_1_connected_command.html" target="_top" xlink:title="HoloGen menu command ">
<polygon fill="white" stroke="black" points="139,-57.5 139,-76.5 246,-76.5 246,-57.5 139,-57.5"/>
<text text-anchor="middle" x="192.5" y="-64.5" font-family="Helvetica,sans-Serif" font-size="10.00">ConnectedCommand</text>
</a>
</g>
</g>
<!-- Node6&#45;&gt;Node5 -->
<g id="edge1" class="edge"><title>Node6&#45;&gt;Node5</title>
<path fill="none" stroke="midnightblue" d="M192.5,-47.1166C192.5,-37.8173 192.5,-27.0557 192.5,-19.7149"/>
<polygon fill="midnightblue" stroke="midnightblue" points="189,-47.4062 192.5,-57.4063 196,-47.4063 189,-47.4062"/>
</g>
<!-- Node7 -->
<g id="node3" class="node"><title>Node7</title>
<g id="a_node3"><a xlink:href="class_holo_gen_1_1_utils_1_1_observable_object.html" target="_top" xlink:title="Observable object with INotifyPropertyChanged implemented ">
<polygon fill="white" stroke="black" points="0,-135.5 0,-154.5 93,-154.5 93,-135.5 0,-135.5"/>
<text text-anchor="middle" x="46.5" y="-142.5" font-family="Helvetica,sans-Serif" font-size="10.00">ObservableObject</text>
</a>
</g>
</g>
<!-- Node7&#45;&gt;Node6 -->
<g id="edge2" class="edge"><title>Node7&#45;&gt;Node6</title>
<path fill="none" stroke="midnightblue" d="M71.9463,-130.754C101.81,-115.209 150.469,-89.8789 175.872,-76.6557"/>
<polygon fill="midnightblue" stroke="midnightblue" points="70.2183,-127.708 62.9643,-135.43 73.4505,-133.917 70.2183,-127.708"/>
</g>
<!-- Node8 -->
<g id="node4" class="node"><title>Node8</title>
<polygon fill="white" stroke="#bfbfbf" points="74,-192.5 74,-211.5 193,-211.5 193,-192.5 74,-192.5"/>
<text text-anchor="middle" x="133.5" y="-199.5" font-family="Helvetica,sans-Serif" font-size="10.00">INotifyPropertyChanged</text>
</g>
<!-- Node8&#45;&gt;Node7 -->
<g id="edge3" class="edge"><title>Node8&#45;&gt;Node7</title>
<path fill="none" stroke="midnightblue" d="M111.077,-186.824C94.9116,-176.605 73.6255,-163.148 59.9983,-154.533"/>
<polygon fill="midnightblue" stroke="midnightblue" points="109.583,-190.021 119.906,-192.406 113.324,-184.104 109.583,-190.021"/>
</g>
<!-- Node10 -->
<g id="node6" class="node"><title>Node10</title>
<g id="a_node6"><a xlink:href="interface_holo_gen_1_1_u_i_1_1_menus_1_1_i_menu_window.html" target="_top" xlink:title="HoloGen.UI.Menus.IMenuWindow">
<polygon fill="white" stroke="black" points="111.5,-135.5 111.5,-154.5 273.5,-154.5 273.5,-135.5 111.5,-135.5"/>
<text text-anchor="middle" x="192.5" y="-142.5" font-family="Helvetica,sans-Serif" font-size="10.00">HoloGen.UI.Menus.IMenuWindow</text>
</a>
</g>
</g>
<!-- Node8&#45;&gt;Node10 -->
<g id="edge6" class="edge"><title>Node8&#45;&gt;Node10</title>
<path fill="none" stroke="midnightblue" d="M150.217,-185.416C160.888,-175.469 174.325,-162.943 183.151,-154.715"/>
<polygon fill="midnightblue" stroke="midnightblue" points="147.647,-183.027 142.719,-192.406 152.42,-188.148 147.647,-183.027"/>
</g>
<!-- Node9 -->
<g id="node5" class="node"><title>Node9</title>
<polygon fill="white" stroke="#bfbfbf" points="292,-135.5 292,-154.5 355,-154.5 355,-135.5 292,-135.5"/>
<text text-anchor="middle" x="323.5" y="-142.5" font-family="Helvetica,sans-Serif" font-size="10.00">ICommand</text>
</g>
<!-- Node9&#45;&gt;Node6 -->
<g id="edge4" class="edge"><title>Node9&#45;&gt;Node6</title>
<path fill="none" stroke="midnightblue" d="M306.724,-128.811C294.541,-118.333 277.309,-104.613 260.5,-95 247.489,-87.5589 232.025,-81.2411 219.134,-76.592"/>
<polygon fill="midnightblue" stroke="midnightblue" points="304.463,-131.484 314.285,-135.457 309.084,-126.226 304.463,-131.484"/>
</g>
<!-- Node10&#45;&gt;Node6 -->
<g id="edge5" class="edge"><title>Node10&#45;&gt;Node6</title>
<path fill="none" stroke="#9a32cd" stroke-dasharray="5,2" d="M192.5,-125.224C192.5,-109.697 192.5,-88.3582 192.5,-76.6165"/>
<polygon fill="#9a32cd" stroke="#9a32cd" points="189,-125.282 192.5,-135.282 196,-125.282 189,-125.282"/>
<text text-anchor="middle" x="224.5" y="-109" font-family="Helvetica,sans-Serif" font-size="10.00"> MenuWindow</text>
<text text-anchor="middle" x="224.5" y="-98" font-family="Helvetica,sans-Serif" font-size="10.00">_MenuWindow</text>
</g>
</g>
</svg>
