<?xml version="1.0" encoding="UTF-8" standalone="no"?>
<!DOCTYPE svg PUBLIC "-//W3C//DTD SVG 1.1//EN"
 "http://www.w3.org/Graphics/SVG/1.1/DTD/svg11.dtd">
<!-- Generated by graphviz version 2.38.0 (20140413.2041)
 -->
<!-- Title: HoloGen.Settings.ApplicationSettings Pages: 1 -->
<!--zoomable 470 -->
<svg id="main" version="1.1" xmlns="http://www.w3.org/2000/svg" xmlns:xlink="http://www.w3.org/1999/xlink" xml:space="preserve" onload="init(evt)">
<style type="text/css"><![CDATA[
.edge:hover path { stroke: red; }
.edge:hover polygon { stroke: red; fill: red; }
]]></style>
<script type="text/javascript"><![CDATA[
var edges = document.getElementsByTagName('g');
if (edges && edges.length) {
  for (var i=0;i<edges.length;i++) {
    if (edges[i].id.substr(0,4)=='edge') {
      edges[i].setAttribute('class','edge');
    }
  }
}
]]></script>
        <defs>
                <circle id="rim" cx="0" cy="0" r="7"/>
                <circle id="rim2" cx="0" cy="0" r="3.5"/>
                <g id="zoomPlus">
                        <use xlink:href="#rim" fill="#404040">
                                <set attributeName="fill" to="#808080" begin="zoomplus.mouseover" end="zoomplus.mouseout"/>
                        </use>
                        <path d="M-4,0h8M0,-4v8" fill="none" stroke="white" stroke-width="1.5" pointer-events="none"/>
                </g>
                <g id="zoomMin">
                        <use xlink:href="#rim" fill="#404040">
                                <set attributeName="fill" to="#808080" begin="zoomminus.mouseover" end="zoomminus.mouseout"/>
                        </use>
                        <path d="M-4,0h8" fill="none" stroke="white" stroke-width="1.5" pointer-events="none"/>
                </g>
                <g id="dirArrow">
                        <path fill="none" stroke="white" stroke-width="1.5" d="M0,-3.0v7 M-2.5,-0.5L0,-3.0L2.5,-0.5"/>
                </g>
               <g id="resetDef">
                       <use xlink:href="#rim2" fill="#404040">
                               <set attributeName="fill" to="#808080" begin="reset.mouseover" end="reset.mouseout"/>
                       </use>
               </g>
        </defs>

<script type="text/javascript">
var viewWidth = 714;
var viewHeight = 470;
var sectionId = 'dynsection-1';
</script>
<script xlink:href="svgpan.js"/>
<svg id="graph" class="graph">
<g id="viewport">
<title>HoloGen.Settings.ApplicationSettings</title>
<polygon fill="white" stroke="none" points="-4,4 -4,-466 709.5,-466 709.5,4 -4,4"/>
<!-- Node15 -->
<g id="node1" class="node"><title>Node15</title>
<polygon fill="#bfbfbf" stroke="black" points="561.5,-0.5 561.5,-30.5 705.5,-30.5 705.5,-0.5 561.5,-0.5"/>
<text text-anchor="start" x="569.5" y="-18.5" font-family="Helvetica,sans-Serif" font-size="10.00">HoloGen.Settings.Application</text>
<text text-anchor="middle" x="633.5" y="-7.5" font-family="Helvetica,sans-Serif" font-size="10.00">Settings</text>
</g>
<!-- Node16 -->
<g id="node2" class="node"><title>Node16</title>
<g id="a_node2"><a xlink:href="class_holo_gen_1_1_hierarchy_1_1_hierarchy_1_1_hierarchy_root.html" target="_top" xlink:title="Root hierarchy element. Extends HierarchyElement. The base class ReflectiveChildrenElement finds all ...">
<polygon fill="white" stroke="black" points="550.5,-68.5 550.5,-87.5 628.5,-87.5 628.5,-68.5 550.5,-68.5"/>
<text text-anchor="middle" x="589.5" y="-75.5" font-family="Helvetica,sans-Serif" font-size="10.00">HierarchyRoot</text>
</a>
</g>
</g>
<!-- Node16&#45;&gt;Node15 -->
<g id="edge1" class="edge"><title>Node16&#45;&gt;Node15</title>
<path fill="none" stroke="midnightblue" d="M601.889,-59.9656C608.589,-50.7527 616.77,-39.5043 623.13,-30.7587"/>
<polygon fill="midnightblue" stroke="midnightblue" points="598.855,-58.1858 595.804,-68.3318 604.516,-62.3031 598.855,-58.1858"/>
</g>
<!-- Node17 -->
<g id="node3" class="node"><title>Node17</title>
<g id="a_node3"><a xlink:href="class_holo_gen_1_1_hierarchy_1_1_hierarchy_1_1_hierarchy_element.html" target="_top" xlink:title="HierarchyElement\&lt; Hierarchy\lPage \&gt;">
<polygon fill="white" stroke="black" points="381.5,-125.5 381.5,-155.5 525.5,-155.5 525.5,-125.5 381.5,-125.5"/>
<text text-anchor="start" x="389.5" y="-143.5" font-family="Helvetica,sans-Serif" font-size="10.00">HierarchyElement&lt; Hierarchy</text>
<text text-anchor="middle" x="453.5" y="-132.5" font-family="Helvetica,sans-Serif" font-size="10.00">Page &gt;</text>
</a>
</g>
</g>
<!-- Node17&#45;&gt;Node16 -->
<g id="edge2" class="edge"><title>Node17&#45;&gt;Node16</title>
<path fill="none" stroke="midnightblue" d="M494.366,-121.32C519.546,-110.119 550.664,-96.2763 570.303,-87.5399"/>
<polygon fill="midnightblue" stroke="midnightblue" points="492.757,-118.206 485.043,-125.468 495.602,-124.601 492.757,-118.206"/>
</g>
<!-- Node18 -->
<g id="node4" class="node"><title>Node18</title>
<g id="a_node4"><a xlink:href="class_holo_gen_1_1_hierarchy_1_1_hierarchy_1_1_hierarchy_element.html" target="_top" xlink:title="Root hierarchy element. Defines Name and ToolTip fields that must be implemented by any implementors...">
<polygon fill="white" stroke="black" points="273.5,-203.5 273.5,-233.5 419.5,-233.5 419.5,-203.5 273.5,-203.5"/>
<text text-anchor="start" x="281.5" y="-221.5" font-family="Helvetica,sans-Serif" font-size="10.00">HoloGen.Hierarchy.Hierarchy.</text>
<text text-anchor="middle" x="346.5" y="-210.5" font-family="Helvetica,sans-Serif" font-size="10.00">HierarchyElement&lt; T &gt;</text>
</a>
</g>
</g>
<!-- Node18&#45;&gt;Node17 -->
<g id="edge3" class="edge"><title>Node18&#45;&gt;Node17</title>
<path fill="none" stroke="orange" stroke-dasharray="5,2" d="M374.754,-197.432C393.329,-184.239 417.171,-167.304 433.731,-155.541"/>
<polygon fill="orange" stroke="orange" points="372.501,-194.739 366.375,-203.383 376.555,-200.446 372.501,-194.739"/>
<text text-anchor="middle" x="448" y="-177" font-family="Helvetica,sans-Serif" font-size="10.00"> &lt; HierarchyPage &gt;</text>
</g>
<!-- Node19 -->
<g id="node5" class="node"><title>Node19</title>
<g id="a_node5"><a xlink:href="class_holo_gen_1_1_hierarchy_1_1_hierarchy_1_1_reflective_children_element.html" target="_top" xlink:title="Reflective hierarchy element template T . The constructor finds all members assignable from T &#160;and us...">
<polygon fill="white" stroke="black" points="30.5,-271.5 30.5,-290.5 182.5,-290.5 182.5,-271.5 30.5,-271.5"/>
<text text-anchor="middle" x="106.5" y="-278.5" font-family="Helvetica,sans-Serif" font-size="10.00">ReflectiveChildrenElement&lt; T &gt;</text>
</a>
</g>
</g>
<!-- Node19&#45;&gt;Node18 -->
<g id="edge4" class="edge"><title>Node19&#45;&gt;Node18</title>
<path fill="none" stroke="midnightblue" d="M150.223,-268.978C189.645,-259.041 247.825,-244.374 290.612,-233.589"/>
<polygon fill="midnightblue" stroke="midnightblue" points="149.218,-265.622 140.377,-271.46 150.929,-272.41 149.218,-265.622"/>
</g>
<!-- Node20 -->
<g id="node6" class="node"><title>Node20</title>
<g id="a_node6"><a xlink:href="class_holo_gen_1_1_hierarchy_1_1_hierarchy_1_1_hierarchy_saveable.html" target="_top" xlink:title="Declares that this object should be serialisable and saveable ">
<polygon fill="white" stroke="black" points="0,-328.5 0,-347.5 97,-347.5 97,-328.5 0,-328.5"/>
<text text-anchor="middle" x="48.5" y="-335.5" font-family="Helvetica,sans-Serif" font-size="10.00">HierarchySaveable</text>
</a>
</g>
</g>
<!-- Node20&#45;&gt;Node19 -->
<g id="edge5" class="edge"><title>Node20&#45;&gt;Node19</title>
<path fill="none" stroke="midnightblue" d="M64.9339,-321.416C75.4236,-311.469 88.6328,-298.943 97.3097,-290.715"/>
<polygon fill="midnightblue" stroke="midnightblue" points="62.4104,-318.986 57.5625,-328.406 67.2271,-324.065 62.4104,-318.986"/>
</g>
<!-- Node21 -->
<g id="node7" class="node"><title>Node21</title>
<g id="a_node7"><a xlink:href="class_holo_gen_1_1_utils_1_1_observable_object.html" target="_top" xlink:title="Observable object with INotifyPropertyChanged implemented ">
<polygon fill="white" stroke="black" points="427,-385.5 427,-404.5 520,-404.5 520,-385.5 427,-385.5"/>
<text text-anchor="middle" x="473.5" y="-392.5" font-family="Helvetica,sans-Serif" font-size="10.00">ObservableObject</text>
</a>
</g>
</g>
<!-- Node21&#45;&gt;Node20 -->
<g id="edge6" class="edge"><title>Node21&#45;&gt;Node20</title>
<path fill="none" stroke="midnightblue" d="M416.706,-387.477C344.351,-379.034 215.482,-363.553 105.5,-348 102.822,-347.621 100.074,-347.222 97.3021,-346.812"/>
<polygon fill="midnightblue" stroke="midnightblue" points="416.625,-390.991 426.962,-388.67 417.434,-384.038 416.625,-390.991"/>
</g>
<!-- Node22 -->
<g id="node8" class="node"><title>Node22</title>
<polygon fill="white" stroke="#bfbfbf" points="545,-442.5 545,-461.5 664,-461.5 664,-442.5 545,-442.5"/>
<text text-anchor="middle" x="604.5" y="-449.5" font-family="Helvetica,sans-Serif" font-size="10.00">INotifyPropertyChanged</text>
</g>
<!-- Node22&#45;&gt;Node15 -->
<g id="edge17" class="edge"><title>Node22&#45;&gt;Node15</title>
<path fill="none" stroke="midnightblue" d="M629.51,-436.834C642.831,-427.266 656.5,-413.247 656.5,-396 656.5,-396 656.5,-396 656.5,-77 656.5,-60.3694 648.813,-42.7471 642.327,-30.8382"/>
<polygon fill="midnightblue" stroke="midnightblue" points="627.381,-434.045 620.953,-442.468 631.23,-439.892 627.381,-434.045"/>
</g>
<!-- Node22&#45;&gt;Node21 -->
<g id="edge7" class="edge"><title>Node22&#45;&gt;Node21</title>
<path fill="none" stroke="midnightblue" d="M574.755,-438.512C550.026,-428.129 515.495,-413.631 493.825,-404.533"/>
<polygon fill="midnightblue" stroke="midnightblue" points="573.456,-441.762 584.031,-442.406 576.166,-435.308 573.456,-441.762"/>
</g>
<!-- Node23 -->
<g id="node9" class="node"><title>Node23</title>
<g id="a_node9"><a xlink:href="interface_holo_gen_1_1_hierarchy_1_1_hierarchy_1_1_i_hierarchy_element.html" target="_top" xlink:title="Base interface for the HierarchyElement that doesn&#39;t need a template parameter. Necessary for a numbe...">
<polygon fill="white" stroke="black" points="298.5,-271.5 298.5,-290.5 394.5,-290.5 394.5,-271.5 298.5,-271.5"/>
<text text-anchor="middle" x="346.5" y="-278.5" font-family="Helvetica,sans-Serif" font-size="10.00">IHierarchyElement</text>
</a>
</g>
</g>
<!-- Node23&#45;&gt;Node18 -->
<g id="edge8" class="edge"><title>Node23&#45;&gt;Node18</title>
<path fill="none" stroke="midnightblue" d="M346.5,-261.215C346.5,-252.356 346.5,-241.958 346.5,-233.759"/>
<polygon fill="midnightblue" stroke="midnightblue" points="343,-261.332 346.5,-271.332 350,-261.332 343,-261.332"/>
</g>
<!-- Node24 -->
<g id="node10" class="node"><title>Node24</title>
<g id="a_node10"><a xlink:href="interface_holo_gen_1_1_hierarchy_1_1_hierarchy_1_1_i_can_error.html" target="_top" xlink:title="Interface implemented by any classes that can be in an error state. Defines the Valid property that c...">
<polygon fill="white" stroke="black" points="115,-328.5 115,-347.5 172,-347.5 172,-328.5 115,-328.5"/>
<text text-anchor="middle" x="143.5" y="-335.5" font-family="Helvetica,sans-Serif" font-size="10.00">ICanError</text>
</a>
</g>
</g>
<!-- Node24&#45;&gt;Node23 -->
<g id="edge9" class="edge"><title>Node24&#45;&gt;Node23</title>
<path fill="none" stroke="midnightblue" d="M181.975,-326.576C220.515,-316.134 279.118,-300.256 314.989,-290.537"/>
<polygon fill="midnightblue" stroke="midnightblue" points="180.891,-323.243 172.154,-329.236 182.722,-330 180.891,-323.243"/>
</g>
<!-- Node25 -->
<g id="node11" class="node"><title>Node25</title>
<g id="a_node11"><a xlink:href="interface_holo_gen_1_1_hierarchy_1_1_hierarchy_1_1_i_has_name.html" target="_top" xlink:title="Interface implemented by any classes that have a Name property. ">
<polygon fill="white" stroke="black" points="190.5,-328.5 190.5,-347.5 252.5,-347.5 252.5,-328.5 190.5,-328.5"/>
<text text-anchor="middle" x="221.5" y="-335.5" font-family="Helvetica,sans-Serif" font-size="10.00">IHasName</text>
</a>
</g>
</g>
<!-- Node25&#45;&gt;Node23 -->
<g id="edge10" class="edge"><title>Node25&#45;&gt;Node23</title>
<path fill="none" stroke="midnightblue" d="M250.197,-324.374C273.77,-314.001 306.52,-299.591 327.106,-290.533"/>
<polygon fill="midnightblue" stroke="midnightblue" points="248.775,-321.175 241.031,-328.406 251.594,-327.582 248.775,-321.175"/>
</g>
<!-- Node26 -->
<g id="node12" class="node"><title>Node26</title>
<g id="a_node12"><a xlink:href="interface_holo_gen_1_1_hierarchy_1_1_hierarchy_1_1_i_has_tool_tip.html" target="_top" xlink:title="Interface implemented by any classes that have a ToolTip property. ">
<polygon fill="white" stroke="black" points="271,-328.5 271,-347.5 338,-347.5 338,-328.5 271,-328.5"/>
<text text-anchor="middle" x="304.5" y="-335.5" font-family="Helvetica,sans-Serif" font-size="10.00">IHasToolTip</text>
</a>
</g>
</g>
<!-- Node26&#45;&gt;Node23 -->
<g id="edge11" class="edge"><title>Node26&#45;&gt;Node23</title>
<path fill="none" stroke="midnightblue" d="M317.303,-320.234C324.742,-310.493 333.808,-298.62 339.845,-290.715"/>
<polygon fill="midnightblue" stroke="midnightblue" points="314.35,-318.334 311.063,-328.406 319.913,-322.583 314.35,-318.334"/>
</g>
<!-- Node27 -->
<g id="node13" class="node"><title>Node27</title>
<g id="a_node13"><a xlink:href="interface_holo_gen_1_1_hierarchy_1_1_hierarchy_1_1_i_can_reset.html" target="_top" xlink:title="Interface implemented by any classes that can be reset. ">
<polygon fill="white" stroke="black" points="356.5,-328.5 356.5,-347.5 418.5,-347.5 418.5,-328.5 356.5,-328.5"/>
<text text-anchor="middle" x="387.5" y="-335.5" font-family="Helvetica,sans-Serif" font-size="10.00">ICanReset</text>
</a>
</g>
</g>
<!-- Node27&#45;&gt;Node23 -->
<g id="edge12" class="edge"><title>Node27&#45;&gt;Node23</title>
<path fill="none" stroke="midnightblue" d="M375.002,-320.234C367.74,-310.493 358.89,-298.62 352.997,-290.715"/>
<polygon fill="midnightblue" stroke="midnightblue" points="372.311,-322.481 381.094,-328.406 377.923,-318.297 372.311,-322.481"/>
</g>
<!-- Node28 -->
<g id="node14" class="node"><title>Node28</title>
<g id="a_node14"><a xlink:href="interface_holo_gen_1_1_hierarchy_1_1_hierarchy_1_1_i_can_recursively_enable.html" target="_top" xlink:title="Interface implemented by any classes that can be enabled Enabled and have children that can be Enable...">
<polygon fill="white" stroke="black" points="436.5,-328.5 436.5,-347.5 552.5,-347.5 552.5,-328.5 436.5,-328.5"/>
<text text-anchor="middle" x="494.5" y="-335.5" font-family="Helvetica,sans-Serif" font-size="10.00">ICanRecursivelyEnable</text>
</a>
</g>
</g>
<!-- Node28&#45;&gt;Node23 -->
<g id="edge13" class="edge"><title>Node28&#45;&gt;Node23</title>
<path fill="none" stroke="midnightblue" d="M461.634,-324.786C433.649,-314.386 394.161,-299.712 369.463,-290.533"/>
<polygon fill="midnightblue" stroke="midnightblue" points="460.782,-328.204 471.375,-328.406 463.221,-321.642 460.782,-328.204"/>
</g>
<!-- Node29 -->
<g id="node15" class="node"><title>Node29</title>
<g id="a_node15"><a xlink:href="interface_holo_gen_1_1_hierarchy_1_1_hierarchy_1_1_i_can_enable.html" target="_top" xlink:title="Interface implemented by any classes that can be enabled Enabled. ">
<polygon fill="white" stroke="black" points="547.5,-385.5 547.5,-404.5 613.5,-404.5 613.5,-385.5 547.5,-385.5"/>
<text text-anchor="middle" x="580.5" y="-392.5" font-family="Helvetica,sans-Serif" font-size="10.00">ICanEnable</text>
</a>
</g>
</g>
<!-- Node29&#45;&gt;Node16 -->
<g id="edge16" class="edge"><title>Node29&#45;&gt;Node16</title>
<path fill="none" stroke="midnightblue" d="M599.187,-377.971C608.79,-367.908 618.5,-354.019 618.5,-339 618.5,-339 618.5,-339 618.5,-139.5 618.5,-119.466 605.409,-99.0419 596.818,-87.7957"/>
<polygon fill="midnightblue" stroke="midnightblue" points="596.481,-375.718 591.696,-385.17 601.331,-380.765 596.481,-375.718"/>
</g>
<!-- Node29&#45;&gt;Node23 -->
<g id="edge15" class="edge"><title>Node29&#45;&gt;Node23</title>
<path fill="none" stroke="midnightblue" d="M580.105,-375.164C578.751,-360.275 574.424,-340.055 561.5,-328 537.774,-305.869 450.749,-292.846 394.956,-286.593"/>
<polygon fill="midnightblue" stroke="midnightblue" points="576.617,-375.492 580.653,-385.288 583.607,-375.113 576.617,-375.492"/>
</g>
<!-- Node29&#45;&gt;Node28 -->
<g id="edge14" class="edge"><title>Node29&#45;&gt;Node28</title>
<path fill="none" stroke="midnightblue" d="M558.335,-379.824C542.355,-369.605 521.314,-356.148 507.843,-347.533"/>
<polygon fill="midnightblue" stroke="midnightblue" points="556.752,-382.967 567.063,-385.406 560.524,-377.07 556.752,-382.967"/>
</g>
</g>
</svg>
        <g id="navigator" transform="translate(0 0)" fill="#404254">
                <rect fill="#f2f5e9" fill-opacity="0.5" stroke="#606060" stroke-width=".5" x="0" y="0" width="60" height="60"/>
                <use id="zoomplus" xlink:href="#zoomPlus" x="17" y="9" onmousedown="handleZoom(evt,'in')"/>
                <use id="zoomminus" xlink:href="#zoomMin" x="42" y="9" onmousedown="handleZoom(evt,'out')"/>
                <use id="reset" xlink:href="#resetDef" x="30" y="36" onmousedown="handleReset()"/>
                <g id="arrowUp" xlink:href="#dirArrow" transform="translate(30 24)" onmousedown="handlePan(0,-1)">
                  <use xlink:href="#rim" fill="#404040">
                        <set attributeName="fill" to="#808080" begin="arrowUp.mouseover" end="arrowUp.mouseout"/>
                  </use>
                  <path fill="none" stroke="white" stroke-width="1.5" d="M0,-3.0v7 M-2.5,-0.5L0,-3.0L2.5,-0.5"/>
                </g>
                <g id="arrowRight" xlink:href="#dirArrow" transform="rotate(90) translate(36 -43)" onmousedown="handlePan(1,0)">
                  <use xlink:href="#rim" fill="#404040">
                        <set attributeName="fill" to="#808080" begin="arrowRight.mouseover" end="arrowRight.mouseout"/>
                  </use>
                  <path fill="none" stroke="white" stroke-width="1.5" d="M0,-3.0v7 M-2.5,-0.5L0,-3.0L2.5,-0.5"/>
                </g>
                <g id="arrowDown" xlink:href="#dirArrow" transform="rotate(180) translate(-30 -48)" onmousedown="handlePan(0,1)">
                  <use xlink:href="#rim" fill="#404040">
                        <set attributeName="fill" to="#808080" begin="arrowDown.mouseover" end="arrowDown.mouseout"/>
                  </use>
                  <path fill="none" stroke="white" stroke-width="1.5" d="M0,-3.0v7 M-2.5,-0.5L0,-3.0L2.5,-0.5"/>
                </g>
                <g id="arrowLeft" xlink:href="#dirArrow" transform="rotate(270) translate(-36 17)" onmousedown="handlePan(-1,0)">
                  <use xlink:href="#rim" fill="#404040">
                        <set attributeName="fill" to="#808080" begin="arrowLeft.mouseover" end="arrowLeft.mouseout"/>
                  </use>
                  <path fill="none" stroke="white" stroke-width="1.5" d="M0,-3.0v7 M-2.5,-0.5L0,-3.0L2.5,-0.5"/>
                </g>
        </g>
        <svg viewBox="0 0 15 15" width="100%" height="30px" preserveAspectRatio="xMaxYMin meet">
         <g id="arrow_out" transform="scale(0.3 0.3)">
          <a xlink:href="class_holo_gen_1_1_settings_1_1_application_settings__coll__graph_org.svg" target="_base">
           <rect id="button" ry="5" rx="5" y="6" x="6" height="38" width="38"
                fill="#f2f5e9" fill-opacity="0.5" stroke="#606060" stroke-width="1.0"/>
           <path id="arrow"
             d="M 11.500037,31.436501 C 11.940474,20.09759 22.043105,11.32322 32.158766,21.979434 L 37.068811,17.246167 C 37.068811,17.246167 37.088388,32 37.088388,32 L 22.160133,31.978069 C 22.160133,31.978069 26.997745,27.140456 26.997745,27.140456 C 18.528582,18.264221 13.291696,25.230495 11.500037,31.436501 z"
             style="fill:#404040;"/>
          </a>
         </g>
        </svg>
</svg>
