<?xml version="1.0" encoding="UTF-8" standalone="no"?>
<!DOCTYPE svg PUBLIC "-//W3C//DTD SVG 1.1//EN"
 "http://www.w3.org/Graphics/SVG/1.1/DTD/svg11.dtd">
<!-- Generated by graphviz version 2.38.0 (20140413.2041)
 -->
<!-- Title: HoloGen.Options.Target.Target.ScaleTargetImage Pages: 1 -->
<svg width="1622pt" height="392pt"
 viewBox="0.00 0.00 1622.00 391.75" xmlns="http://www.w3.org/2000/svg" xmlns:xlink="http://www.w3.org/1999/xlink">
<g id="graph0" class="graph" transform="scale(1 1) rotate(0) translate(4 387.75)">
<title>HoloGen.Options.Target.Target.ScaleTargetImage</title>
<polygon fill="white" stroke="none" points="-4,4 -4,-387.75 1618,-387.75 1618,4 -4,4"/>
<!-- Node14 -->
<g id="node1" class="node"><title>Node14</title>
<polygon fill="#bfbfbf" stroke="black" points="1460,-194.75 1460,-224.75 1614,-224.75 1614,-194.75 1460,-194.75"/>
<text text-anchor="start" x="1468" y="-212.75" font-family="Helvetica,sans-Serif" font-size="10.00">HoloGen.Options.Target.Target.</text>
<text text-anchor="middle" x="1537" y="-201.75" font-family="Helvetica,sans-Serif" font-size="10.00">ScaleTargetImage</text>
</g>
<!-- Node15 -->
<g id="node2" class="node"><title>Node15</title>
<g id="a_node2"><a xlink:href="class_holo_gen_1_1_hierarchy_1_1_option_types_1_1_boolean_option_with_children.html" target="_top" xlink:title="Extends BooleanOption wrapping a boolean parameter. Due to the limits of the C# reflection interface...">
<polygon fill="white" stroke="black" points="1287,-200.25 1287,-219.25 1423,-219.25 1423,-200.25 1287,-200.25"/>
<text text-anchor="middle" x="1355" y="-207.25" font-family="Helvetica,sans-Serif" font-size="10.00">BooleanOptionWithChildren</text>
</a>
</g>
</g>
<!-- Node15&#45;&gt;Node14 -->
<g id="edge1" class="edge"><title>Node15&#45;&gt;Node14</title>
<path fill="none" stroke="midnightblue" d="M1433.26,-209.75C1442.07,-209.75 1451.04,-209.75 1459.83,-209.75"/>
<polygon fill="midnightblue" stroke="midnightblue" points="1433.03,-206.25 1423.03,-209.75 1433.03,-213.25 1433.03,-206.25"/>
</g>
<!-- Node16 -->
<g id="node3" class="node"><title>Node16</title>
<g id="a_node3"><a xlink:href="class_holo_gen_1_1_hierarchy_1_1_option_types_1_1_boolean_option.html" target="_top" xlink:title="Extends Option wrapping a boolean parameter. Implements the IHasWatermark interface in addition...">
<polygon fill="white" stroke="black" points="1075,-175.25 1075,-194.25 1155,-194.25 1155,-175.25 1075,-175.25"/>
<text text-anchor="middle" x="1115" y="-182.25" font-family="Helvetica,sans-Serif" font-size="10.00">BooleanOption</text>
</a>
</g>
</g>
<!-- Node16&#45;&gt;Node15 -->
<g id="edge2" class="edge"><title>Node16&#45;&gt;Node15</title>
<path fill="none" stroke="midnightblue" d="M1165.04,-189.901C1200.15,-193.589 1247.84,-198.599 1286.53,-202.663"/>
<polygon fill="midnightblue" stroke="midnightblue" points="1165.35,-186.414 1155.03,-188.85 1164.61,-193.376 1165.35,-186.414"/>
</g>
<!-- Node17 -->
<g id="node4" class="node"><title>Node17</title>
<g id="a_node4"><a xlink:href="class_holo_gen_1_1_hierarchy_1_1_option_types_1_1_option.html" target="_top" xlink:title="Option\&lt; bool \&gt;">
<polygon fill="white" stroke="black" points="893,-175.25 893,-194.25 974,-194.25 974,-175.25 893,-175.25"/>
<text text-anchor="middle" x="933.5" y="-182.25" font-family="Helvetica,sans-Serif" font-size="10.00">Option&lt; bool &gt;</text>
</a>
</g>
</g>
<!-- Node17&#45;&gt;Node16 -->
<g id="edge3" class="edge"><title>Node17&#45;&gt;Node16</title>
<path fill="none" stroke="midnightblue" d="M984.527,-184.75C1013.09,-184.75 1048.37,-184.75 1074.89,-184.75"/>
<polygon fill="midnightblue" stroke="midnightblue" points="984.337,-181.25 974.337,-184.75 984.337,-188.25 984.337,-181.25"/>
</g>
<!-- Node18 -->
<g id="node5" class="node"><title>Node18</title>
<g id="a_node5"><a xlink:href="class_holo_gen_1_1_hierarchy_1_1_option_types_1_1_option.html" target="_top" xlink:title="Root hierarchy element. Defines Name and ToolTip fields that must be implemented by any implementors...">
<polygon fill="white" stroke="black" points="636,-112.75 636,-142.75 766,-142.75 766,-112.75 636,-112.75"/>
<text text-anchor="start" x="644" y="-130.75" font-family="Helvetica,sans-Serif" font-size="10.00">HoloGen.Hierarchy.Option</text>
<text text-anchor="middle" x="701" y="-119.75" font-family="Helvetica,sans-Serif" font-size="10.00">Types.Option&lt; T &gt;</text>
</a>
</g>
</g>
<!-- Node18&#45;&gt;Node17 -->
<g id="edge4" class="edge"><title>Node18&#45;&gt;Node17</title>
<path fill="none" stroke="orange" stroke-dasharray="5,2" d="M772.794,-145.256C812.621,-155.105 860.815,-167.023 893.774,-175.173"/>
<polygon fill="orange" stroke="orange" points="773.41,-141.804 762.863,-142.801 771.73,-148.599 773.41,-141.804"/>
<text text-anchor="middle" x="818" y="-164.75" font-family="Helvetica,sans-Serif" font-size="10.00"> &lt; bool &gt;</text>
</g>
<!-- Node19 -->
<g id="node6" class="node"><title>Node19</title>
<g id="a_node6"><a xlink:href="class_holo_gen_1_1_utils_1_1_observable_object.html" target="_top" xlink:title="Observable object with INotifyPropertyChanged implemented ">
<polygon fill="white" stroke="black" points="156,-17.2499 156,-36.2499 249,-36.2499 249,-17.2499 156,-17.2499"/>
<text text-anchor="middle" x="202.5" y="-24.2499" font-family="Helvetica,sans-Serif" font-size="10.00">ObservableObject</text>
</a>
</g>
</g>
<!-- Node19&#45;&gt;Node18 -->
<g id="edge5" class="edge"><title>Node19&#45;&gt;Node18</title>
<path fill="none" stroke="midnightblue" d="M246.693,-14.8663C259.267,-11.9353 273.094,-9.21685 286,-7.74989 422.146,7.72503 465.786,2.89862 591,-52.7499 626.055,-68.3292 661.759,-95.4988 682.348,-112.507"/>
<polygon fill="midnightblue" stroke="midnightblue" points="245.808,-11.4792 236.918,-17.2426 247.462,-18.281 245.808,-11.4792"/>
</g>
<!-- Node32 -->
<g id="node19" class="node"><title>Node32</title>
<g id="a_node19"><a xlink:href="class_holo_gen_1_1_hierarchy_1_1_hierarchy_1_1_hierarchy_saveable.html" target="_top" xlink:title="Declares that this object should be serialisable and saveable ">
<polygon fill="white" stroke="black" points="295.5,-17.2499 295.5,-36.2499 392.5,-36.2499 392.5,-17.2499 295.5,-17.2499"/>
<text text-anchor="middle" x="344" y="-24.2499" font-family="Helvetica,sans-Serif" font-size="10.00">HierarchySaveable</text>
</a>
</g>
</g>
<!-- Node19&#45;&gt;Node32 -->
<g id="edge20" class="edge"><title>Node19&#45;&gt;Node32</title>
<path fill="none" stroke="midnightblue" d="M259.44,-26.7499C271.322,-26.7499 283.762,-26.7499 295.303,-26.7499"/>
<polygon fill="midnightblue" stroke="midnightblue" points="259.178,-23.25 249.178,-26.7499 259.177,-30.25 259.178,-23.25"/>
</g>
<!-- Node20 -->
<g id="node7" class="node"><title>Node20</title>
<polygon fill="white" stroke="#bfbfbf" points="0,-39.2499 0,-58.2499 119,-58.2499 119,-39.2499 0,-39.2499"/>
<text text-anchor="middle" x="59.5" y="-46.2499" font-family="Helvetica,sans-Serif" font-size="10.00">INotifyPropertyChanged</text>
</g>
<!-- Node20&#45;&gt;Node19 -->
<g id="edge6" class="edge"><title>Node20&#45;&gt;Node19</title>
<path fill="none" stroke="midnightblue" d="M129.206,-38.0298C138.225,-36.6225 147.283,-35.2092 155.79,-33.882"/>
<polygon fill="midnightblue" stroke="midnightblue" points="128.413,-34.6112 119.072,-39.611 129.492,-41.5275 128.413,-34.6112"/>
</g>
<!-- Node21 -->
<g id="node8" class="node"><title>Node21</title>
<g id="a_node8"><a xlink:href="interface_holo_gen_1_1_hierarchy_1_1_option_types_1_1_i_option.html" target="_top" xlink:title="Base interface for the Option that doesn&#39;t need a template parameter. Necessary for a number of refle...">
<polygon fill="white" stroke="black" points="491.5,-118.25 491.5,-137.25 538.5,-137.25 538.5,-118.25 491.5,-118.25"/>
<text text-anchor="middle" x="515" y="-125.25" font-family="Helvetica,sans-Serif" font-size="10.00">IOption</text>
</a>
</g>
</g>
<!-- Node20&#45;&gt;Node21 -->
<g id="edge12" class="edge"><title>Node20&#45;&gt;Node21</title>
<path fill="none" stroke="midnightblue" d="M129.163,-53.5685C213.609,-59.8816 351.912,-71.5863 402,-83.7499 435.497,-91.8844 472.341,-107.812 494.303,-118.107"/>
<polygon fill="midnightblue" stroke="midnightblue" points="129.373,-50.0745 119.142,-52.8257 128.855,-57.0554 129.373,-50.0745"/>
</g>
<!-- Node21&#45;&gt;Node18 -->
<g id="edge7" class="edge"><title>Node21&#45;&gt;Node18</title>
<path fill="none" stroke="midnightblue" d="M548.589,-127.75C572.682,-127.75 606.272,-127.75 635.694,-127.75"/>
<polygon fill="midnightblue" stroke="midnightblue" points="548.562,-124.25 538.562,-127.75 548.562,-131.25 548.562,-124.25"/>
</g>
<!-- Node22 -->
<g id="node9" class="node"><title>Node22</title>
<g id="a_node9"><a xlink:href="interface_holo_gen_1_1_hierarchy_1_1_hierarchy_1_1_i_can_error.html" target="_top" xlink:title="Interface implemented by any classes that can be in an error state. Defines the Valid property that c...">
<polygon fill="white" stroke="black" points="315.5,-93.2499 315.5,-112.25 372.5,-112.25 372.5,-93.2499 315.5,-93.2499"/>
<text text-anchor="middle" x="344" y="-100.25" font-family="Helvetica,sans-Serif" font-size="10.00">ICanError</text>
</a>
</g>
</g>
<!-- Node22&#45;&gt;Node21 -->
<g id="edge8" class="edge"><title>Node22&#45;&gt;Node21</title>
<path fill="none" stroke="midnightblue" d="M382.811,-108.343C416.142,-113.274 463.598,-120.294 491.357,-124.4"/>
<polygon fill="midnightblue" stroke="midnightblue" points="382.933,-104.823 372.529,-106.822 381.909,-111.748 382.933,-104.823"/>
</g>
<!-- Node33 -->
<g id="node20" class="node"><title>Node33</title>
<g id="a_node20"><a xlink:href="interface_holo_gen_1_1_hierarchy_1_1_hierarchy_1_1_i_hierarchy_element.html" target="_top" xlink:title="Base interface for the HierarchyElement that doesn&#39;t need a template parameter. Necessary for a numbe...">
<polygon fill="white" stroke="black" points="467,-261.25 467,-280.25 563,-280.25 563,-261.25 467,-261.25"/>
<text text-anchor="middle" x="515" y="-268.25" font-family="Helvetica,sans-Serif" font-size="10.00">IHierarchyElement</text>
</a>
</g>
</g>
<!-- Node22&#45;&gt;Node33 -->
<g id="edge22" class="edge"><title>Node22&#45;&gt;Node33</title>
<path fill="none" stroke="midnightblue" d="M382.599,-111.675C389.418,-114.271 396.199,-117.573 402,-121.75 456.627,-161.078 496.423,-234.861 509.425,-261.147"/>
<polygon fill="midnightblue" stroke="midnightblue" points="383.284,-108.213 372.69,-108.356 381.061,-114.85 383.284,-108.213"/>
</g>
<!-- Node23 -->
<g id="node10" class="node"><title>Node23</title>
<g id="a_node10"><a xlink:href="interface_holo_gen_1_1_hierarchy_1_1_hierarchy_1_1_i_has_name.html" target="_top" xlink:title="Interface implemented by any classes that have a Name property. ">
<polygon fill="white" stroke="black" points="313,-211.25 313,-230.25 375,-230.25 375,-211.25 313,-211.25"/>
<text text-anchor="middle" x="344" y="-218.25" font-family="Helvetica,sans-Serif" font-size="10.00">IHasName</text>
</a>
</g>
</g>
<!-- Node23&#45;&gt;Node21 -->
<g id="edge9" class="edge"><title>Node23&#45;&gt;Node21</title>
<path fill="none" stroke="midnightblue" d="M374.466,-206.75C383.377,-202.389 393.145,-197.481 402,-192.75 436.899,-174.104 476.749,-150.373 498.248,-137.363"/>
<polygon fill="midnightblue" stroke="midnightblue" points="372.69,-203.721 365.218,-211.232 375.743,-210.021 372.69,-203.721"/>
</g>
<!-- Node23&#45;&gt;Node33 -->
<g id="edge23" class="edge"><title>Node23&#45;&gt;Node33</title>
<path fill="none" stroke="midnightblue" d="M384.812,-232.529C414.37,-241.273 454.168,-253.048 481.746,-261.207"/>
<polygon fill="midnightblue" stroke="midnightblue" points="385.796,-229.17 375.214,-229.689 383.81,-235.882 385.796,-229.17"/>
</g>
<!-- Node24 -->
<g id="node11" class="node"><title>Node24</title>
<g id="a_node11"><a xlink:href="interface_holo_gen_1_1_hierarchy_1_1_hierarchy_1_1_i_has_tool_tip.html" target="_top" xlink:title="Interface implemented by any classes that have a ToolTip property. ">
<polygon fill="white" stroke="black" points="310.5,-131.25 310.5,-150.25 377.5,-150.25 377.5,-131.25 310.5,-131.25"/>
<text text-anchor="middle" x="344" y="-138.25" font-family="Helvetica,sans-Serif" font-size="10.00">IHasToolTip</text>
</a>
</g>
</g>
<!-- Node24&#45;&gt;Node21 -->
<g id="edge10" class="edge"><title>Node24&#45;&gt;Node21</title>
<path fill="none" stroke="midnightblue" d="M387.832,-137.455C420.722,-134.925 464.846,-131.531 491.252,-129.5"/>
<polygon fill="midnightblue" stroke="midnightblue" points="387.287,-133.987 377.585,-138.243 387.824,-140.966 387.287,-133.987"/>
</g>
<!-- Node24&#45;&gt;Node33 -->
<g id="edge24" class="edge"><title>Node24&#45;&gt;Node33</title>
<path fill="none" stroke="midnightblue" d="M365.626,-156.616C401.123,-183.922 472.725,-239 501.555,-261.177"/>
<polygon fill="midnightblue" stroke="midnightblue" points="367.487,-153.632 357.427,-150.309 363.219,-159.18 367.487,-153.632"/>
</g>
<!-- Node25 -->
<g id="node12" class="node"><title>Node25</title>
<g id="a_node12"><a xlink:href="interface_holo_gen_1_1_hierarchy_1_1_hierarchy_1_1_i_can_enable.html" target="_top" xlink:title="Interface implemented by any classes that can be enabled Enabled. ">
<polygon fill="white" stroke="black" points="169.5,-320.25 169.5,-339.25 235.5,-339.25 235.5,-320.25 169.5,-320.25"/>
<text text-anchor="middle" x="202.5" y="-327.25" font-family="Helvetica,sans-Serif" font-size="10.00">ICanEnable</text>
</a>
</g>
</g>
<!-- Node25&#45;&gt;Node21 -->
<g id="edge11" class="edge"><title>Node25&#45;&gt;Node21</title>
<path fill="none" stroke="midnightblue" d="M210.851,-310.694C222.572,-282.777 248.104,-230.922 286,-201.75 302.777,-188.835 436.955,-149.692 491.283,-134.181"/>
<polygon fill="midnightblue" stroke="midnightblue" points="207.542,-309.541 207.039,-320.124 214.032,-312.165 207.542,-309.541"/>
</g>
<!-- Node28 -->
<g id="node15" class="node"><title>Node28</title>
<g id="a_node15"><a xlink:href="class_holo_gen_1_1_hierarchy_1_1_hierarchy_1_1_hierarchy_folder.html" target="_top" xlink:title="Folder hierarchy element. Extends HierarchyElement and extends it to split the ReflectiveChildrenElem...">
<polygon fill="white" stroke="black" points="1042,-216.75 1042,-246.75 1188,-246.75 1188,-216.75 1042,-216.75"/>
<text text-anchor="start" x="1050" y="-234.75" font-family="Helvetica,sans-Serif" font-size="10.00">HoloGen.Hierarchy.Hierarchy.</text>
<text text-anchor="middle" x="1115" y="-223.75" font-family="Helvetica,sans-Serif" font-size="10.00">HierarchyFolder</text>
</a>
</g>
</g>
<!-- Node25&#45;&gt;Node28 -->
<g id="edge29" class="edge"><title>Node25&#45;&gt;Node28</title>
<path fill="none" stroke="midnightblue" d="M226.499,-344.712C253.327,-360.694 299.558,-383.75 343,-383.75 343,-383.75 343,-383.75 934.5,-383.75 1018.62,-383.75 1083.59,-285.327 1105.76,-246.88"/>
<polygon fill="midnightblue" stroke="midnightblue" points="228.209,-341.655 217.856,-339.404 224.545,-347.62 228.209,-341.655"/>
</g>
<!-- Node25&#45;&gt;Node33 -->
<g id="edge28" class="edge"><title>Node25&#45;&gt;Node33</title>
<path fill="none" stroke="midnightblue" d="M245.84,-334.748C286.55,-338.244 349.475,-340.188 402,-326.75 439.7,-317.105 479.436,-293.569 499.93,-280.283"/>
<polygon fill="midnightblue" stroke="midnightblue" points="246.016,-331.249 235.735,-333.809 245.368,-338.219 246.016,-331.249"/>
</g>
<!-- Node34 -->
<g id="node21" class="node"><title>Node34</title>
<g id="a_node21"><a xlink:href="interface_holo_gen_1_1_hierarchy_1_1_hierarchy_1_1_i_can_recursively_enable.html" target="_top" xlink:title="Interface implemented by any classes that can be enabled Enabled and have children that can be Enable...">
<polygon fill="white" stroke="black" points="286,-298.25 286,-317.25 402,-317.25 402,-298.25 286,-298.25"/>
<text text-anchor="middle" x="344" y="-305.25" font-family="Helvetica,sans-Serif" font-size="10.00">ICanRecursivelyEnable</text>
</a>
</g>
</g>
<!-- Node25&#45;&gt;Node34 -->
<g id="edge27" class="edge"><title>Node25&#45;&gt;Node34</title>
<path fill="none" stroke="midnightblue" d="M245.753,-323.086C258.411,-321.09 272.508,-318.867 285.953,-316.746"/>
<polygon fill="midnightblue" stroke="midnightblue" points="244.837,-319.687 235.504,-324.703 245.927,-326.602 244.837,-319.687"/>
</g>
<!-- Node26 -->
<g id="node13" class="node"><title>Node26</title>
<g id="a_node13"><a xlink:href="interface_holo_gen_1_1_hierarchy_1_1_hierarchy_1_1_i_can_reset.html" target="_top" xlink:title="Interface implemented by any classes that can be reset. ">
<polygon fill="white" stroke="black" points="313,-256.25 313,-275.25 375,-275.25 375,-256.25 313,-256.25"/>
<text text-anchor="middle" x="344" y="-263.25" font-family="Helvetica,sans-Serif" font-size="10.00">ICanReset</text>
</a>
</g>
</g>
<!-- Node26&#45;&gt;Node21 -->
<g id="edge13" class="edge"><title>Node26&#45;&gt;Node21</title>
<path fill="none" stroke="midnightblue" d="M380.279,-252.045C387.727,-248.506 395.34,-244.372 402,-239.75 446.957,-208.551 489.697,-158.179 506.501,-137.295"/>
<polygon fill="midnightblue" stroke="midnightblue" points="378.709,-248.914 371.02,-256.202 381.576,-255.3 378.709,-248.914"/>
</g>
<!-- Node26&#45;&gt;Node33 -->
<g id="edge25" class="edge"><title>Node26&#45;&gt;Node33</title>
<path fill="none" stroke="midnightblue" d="M385.03,-275.914C396.267,-278.323 408.545,-280.542 420,-281.75 435.523,-283.387 452.47,-282.295 467.646,-280.273"/>
<polygon fill="midnightblue" stroke="midnightblue" points="385.58,-272.451 375.056,-273.672 384.045,-279.28 385.58,-272.451"/>
</g>
<!-- Node27 -->
<g id="node14" class="node"><title>Node27</title>
<g id="a_node14"><a xlink:href="interface_holo_gen_1_1_hierarchy_1_1_hierarchy_1_1_i_has_watermark.html" target="_top" xlink:title="Interface implemented by any classes that have a Watermark property. ">
<polygon fill="white" stroke="black" points="891.5,-137.25 891.5,-156.25 975.5,-156.25 975.5,-137.25 891.5,-137.25"/>
<text text-anchor="middle" x="933.5" y="-144.25" font-family="Helvetica,sans-Serif" font-size="10.00">IHasWatermark</text>
</a>
</g>
</g>
<!-- Node27&#45;&gt;Node16 -->
<g id="edge14" class="edge"><title>Node27&#45;&gt;Node16</title>
<path fill="none" stroke="midnightblue" d="M985.802,-157.61C1014.12,-163.606 1048.74,-170.934 1074.86,-176.463"/>
<polygon fill="midnightblue" stroke="midnightblue" points="986.189,-154.115 975.681,-155.468 984.739,-160.963 986.189,-154.115"/>
</g>
<!-- Node28&#45;&gt;Node15 -->
<g id="edge15" class="edge"><title>Node28&#45;&gt;Node15</title>
<path fill="none" stroke="#9a32cd" stroke-dasharray="5,2" d="M1198.13,-224.158C1227.02,-221.488 1259.13,-218.519 1286.67,-215.974"/>
<polygon fill="#9a32cd" stroke="#9a32cd" points="1197.69,-220.684 1188.05,-225.089 1198.33,-227.654 1197.69,-220.684"/>
<text text-anchor="middle" x="1237.5" y="-226.75" font-family="Helvetica,sans-Serif" font-size="10.00"> PushLocation</text>
</g>
<!-- Node29 -->
<g id="node16" class="node"><title>Node29</title>
<g id="a_node16"><a xlink:href="class_holo_gen_1_1_hierarchy_1_1_hierarchy_1_1_hierarchy_element.html" target="_top" xlink:title="HierarchyElement\&lt; IOption \&gt;">
<polygon fill="white" stroke="black" points="862,-222.25 862,-241.25 1005,-241.25 1005,-222.25 862,-222.25"/>
<text text-anchor="middle" x="933.5" y="-229.25" font-family="Helvetica,sans-Serif" font-size="10.00">HierarchyElement&lt; IOption &gt;</text>
</a>
</g>
</g>
<!-- Node29&#45;&gt;Node28 -->
<g id="edge16" class="edge"><title>Node29&#45;&gt;Node28</title>
<path fill="none" stroke="midnightblue" d="M1015.46,-231.75C1024.28,-231.75 1033.21,-231.75 1041.91,-231.75"/>
<polygon fill="midnightblue" stroke="midnightblue" points="1015.19,-228.25 1005.19,-231.75 1015.19,-235.25 1015.19,-228.25"/>
</g>
<!-- Node30 -->
<g id="node17" class="node"><title>Node30</title>
<g id="a_node17"><a xlink:href="class_holo_gen_1_1_hierarchy_1_1_hierarchy_1_1_hierarchy_element.html" target="_top" xlink:title="Root hierarchy element. Defines Name and ToolTip fields that must be implemented by any implementors...">
<polygon fill="white" stroke="black" points="628,-216.75 628,-246.75 774,-246.75 774,-216.75 628,-216.75"/>
<text text-anchor="start" x="636" y="-234.75" font-family="Helvetica,sans-Serif" font-size="10.00">HoloGen.Hierarchy.Hierarchy.</text>
<text text-anchor="middle" x="701" y="-223.75" font-family="Helvetica,sans-Serif" font-size="10.00">HierarchyElement&lt; T &gt;</text>
</a>
</g>
</g>
<!-- Node30&#45;&gt;Node29 -->
<g id="edge17" class="edge"><title>Node30&#45;&gt;Node29</title>
<path fill="none" stroke="orange" stroke-dasharray="5,2" d="M784.577,-231.75C809.791,-231.75 837.279,-231.75 861.642,-231.75"/>
<polygon fill="orange" stroke="orange" points="784.299,-228.25 774.299,-231.75 784.299,-235.25 784.299,-228.25"/>
<text text-anchor="middle" x="818" y="-234.75" font-family="Helvetica,sans-Serif" font-size="10.00"> &lt; IOption &gt;</text>
</g>
<!-- Node31 -->
<g id="node18" class="node"><title>Node31</title>
<g id="a_node18"><a xlink:href="class_holo_gen_1_1_hierarchy_1_1_hierarchy_1_1_reflective_children_element.html" target="_top" xlink:title="Reflective hierarchy element template T . The constructor finds all members assignable from T &#160;and us...">
<polygon fill="white" stroke="black" points="439,-62.2499 439,-81.2499 591,-81.2499 591,-62.2499 439,-62.2499"/>
<text text-anchor="middle" x="515" y="-69.2499" font-family="Helvetica,sans-Serif" font-size="10.00">ReflectiveChildrenElement&lt; T &gt;</text>
</a>
</g>
</g>
<!-- Node31&#45;&gt;Node30 -->
<g id="edge18" class="edge"><title>Node31&#45;&gt;Node30</title>
<path fill="none" stroke="midnightblue" d="M550.765,-85.3639C564.051,-91.4468 578.902,-99.3747 591,-108.75 610.929,-124.194 611.344,-132.823 628,-151.75 647.998,-174.474 671.519,-200.474 686.095,-216.504"/>
<polygon fill="midnightblue" stroke="midnightblue" points="551.992,-82.0805 541.429,-81.2664 549.179,-88.4903 551.992,-82.0805"/>
</g>
<!-- Node32&#45;&gt;Node31 -->
<g id="edge19" class="edge"><title>Node32&#45;&gt;Node31</title>
<path fill="none" stroke="midnightblue" d="M390.629,-38.8995C418.14,-46.225 452.68,-55.4221 478.211,-62.2203"/>
<polygon fill="midnightblue" stroke="midnightblue" points="391.404,-35.4842 380.841,-36.2932 389.603,-42.2485 391.404,-35.4842"/>
</g>
<!-- Node33&#45;&gt;Node30 -->
<g id="edge21" class="edge"><title>Node33&#45;&gt;Node30</title>
<path fill="none" stroke="midnightblue" d="M570.873,-259.119C589.098,-255.256 609.659,-250.898 628.927,-246.814"/>
<polygon fill="midnightblue" stroke="midnightblue" points="570.068,-255.712 561.011,-261.209 571.52,-262.56 570.068,-255.712"/>
</g>
<!-- Node34&#45;&gt;Node33 -->
<g id="edge26" class="edge"><title>Node34&#45;&gt;Node33</title>
<path fill="none" stroke="midnightblue" d="M412.385,-297.499C415.301,-296.933 418.183,-296.349 421,-295.75 441.441,-291.401 464.093,-285.339 481.924,-280.273"/>
<polygon fill="midnightblue" stroke="midnightblue" points="411.581,-294.088 402.387,-299.354 412.858,-300.971 411.581,-294.088"/>
</g>
</g>
</svg>
