<?xml version="1.0" encoding="UTF-8" standalone="no"?>
<!DOCTYPE svg PUBLIC "-//W3C//DTD SVG 1.1//EN"
 "http://www.w3.org/Graphics/SVG/1.1/DTD/svg11.dtd">
<!-- Generated by graphviz version 2.38.0 (20140413.2041)
 -->
<!-- Title: HoloGen.Utils.ObservableObject Pages: 1 -->
<svg width="136pt" height="95pt"
 viewBox="0.00 0.00 136.00 95.00" xmlns="http://www.w3.org/2000/svg" xmlns:xlink="http://www.w3.org/1999/xlink">
<g id="graph0" class="graph" transform="scale(1 1) rotate(0) translate(4 91)">
<title>HoloGen.Utils.ObservableObject</title>
<polygon fill="white" stroke="none" points="-4,4 -4,-91 132,-91 132,4 -4,4"/>
<!-- Node348 -->
<g id="node1" class="node"><title>Node348</title>
<polygon fill="#bfbfbf" stroke="black" points="0,-0.5 0,-30.5 128,-30.5 128,-0.5 0,-0.5"/>
<text text-anchor="start" x="8" y="-18.5" font-family="Helvetica,sans-Serif" font-size="10.00">HoloGen.Utils.Observable</text>
<text text-anchor="middle" x="64" y="-7.5" font-family="Helvetica,sans-Serif" font-size="10.00">Object</text>
</g>
<!-- Node349 -->
<g id="node2" class="node"><title>Node349</title>
<polygon fill="white" stroke="#bfbfbf" points="4.5,-67.5 4.5,-86.5 123.5,-86.5 123.5,-67.5 4.5,-67.5"/>
<text text-anchor="middle" x="64" y="-74.5" font-family="Helvetica,sans-Serif" font-size="10.00">INotifyPropertyChanged</text>
</g>
<!-- Node349&#45;&gt;Node348 -->
<g id="edge1" class="edge"><title>Node349&#45;&gt;Node348</title>
<path fill="none" stroke="midnightblue" d="M64,-57.2349C64,-48.5864 64,-38.4969 64,-30.523"/>
<polygon fill="midnightblue" stroke="midnightblue" points="60.5001,-57.4751 64,-67.4751 67.5001,-57.4751 60.5001,-57.4751"/>
</g>
</g>
</svg>
