<?xml version="1.0" encoding="UTF-8" standalone="no"?>
<!DOCTYPE svg PUBLIC "-//W3C//DTD SVG 1.1//EN"
 "http://www.w3.org/Graphics/SVG/1.1/DTD/svg11.dtd">
<!-- Generated by graphviz version 2.38.0 (20140413.2041)
 -->
<!-- Title: HoloGen.Serial.JsonDeserialiser&lt; S, T &gt; Pages: 1 -->
<svg width="164pt" height="95pt"
 viewBox="0.00 0.00 164.00 95.00" xmlns="http://www.w3.org/2000/svg" xmlns:xlink="http://www.w3.org/1999/xlink">
<g id="graph0" class="graph" transform="scale(1 1) rotate(0) translate(4 91)">
<title>HoloGen.Serial.JsonDeserialiser&lt; S, T &gt;</title>
<polygon fill="white" stroke="none" points="-4,4 -4,-91 160,-91 160,4 -4,4"/>
<!-- Node8 -->
<g id="node1" class="node"><title>Node8</title>
<polygon fill="#bfbfbf" stroke="black" points="0,-0.5 0,-30.5 156,-30.5 156,-0.5 0,-0.5"/>
<text text-anchor="start" x="8" y="-18.5" font-family="Helvetica,sans-Serif" font-size="10.00">HoloGen.Serial.JsonDeserialiser</text>
<text text-anchor="middle" x="78" y="-7.5" font-family="Helvetica,sans-Serif" font-size="10.00">&lt; S, T &gt;</text>
</g>
<!-- Node9 -->
<g id="node2" class="node"><title>Node9</title>
<g id="a_node2"><a xlink:href="class_holo_gen_1_1_serial_1_1_deserialiser.html" target="_top" xlink:title="Abstract deserialiser class ">
<polygon fill="white" stroke="black" points="26,-67.5 26,-86.5 130,-86.5 130,-67.5 26,-67.5"/>
<text text-anchor="middle" x="78" y="-74.5" font-family="Helvetica,sans-Serif" font-size="10.00">Deserialiser&lt; S, T &gt;</text>
</a>
</g>
</g>
<!-- Node9&#45;&gt;Node8 -->
<g id="edge1" class="edge"><title>Node9&#45;&gt;Node8</title>
<path fill="none" stroke="midnightblue" d="M78,-57.2349C78,-48.5864 78,-38.4969 78,-30.523"/>
<polygon fill="midnightblue" stroke="midnightblue" points="74.5001,-57.4751 78,-67.4751 81.5001,-57.4751 74.5001,-57.4751"/>
</g>
</g>
</svg>
