<?xml version="1.0" encoding="UTF-8" standalone="no"?>
<!DOCTYPE svg PUBLIC "-//W3C//DTD SVG 1.1//EN"
 "http://www.w3.org/Graphics/SVG/1.1/DTD/svg11.dtd">
<!-- Generated by graphviz version 2.38.0 (20140413.2041)
 -->
<!-- Title: HoloGen.UI.Graph.ViewModels.GraphViewModel Pages: 1 -->
<svg width="162pt" height="151pt"
 viewBox="0.00 0.00 162.00 151.00" xmlns="http://www.w3.org/2000/svg" xmlns:xlink="http://www.w3.org/1999/xlink">
<g id="graph0" class="graph" transform="scale(1 1) rotate(0) translate(4 147)">
<title>HoloGen.UI.Graph.ViewModels.GraphViewModel</title>
<polygon fill="white" stroke="none" points="-4,4 -4,-147 158,-147 158,4 -4,4"/>
<!-- Node3 -->
<g id="node1" class="node"><title>Node3</title>
<polygon fill="#bfbfbf" stroke="black" points="0,-0.5 0,-30.5 154,-30.5 154,-0.5 0,-0.5"/>
<text text-anchor="start" x="8" y="-18.5" font-family="Helvetica,sans-Serif" font-size="10.00">HoloGen.UI.Graph.ViewModels.</text>
<text text-anchor="middle" x="77" y="-7.5" font-family="Helvetica,sans-Serif" font-size="10.00">GraphViewModel</text>
</g>
<!-- Node4 -->
<g id="node2" class="node"><title>Node4</title>
<g id="a_node2"><a xlink:href="class_holo_gen_1_1_u_i_1_1_utils_1_1_m_v_v_m_1_1_bindable_base.html" target="_top" xlink:title="Implementation of INotifyPropertyChanged to simplify models. Similar to ObservableObject. ">
<polygon fill="white" stroke="black" points="38.5,-67.5 38.5,-86.5 115.5,-86.5 115.5,-67.5 38.5,-67.5"/>
<text text-anchor="middle" x="77" y="-74.5" font-family="Helvetica,sans-Serif" font-size="10.00">BindableBase</text>
</a>
</g>
</g>
<!-- Node4&#45;&gt;Node3 -->
<g id="edge1" class="edge"><title>Node4&#45;&gt;Node3</title>
<path fill="none" stroke="midnightblue" d="M77,-57.2349C77,-48.5864 77,-38.4969 77,-30.523"/>
<polygon fill="midnightblue" stroke="midnightblue" points="73.5001,-57.4751 77,-67.4751 80.5001,-57.4751 73.5001,-57.4751"/>
</g>
<!-- Node5 -->
<g id="node3" class="node"><title>Node5</title>
<polygon fill="white" stroke="#bfbfbf" points="17.5,-123.5 17.5,-142.5 136.5,-142.5 136.5,-123.5 17.5,-123.5"/>
<text text-anchor="middle" x="77" y="-130.5" font-family="Helvetica,sans-Serif" font-size="10.00">INotifyPropertyChanged</text>
</g>
<!-- Node5&#45;&gt;Node4 -->
<g id="edge2" class="edge"><title>Node5&#45;&gt;Node4</title>
<path fill="none" stroke="midnightblue" d="M77,-112.805C77,-103.91 77,-93.7798 77,-86.7511"/>
<polygon fill="midnightblue" stroke="midnightblue" points="73.5001,-113.083 77,-123.083 80.5001,-113.083 73.5001,-113.083"/>
</g>
</g>
</svg>
