<?xml version="1.0" encoding="UTF-8" standalone="no"?>
<!DOCTYPE svg PUBLIC "-//W3C//DTD SVG 1.1//EN"
 "http://www.w3.org/Graphics/SVG/1.1/DTD/svg11.dtd">
<!-- Generated by graphviz version 2.38.0 (20140413.2041)
 -->
<!-- Title: HoloGen.UI.ViewModels.SetupViewModel Pages: 1 -->
<svg width="245pt" height="231pt"
 viewBox="0.00 0.00 245.00 231.00" xmlns="http://www.w3.org/2000/svg" xmlns:xlink="http://www.w3.org/1999/xlink">
<g id="graph0" class="graph" transform="scale(1 1) rotate(0) translate(4 227)">
<title>HoloGen.UI.ViewModels.SetupViewModel</title>
<polygon fill="white" stroke="none" points="-4,4 -4,-227 241,-227 241,4 -4,4"/>
<!-- Node3 -->
<g id="node1" class="node"><title>Node3</title>
<polygon fill="#bfbfbf" stroke="black" points="7.5,-0.5 7.5,-30.5 157.5,-30.5 157.5,-0.5 7.5,-0.5"/>
<text text-anchor="start" x="15.5" y="-18.5" font-family="Helvetica,sans-Serif" font-size="10.00">HoloGen.UI.ViewModels.Setup</text>
<text text-anchor="middle" x="82.5" y="-7.5" font-family="Helvetica,sans-Serif" font-size="10.00">ViewModel</text>
</g>
<!-- Node4 -->
<g id="node2" class="node"><title>Node4</title>
<g id="a_node2"><a xlink:href="class_holo_gen_1_1_utils_1_1_observable_object.html" target="_top" xlink:title="Observable object with INotifyPropertyChanged implemented ">
<polygon fill="white" stroke="black" points="13,-146.5 13,-165.5 106,-165.5 106,-146.5 13,-146.5"/>
<text text-anchor="middle" x="59.5" y="-153.5" font-family="Helvetica,sans-Serif" font-size="10.00">ObservableObject</text>
</a>
</g>
</g>
<!-- Node4&#45;&gt;Node3 -->
<g id="edge1" class="edge"><title>Node4&#45;&gt;Node3</title>
<path fill="none" stroke="midnightblue" d="M60.3607,-135.969C61.2764,-120.316 63.0832,-97.6001 66.5,-78 69.3799,-61.4797 74.4805,-42.8961 78.1495,-30.5234"/>
<polygon fill="midnightblue" stroke="midnightblue" points="56.8428,-136.227 59.8222,-146.394 63.8335,-136.588 56.8428,-136.227"/>
</g>
<!-- Node6 -->
<g id="node4" class="node"><title>Node6</title>
<g id="a_node4"><a xlink:href="class_holo_gen_1_1_u_i_1_1_hamburger_1_1_view_models_1_1_hamburger_tab_view_model.html" target="_top" xlink:title="For the top&#45;level of a Options hierarchy, simple databinding isn&#39;t sufficient to work with simple dat...">
<polygon fill="white" stroke="black" points="76,-78.5 76,-108.5 237,-108.5 237,-78.5 76,-78.5"/>
<text text-anchor="start" x="84" y="-96.5" font-family="Helvetica,sans-Serif" font-size="10.00">HoloGen.UI.Hamburger.View</text>
<text text-anchor="middle" x="156.5" y="-85.5" font-family="Helvetica,sans-Serif" font-size="10.00">Models.HamburgerTabViewModel</text>
</a>
</g>
</g>
<!-- Node4&#45;&gt;Node6 -->
<g id="edge4" class="edge"><title>Node4&#45;&gt;Node6</title>
<path fill="none" stroke="midnightblue" d="M81.9343,-141.007C97.5746,-131.252 118.36,-118.288 134.012,-108.526"/>
<polygon fill="midnightblue" stroke="midnightblue" points="80.0304,-138.07 73.3977,-146.332 83.7349,-144.009 80.0304,-138.07"/>
</g>
<!-- Node5 -->
<g id="node3" class="node"><title>Node5</title>
<polygon fill="white" stroke="#bfbfbf" points="0,-203.5 0,-222.5 119,-222.5 119,-203.5 0,-203.5"/>
<text text-anchor="middle" x="59.5" y="-210.5" font-family="Helvetica,sans-Serif" font-size="10.00">INotifyPropertyChanged</text>
</g>
<!-- Node5&#45;&gt;Node4 -->
<g id="edge2" class="edge"><title>Node5&#45;&gt;Node4</title>
<path fill="none" stroke="midnightblue" d="M59.5,-193.117C59.5,-183.817 59.5,-173.056 59.5,-165.715"/>
<polygon fill="midnightblue" stroke="midnightblue" points="56.0001,-193.406 59.5,-203.406 63.0001,-193.406 56.0001,-193.406"/>
</g>
<!-- Node6&#45;&gt;Node3 -->
<g id="edge3" class="edge"><title>Node6&#45;&gt;Node3</title>
<path fill="none" stroke="#9a32cd" stroke-dasharray="5,2" d="M135.598,-71.0332C123.036,-58.1316 107.399,-42.0716 96.3564,-30.7309"/>
<polygon fill="#9a32cd" stroke="#9a32cd" points="133.097,-73.4819 142.581,-78.205 138.113,-68.5986 133.097,-73.4819"/>
<text text-anchor="middle" x="149" y="-52" font-family="Helvetica,sans-Serif" font-size="10.00"> ViewModel</text>
</g>
</g>
</svg>
