<?xml version="1.0" encoding="UTF-8" standalone="no"?>
<!DOCTYPE svg PUBLIC "-//W3C//DTD SVG 1.1//EN"
 "http://www.w3.org/Graphics/SVG/1.1/DTD/svg11.dtd">
<!-- Generated by graphviz version 2.38.0 (20140413.2041)
 -->
<!-- Title: HoloGen.IO.JsonFileLoader&lt; S, T, U &gt; Pages: 1 -->
<svg width="143pt" height="95pt"
 viewBox="0.00 0.00 143.00 95.00" xmlns="http://www.w3.org/2000/svg" xmlns:xlink="http://www.w3.org/1999/xlink">
<g id="graph0" class="graph" transform="scale(1 1) rotate(0) translate(4 91)">
<title>HoloGen.IO.JsonFileLoader&lt; S, T, U &gt;</title>
<polygon fill="white" stroke="none" points="-4,4 -4,-91 139,-91 139,4 -4,4"/>
<!-- Node8 -->
<g id="node1" class="node"><title>Node8</title>
<polygon fill="#bfbfbf" stroke="black" points="0,-0.5 0,-30.5 135,-30.5 135,-0.5 0,-0.5"/>
<text text-anchor="start" x="8" y="-18.5" font-family="Helvetica,sans-Serif" font-size="10.00">HoloGen.IO.JsonFileLoader</text>
<text text-anchor="middle" x="67.5" y="-7.5" font-family="Helvetica,sans-Serif" font-size="10.00">&lt; S, T, U &gt;</text>
</g>
<!-- Node9 -->
<g id="node2" class="node"><title>Node9</title>
<g id="a_node2"><a xlink:href="class_holo_gen_1_1_i_o_1_1_file_loader.html" target="_top" xlink:title="Abstract file loader interface ">
<polygon fill="white" stroke="black" points="12.5,-67.5 12.5,-86.5 122.5,-86.5 122.5,-67.5 12.5,-67.5"/>
<text text-anchor="middle" x="67.5" y="-74.5" font-family="Helvetica,sans-Serif" font-size="10.00">FileLoader&lt; S, T, U &gt;</text>
</a>
</g>
</g>
<!-- Node9&#45;&gt;Node8 -->
<g id="edge1" class="edge"><title>Node9&#45;&gt;Node8</title>
<path fill="none" stroke="midnightblue" d="M67.5,-57.2349C67.5,-48.5864 67.5,-38.4969 67.5,-30.523"/>
<polygon fill="midnightblue" stroke="midnightblue" points="64.0001,-57.4751 67.5,-67.4751 71.0001,-57.4751 64.0001,-57.4751"/>
</g>
</g>
</svg>
