<?xml version="1.0" encoding="UTF-8" standalone="no"?>
<!DOCTYPE svg PUBLIC "-//W3C//DTD SVG 1.1//EN"
 "http://www.w3.org/Graphics/SVG/1.1/DTD/svg11.dtd">
<!-- Generated by graphviz version 2.38.0 (20140413.2041)
 -->
<!-- Title: HoloGen.IO.JsonImageFileLoader Pages: 1 -->
<svg width="271pt" height="253pt"
 viewBox="0.00 0.00 271.00 253.00" xmlns="http://www.w3.org/2000/svg" xmlns:xlink="http://www.w3.org/1999/xlink">
<g id="graph0" class="graph" transform="scale(1 1) rotate(0) translate(4 249)">
<title>HoloGen.IO.JsonImageFileLoader</title>
<polygon fill="white" stroke="none" points="-4,4 -4,-249 267,-249 267,4 -4,4"/>
<!-- Node4 -->
<g id="node1" class="node"><title>Node4</title>
<polygon fill="#bfbfbf" stroke="black" points="49,-0.5 49,-30.5 181,-30.5 181,-0.5 49,-0.5"/>
<text text-anchor="start" x="57" y="-18.5" font-family="Helvetica,sans-Serif" font-size="10.00">HoloGen.IO.JsonImageFile</text>
<text text-anchor="middle" x="115" y="-7.5" font-family="Helvetica,sans-Serif" font-size="10.00">Loader</text>
</g>
<!-- Node5 -->
<g id="node2" class="node"><title>Node5</title>
<g id="a_node2"><a xlink:href="class_holo_gen_1_1_i_o_1_1_json_file_loader.html" target="_top" xlink:title="JsonFileLoader\&lt; ComplexImage,\l ComplexImageVersion, JsonImageDeserialiser \&gt;">
<polygon fill="white" stroke="black" points="0,-68.5 0,-98.5 230,-98.5 230,-68.5 0,-68.5"/>
<text text-anchor="start" x="8" y="-86.5" font-family="Helvetica,sans-Serif" font-size="10.00">JsonFileLoader&lt; ComplexImage,</text>
<text text-anchor="middle" x="115" y="-75.5" font-family="Helvetica,sans-Serif" font-size="10.00"> ComplexImageVersion, JsonImageDeserialiser &gt;</text>
</a>
</g>
</g>
<!-- Node5&#45;&gt;Node4 -->
<g id="edge1" class="edge"><title>Node5&#45;&gt;Node4</title>
<path fill="none" stroke="midnightblue" d="M115,-58.0322C115,-48.8606 115,-38.7449 115,-30.7931"/>
<polygon fill="midnightblue" stroke="midnightblue" points="111.5,-58.1789 115,-68.179 118.5,-58.179 111.5,-58.1789"/>
</g>
<!-- Node6 -->
<g id="node3" class="node"><title>Node6</title>
<g id="a_node3"><a xlink:href="class_holo_gen_1_1_i_o_1_1_json_file_loader.html" target="_top" xlink:title="Loader for files in a JSON format ">
<polygon fill="white" stroke="black" points="47.5,-157.5 47.5,-187.5 182.5,-187.5 182.5,-157.5 47.5,-157.5"/>
<text text-anchor="start" x="55.5" y="-175.5" font-family="Helvetica,sans-Serif" font-size="10.00">HoloGen.IO.JsonFileLoader</text>
<text text-anchor="middle" x="115" y="-164.5" font-family="Helvetica,sans-Serif" font-size="10.00">&lt; S, T, U &gt;</text>
</a>
</g>
</g>
<!-- Node6&#45;&gt;Node5 -->
<g id="edge2" class="edge"><title>Node6&#45;&gt;Node5</title>
<path fill="none" stroke="orange" stroke-dasharray="5,2" d="M115,-147.09C115,-131.443 115,-111.685 115,-98.599"/>
<polygon fill="orange" stroke="orange" points="111.5,-147.134 115,-157.134 118.5,-147.134 111.5,-147.134"/>
<text text-anchor="start" x="115" y="-131" font-family="Helvetica,sans-Serif" font-size="10.00"> &lt; ComplexImage, ComplexImage</text>
<text text-anchor="middle" x="189" y="-120" font-family="Helvetica,sans-Serif" font-size="10.00">Version, JsonImageDeserialiser &gt;</text>
</g>
<!-- Node7 -->
<g id="node4" class="node"><title>Node7</title>
<g id="a_node4"><a xlink:href="class_holo_gen_1_1_i_o_1_1_file_loader.html" target="_top" xlink:title="Abstract file loader interface ">
<polygon fill="white" stroke="black" points="60,-225.5 60,-244.5 170,-244.5 170,-225.5 60,-225.5"/>
<text text-anchor="middle" x="115" y="-232.5" font-family="Helvetica,sans-Serif" font-size="10.00">FileLoader&lt; S, T, U &gt;</text>
</a>
</g>
</g>
<!-- Node7&#45;&gt;Node6 -->
<g id="edge3" class="edge"><title>Node7&#45;&gt;Node6</title>
<path fill="none" stroke="midnightblue" d="M115,-215.215C115,-206.356 115,-195.958 115,-187.759"/>
<polygon fill="midnightblue" stroke="midnightblue" points="111.5,-215.332 115,-225.332 118.5,-215.332 111.5,-215.332"/>
</g>
</g>
</svg>
