<?xml version="1.0" encoding="UTF-8" standalone="no"?>
<!DOCTYPE svg PUBLIC "-//W3C//DTD SVG 1.1//EN"
 "http://www.w3.org/Graphics/SVG/1.1/DTD/svg11.dtd">
<!-- Generated by graphviz version 2.38.0 (20140413.2041)
 -->
<!-- Title: HoloGen.UI.Commands.ConnectedCommand Pages: 1 -->
<svg width="363pt" height="174pt"
 viewBox="0.00 0.00 363.00 174.00" xmlns="http://www.w3.org/2000/svg" xmlns:xlink="http://www.w3.org/1999/xlink">
<g id="graph0" class="graph" transform="scale(1 1) rotate(0) translate(4 170)">
<title>HoloGen.UI.Commands.ConnectedCommand</title>
<polygon fill="white" stroke="none" points="-4,4 -4,-170 359,-170 359,4 -4,4"/>
<!-- Node17 -->
<g id="node1" class="node"><title>Node17</title>
<polygon fill="#bfbfbf" stroke="black" points="108.5,-0.5 108.5,-30.5 276.5,-30.5 276.5,-0.5 108.5,-0.5"/>
<text text-anchor="start" x="116.5" y="-18.5" font-family="Helvetica,sans-Serif" font-size="10.00">HoloGen.UI.Commands.Connected</text>
<text text-anchor="middle" x="192.5" y="-7.5" font-family="Helvetica,sans-Serif" font-size="10.00">Command</text>
</g>
<!-- Node18 -->
<g id="node2" class="node"><title>Node18</title>
<g id="a_node2"><a xlink:href="class_holo_gen_1_1_utils_1_1_observable_object.html" target="_top" xlink:title="Observable object with INotifyPropertyChanged implemented ">
<polygon fill="white" stroke="black" points="0,-89.5 0,-108.5 93,-108.5 93,-89.5 0,-89.5"/>
<text text-anchor="middle" x="46.5" y="-96.5" font-family="Helvetica,sans-Serif" font-size="10.00">ObservableObject</text>
</a>
</g>
</g>
<!-- Node18&#45;&gt;Node17 -->
<g id="edge1" class="edge"><title>Node18&#45;&gt;Node17</title>
<path fill="none" stroke="midnightblue" d="M70.9268,-84.3645C97.6839,-69.4282 140.38,-45.5941 167.401,-30.5107"/>
<polygon fill="midnightblue" stroke="midnightblue" points="68.8743,-81.5018 61.8486,-89.4321 72.2863,-87.614 68.8743,-81.5018"/>
</g>
<!-- Node19 -->
<g id="node3" class="node"><title>Node19</title>
<polygon fill="white" stroke="#bfbfbf" points="74,-146.5 74,-165.5 193,-165.5 193,-146.5 74,-146.5"/>
<text text-anchor="middle" x="133.5" y="-153.5" font-family="Helvetica,sans-Serif" font-size="10.00">INotifyPropertyChanged</text>
</g>
<!-- Node19&#45;&gt;Node18 -->
<g id="edge2" class="edge"><title>Node19&#45;&gt;Node18</title>
<path fill="none" stroke="midnightblue" d="M111.077,-140.824C94.9116,-130.605 73.6255,-117.148 59.9983,-108.533"/>
<polygon fill="midnightblue" stroke="midnightblue" points="109.583,-144.021 119.906,-146.406 113.324,-138.104 109.583,-144.021"/>
</g>
<!-- Node21 -->
<g id="node5" class="node"><title>Node21</title>
<g id="a_node5"><a xlink:href="interface_holo_gen_1_1_u_i_1_1_menus_1_1_i_menu_window.html" target="_top" xlink:title="HoloGen.UI.Menus.IMenuWindow">
<polygon fill="white" stroke="black" points="111.5,-89.5 111.5,-108.5 273.5,-108.5 273.5,-89.5 111.5,-89.5"/>
<text text-anchor="middle" x="192.5" y="-96.5" font-family="Helvetica,sans-Serif" font-size="10.00">HoloGen.UI.Menus.IMenuWindow</text>
</a>
</g>
</g>
<!-- Node19&#45;&gt;Node21 -->
<g id="edge5" class="edge"><title>Node19&#45;&gt;Node21</title>
<path fill="none" stroke="midnightblue" d="M150.217,-139.416C160.888,-129.469 174.325,-116.943 183.151,-108.715"/>
<polygon fill="midnightblue" stroke="midnightblue" points="147.647,-137.027 142.719,-146.406 152.42,-142.148 147.647,-137.027"/>
</g>
<!-- Node20 -->
<g id="node4" class="node"><title>Node20</title>
<polygon fill="white" stroke="#bfbfbf" points="292,-89.5 292,-108.5 355,-108.5 355,-89.5 292,-89.5"/>
<text text-anchor="middle" x="323.5" y="-96.5" font-family="Helvetica,sans-Serif" font-size="10.00">ICommand</text>
</g>
<!-- Node20&#45;&gt;Node17 -->
<g id="edge3" class="edge"><title>Node20&#45;&gt;Node17</title>
<path fill="none" stroke="midnightblue" d="M306.086,-82.7994C293.834,-72.5287 276.782,-59.0599 260.5,-49 249.591,-42.26 237.069,-35.9176 225.768,-30.6561"/>
<polygon fill="midnightblue" stroke="midnightblue" points="303.851,-85.4938 313.732,-89.3177 308.393,-80.1667 303.851,-85.4938"/>
</g>
<!-- Node21&#45;&gt;Node17 -->
<g id="edge4" class="edge"><title>Node21&#45;&gt;Node17</title>
<path fill="none" stroke="#9a32cd" stroke-dasharray="5,2" d="M192.5,-79.229C192.5,-64.4075 192.5,-44.0505 192.5,-30.5974"/>
<polygon fill="#9a32cd" stroke="#9a32cd" points="189,-79.278 192.5,-89.2781 196,-79.2781 189,-79.278"/>
<text text-anchor="middle" x="224.5" y="-63" font-family="Helvetica,sans-Serif" font-size="10.00"> MenuWindow</text>
<text text-anchor="middle" x="224.5" y="-52" font-family="Helvetica,sans-Serif" font-size="10.00">_MenuWindow</text>
</g>
</g>
</svg>
