<?xml version="1.0" encoding="UTF-8" standalone="no"?>
<!DOCTYPE svg PUBLIC "-//W3C//DTD SVG 1.1//EN"
 "http://www.w3.org/Graphics/SVG/1.1/DTD/svg11.dtd">
<!-- Generated by graphviz version 2.38.0 (20140413.2041)
 -->
<!-- Title: HoloGen.UI.ViewModels.AbstractTabViewModel&lt; T &gt; Pages: 1 -->
<svg width="202pt" height="151pt"
 viewBox="0.00 0.00 201.50 151.00" xmlns="http://www.w3.org/2000/svg" xmlns:xlink="http://www.w3.org/1999/xlink">
<g id="graph0" class="graph" transform="scale(1 1) rotate(0) translate(4 147)">
<title>HoloGen.UI.ViewModels.AbstractTabViewModel&lt; T &gt;</title>
<polygon fill="white" stroke="none" points="-4,4 -4,-147 197.5,-147 197.5,4 -4,4"/>
<!-- Node13 -->
<g id="node1" class="node"><title>Node13</title>
<polygon fill="#bfbfbf" stroke="black" points="19,-0.5 19,-30.5 180,-30.5 180,-0.5 19,-0.5"/>
<text text-anchor="start" x="27" y="-18.5" font-family="Helvetica,sans-Serif" font-size="10.00">HoloGen.UI.ViewModels.Abstract</text>
<text text-anchor="middle" x="99.5" y="-7.5" font-family="Helvetica,sans-Serif" font-size="10.00">TabViewModel&lt; T &gt;</text>
</g>
<!-- Node14 -->
<g id="node2" class="node"><title>Node14</title>
<g id="a_node2"><a xlink:href="class_holo_gen_1_1_utils_1_1_observable_object.html" target="_top" xlink:title="Observable object with INotifyPropertyChanged implemented ">
<polygon fill="white" stroke="black" points="0,-67.5 0,-86.5 93,-86.5 93,-67.5 0,-67.5"/>
<text text-anchor="middle" x="46.5" y="-74.5" font-family="Helvetica,sans-Serif" font-size="10.00">ObservableObject</text>
</a>
</g>
</g>
<!-- Node14&#45;&gt;Node13 -->
<g id="edge1" class="edge"><title>Node14&#45;&gt;Node13</title>
<path fill="none" stroke="midnightblue" d="M60.9206,-59.8108C69.0819,-50.6486 79.1879,-39.3032 87.0089,-30.523"/>
<polygon fill="midnightblue" stroke="midnightblue" points="58.1315,-57.6799 54.0936,-67.4751 63.3586,-62.3359 58.1315,-57.6799"/>
</g>
<!-- Node15 -->
<g id="node3" class="node"><title>Node15</title>
<polygon fill="white" stroke="#bfbfbf" points="40,-123.5 40,-142.5 159,-142.5 159,-123.5 40,-123.5"/>
<text text-anchor="middle" x="99.5" y="-130.5" font-family="Helvetica,sans-Serif" font-size="10.00">INotifyPropertyChanged</text>
</g>
<!-- Node15&#45;&gt;Node14 -->
<g id="edge2" class="edge"><title>Node15&#45;&gt;Node14</title>
<path fill="none" stroke="midnightblue" d="M83.5191,-115.718C74.1775,-106.2 62.7541,-94.5608 55.089,-86.7511"/>
<polygon fill="midnightblue" stroke="midnightblue" points="81.2455,-118.398 90.7481,-123.083 86.2413,-113.494 81.2455,-118.398"/>
</g>
<!-- Node16 -->
<g id="node4" class="node"><title>Node16</title>
<g id="a_node4"><a xlink:href="interface_holo_gen_1_1_u_i_1_1_utils_1_1_i_tab_view_model.html" target="_top" xlink:title="Tab view model interface ">
<polygon fill="white" stroke="black" points="111.5,-67.5 111.5,-86.5 193.5,-86.5 193.5,-67.5 111.5,-67.5"/>
<text text-anchor="middle" x="152.5" y="-74.5" font-family="Helvetica,sans-Serif" font-size="10.00">ITabViewModel</text>
</a>
</g>
</g>
<!-- Node15&#45;&gt;Node16 -->
<g id="edge4" class="edge"><title>Node15&#45;&gt;Node16</title>
<path fill="none" stroke="midnightblue" d="M115.481,-115.718C124.822,-106.2 136.246,-94.5608 143.911,-86.7511"/>
<polygon fill="midnightblue" stroke="midnightblue" points="112.759,-113.494 108.252,-123.083 117.754,-118.398 112.759,-113.494"/>
</g>
<!-- Node16&#45;&gt;Node13 -->
<g id="edge3" class="edge"><title>Node16&#45;&gt;Node13</title>
<path fill="none" stroke="midnightblue" d="M138.079,-59.8108C129.918,-50.6486 119.812,-39.3032 111.991,-30.523"/>
<polygon fill="midnightblue" stroke="midnightblue" points="135.641,-62.3359 144.906,-67.4751 140.868,-57.6799 135.641,-62.3359"/>
</g>
</g>
</svg>
