<?xml version="1.0" encoding="UTF-8" standalone="no"?>
<!DOCTYPE svg PUBLIC "-//W3C//DTD SVG 1.1//EN"
 "http://www.w3.org/Graphics/SVG/1.1/DTD/svg11.dtd">
<!-- Generated by graphviz version 2.38.0 (20140413.2041)
 -->
<!-- Title: HoloGen.IO.JsonOptionsFileSaver Pages: 1 -->
<svg width="235pt" height="264pt"
 viewBox="0.00 0.00 234.50 264.00" xmlns="http://www.w3.org/2000/svg" xmlns:xlink="http://www.w3.org/1999/xlink">
<g id="graph0" class="graph" transform="scale(1 1) rotate(0) translate(4 260)">
<title>HoloGen.IO.JsonOptionsFileSaver</title>
<polygon fill="white" stroke="none" points="-4,4 -4,-260 230.5,-260 230.5,4 -4,4"/>
<!-- Node4 -->
<g id="node1" class="node"><title>Node4</title>
<polygon fill="#bfbfbf" stroke="black" points="13.5,-0.5 13.5,-30.5 153.5,-30.5 153.5,-0.5 13.5,-0.5"/>
<text text-anchor="start" x="21.5" y="-18.5" font-family="Helvetica,sans-Serif" font-size="10.00">HoloGen.IO.JsonOptionsFile</text>
<text text-anchor="middle" x="83.5" y="-7.5" font-family="Helvetica,sans-Serif" font-size="10.00">Saver</text>
</g>
<!-- Node5 -->
<g id="node2" class="node"><title>Node5</title>
<g id="a_node2"><a xlink:href="class_holo_gen_1_1_i_o_1_1_json_file_saver.html" target="_top" xlink:title="JsonFileSaver\&lt; OptionsRoot,\l OptionsRootVersion, JsonOptions\lSerialiser \&gt;">
<polygon fill="white" stroke="black" points="0,-68.5 0,-109.5 167,-109.5 167,-68.5 0,-68.5"/>
<text text-anchor="start" x="8" y="-97.5" font-family="Helvetica,sans-Serif" font-size="10.00">JsonFileSaver&lt; OptionsRoot,</text>
<text text-anchor="start" x="8" y="-86.5" font-family="Helvetica,sans-Serif" font-size="10.00"> OptionsRootVersion, JsonOptions</text>
<text text-anchor="middle" x="83.5" y="-75.5" font-family="Helvetica,sans-Serif" font-size="10.00">Serialiser &gt;</text>
</a>
</g>
</g>
<!-- Node5&#45;&gt;Node4 -->
<g id="edge1" class="edge"><title>Node5&#45;&gt;Node4</title>
<path fill="none" stroke="midnightblue" d="M83.5,-58.1581C83.5,-48.6872 83.5,-38.6473 83.5,-30.7972"/>
<polygon fill="midnightblue" stroke="midnightblue" points="80.0001,-58.4623 83.5,-68.4623 87.0001,-58.4623 80.0001,-58.4623"/>
</g>
<!-- Node6 -->
<g id="node3" class="node"><title>Node6</title>
<g id="a_node3"><a xlink:href="class_holo_gen_1_1_i_o_1_1_json_file_saver.html" target="_top" xlink:title="Saver for files in a JSON format ">
<polygon fill="white" stroke="black" points="18.5,-168.5 18.5,-198.5 148.5,-198.5 148.5,-168.5 18.5,-168.5"/>
<text text-anchor="start" x="26.5" y="-186.5" font-family="Helvetica,sans-Serif" font-size="10.00">HoloGen.IO.JsonFileSaver</text>
<text text-anchor="middle" x="83.5" y="-175.5" font-family="Helvetica,sans-Serif" font-size="10.00">&lt; S, T, U &gt;</text>
</a>
</g>
</g>
<!-- Node6&#45;&gt;Node5 -->
<g id="edge2" class="edge"><title>Node6&#45;&gt;Node5</title>
<path fill="none" stroke="orange" stroke-dasharray="5,2" d="M83.5,-158.282C83.5,-143.138 83.5,-123.882 83.5,-109.682"/>
<polygon fill="orange" stroke="orange" points="80.0001,-158.451 83.5,-168.451 87.0001,-158.451 80.0001,-158.451"/>
<text text-anchor="start" x="83.5" y="-142" font-family="Helvetica,sans-Serif" font-size="10.00"> &lt; OptionsRoot, OptionsRoot</text>
<text text-anchor="middle" x="155" y="-131" font-family="Helvetica,sans-Serif" font-size="10.00">Version, JsonOptionsSerialiser &gt;</text>
</g>
<!-- Node7 -->
<g id="node4" class="node"><title>Node7</title>
<g id="a_node4"><a xlink:href="class_holo_gen_1_1_i_o_1_1_file_saver.html" target="_top" xlink:title="Abstract file saver interface ">
<polygon fill="white" stroke="black" points="31,-236.5 31,-255.5 136,-255.5 136,-236.5 31,-236.5"/>
<text text-anchor="middle" x="83.5" y="-243.5" font-family="Helvetica,sans-Serif" font-size="10.00">FileSaver&lt; S, T, U &gt;</text>
</a>
</g>
</g>
<!-- Node7&#45;&gt;Node6 -->
<g id="edge3" class="edge"><title>Node7&#45;&gt;Node6</title>
<path fill="none" stroke="midnightblue" d="M83.5,-226.215C83.5,-217.356 83.5,-206.958 83.5,-198.759"/>
<polygon fill="midnightblue" stroke="midnightblue" points="80.0001,-226.332 83.5,-236.332 87.0001,-226.332 80.0001,-226.332"/>
</g>
</g>
</svg>
