<?xml version="1.0" encoding="UTF-8" standalone="no"?>
<!DOCTYPE svg PUBLIC "-//W3C//DTD SVG 1.1//EN"
 "http://www.w3.org/Graphics/SVG/1.1/DTD/svg11.dtd">
<!-- Generated by graphviz version 2.38.0 (20140413.2041)
 -->
<!-- Title: HoloGen.Hierarchy.OptionTypes.BooleanOption Pages: 1 -->
<svg width="1152pt" height="455pt"
 viewBox="0.00 0.00 1152.00 455.00" xmlns="http://www.w3.org/2000/svg" xmlns:xlink="http://www.w3.org/1999/xlink">
<g id="graph0" class="graph" transform="scale(1 1) rotate(0) translate(4 451)">
<title>HoloGen.Hierarchy.OptionTypes.BooleanOption</title>
<polygon fill="white" stroke="none" points="-4,4 -4,-451 1148,-451 1148,4 -4,4"/>
<!-- Node0 -->
<g id="node1" class="node"><title>Node0</title>
<polygon fill="#bfbfbf" stroke="black" points="613,-196.5 613,-226.5 743,-226.5 743,-196.5 613,-196.5"/>
<text text-anchor="start" x="621" y="-214.5" font-family="Helvetica,sans-Serif" font-size="10.00">HoloGen.Hierarchy.Option</text>
<text text-anchor="middle" x="678" y="-203.5" font-family="Helvetica,sans-Serif" font-size="10.00">Types.BooleanOption</text>
</g>
<!-- Node12 -->
<g id="node13" class="node"><title>Node12</title>
<g id="a_node13"><a xlink:href="class_holo_gen_1_1_hierarchy_1_1_option_types_1_1_boolean_option_with_children.html" target="_top" xlink:title="Extends BooleanOption wrapping a boolean parameter. Due to the limits of the C# reflection interface...">
<polygon fill="white" stroke="black" points="784,-392.5 784,-422.5 949,-422.5 949,-392.5 784,-392.5"/>
<text text-anchor="start" x="792" y="-410.5" font-family="Helvetica,sans-Serif" font-size="10.00">HoloGen.Hierarchy.Option</text>
<text text-anchor="middle" x="866.5" y="-399.5" font-family="Helvetica,sans-Serif" font-size="10.00">Types.BooleanOptionWithChildren</text>
</a>
</g>
</g>
<!-- Node0&#45;&gt;Node12 -->
<g id="edge13" class="edge"><title>Node0&#45;&gt;Node12</title>
<path fill="none" stroke="midnightblue" d="M686.943,-236.231C700.193,-273.529 730.363,-343.907 780,-382.5 785.006,-386.392 790.601,-389.679 796.469,-392.454"/>
<polygon fill="midnightblue" stroke="midnightblue" points="690.209,-234.964 683.652,-226.642 683.588,-237.236 690.209,-234.964"/>
</g>
<!-- Node15 -->
<g id="node16" class="node"><title>Node15</title>
<g id="a_node16"><a xlink:href="class_holo_gen_1_1_options_1_1_algorithm_1_1_error_calculation_1_1_error_normalisation.html" target="_top" xlink:title="Should the error be normalised? ">
<polygon fill="white" stroke="black" points="782,-343.5 782,-373.5 951,-373.5 951,-343.5 782,-343.5"/>
<text text-anchor="start" x="790" y="-361.5" font-family="Helvetica,sans-Serif" font-size="10.00">HoloGen.Options.Algorithm.</text>
<text text-anchor="middle" x="866.5" y="-350.5" font-family="Helvetica,sans-Serif" font-size="10.00">ErrorCalculation.ErrorNormalisation</text>
</a>
</g>
</g>
<!-- Node0&#45;&gt;Node15 -->
<g id="edge16" class="edge"><title>Node0&#45;&gt;Node15</title>
<path fill="none" stroke="midnightblue" d="M692.643,-235.391C709.632,-263.023 741.199,-307.975 780,-333.5 785.814,-337.325 792.226,-340.577 798.846,-343.341"/>
<polygon fill="midnightblue" stroke="midnightblue" points="695.597,-233.512 687.451,-226.737 689.595,-237.113 695.597,-233.512"/>
</g>
<!-- Node16 -->
<g id="node17" class="node"><title>Node16</title>
<g id="a_node17"><a xlink:href="class_holo_gen_1_1_options_1_1_algorithm_1_1_target_1_1_target.html" target="_top" xlink:title="Base level possibility for error generation target. ">
<polygon fill="white" stroke="black" points="797.5,-294.5 797.5,-324.5 935.5,-324.5 935.5,-294.5 797.5,-294.5"/>
<text text-anchor="start" x="805.5" y="-312.5" font-family="Helvetica,sans-Serif" font-size="10.00">HoloGen.Options.Algorithm.</text>
<text text-anchor="middle" x="866.5" y="-301.5" font-family="Helvetica,sans-Serif" font-size="10.00">Target.Target</text>
</a>
</g>
</g>
<!-- Node0&#45;&gt;Node16 -->
<g id="edge17" class="edge"><title>Node0&#45;&gt;Node16</title>
<path fill="none" stroke="midnightblue" d="M703.86,-233.202C723.41,-249.307 751.944,-270.769 780,-284.5 787.64,-288.239 795.944,-291.526 804.273,-294.381"/>
<polygon fill="midnightblue" stroke="midnightblue" points="705.972,-230.405 696.059,-226.666 701.476,-235.771 705.972,-230.405"/>
</g>
<!-- Node17 -->
<g id="node18" class="node"><title>Node17</title>
<g id="a_node18"><a xlink:href="class_holo_gen_1_1_options_1_1_target_1_1_target_1_1_randomise_target_phase.html" target="_top" xlink:title="Should the target image phase be randomised? ">
<polygon fill="white" stroke="black" points="789.5,-245.5 789.5,-275.5 943.5,-275.5 943.5,-245.5 789.5,-245.5"/>
<text text-anchor="start" x="797.5" y="-263.5" font-family="Helvetica,sans-Serif" font-size="10.00">HoloGen.Options.Target.Target.</text>
<text text-anchor="middle" x="866.5" y="-252.5" font-family="Helvetica,sans-Serif" font-size="10.00">RandomiseTargetPhase</text>
</a>
</g>
</g>
<!-- Node0&#45;&gt;Node17 -->
<g id="edge18" class="edge"><title>Node0&#45;&gt;Node17</title>
<path fill="none" stroke="midnightblue" d="M746.075,-229.123C766.479,-234.484 788.702,-240.323 808.385,-245.494"/>
<polygon fill="midnightblue" stroke="midnightblue" points="746.785,-225.691 736.224,-226.535 745.006,-232.461 746.785,-225.691"/>
</g>
<!-- Node18 -->
<g id="node19" class="node"><title>Node18</title>
<g id="a_node19"><a xlink:href="class_holo_gen_1_1_options_1_1_target_1_1_target_1_1_tie_normalisation_to_zero.html" target="_top" xlink:title="Should the target image phase be randomised? ">
<polygon fill="white" stroke="black" points="789.5,-196.5 789.5,-226.5 943.5,-226.5 943.5,-196.5 789.5,-196.5"/>
<text text-anchor="start" x="797.5" y="-214.5" font-family="Helvetica,sans-Serif" font-size="10.00">HoloGen.Options.Target.Target.</text>
<text text-anchor="middle" x="866.5" y="-203.5" font-family="Helvetica,sans-Serif" font-size="10.00">TieNormalisationToZero</text>
</a>
</g>
</g>
<!-- Node0&#45;&gt;Node18 -->
<g id="edge19" class="edge"><title>Node0&#45;&gt;Node18</title>
<path fill="none" stroke="midnightblue" d="M753.429,-211.5C765.234,-211.5 777.46,-211.5 789.305,-211.5"/>
<polygon fill="midnightblue" stroke="midnightblue" points="753.183,-208 743.183,-211.5 753.183,-215 753.183,-208"/>
</g>
<!-- Node19 -->
<g id="node20" class="node"><title>Node19</title>
<g id="a_node20"><a xlink:href="class_holo_gen_1_1_settings_1_1_general_1_1_file_1_1_save_scale_bar_on_image_export.html" target="_top" xlink:title="Should the error be normalised? ">
<polygon fill="white" stroke="black" points="784.5,-147.5 784.5,-177.5 948.5,-177.5 948.5,-147.5 784.5,-147.5"/>
<text text-anchor="start" x="792.5" y="-165.5" font-family="Helvetica,sans-Serif" font-size="10.00">HoloGen.Settings.General.</text>
<text text-anchor="middle" x="866.5" y="-154.5" font-family="Helvetica,sans-Serif" font-size="10.00">File.SaveScaleBarOnImageExport</text>
</a>
</g>
</g>
<!-- Node0&#45;&gt;Node19 -->
<g id="edge20" class="edge"><title>Node0&#45;&gt;Node19</title>
<path fill="none" stroke="midnightblue" d="M746.075,-193.877C766.479,-188.516 788.702,-182.677 808.385,-177.506"/>
<polygon fill="midnightblue" stroke="midnightblue" points="745.006,-190.539 736.224,-196.465 746.785,-197.309 745.006,-190.539"/>
</g>
<!-- Node20 -->
<g id="node21" class="node"><title>Node20</title>
<g id="a_node21"><a xlink:href="class_holo_gen_1_1_settings_1_1_general_1_1_file_1_1_show_close_unsaved_file_warning.html" target="_top" xlink:title="Should the error be normalised? ">
<polygon fill="white" stroke="black" points="780,-98.5 780,-128.5 953,-128.5 953,-98.5 780,-98.5"/>
<text text-anchor="start" x="788" y="-116.5" font-family="Helvetica,sans-Serif" font-size="10.00">HoloGen.Settings.General.</text>
<text text-anchor="middle" x="866.5" y="-105.5" font-family="Helvetica,sans-Serif" font-size="10.00">File.ShowCloseUnsavedFileWarning</text>
</a>
</g>
</g>
<!-- Node0&#45;&gt;Node20 -->
<g id="edge21" class="edge"><title>Node0&#45;&gt;Node20</title>
<path fill="none" stroke="midnightblue" d="M703.414,-189.693C722.922,-173.278 751.611,-151.318 780,-137.5 786.931,-134.126 794.417,-131.155 801.975,-128.557"/>
<polygon fill="midnightblue" stroke="midnightblue" points="700.961,-187.185 695.642,-196.348 705.514,-192.502 700.961,-187.185"/>
</g>
<!-- Node21 -->
<g id="node22" class="node"><title>Node21</title>
<g id="a_node22"><a xlink:href="class_holo_gen_1_1_settings_1_1_general_1_1_file_1_1_show_large_mat_export_warning.html" target="_top" xlink:title="Should the error be normalised? ">
<polygon fill="white" stroke="black" points="784.5,-49.5 784.5,-79.5 948.5,-79.5 948.5,-49.5 784.5,-49.5"/>
<text text-anchor="start" x="792.5" y="-67.5" font-family="Helvetica,sans-Serif" font-size="10.00">HoloGen.Settings.General.</text>
<text text-anchor="middle" x="866.5" y="-56.5" font-family="Helvetica,sans-Serif" font-size="10.00">File.ShowLargeMatExportWarning</text>
</a>
</g>
</g>
<!-- Node0&#45;&gt;Node21 -->
<g id="edge22" class="edge"><title>Node0&#45;&gt;Node21</title>
<path fill="none" stroke="midnightblue" d="M692.547,-187.338C709.444,-159.407 740.923,-114.017 780,-88.5 785.293,-85.0439 791.083,-82.0792 797.076,-79.5372"/>
<polygon fill="midnightblue" stroke="midnightblue" points="689.453,-185.695 687.386,-196.087 695.482,-189.252 689.453,-185.695"/>
</g>
<!-- Node22 -->
<g id="node23" class="node"><title>Node22</title>
<g id="a_node23"><a xlink:href="class_holo_gen_1_1_settings_1_1_general_1_1_file_1_1_show_large_mat_import_warning.html" target="_top" xlink:title="Should the error be normalised? ">
<polygon fill="white" stroke="black" points="785,-0.5 785,-30.5 948,-30.5 948,-0.5 785,-0.5"/>
<text text-anchor="start" x="793" y="-18.5" font-family="Helvetica,sans-Serif" font-size="10.00">HoloGen.Settings.General.</text>
<text text-anchor="middle" x="866.5" y="-7.5" font-family="Helvetica,sans-Serif" font-size="10.00">File.ShowLargeMatImportWarning</text>
</a>
</g>
</g>
<!-- Node0&#45;&gt;Node22 -->
<g id="edge23" class="edge"><title>Node0&#45;&gt;Node22</title>
<path fill="none" stroke="midnightblue" d="M686.751,-186.841C699.827,-149.312 729.863,-78.1509 780,-39.5 784.396,-36.1113 789.246,-33.2011 794.336,-30.7017"/>
<polygon fill="midnightblue" stroke="midnightblue" points="683.38,-185.886 683.51,-196.48 690.015,-188.117 683.38,-185.886"/>
</g>
<!-- Node1 -->
<g id="node2" class="node"><title>Node1</title>
<g id="a_node2"><a xlink:href="class_holo_gen_1_1_hierarchy_1_1_option_types_1_1_option.html" target="_top" xlink:title="Option\&lt; bool \&gt;">
<polygon fill="white" stroke="black" points="493.5,-225 493.5,-244 574.5,-244 574.5,-225 493.5,-225"/>
<text text-anchor="middle" x="534" y="-232" font-family="Helvetica,sans-Serif" font-size="10.00">Option&lt; bool &gt;</text>
</a>
</g>
</g>
<!-- Node1&#45;&gt;Node0 -->
<g id="edge1" class="edge"><title>Node1&#45;&gt;Node0</title>
<path fill="none" stroke="midnightblue" d="M584.611,-226.464C593.746,-224.985 603.402,-223.421 612.892,-221.884"/>
<polygon fill="midnightblue" stroke="midnightblue" points="583.867,-223.039 574.555,-228.093 584.986,-229.949 583.867,-223.039"/>
</g>
<!-- Node2 -->
<g id="node3" class="node"><title>Node2</title>
<g id="a_node3"><a xlink:href="class_holo_gen_1_1_hierarchy_1_1_option_types_1_1_option.html" target="_top" xlink:title="Root hierarchy element. Defines Name and ToolTip fields that must be implemented by any implementors...">
<polygon fill="white" stroke="black" points="286,-219.5 286,-249.5 416,-249.5 416,-219.5 286,-219.5"/>
<text text-anchor="start" x="294" y="-237.5" font-family="Helvetica,sans-Serif" font-size="10.00">HoloGen.Hierarchy.Option</text>
<text text-anchor="middle" x="351" y="-226.5" font-family="Helvetica,sans-Serif" font-size="10.00">Types.Option&lt; T &gt;</text>
</a>
</g>
</g>
<!-- Node2&#45;&gt;Node1 -->
<g id="edge2" class="edge"><title>Node2&#45;&gt;Node1</title>
<path fill="none" stroke="orange" stroke-dasharray="5,2" d="M426.154,-234.5C449.132,-234.5 473.565,-234.5 493.258,-234.5"/>
<polygon fill="orange" stroke="orange" points="426.069,-231 416.069,-234.5 426.069,-238 426.069,-231"/>
<text text-anchor="middle" x="454" y="-237.5" font-family="Helvetica,sans-Serif" font-size="10.00"> &lt; bool &gt;</text>
</g>
<!-- Node3 -->
<g id="node4" class="node"><title>Node3</title>
<g id="a_node4"><a xlink:href="class_holo_gen_1_1_utils_1_1_observable_object.html" target="_top" xlink:title="Observable object with INotifyPropertyChanged implemented ">
<polygon fill="white" stroke="black" points="156,-267 156,-286 249,-286 249,-267 156,-267"/>
<text text-anchor="middle" x="202.5" y="-274" font-family="Helvetica,sans-Serif" font-size="10.00">ObservableObject</text>
</a>
</g>
</g>
<!-- Node3&#45;&gt;Node2 -->
<g id="edge3" class="edge"><title>Node3&#45;&gt;Node2</title>
<path fill="none" stroke="midnightblue" d="M246.391,-264.204C262.432,-259.605 280.834,-254.329 297.635,-249.512"/>
<polygon fill="midnightblue" stroke="midnightblue" points="245.391,-260.849 236.743,-266.97 247.32,-267.578 245.391,-260.849"/>
</g>
<!-- Node4 -->
<g id="node5" class="node"><title>Node4</title>
<polygon fill="white" stroke="#bfbfbf" points="0,-286 0,-305 119,-305 119,-286 0,-286"/>
<text text-anchor="middle" x="59.5" y="-293" font-family="Helvetica,sans-Serif" font-size="10.00">INotifyPropertyChanged</text>
</g>
<!-- Node4&#45;&gt;Node3 -->
<g id="edge4" class="edge"><title>Node4&#45;&gt;Node3</title>
<path fill="none" stroke="midnightblue" d="M129.206,-286.242C138.225,-285.026 147.283,-283.806 155.79,-282.66"/>
<polygon fill="midnightblue" stroke="midnightblue" points="128.515,-282.803 119.072,-287.607 129.45,-289.74 128.515,-282.803"/>
</g>
<!-- Node5 -->
<g id="node6" class="node"><title>Node5</title>
<g id="a_node6"><a xlink:href="interface_holo_gen_1_1_hierarchy_1_1_option_types_1_1_i_option.html" target="_top" xlink:title="Base interface for the Option that doesn&#39;t need a template parameter. Necessary for a number of refle...">
<polygon fill="white" stroke="black" points="179,-210 179,-229 226,-229 226,-210 179,-210"/>
<text text-anchor="middle" x="202.5" y="-217" font-family="Helvetica,sans-Serif" font-size="10.00">IOption</text>
</a>
</g>
</g>
<!-- Node4&#45;&gt;Node5 -->
<g id="edge10" class="edge"><title>Node4&#45;&gt;Node5</title>
<path fill="none" stroke="midnightblue" d="M105.211,-282.483C109.945,-280.662 114.624,-278.664 119,-276.5 146.152,-263.071 174.507,-241.564 189.886,-229.165"/>
<polygon fill="midnightblue" stroke="midnightblue" points="103.726,-279.297 95.4963,-285.969 106.091,-285.885 103.726,-279.297"/>
</g>
<!-- Node5&#45;&gt;Node2 -->
<g id="edge5" class="edge"><title>Node5&#45;&gt;Node2</title>
<path fill="none" stroke="midnightblue" d="M236.149,-222.843C250.84,-224.347 268.717,-226.177 285.909,-227.938"/>
<polygon fill="midnightblue" stroke="midnightblue" points="236.374,-219.348 226.07,-221.811 235.661,-226.311 236.374,-219.348"/>
</g>
<!-- Node6 -->
<g id="node7" class="node"><title>Node6</title>
<g id="a_node7"><a xlink:href="interface_holo_gen_1_1_hierarchy_1_1_hierarchy_1_1_i_can_error.html" target="_top" xlink:title="Interface implemented by any classes that can be in an error state. Defines the Valid property that c...">
<polygon fill="white" stroke="black" points="31,-248 31,-267 88,-267 88,-248 31,-248"/>
<text text-anchor="middle" x="59.5" y="-255" font-family="Helvetica,sans-Serif" font-size="10.00">ICanError</text>
</a>
</g>
</g>
<!-- Node6&#45;&gt;Node5 -->
<g id="edge6" class="edge"><title>Node6&#45;&gt;Node5</title>
<path fill="none" stroke="midnightblue" d="M97.8117,-247.444C123.523,-240.515 156.864,-231.53 178.703,-225.644"/>
<polygon fill="midnightblue" stroke="midnightblue" points="96.7656,-244.101 88.0209,-250.083 98.5872,-250.86 96.7656,-244.101"/>
</g>
<!-- Node7 -->
<g id="node8" class="node"><title>Node7</title>
<g id="a_node8"><a xlink:href="interface_holo_gen_1_1_hierarchy_1_1_hierarchy_1_1_i_has_name.html" target="_top" xlink:title="Interface implemented by any classes that have a Name property. ">
<polygon fill="white" stroke="black" points="28.5,-210 28.5,-229 90.5,-229 90.5,-210 28.5,-210"/>
<text text-anchor="middle" x="59.5" y="-217" font-family="Helvetica,sans-Serif" font-size="10.00">IHasName</text>
</a>
</g>
</g>
<!-- Node7&#45;&gt;Node5 -->
<g id="edge7" class="edge"><title>Node7&#45;&gt;Node5</title>
<path fill="none" stroke="midnightblue" d="M100.784,-219.5C126.053,-219.5 157.709,-219.5 178.715,-219.5"/>
<polygon fill="midnightblue" stroke="midnightblue" points="100.748,-216 90.748,-219.5 100.748,-223 100.748,-216"/>
</g>
<!-- Node8 -->
<g id="node9" class="node"><title>Node8</title>
<g id="a_node9"><a xlink:href="interface_holo_gen_1_1_hierarchy_1_1_hierarchy_1_1_i_has_tool_tip.html" target="_top" xlink:title="Interface implemented by any classes that have a ToolTip property. ">
<polygon fill="white" stroke="black" points="26,-172 26,-191 93,-191 93,-172 26,-172"/>
<text text-anchor="middle" x="59.5" y="-179" font-family="Helvetica,sans-Serif" font-size="10.00">IHasToolTip</text>
</a>
</g>
</g>
<!-- Node8&#45;&gt;Node5 -->
<g id="edge8" class="edge"><title>Node8&#45;&gt;Node5</title>
<path fill="none" stroke="midnightblue" d="M103.113,-192.984C127.947,-199.677 158.285,-207.853 178.65,-213.342"/>
<polygon fill="midnightblue" stroke="midnightblue" points="103.769,-189.536 93.2026,-190.313 101.947,-196.295 103.769,-189.536"/>
</g>
<!-- Node9 -->
<g id="node10" class="node"><title>Node9</title>
<g id="a_node10"><a xlink:href="interface_holo_gen_1_1_hierarchy_1_1_hierarchy_1_1_i_can_enable.html" target="_top" xlink:title="Interface implemented by any classes that can be enabled Enabled. ">
<polygon fill="white" stroke="black" points="26.5,-134 26.5,-153 92.5,-153 92.5,-134 26.5,-134"/>
<text text-anchor="middle" x="59.5" y="-141" font-family="Helvetica,sans-Serif" font-size="10.00">ICanEnable</text>
</a>
</g>
</g>
<!-- Node9&#45;&gt;Node5 -->
<g id="edge9" class="edge"><title>Node9&#45;&gt;Node5</title>
<path fill="none" stroke="midnightblue" d="M102.294,-155.42C108.013,-157.526 113.727,-159.892 119,-162.5 146.152,-175.929 174.507,-197.436 189.886,-209.835"/>
<polygon fill="midnightblue" stroke="midnightblue" points="103.335,-152.076 92.7398,-152.122 101.051,-158.693 103.335,-152.076"/>
</g>
<!-- Node10 -->
<g id="node11" class="node"><title>Node10</title>
<g id="a_node11"><a xlink:href="interface_holo_gen_1_1_hierarchy_1_1_hierarchy_1_1_i_can_reset.html" target="_top" xlink:title="Interface implemented by any classes that can be reset. ">
<polygon fill="white" stroke="black" points="28.5,-96 28.5,-115 90.5,-115 90.5,-96 28.5,-96"/>
<text text-anchor="middle" x="59.5" y="-103" font-family="Helvetica,sans-Serif" font-size="10.00">ICanReset</text>
</a>
</g>
</g>
<!-- Node10&#45;&gt;Node5 -->
<g id="edge11" class="edge"><title>Node10&#45;&gt;Node5</title>
<path fill="none" stroke="midnightblue" d="M100.296,-115.184C106.831,-117.669 113.317,-120.737 119,-124.5 154.516,-148.017 183.793,-190.828 195.729,-209.895"/>
<polygon fill="midnightblue" stroke="midnightblue" points="101.369,-111.852 90.7745,-111.947 99.1155,-118.48 101.369,-111.852"/>
</g>
<!-- Node11 -->
<g id="node12" class="node"><title>Node11</title>
<g id="a_node12"><a xlink:href="interface_holo_gen_1_1_hierarchy_1_1_hierarchy_1_1_i_has_watermark.html" target="_top" xlink:title="Interface implemented by any classes that have a Watermark property. ">
<polygon fill="white" stroke="black" points="492,-187 492,-206 576,-206 576,-187 492,-187"/>
<text text-anchor="middle" x="534" y="-194" font-family="Helvetica,sans-Serif" font-size="10.00">IHasWatermark</text>
</a>
</g>
</g>
<!-- Node11&#45;&gt;Node0 -->
<g id="edge12" class="edge"><title>Node11&#45;&gt;Node0</title>
<path fill="none" stroke="midnightblue" d="M586.299,-201.919C594.883,-202.826 603.885,-203.777 612.745,-204.712"/>
<polygon fill="midnightblue" stroke="midnightblue" points="586.385,-198.409 576.072,-200.839 585.649,-205.37 586.385,-198.409"/>
</g>
<!-- Node13 -->
<g id="node14" class="node"><title>Node13</title>
<g id="a_node14"><a xlink:href="class_holo_gen_1_1_options_1_1_output_1_1_run_1_1_show_results.html" target="_top" xlink:title="Should the process return results? ">
<polygon fill="white" stroke="black" points="994,-416.5 994,-446.5 1140,-446.5 1140,-416.5 994,-416.5"/>
<text text-anchor="start" x="1002" y="-434.5" font-family="Helvetica,sans-Serif" font-size="10.00">HoloGen.Options.Output.Run.</text>
<text text-anchor="middle" x="1067" y="-423.5" font-family="Helvetica,sans-Serif" font-size="10.00">ShowResults</text>
</a>
</g>
</g>
<!-- Node12&#45;&gt;Node13 -->
<g id="edge14" class="edge"><title>Node12&#45;&gt;Node13</title>
<path fill="none" stroke="midnightblue" d="M959.267,-418.595C970.899,-420.002 982.669,-421.425 993.933,-422.787"/>
<polygon fill="midnightblue" stroke="midnightblue" points="959.445,-415.091 949.097,-417.366 958.604,-422.041 959.445,-415.091"/>
</g>
<!-- Node14 -->
<g id="node15" class="node"><title>Node14</title>
<g id="a_node15"><a xlink:href="class_holo_gen_1_1_options_1_1_target_1_1_target_1_1_scale_target_image.html" target="_top" xlink:title="Should the target image phase be randomised? ">
<polygon fill="white" stroke="black" points="990,-367.5 990,-397.5 1144,-397.5 1144,-367.5 990,-367.5"/>
<text text-anchor="start" x="998" y="-385.5" font-family="Helvetica,sans-Serif" font-size="10.00">HoloGen.Options.Target.Target.</text>
<text text-anchor="middle" x="1067" y="-374.5" font-family="Helvetica,sans-Serif" font-size="10.00">ScaleTargetImage</text>
</a>
</g>
</g>
<!-- Node12&#45;&gt;Node14 -->
<g id="edge15" class="edge"><title>Node12&#45;&gt;Node14</title>
<path fill="none" stroke="midnightblue" d="M959.27,-395.942C969.494,-394.654 979.826,-393.353 989.826,-392.094"/>
<polygon fill="midnightblue" stroke="midnightblue" points="958.581,-392.501 949.097,-397.223 959.456,-399.446 958.581,-392.501"/>
</g>
</g>
</svg>
