<?xml version="1.0" encoding="UTF-8" standalone="no"?>
<!DOCTYPE svg PUBLIC "-//W3C//DTD SVG 1.1//EN"
 "http://www.w3.org/Graphics/SVG/1.1/DTD/svg11.dtd">
<!-- Generated by graphviz version 2.38.0 (20140413.2041)
 -->
<!-- Title: HoloGen.UI.Commands.SaveFileCommand.Execute Pages: 1 -->
<svg width="520pt" height="89pt"
 viewBox="0.00 0.00 520.00 88.50" xmlns="http://www.w3.org/2000/svg" xmlns:xlink="http://www.w3.org/1999/xlink">
<g id="graph0" class="graph" transform="scale(1 1) rotate(0) translate(4 84.5)">
<title>HoloGen.UI.Commands.SaveFileCommand.Execute</title>
<polygon fill="white" stroke="none" points="-4,4 -4,-84.5 516,-84.5 516,4 -4,4"/>
<!-- Node2 -->
<g id="node1" class="node"><title>Node2</title>
<polygon fill="#bfbfbf" stroke="black" points="0,-28 0,-58 143,-58 143,-28 0,-28"/>
<text text-anchor="start" x="8" y="-46" font-family="Helvetica,sans-Serif" font-size="10.00">HoloGen.UI.Commands.Save</text>
<text text-anchor="middle" x="71.5" y="-35" font-family="Helvetica,sans-Serif" font-size="10.00">FileCommand.Execute</text>
</g>
<!-- Node3 -->
<g id="node2" class="node"><title>Node3</title>
<g id="a_node2"><a xlink:href="class_holo_gen_1_1_u_i_1_1_utils_1_1_tab_handler_framework.html#a44d3e2cdde5c80b9278faf280df91673" target="_top" xlink:title="HoloGen.UI.Utils.TabHandler\lFramework.GetActiveHandler">
<polygon fill="white" stroke="black" points="363.5,-50 363.5,-80 506.5,-80 506.5,-50 363.5,-50"/>
<text text-anchor="start" x="371.5" y="-68" font-family="Helvetica,sans-Serif" font-size="10.00">HoloGen.UI.Utils.TabHandler</text>
<text text-anchor="middle" x="435" y="-57" font-family="Helvetica,sans-Serif" font-size="10.00">Framework.GetActiveHandler</text>
</a>
</g>
</g>
<!-- Node2&#45;&gt;Node3 -->
<g id="edge1" class="edge"><title>Node2&#45;&gt;Node3</title>
<path fill="none" stroke="midnightblue" d="M125.707,-58.0281C142.602,-62.1134 161.455,-65.9683 179,-68 237.015,-74.718 302.948,-73.7161 353.236,-71.1664"/>
<polygon fill="midnightblue" stroke="midnightblue" points="353.601,-74.6519 363.399,-70.6195 353.225,-67.6621 353.601,-74.6519"/>
</g>
<!-- Node4 -->
<g id="node3" class="node"><title>Node4</title>
<g id="a_node3"><a xlink:href="class_holo_gen_1_1_u_i_1_1_commands_1_1_save_as_file_command.html#ad1d417e46f827af8930d4cdbe55fdbfa" target="_top" xlink:title="HoloGen.UI.Commands.Save\lAsFileCommand.Execute">
<polygon fill="white" stroke="black" points="179,-28 179,-58 322,-58 322,-28 179,-28"/>
<text text-anchor="start" x="187" y="-46" font-family="Helvetica,sans-Serif" font-size="10.00">HoloGen.UI.Commands.Save</text>
<text text-anchor="middle" x="250.5" y="-35" font-family="Helvetica,sans-Serif" font-size="10.00">AsFileCommand.Execute</text>
</a>
</g>
</g>
<!-- Node2&#45;&gt;Node4 -->
<g id="edge2" class="edge"><title>Node2&#45;&gt;Node4</title>
<path fill="none" stroke="midnightblue" d="M143.218,-43C151.57,-43 160.142,-43 168.62,-43"/>
<polygon fill="midnightblue" stroke="midnightblue" points="168.894,-46.5001 178.894,-43 168.894,-39.5001 168.894,-46.5001"/>
</g>
<!-- Node5 -->
<g id="node4" class="node"><title>Node5</title>
<g id="a_node4"><a xlink:href="class_holo_gen_1_1_i_o_1_1_json_file_saver.html#a3e1c17caeef6086498fbfb3219d90e4e" target="_top" xlink:title="HoloGen.IO.JsonFileSaver.Save">
<polygon fill="white" stroke="black" points="358,-0.5 358,-19.5 512,-19.5 512,-0.5 358,-0.5"/>
<text text-anchor="middle" x="435" y="-7.5" font-family="Helvetica,sans-Serif" font-size="10.00">HoloGen.IO.JsonFileSaver.Save</text>
</a>
</g>
</g>
<!-- Node2&#45;&gt;Node5 -->
<g id="edge5" class="edge"><title>Node2&#45;&gt;Node5</title>
<path fill="none" stroke="midnightblue" d="M127.115,-27.9783C143.657,-24.0265 161.959,-20.2446 179,-18 234.873,-10.6405 298.197,-8.62034 347.763,-8.45004"/>
<polygon fill="midnightblue" stroke="midnightblue" points="347.809,-11.9501 357.805,-8.44004 347.802,-4.9501 347.809,-11.9501"/>
</g>
<!-- Node4&#45;&gt;Node3 -->
<g id="edge3" class="edge"><title>Node4&#45;&gt;Node3</title>
<path fill="none" stroke="midnightblue" d="M322.059,-51.5058C332.321,-52.7428 342.951,-54.0242 353.392,-55.2829"/>
<polygon fill="midnightblue" stroke="midnightblue" points="352.98,-58.7585 363.327,-56.4806 353.818,-51.8088 352.98,-58.7585"/>
</g>
<!-- Node4&#45;&gt;Node5 -->
<g id="edge4" class="edge"><title>Node4&#45;&gt;Node5</title>
<path fill="none" stroke="midnightblue" d="M322.059,-30.2413C338.268,-27.3104 355.397,-24.2131 371.25,-21.3465"/>
<polygon fill="midnightblue" stroke="midnightblue" points="372.244,-24.7238 381.461,-19.5002 370.998,-17.8355 372.244,-24.7238"/>
</g>
</g>
</svg>
