<?xml version="1.0" encoding="UTF-8" standalone="no"?>
<!DOCTYPE svg PUBLIC "-//W3C//DTD SVG 1.1//EN"
 "http://www.w3.org/Graphics/SVG/1.1/DTD/svg11.dtd">
<!-- Generated by graphviz version 2.38.0 (20140413.2041)
 -->
<!-- Title: HoloGen.UI.Menus.Theme.AccentColorMenuData Pages: 1 -->
<svg width="172pt" height="218pt"
 viewBox="0.00 0.00 172.00 218.00" xmlns="http://www.w3.org/2000/svg" xmlns:xlink="http://www.w3.org/1999/xlink">
<g id="graph0" class="graph" transform="scale(1 1) rotate(0) translate(4 214)">
<title>HoloGen.UI.Menus.Theme.AccentColorMenuData</title>
<polygon fill="white" stroke="none" points="-4,4 -4,-214 168,-214 168,4 -4,4"/>
<!-- Node0 -->
<g id="node1" class="node"><title>Node0</title>
<polygon fill="#bfbfbf" stroke="black" points="0,-67.5 0,-97.5 164,-97.5 164,-67.5 0,-67.5"/>
<text text-anchor="start" x="8" y="-85.5" font-family="Helvetica,sans-Serif" font-size="10.00">HoloGen.UI.Menus.Theme.Accent</text>
<text text-anchor="middle" x="82" y="-74.5" font-family="Helvetica,sans-Serif" font-size="10.00">ColorMenuData</text>
</g>
<!-- Node3 -->
<g id="node4" class="node"><title>Node3</title>
<g id="a_node4"><a xlink:href="class_holo_gen_1_1_u_i_1_1_menus_1_1_theme_1_1_app_theme_menu_data.html" target="_top" xlink:title="Data for the application theme information. ">
<polygon fill="white" stroke="black" points="6.5,-0.5 6.5,-30.5 157.5,-30.5 157.5,-0.5 6.5,-0.5"/>
<text text-anchor="start" x="14.5" y="-18.5" font-family="Helvetica,sans-Serif" font-size="10.00">HoloGen.UI.Menus.Theme.App</text>
<text text-anchor="middle" x="82" y="-7.5" font-family="Helvetica,sans-Serif" font-size="10.00">ThemeMenuData</text>
</a>
</g>
</g>
<!-- Node0&#45;&gt;Node3 -->
<g id="edge3" class="edge"><title>Node0&#45;&gt;Node3</title>
<path fill="none" stroke="midnightblue" d="M82,-57.1081C82,-48.1539 82,-38.3227 82,-30.5765"/>
<polygon fill="midnightblue" stroke="midnightblue" points="78.5001,-57.3959 82,-67.396 85.5001,-57.396 78.5001,-57.3959"/>
</g>
<!-- Node1 -->
<g id="node2" class="node"><title>Node1</title>
<g id="a_node2"><a xlink:href="class_holo_gen_1_1_utils_1_1_observable_object.html" target="_top" xlink:title="Observable object with INotifyPropertyChanged implemented ">
<polygon fill="white" stroke="black" points="35.5,-134.5 35.5,-153.5 128.5,-153.5 128.5,-134.5 35.5,-134.5"/>
<text text-anchor="middle" x="82" y="-141.5" font-family="Helvetica,sans-Serif" font-size="10.00">ObservableObject</text>
</a>
</g>
</g>
<!-- Node1&#45;&gt;Node0 -->
<g id="edge1" class="edge"><title>Node1&#45;&gt;Node0</title>
<path fill="none" stroke="midnightblue" d="M82,-124.235C82,-115.586 82,-105.497 82,-97.523"/>
<polygon fill="midnightblue" stroke="midnightblue" points="78.5001,-124.475 82,-134.475 85.5001,-124.475 78.5001,-124.475"/>
</g>
<!-- Node2 -->
<g id="node3" class="node"><title>Node2</title>
<polygon fill="white" stroke="#bfbfbf" points="22.5,-190.5 22.5,-209.5 141.5,-209.5 141.5,-190.5 22.5,-190.5"/>
<text text-anchor="middle" x="82" y="-197.5" font-family="Helvetica,sans-Serif" font-size="10.00">INotifyPropertyChanged</text>
</g>
<!-- Node2&#45;&gt;Node1 -->
<g id="edge2" class="edge"><title>Node2&#45;&gt;Node1</title>
<path fill="none" stroke="midnightblue" d="M82,-179.805C82,-170.91 82,-160.78 82,-153.751"/>
<polygon fill="midnightblue" stroke="midnightblue" points="78.5001,-180.083 82,-190.083 85.5001,-180.083 78.5001,-180.083"/>
</g>
</g>
</svg>
