<?xml version="1.0" encoding="UTF-8" standalone="no"?>
<!DOCTYPE svg PUBLIC "-//W3C//DTD SVG 1.1//EN"
 "http://www.w3.org/Graphics/SVG/1.1/DTD/svg11.dtd">
<!-- Generated by graphviz version 2.38.0 (20140413.2041)
 -->
<!-- Title: HoloGen.UI.Menus.Views.AccentMenuView Pages: 1 -->
<svg width="257pt" height="288pt"
 viewBox="0.00 0.00 257.00 288.00" xmlns="http://www.w3.org/2000/svg" xmlns:xlink="http://www.w3.org/1999/xlink">
<g id="graph0" class="graph" transform="scale(1 1) rotate(0) translate(4 284)">
<title>HoloGen.UI.Menus.Views.AccentMenuView</title>
<polygon fill="white" stroke="none" points="-4,4 -4,-284 253,-284 253,4 -4,4"/>
<!-- Node2 -->
<g id="node1" class="node"><title>Node2</title>
<polygon fill="#bfbfbf" stroke="black" points="0,-0.5 0,-30.5 161,-30.5 161,-0.5 0,-0.5"/>
<text text-anchor="start" x="8" y="-18.5" font-family="Helvetica,sans-Serif" font-size="10.00">HoloGen.UI.Menus.Views.Accent</text>
<text text-anchor="middle" x="80.5" y="-7.5" font-family="Helvetica,sans-Serif" font-size="10.00">MenuView</text>
</g>
<!-- Node3 -->
<g id="node2" class="node"><title>Node3</title>
<polygon fill="white" stroke="#bfbfbf" points="5.5,-84 5.5,-103 73.5,-103 73.5,-84 5.5,-84"/>
<text text-anchor="middle" x="39.5" y="-91" font-family="Helvetica,sans-Serif" font-size="10.00">UserControl</text>
</g>
<!-- Node3&#45;&gt;Node2 -->
<g id="edge1" class="edge"><title>Node3&#45;&gt;Node2</title>
<path fill="none" stroke="midnightblue" d="M48.955,-74.9736C56.239,-61.4715 66.1753,-43.0531 72.9367,-30.5198"/>
<polygon fill="midnightblue" stroke="midnightblue" points="45.8708,-73.319 44.2032,-83.7818 52.0315,-76.6426 45.8708,-73.319"/>
</g>
<!-- Node4 -->
<g id="node3" class="node"><title>Node4</title>
<g id="a_node3"><a xlink:href="class_holo_gen_1_1_u_i_1_1_menus_1_1_view_models_1_1_accent_menu_view_model.html" target="_top" xlink:title="HoloGen menu view model ">
<polygon fill="white" stroke="black" points="92,-78.5 92,-108.5 249,-108.5 249,-78.5 92,-78.5"/>
<text text-anchor="start" x="100" y="-96.5" font-family="Helvetica,sans-Serif" font-size="10.00">HoloGen.UI.Menus.ViewModels.</text>
<text text-anchor="middle" x="170.5" y="-85.5" font-family="Helvetica,sans-Serif" font-size="10.00">AccentMenuViewModel</text>
</a>
</g>
</g>
<!-- Node4&#45;&gt;Node2 -->
<g id="edge2" class="edge"><title>Node4&#45;&gt;Node2</title>
<path fill="none" stroke="#9a32cd" stroke-dasharray="5,2" d="M145.506,-71.3941C130.157,-58.4322 110.908,-42.1775 97.3524,-30.7309"/>
<polygon fill="#9a32cd" stroke="#9a32cd" points="143.673,-74.4273 153.572,-78.205 148.19,-69.079 143.673,-74.4273"/>
<text text-anchor="middle" x="156" y="-52" font-family="Helvetica,sans-Serif" font-size="10.00"> ViewModel</text>
</g>
<!-- Node5 -->
<g id="node4" class="node"><title>Node5</title>
<g id="a_node4"><a xlink:href="class_holo_gen_1_1_u_i_1_1_menus_1_1_view_models_1_1_abstract_menu_view_model.html" target="_top" xlink:title="HoloGen menu view model ">
<polygon fill="white" stroke="black" points="108,-146.5 108,-165.5 233,-165.5 233,-146.5 108,-146.5"/>
<text text-anchor="middle" x="170.5" y="-153.5" font-family="Helvetica,sans-Serif" font-size="10.00">AbstractMenuViewModel</text>
</a>
</g>
</g>
<!-- Node5&#45;&gt;Node4 -->
<g id="edge3" class="edge"><title>Node5&#45;&gt;Node4</title>
<path fill="none" stroke="midnightblue" d="M170.5,-136.215C170.5,-127.356 170.5,-116.958 170.5,-108.759"/>
<polygon fill="midnightblue" stroke="midnightblue" points="167,-136.332 170.5,-146.332 174,-136.332 167,-136.332"/>
</g>
<!-- Node6 -->
<g id="node5" class="node"><title>Node6</title>
<g id="a_node5"><a xlink:href="class_holo_gen_1_1_utils_1_1_observable_object.html" target="_top" xlink:title="Observable object with INotifyPropertyChanged implemented ">
<polygon fill="white" stroke="black" points="124,-203.5 124,-222.5 217,-222.5 217,-203.5 124,-203.5"/>
<text text-anchor="middle" x="170.5" y="-210.5" font-family="Helvetica,sans-Serif" font-size="10.00">ObservableObject</text>
</a>
</g>
</g>
<!-- Node6&#45;&gt;Node5 -->
<g id="edge4" class="edge"><title>Node6&#45;&gt;Node5</title>
<path fill="none" stroke="midnightblue" d="M170.5,-193.117C170.5,-183.817 170.5,-173.056 170.5,-165.715"/>
<polygon fill="midnightblue" stroke="midnightblue" points="167,-193.406 170.5,-203.406 174,-193.406 167,-193.406"/>
</g>
<!-- Node7 -->
<g id="node6" class="node"><title>Node7</title>
<polygon fill="white" stroke="#bfbfbf" points="111,-260.5 111,-279.5 230,-279.5 230,-260.5 111,-260.5"/>
<text text-anchor="middle" x="170.5" y="-267.5" font-family="Helvetica,sans-Serif" font-size="10.00">INotifyPropertyChanged</text>
</g>
<!-- Node7&#45;&gt;Node6 -->
<g id="edge5" class="edge"><title>Node7&#45;&gt;Node6</title>
<path fill="none" stroke="midnightblue" d="M170.5,-250.117C170.5,-240.817 170.5,-230.056 170.5,-222.715"/>
<polygon fill="midnightblue" stroke="midnightblue" points="167,-250.406 170.5,-260.406 174,-250.406 167,-250.406"/>
</g>
</g>
</svg>
