<?xml version="1.0" encoding="UTF-8" standalone="no"?>
<!DOCTYPE svg PUBLIC "-//W3C//DTD SVG 1.1//EN"
 "http://www.w3.org/Graphics/SVG/1.1/DTD/svg11.dtd">
<!-- Generated by graphviz version 2.38.0 (20140413.2041)
 -->
<!-- Title: HoloGen.Options.Target.Region.RegionFile Pages: 1 -->
<!--zoomable 411 -->
<svg id="main" version="1.1" xmlns="http://www.w3.org/2000/svg" xmlns:xlink="http://www.w3.org/1999/xlink" xml:space="preserve" onload="init(evt)">
<style type="text/css"><![CDATA[
.edge:hover path { stroke: red; }
.edge:hover polygon { stroke: red; fill: red; }
]]></style>
<script type="text/javascript"><![CDATA[
var edges = document.getElementsByTagName('g');
if (edges && edges.length) {
  for (var i=0;i<edges.length;i++) {
    if (edges[i].id.substr(0,4)=='edge') {
      edges[i].setAttribute('class','edge');
    }
  }
}
]]></script>
        <defs>
                <circle id="rim" cx="0" cy="0" r="7"/>
                <circle id="rim2" cx="0" cy="0" r="3.5"/>
                <g id="zoomPlus">
                        <use xlink:href="#rim" fill="#404040">
                                <set attributeName="fill" to="#808080" begin="zoomplus.mouseover" end="zoomplus.mouseout"/>
                        </use>
                        <path d="M-4,0h8M0,-4v8" fill="none" stroke="white" stroke-width="1.5" pointer-events="none"/>
                </g>
                <g id="zoomMin">
                        <use xlink:href="#rim" fill="#404040">
                                <set attributeName="fill" to="#808080" begin="zoomminus.mouseover" end="zoomminus.mouseout"/>
                        </use>
                        <path d="M-4,0h8" fill="none" stroke="white" stroke-width="1.5" pointer-events="none"/>
                </g>
                <g id="dirArrow">
                        <path fill="none" stroke="white" stroke-width="1.5" d="M0,-3.0v7 M-2.5,-0.5L0,-3.0L2.5,-0.5"/>
                </g>
               <g id="resetDef">
                       <use xlink:href="#rim2" fill="#404040">
                               <set attributeName="fill" to="#808080" begin="reset.mouseover" end="reset.mouseout"/>
                       </use>
               </g>
        </defs>

<script type="text/javascript">
var viewWidth = 533;
var viewHeight = 411;
var sectionId = 'dynsection-1';
</script>
<script xlink:href="svgpan.js"/>
<svg id="graph" class="graph">
<g id="viewport">
<title>HoloGen.Options.Target.Region.RegionFile</title>
<polygon fill="white" stroke="none" points="-4,4 -4,-407 528.5,-407 528.5,4 -4,4"/>
<!-- Node15 -->
<g id="node1" class="node"><title>Node15</title>
<polygon fill="#bfbfbf" stroke="black" points="160,-0.5 160,-30.5 317,-30.5 317,-0.5 160,-0.5"/>
<text text-anchor="start" x="168" y="-18.5" font-family="Helvetica,sans-Serif" font-size="10.00">HoloGen.Options.Target.Region.</text>
<text text-anchor="middle" x="238.5" y="-7.5" font-family="Helvetica,sans-Serif" font-size="10.00">RegionFile</text>
</g>
<!-- Node16 -->
<g id="node2" class="node"><title>Node16</title>
<g id="a_node2"><a xlink:href="class_holo_gen_1_1_options_1_1_image_path_option.html" target="_top" xlink:title="Base level option that points to an image path ">
<polygon fill="white" stroke="black" points="192.5,-68.5 192.5,-87.5 284.5,-87.5 284.5,-68.5 192.5,-68.5"/>
<text text-anchor="middle" x="238.5" y="-75.5" font-family="Helvetica,sans-Serif" font-size="10.00">ImagePathOption</text>
</a>
</g>
</g>
<!-- Node16&#45;&gt;Node15 -->
<g id="edge1" class="edge"><title>Node16&#45;&gt;Node15</title>
<path fill="none" stroke="midnightblue" d="M238.5,-58.2154C238.5,-49.3565 238.5,-38.9577 238.5,-30.7587"/>
<polygon fill="midnightblue" stroke="midnightblue" points="235,-58.3318 238.5,-68.3318 242,-58.3319 235,-58.3318"/>
</g>
<!-- Node17 -->
<g id="node3" class="node"><title>Node17</title>
<g id="a_node3"><a xlink:href="class_holo_gen_1_1_hierarchy_1_1_option_types_1_1_path_option.html" target="_top" xlink:title="Extends Option wrapping a FileInfo parameter. Implements ILargeOption. This tells HierarchyFolder tha...">
<polygon fill="white" stroke="black" points="206,-125.5 206,-144.5 271,-144.5 271,-125.5 206,-125.5"/>
<text text-anchor="middle" x="238.5" y="-132.5" font-family="Helvetica,sans-Serif" font-size="10.00">PathOption</text>
</a>
</g>
</g>
<!-- Node17&#45;&gt;Node16 -->
<g id="edge2" class="edge"><title>Node17&#45;&gt;Node16</title>
<path fill="none" stroke="midnightblue" d="M238.5,-115.117C238.5,-105.817 238.5,-95.0557 238.5,-87.7149"/>
<polygon fill="midnightblue" stroke="midnightblue" points="235,-115.406 238.5,-125.406 242,-115.406 235,-115.406"/>
</g>
<!-- Node18 -->
<g id="node4" class="node"><title>Node18</title>
<g id="a_node4"><a xlink:href="class_holo_gen_1_1_hierarchy_1_1_option_types_1_1_option.html" target="_top" xlink:title="Option\&lt; FileInfo \&gt;">
<polygon fill="white" stroke="black" points="107.5,-182.5 107.5,-201.5 201.5,-201.5 201.5,-182.5 107.5,-182.5"/>
<text text-anchor="middle" x="154.5" y="-189.5" font-family="Helvetica,sans-Serif" font-size="10.00">Option&lt; FileInfo &gt;</text>
</a>
</g>
</g>
<!-- Node18&#45;&gt;Node17 -->
<g id="edge3" class="edge"><title>Node18&#45;&gt;Node17</title>
<path fill="none" stroke="midnightblue" d="M176.15,-176.824C191.758,-166.605 212.31,-153.148 225.467,-144.533"/>
<polygon fill="midnightblue" stroke="midnightblue" points="174.074,-174 167.625,-182.406 177.908,-179.857 174.074,-174"/>
</g>
<!-- Node19 -->
<g id="node5" class="node"><title>Node19</title>
<g id="a_node5"><a xlink:href="class_holo_gen_1_1_hierarchy_1_1_option_types_1_1_option.html" target="_top" xlink:title="Root hierarchy element. Defines Name and ToolTip fields that must be implemented by any implementors...">
<polygon fill="white" stroke="black" points="85.5,-258.5 85.5,-288.5 215.5,-288.5 215.5,-258.5 85.5,-258.5"/>
<text text-anchor="start" x="93.5" y="-276.5" font-family="Helvetica,sans-Serif" font-size="10.00">HoloGen.Hierarchy.Option</text>
<text text-anchor="middle" x="150.5" y="-265.5" font-family="Helvetica,sans-Serif" font-size="10.00">Types.Option&lt; T &gt;</text>
</a>
</g>
</g>
<!-- Node19&#45;&gt;Node18 -->
<g id="edge4" class="edge"><title>Node19&#45;&gt;Node18</title>
<path fill="none" stroke="orange" stroke-dasharray="5,2" d="M146.418,-248.104C145.518,-239.227 145.175,-229.133 146.5,-220 147.398,-213.807 149.398,-207.057 151.174,-201.855"/>
<polygon fill="orange" stroke="orange" points="142.967,-248.712 147.718,-258.182 149.91,-247.816 142.967,-248.712"/>
<text text-anchor="middle" x="172.5" y="-227.5" font-family="Helvetica,sans-Serif" font-size="10.00"> &lt; FileInfo &gt;</text>
</g>
<!-- Node20 -->
<g id="node6" class="node"><title>Node20</title>
<g id="a_node6"><a xlink:href="class_holo_gen_1_1_utils_1_1_observable_object.html" target="_top" xlink:title="Observable object with INotifyPropertyChanged implemented ">
<polygon fill="white" stroke="black" points="36,-326.5 36,-345.5 129,-345.5 129,-326.5 36,-326.5"/>
<text text-anchor="middle" x="82.5" y="-333.5" font-family="Helvetica,sans-Serif" font-size="10.00">ObservableObject</text>
</a>
</g>
</g>
<!-- Node20&#45;&gt;Node19 -->
<g id="edge5" class="edge"><title>Node20&#45;&gt;Node19</title>
<path fill="none" stroke="midnightblue" d="M99.7871,-319.62C110.545,-310.048 124.275,-297.832 134.735,-288.526"/>
<polygon fill="midnightblue" stroke="midnightblue" points="97.3874,-317.07 92.2427,-326.332 102.04,-322.3 97.3874,-317.07"/>
</g>
<!-- Node21 -->
<g id="node7" class="node"><title>Node21</title>
<polygon fill="white" stroke="#bfbfbf" points="0,-383.5 0,-402.5 119,-402.5 119,-383.5 0,-383.5"/>
<text text-anchor="middle" x="59.5" y="-390.5" font-family="Helvetica,sans-Serif" font-size="10.00">INotifyPropertyChanged</text>
</g>
<!-- Node21&#45;&gt;Node20 -->
<g id="edge6" class="edge"><title>Node21&#45;&gt;Node20</title>
<path fill="none" stroke="midnightblue" d="M67.0141,-374.031C70.9872,-364.531 75.6846,-353.298 78.8556,-345.715"/>
<polygon fill="midnightblue" stroke="midnightblue" points="63.7228,-372.83 63.0938,-383.406 70.1809,-375.531 63.7228,-372.83"/>
</g>
<!-- Node22 -->
<g id="node8" class="node"><title>Node22</title>
<g id="a_node8"><a xlink:href="interface_holo_gen_1_1_hierarchy_1_1_option_types_1_1_i_option.html" target="_top" xlink:title="Base interface for the Option that doesn&#39;t need a template parameter. Necessary for a number of refle...">
<polygon fill="white" stroke="black" points="220,-326.5 220,-345.5 267,-345.5 267,-326.5 220,-326.5"/>
<text text-anchor="middle" x="243.5" y="-333.5" font-family="Helvetica,sans-Serif" font-size="10.00">IOption</text>
</a>
</g>
</g>
<!-- Node21&#45;&gt;Node22 -->
<g id="edge12" class="edge"><title>Node21&#45;&gt;Node22</title>
<path fill="none" stroke="midnightblue" d="M98.1346,-380.452C134.938,-369.451 189.156,-353.244 219.916,-344.05"/>
<polygon fill="midnightblue" stroke="midnightblue" points="96.8287,-377.189 88.25,-383.406 98.8335,-383.896 96.8287,-377.189"/>
</g>
<!-- Node22&#45;&gt;Node19 -->
<g id="edge7" class="edge"><title>Node22&#45;&gt;Node19</title>
<path fill="none" stroke="midnightblue" d="M221.569,-320.733C206.623,-311.01 186.927,-298.197 172.061,-288.526"/>
<polygon fill="midnightblue" stroke="midnightblue" points="219.884,-323.813 230.175,-326.332 223.702,-317.945 219.884,-323.813"/>
</g>
<!-- Node29 -->
<g id="node15" class="node"><title>Node29</title>
<g id="a_node15"><a xlink:href="interface_holo_gen_1_1_hierarchy_1_1_option_types_1_1_i_large_option.html" target="_top" xlink:title="Implements the IOption interface and is implemented by any Option extensions that want to be picked u...">
<polygon fill="white" stroke="black" points="208,-220.5 208,-239.5 279,-239.5 279,-220.5 208,-220.5"/>
<text text-anchor="middle" x="243.5" y="-227.5" font-family="Helvetica,sans-Serif" font-size="10.00">ILargeOption</text>
</a>
</g>
</g>
<!-- Node22&#45;&gt;Node29 -->
<g id="edge16" class="edge"><title>Node22&#45;&gt;Node29</title>
<path fill="none" stroke="midnightblue" d="M243.5,-316.434C243.5,-293.774 243.5,-256.408 243.5,-239.628"/>
<polygon fill="midnightblue" stroke="midnightblue" points="240,-316.489 243.5,-326.489 247,-316.489 240,-316.489"/>
</g>
<!-- Node23 -->
<g id="node9" class="node"><title>Node23</title>
<g id="a_node9"><a xlink:href="interface_holo_gen_1_1_hierarchy_1_1_hierarchy_1_1_i_can_error.html" target="_top" xlink:title="Interface implemented by any classes that can be in an error state. Defines the Valid property that c...">
<polygon fill="white" stroke="black" points="137,-383.5 137,-402.5 194,-402.5 194,-383.5 137,-383.5"/>
<text text-anchor="middle" x="165.5" y="-390.5" font-family="Helvetica,sans-Serif" font-size="10.00">ICanError</text>
</a>
</g>
</g>
<!-- Node23&#45;&gt;Node22 -->
<g id="edge8" class="edge"><title>Node23&#45;&gt;Node22</title>
<path fill="none" stroke="midnightblue" d="M186.011,-377.537C200.453,-367.354 219.295,-354.068 231.398,-345.533"/>
<polygon fill="midnightblue" stroke="midnightblue" points="183.843,-374.783 177.688,-383.406 187.877,-380.504 183.843,-374.783"/>
</g>
<!-- Node24 -->
<g id="node10" class="node"><title>Node24</title>
<g id="a_node10"><a xlink:href="interface_holo_gen_1_1_hierarchy_1_1_hierarchy_1_1_i_has_name.html" target="_top" xlink:title="Interface implemented by any classes that have a Name property. ">
<polygon fill="white" stroke="black" points="212.5,-383.5 212.5,-402.5 274.5,-402.5 274.5,-383.5 212.5,-383.5"/>
<text text-anchor="middle" x="243.5" y="-390.5" font-family="Helvetica,sans-Serif" font-size="10.00">IHasName</text>
</a>
</g>
</g>
<!-- Node24&#45;&gt;Node22 -->
<g id="edge9" class="edge"><title>Node24&#45;&gt;Node22</title>
<path fill="none" stroke="midnightblue" d="M243.5,-373.117C243.5,-363.817 243.5,-353.056 243.5,-345.715"/>
<polygon fill="midnightblue" stroke="midnightblue" points="240,-373.406 243.5,-383.406 247,-373.406 240,-373.406"/>
</g>
<!-- Node25 -->
<g id="node11" class="node"><title>Node25</title>
<g id="a_node11"><a xlink:href="interface_holo_gen_1_1_hierarchy_1_1_hierarchy_1_1_i_has_tool_tip.html" target="_top" xlink:title="Interface implemented by any classes that have a ToolTip property. ">
<polygon fill="white" stroke="black" points="293,-383.5 293,-402.5 360,-402.5 360,-383.5 293,-383.5"/>
<text text-anchor="middle" x="326.5" y="-390.5" font-family="Helvetica,sans-Serif" font-size="10.00">IHasToolTip</text>
</a>
</g>
</g>
<!-- Node25&#45;&gt;Node22 -->
<g id="edge10" class="edge"><title>Node25&#45;&gt;Node22</title>
<path fill="none" stroke="midnightblue" d="M305.108,-377.824C289.686,-367.605 269.378,-354.148 256.378,-345.533"/>
<polygon fill="midnightblue" stroke="midnightblue" points="303.262,-380.8 313.531,-383.406 307.129,-374.965 303.262,-380.8"/>
</g>
<!-- Node26 -->
<g id="node12" class="node"><title>Node26</title>
<g id="a_node12"><a xlink:href="interface_holo_gen_1_1_hierarchy_1_1_hierarchy_1_1_i_can_enable.html" target="_top" xlink:title="Interface implemented by any classes that can be enabled Enabled. ">
<polygon fill="white" stroke="black" points="378.5,-383.5 378.5,-402.5 444.5,-402.5 444.5,-383.5 378.5,-383.5"/>
<text text-anchor="middle" x="411.5" y="-390.5" font-family="Helvetica,sans-Serif" font-size="10.00">ICanEnable</text>
</a>
</g>
</g>
<!-- Node26&#45;&gt;Node22 -->
<g id="edge11" class="edge"><title>Node26&#45;&gt;Node22</title>
<path fill="none" stroke="midnightblue" d="M375.592,-380.244C342.827,-369.518 295.341,-353.972 267.125,-344.734"/>
<polygon fill="midnightblue" stroke="midnightblue" points="374.657,-383.621 385.25,-383.406 376.835,-376.969 374.657,-383.621"/>
</g>
<!-- Node27 -->
<g id="node13" class="node"><title>Node27</title>
<g id="a_node13"><a xlink:href="interface_holo_gen_1_1_hierarchy_1_1_hierarchy_1_1_i_can_reset.html" target="_top" xlink:title="Interface implemented by any classes that can be reset. ">
<polygon fill="white" stroke="black" points="462.5,-383.5 462.5,-402.5 524.5,-402.5 524.5,-383.5 462.5,-383.5"/>
<text text-anchor="middle" x="493.5" y="-390.5" font-family="Helvetica,sans-Serif" font-size="10.00">ICanReset</text>
</a>
</g>
</g>
<!-- Node27&#45;&gt;Node22 -->
<g id="edge13" class="edge"><title>Node27&#45;&gt;Node22</title>
<path fill="none" stroke="midnightblue" d="M452.608,-382.811C379.121,-366.514 304.341,-350.219 267.13,-342.13"/>
<polygon fill="midnightblue" stroke="midnightblue" points="451.974,-386.256 462.495,-385.006 453.491,-379.422 451.974,-386.256"/>
</g>
<!-- Node28 -->
<g id="node14" class="node"><title>Node28</title>
<g id="a_node14"><a xlink:href="interface_holo_gen_1_1_hierarchy_1_1_hierarchy_1_1_i_has_watermark.html" target="_top" xlink:title="Interface implemented by any classes that have a Watermark property. ">
<polygon fill="white" stroke="black" points="266.5,-182.5 266.5,-201.5 350.5,-201.5 350.5,-182.5 266.5,-182.5"/>
<text text-anchor="middle" x="308.5" y="-189.5" font-family="Helvetica,sans-Serif" font-size="10.00">IHasWatermark</text>
</a>
</g>
</g>
<!-- Node28&#45;&gt;Node17 -->
<g id="edge14" class="edge"><title>Node28&#45;&gt;Node17</title>
<path fill="none" stroke="midnightblue" d="M289.407,-175.998C276.633,-165.962 260.269,-153.104 249.592,-144.715"/>
<polygon fill="midnightblue" stroke="midnightblue" points="287.537,-178.98 297.563,-182.406 291.862,-173.476 287.537,-178.98"/>
</g>
<!-- Node29&#45;&gt;Node17 -->
<g id="edge15" class="edge"><title>Node29&#45;&gt;Node17</title>
<path fill="none" stroke="midnightblue" d="M242.497,-210.343C241.421,-190.331 239.759,-159.426 238.96,-144.562"/>
<polygon fill="midnightblue" stroke="midnightblue" points="239.007,-210.62 243.039,-220.417 245.997,-210.244 239.007,-210.62"/>
</g>
</g>
</svg>
        <g id="navigator" transform="translate(0 0)" fill="#404254">
                <rect fill="#f2f5e9" fill-opacity="0.5" stroke="#606060" stroke-width=".5" x="0" y="0" width="60" height="60"/>
                <use id="zoomplus" xlink:href="#zoomPlus" x="17" y="9" onmousedown="handleZoom(evt,'in')"/>
                <use id="zoomminus" xlink:href="#zoomMin" x="42" y="9" onmousedown="handleZoom(evt,'out')"/>
                <use id="reset" xlink:href="#resetDef" x="30" y="36" onmousedown="handleReset()"/>
                <g id="arrowUp" xlink:href="#dirArrow" transform="translate(30 24)" onmousedown="handlePan(0,-1)">
                  <use xlink:href="#rim" fill="#404040">
                        <set attributeName="fill" to="#808080" begin="arrowUp.mouseover" end="arrowUp.mouseout"/>
                  </use>
                  <path fill="none" stroke="white" stroke-width="1.5" d="M0,-3.0v7 M-2.5,-0.5L0,-3.0L2.5,-0.5"/>
                </g>
                <g id="arrowRight" xlink:href="#dirArrow" transform="rotate(90) translate(36 -43)" onmousedown="handlePan(1,0)">
                  <use xlink:href="#rim" fill="#404040">
                        <set attributeName="fill" to="#808080" begin="arrowRight.mouseover" end="arrowRight.mouseout"/>
                  </use>
                  <path fill="none" stroke="white" stroke-width="1.5" d="M0,-3.0v7 M-2.5,-0.5L0,-3.0L2.5,-0.5"/>
                </g>
                <g id="arrowDown" xlink:href="#dirArrow" transform="rotate(180) translate(-30 -48)" onmousedown="handlePan(0,1)">
                  <use xlink:href="#rim" fill="#404040">
                        <set attributeName="fill" to="#808080" begin="arrowDown.mouseover" end="arrowDown.mouseout"/>
                  </use>
                  <path fill="none" stroke="white" stroke-width="1.5" d="M0,-3.0v7 M-2.5,-0.5L0,-3.0L2.5,-0.5"/>
                </g>
                <g id="arrowLeft" xlink:href="#dirArrow" transform="rotate(270) translate(-36 17)" onmousedown="handlePan(-1,0)">
                  <use xlink:href="#rim" fill="#404040">
                        <set attributeName="fill" to="#808080" begin="arrowLeft.mouseover" end="arrowLeft.mouseout"/>
                  </use>
                  <path fill="none" stroke="white" stroke-width="1.5" d="M0,-3.0v7 M-2.5,-0.5L0,-3.0L2.5,-0.5"/>
                </g>
        </g>
        <svg viewBox="0 0 15 15" width="100%" height="30px" preserveAspectRatio="xMaxYMin meet">
         <g id="arrow_out" transform="scale(0.3 0.3)">
          <a xlink:href="class_holo_gen_1_1_options_1_1_target_1_1_region_1_1_region_file__coll__graph_org.svg" target="_base">
           <rect id="button" ry="5" rx="5" y="6" x="6" height="38" width="38"
                fill="#f2f5e9" fill-opacity="0.5" stroke="#606060" stroke-width="1.0"/>
           <path id="arrow"
             d="M 11.500037,31.436501 C 11.940474,20.09759 22.043105,11.32322 32.158766,21.979434 L 37.068811,17.246167 C 37.068811,17.246167 37.088388,32 37.088388,32 L 22.160133,31.978069 C 22.160133,31.978069 26.997745,27.140456 26.997745,27.140456 C 18.528582,18.264221 13.291696,25.230495 11.500037,31.436501 z"
             style="fill:#404040;"/>
          </a>
         </g>
        </svg>
</svg>
