<?xml version="1.0" encoding="UTF-8" standalone="no"?>
<!DOCTYPE svg PUBLIC "-//W3C//DTD SVG 1.1//EN"
 "http://www.w3.org/Graphics/SVG/1.1/DTD/svg11.dtd">
<!-- Generated by graphviz version 2.38.0 (20140413.2041)
 -->
<!-- Title: HoloGen.Hierarchy.OptionTypes.LargeTextOption Pages: 1 -->
<svg width="1096pt" height="222pt"
 viewBox="0.00 0.00 1096.00 222.00" xmlns="http://www.w3.org/2000/svg" xmlns:xlink="http://www.w3.org/1999/xlink">
<g id="graph0" class="graph" transform="scale(1 1) rotate(0) translate(4 218)">
<title>HoloGen.Hierarchy.OptionTypes.LargeTextOption</title>
<polygon fill="white" stroke="none" points="-4,4 -4,-218 1092,-218 1092,4 -4,4"/>
<!-- Node0 -->
<g id="node1" class="node"><title>Node0</title>
<polygon fill="#bfbfbf" stroke="black" points="748,-128 748,-158 878,-158 878,-128 748,-128"/>
<text text-anchor="start" x="756" y="-146" font-family="Helvetica,sans-Serif" font-size="10.00">HoloGen.Hierarchy.Option</text>
<text text-anchor="middle" x="813" y="-135" font-family="Helvetica,sans-Serif" font-size="10.00">Types.LargeTextOption</text>
</g>
<!-- Node14 -->
<g id="node15" class="node"><title>Node14</title>
<g id="a_node15"><a xlink:href="class_holo_gen_1_1_options_1_1_hardware_1_1_details_1_1_details_text.html" target="_top" xlink:title="Computer details option. ">
<polygon fill="white" stroke="black" points="933,-177 933,-207 1070,-207 1070,-177 933,-177"/>
<text text-anchor="start" x="941" y="-195" font-family="Helvetica,sans-Serif" font-size="10.00">HoloGen.Options.Hardware.</text>
<text text-anchor="middle" x="1001.5" y="-184" font-family="Helvetica,sans-Serif" font-size="10.00">Details.DetailsText</text>
</a>
</g>
</g>
<!-- Node0&#45;&gt;Node14 -->
<g id="edge16" class="edge"><title>Node0&#45;&gt;Node14</title>
<path fill="none" stroke="midnightblue" d="M881.075,-160.623C901.479,-165.984 923.702,-171.823 943.385,-176.994"/>
<polygon fill="midnightblue" stroke="midnightblue" points="881.785,-157.191 871.224,-158.035 880.006,-163.961 881.785,-157.191"/>
</g>
<!-- Node15 -->
<g id="node16" class="node"><title>Node15</title>
<g id="a_node16"><a xlink:href="class_holo_gen_1_1_options_1_1_output_1_1_error_1_1_error_text.html" target="_top" xlink:title="Text of all the setup errors. ">
<polygon fill="white" stroke="black" points="926.5,-128 926.5,-158 1076.5,-158 1076.5,-128 926.5,-128"/>
<text text-anchor="start" x="934.5" y="-146" font-family="Helvetica,sans-Serif" font-size="10.00">HoloGen.Options.Output.Error.</text>
<text text-anchor="middle" x="1001.5" y="-135" font-family="Helvetica,sans-Serif" font-size="10.00">ErrorText</text>
</a>
</g>
</g>
<!-- Node0&#45;&gt;Node15 -->
<g id="edge17" class="edge"><title>Node0&#45;&gt;Node15</title>
<path fill="none" stroke="midnightblue" d="M888.497,-143C900.931,-143 913.829,-143 926.256,-143"/>
<polygon fill="midnightblue" stroke="midnightblue" points="888.183,-139.5 878.183,-143 888.183,-146.5 888.183,-139.5"/>
</g>
<!-- Node16 -->
<g id="node17" class="node"><title>Node16</title>
<g id="a_node17"><a xlink:href="class_holo_gen_1_1_options_1_1_output_1_1_reference_1_1_reference_text.html" target="_top" xlink:title="Text of all the setup errors. ">
<polygon fill="white" stroke="black" points="915,-79 915,-109 1088,-109 1088,-79 915,-79"/>
<text text-anchor="start" x="923" y="-97" font-family="Helvetica,sans-Serif" font-size="10.00">HoloGen.Options.Output.Reference.</text>
<text text-anchor="middle" x="1001.5" y="-86" font-family="Helvetica,sans-Serif" font-size="10.00">ReferenceText</text>
</a>
</g>
</g>
<!-- Node0&#45;&gt;Node16 -->
<g id="edge18" class="edge"><title>Node0&#45;&gt;Node16</title>
<path fill="none" stroke="midnightblue" d="M881.075,-125.377C901.479,-120.016 923.702,-114.177 943.385,-109.006"/>
<polygon fill="midnightblue" stroke="midnightblue" points="880.006,-122.039 871.224,-127.965 881.785,-128.809 880.006,-122.039"/>
</g>
<!-- Node1 -->
<g id="node2" class="node"><title>Node1</title>
<g id="a_node2"><a xlink:href="class_holo_gen_1_1_hierarchy_1_1_option_types_1_1_text_option.html" target="_top" xlink:title="Extends Option wrapping a boolean parameter. Implements the IHasWatermark interface in addition...">
<polygon fill="white" stroke="black" points="647,-156.5 647,-175.5 711,-175.5 711,-156.5 647,-156.5"/>
<text text-anchor="middle" x="679" y="-163.5" font-family="Helvetica,sans-Serif" font-size="10.00">TextOption</text>
</a>
</g>
</g>
<!-- Node1&#45;&gt;Node0 -->
<g id="edge1" class="edge"><title>Node1&#45;&gt;Node0</title>
<path fill="none" stroke="midnightblue" d="M721.278,-158.808C729.77,-157.328 738.9,-155.737 747.98,-154.155"/>
<polygon fill="midnightblue" stroke="midnightblue" points="720.533,-155.385 711.282,-160.549 721.735,-162.281 720.533,-155.385"/>
</g>
<!-- Node2 -->
<g id="node3" class="node"><title>Node2</title>
<g id="a_node3"><a xlink:href="class_holo_gen_1_1_hierarchy_1_1_option_types_1_1_option.html" target="_top" xlink:title="Option\&lt; string \&gt;">
<polygon fill="white" stroke="black" points="523,-156.5 523,-175.5 610,-175.5 610,-156.5 523,-156.5"/>
<text text-anchor="middle" x="566.5" y="-163.5" font-family="Helvetica,sans-Serif" font-size="10.00">Option&lt; string &gt;</text>
</a>
</g>
</g>
<!-- Node2&#45;&gt;Node1 -->
<g id="edge2" class="edge"><title>Node2&#45;&gt;Node1</title>
<path fill="none" stroke="midnightblue" d="M620.326,-166C629.353,-166 638.466,-166 646.7,-166"/>
<polygon fill="midnightblue" stroke="midnightblue" points="620.222,-162.5 610.222,-166 620.222,-169.5 620.222,-162.5"/>
</g>
<!-- Node3 -->
<g id="node4" class="node"><title>Node3</title>
<g id="a_node4"><a xlink:href="class_holo_gen_1_1_hierarchy_1_1_option_types_1_1_option.html" target="_top" xlink:title="Root hierarchy element. Defines Name and ToolTip fields that must be implemented by any implementors...">
<polygon fill="white" stroke="black" points="286,-153 286,-183 416,-183 416,-153 286,-153"/>
<text text-anchor="start" x="294" y="-171" font-family="Helvetica,sans-Serif" font-size="10.00">HoloGen.Hierarchy.Option</text>
<text text-anchor="middle" x="351" y="-160" font-family="Helvetica,sans-Serif" font-size="10.00">Types.Option&lt; T &gt;</text>
</a>
</g>
</g>
<!-- Node3&#45;&gt;Node2 -->
<g id="edge3" class="edge"><title>Node3&#45;&gt;Node2</title>
<path fill="none" stroke="orange" stroke-dasharray="5,2" d="M426.356,-167.303C458.599,-167.001 495.199,-166.659 522.766,-166.4"/>
<polygon fill="orange" stroke="orange" points="426.024,-163.806 416.057,-167.4 426.089,-170.806 426.024,-163.806"/>
<text text-anchor="middle" x="469.5" y="-171" font-family="Helvetica,sans-Serif" font-size="10.00"> &lt; string &gt;</text>
</g>
<!-- Node4 -->
<g id="node5" class="node"><title>Node4</title>
<g id="a_node5"><a xlink:href="class_holo_gen_1_1_utils_1_1_observable_object.html" target="_top" xlink:title="Observable object with INotifyPropertyChanged implemented ">
<polygon fill="white" stroke="black" points="156,-185.5 156,-204.5 249,-204.5 249,-185.5 156,-185.5"/>
<text text-anchor="middle" x="202.5" y="-192.5" font-family="Helvetica,sans-Serif" font-size="10.00">ObservableObject</text>
</a>
</g>
</g>
<!-- Node4&#45;&gt;Node3 -->
<g id="edge4" class="edge"><title>Node4&#45;&gt;Node3</title>
<path fill="none" stroke="midnightblue" d="M259.13,-184.747C267.884,-183.134 276.995,-181.455 285.921,-179.81"/>
<polygon fill="midnightblue" stroke="midnightblue" points="258.25,-181.35 249.05,-186.605 259.519,-188.235 258.25,-181.35"/>
</g>
<!-- Node5 -->
<g id="node6" class="node"><title>Node5</title>
<polygon fill="white" stroke="#bfbfbf" points="0,-190.5 0,-209.5 119,-209.5 119,-190.5 0,-190.5"/>
<text text-anchor="middle" x="59.5" y="-197.5" font-family="Helvetica,sans-Serif" font-size="10.00">INotifyPropertyChanged</text>
</g>
<!-- Node5&#45;&gt;Node4 -->
<g id="edge5" class="edge"><title>Node5&#45;&gt;Node4</title>
<path fill="none" stroke="midnightblue" d="M129.206,-197.564C138.225,-197.244 147.283,-196.923 155.79,-196.621"/>
<polygon fill="midnightblue" stroke="midnightblue" points="128.941,-194.071 119.072,-197.923 129.19,-201.066 128.941,-194.071"/>
</g>
<!-- Node6 -->
<g id="node7" class="node"><title>Node6</title>
<g id="a_node7"><a xlink:href="interface_holo_gen_1_1_hierarchy_1_1_option_types_1_1_i_option.html" target="_top" xlink:title="Base interface for the Option that doesn&#39;t need a template parameter. Necessary for a number of refle...">
<polygon fill="white" stroke="black" points="179,-114.5 179,-133.5 226,-133.5 226,-114.5 179,-114.5"/>
<text text-anchor="middle" x="202.5" y="-121.5" font-family="Helvetica,sans-Serif" font-size="10.00">IOption</text>
</a>
</g>
</g>
<!-- Node5&#45;&gt;Node6 -->
<g id="edge11" class="edge"><title>Node5&#45;&gt;Node6</title>
<path fill="none" stroke="midnightblue" d="M105.211,-186.983C109.945,-185.162 114.624,-183.164 119,-181 146.152,-167.571 174.507,-146.064 189.886,-133.665"/>
<polygon fill="midnightblue" stroke="midnightblue" points="103.726,-183.797 95.4963,-190.469 106.091,-190.385 103.726,-183.797"/>
</g>
<!-- Node6&#45;&gt;Node3 -->
<g id="edge6" class="edge"><title>Node6&#45;&gt;Node3</title>
<path fill="none" stroke="midnightblue" d="M235.892,-133.729C254.638,-139.359 278.633,-146.566 299.778,-152.916"/>
<polygon fill="midnightblue" stroke="midnightblue" points="236.654,-130.303 226.07,-130.779 234.64,-137.007 236.654,-130.303"/>
</g>
<!-- Node13 -->
<g id="node14" class="node"><title>Node13</title>
<g id="a_node14"><a xlink:href="interface_holo_gen_1_1_hierarchy_1_1_option_types_1_1_i_large_option.html" target="_top" xlink:title="Implements the IOption interface and is implemented by any Option extensions that want to be picked u...">
<polygon fill="white" stroke="black" points="434,-115.5 434,-134.5 505,-134.5 505,-115.5 434,-115.5"/>
<text text-anchor="middle" x="469.5" y="-122.5" font-family="Helvetica,sans-Serif" font-size="10.00">ILargeOption</text>
</a>
</g>
</g>
<!-- Node6&#45;&gt;Node13 -->
<g id="edge15" class="edge"><title>Node6&#45;&gt;Node13</title>
<path fill="none" stroke="midnightblue" d="M236.392,-124.124C286.656,-124.314 382.149,-124.674 433.592,-124.868"/>
<polygon fill="midnightblue" stroke="midnightblue" points="236.107,-120.623 226.094,-124.085 236.08,-127.623 236.107,-120.623"/>
</g>
<!-- Node7 -->
<g id="node8" class="node"><title>Node7</title>
<g id="a_node8"><a xlink:href="interface_holo_gen_1_1_hierarchy_1_1_hierarchy_1_1_i_can_error.html" target="_top" xlink:title="Interface implemented by any classes that can be in an error state. Defines the Valid property that c...">
<polygon fill="white" stroke="black" points="31,-114.5 31,-133.5 88,-133.5 88,-114.5 31,-114.5"/>
<text text-anchor="middle" x="59.5" y="-121.5" font-family="Helvetica,sans-Serif" font-size="10.00">ICanError</text>
</a>
</g>
</g>
<!-- Node7&#45;&gt;Node6 -->
<g id="edge7" class="edge"><title>Node7&#45;&gt;Node6</title>
<path fill="none" stroke="midnightblue" d="M98.1535,-124C123.818,-124 156.961,-124 178.703,-124"/>
<polygon fill="midnightblue" stroke="midnightblue" points="98.021,-120.5 88.0209,-124 98.0209,-127.5 98.021,-120.5"/>
</g>
<!-- Node8 -->
<g id="node9" class="node"><title>Node8</title>
<g id="a_node9"><a xlink:href="interface_holo_gen_1_1_hierarchy_1_1_hierarchy_1_1_i_has_name.html" target="_top" xlink:title="Interface implemented by any classes that have a Name property. ">
<polygon fill="white" stroke="black" points="28.5,-76.5 28.5,-95.5 90.5,-95.5 90.5,-76.5 28.5,-76.5"/>
<text text-anchor="middle" x="59.5" y="-83.5" font-family="Helvetica,sans-Serif" font-size="10.00">IHasName</text>
</a>
</g>
</g>
<!-- Node8&#45;&gt;Node6 -->
<g id="edge8" class="edge"><title>Node8&#45;&gt;Node6</title>
<path fill="none" stroke="midnightblue" d="M100.448,-96.766C125.771,-103.591 157.615,-112.173 178.715,-117.859"/>
<polygon fill="midnightblue" stroke="midnightblue" points="101.314,-93.3748 90.748,-94.152 99.4927,-100.134 101.314,-93.3748"/>
</g>
<!-- Node9 -->
<g id="node10" class="node"><title>Node9</title>
<g id="a_node10"><a xlink:href="interface_holo_gen_1_1_hierarchy_1_1_hierarchy_1_1_i_has_tool_tip.html" target="_top" xlink:title="Interface implemented by any classes that have a ToolTip property. ">
<polygon fill="white" stroke="black" points="26,-38.5 26,-57.5 93,-57.5 93,-38.5 26,-38.5"/>
<text text-anchor="middle" x="59.5" y="-45.5" font-family="Helvetica,sans-Serif" font-size="10.00">IHasToolTip</text>
</a>
</g>
</g>
<!-- Node9&#45;&gt;Node6 -->
<g id="edge9" class="edge"><title>Node9&#45;&gt;Node6</title>
<path fill="none" stroke="midnightblue" d="M102.907,-60.1464C108.421,-62.1956 113.915,-64.485 119,-67 146.152,-80.4294 174.507,-101.936 189.886,-114.335"/>
<polygon fill="midnightblue" stroke="midnightblue" points="103.639,-56.6956 93.0444,-56.7206 101.342,-63.3081 103.639,-56.6956"/>
</g>
<!-- Node10 -->
<g id="node11" class="node"><title>Node10</title>
<g id="a_node11"><a xlink:href="interface_holo_gen_1_1_hierarchy_1_1_hierarchy_1_1_i_can_enable.html" target="_top" xlink:title="Interface implemented by any classes that can be enabled Enabled. ">
<polygon fill="white" stroke="black" points="26.5,-0.5 26.5,-19.5 92.5,-19.5 92.5,-0.5 26.5,-0.5"/>
<text text-anchor="middle" x="59.5" y="-7.5" font-family="Helvetica,sans-Serif" font-size="10.00">ICanEnable</text>
</a>
</g>
</g>
<!-- Node10&#45;&gt;Node6 -->
<g id="edge10" class="edge"><title>Node10&#45;&gt;Node6</title>
<path fill="none" stroke="midnightblue" d="M102.386,-20.4999C108.207,-22.8321 113.924,-25.6386 119,-29 154.516,-52.517 183.793,-95.3278 195.729,-114.395"/>
<polygon fill="midnightblue" stroke="midnightblue" points="103.183,-17.0683 92.5881,-17.0088 100.833,-23.6622 103.183,-17.0683"/>
</g>
<!-- Node11 -->
<g id="node12" class="node"><title>Node11</title>
<g id="a_node12"><a xlink:href="interface_holo_gen_1_1_hierarchy_1_1_hierarchy_1_1_i_can_reset.html" target="_top" xlink:title="Interface implemented by any classes that can be reset. ">
<polygon fill="white" stroke="black" points="28.5,-152.5 28.5,-171.5 90.5,-171.5 90.5,-152.5 28.5,-152.5"/>
<text text-anchor="middle" x="59.5" y="-159.5" font-family="Helvetica,sans-Serif" font-size="10.00">ICanReset</text>
</a>
</g>
</g>
<!-- Node11&#45;&gt;Node6 -->
<g id="edge12" class="edge"><title>Node11&#45;&gt;Node6</title>
<path fill="none" stroke="midnightblue" d="M100.448,-151.234C125.771,-144.409 157.615,-135.827 178.715,-130.141"/>
<polygon fill="midnightblue" stroke="midnightblue" points="99.4927,-147.866 90.748,-153.848 101.314,-154.625 99.4927,-147.866"/>
</g>
<!-- Node12 -->
<g id="node13" class="node"><title>Node12</title>
<g id="a_node13"><a xlink:href="interface_holo_gen_1_1_hierarchy_1_1_hierarchy_1_1_i_has_watermark.html" target="_top" xlink:title="Interface implemented by any classes that have a Watermark property. ">
<polygon fill="white" stroke="black" points="524.5,-194.5 524.5,-213.5 608.5,-213.5 608.5,-194.5 524.5,-194.5"/>
<text text-anchor="middle" x="566.5" y="-201.5" font-family="Helvetica,sans-Serif" font-size="10.00">IHasWatermark</text>
</a>
</g>
</g>
<!-- Node12&#45;&gt;Node1 -->
<g id="edge13" class="edge"><title>Node12&#45;&gt;Node1</title>
<path fill="none" stroke="midnightblue" d="M605.221,-191.028C619.942,-185.966 636.516,-180.266 650.125,-175.586"/>
<polygon fill="midnightblue" stroke="midnightblue" points="603.702,-187.849 595.384,-194.411 605.978,-194.469 603.702,-187.849"/>
</g>
<!-- Node13&#45;&gt;Node0 -->
<g id="edge14" class="edge"><title>Node13&#45;&gt;Node0</title>
<path fill="none" stroke="midnightblue" d="M515.308,-127.362C574.692,-130.492 679.849,-136.034 747.699,-139.611"/>
<polygon fill="midnightblue" stroke="midnightblue" points="515.295,-123.856 505.124,-126.825 514.926,-130.847 515.295,-123.856"/>
</g>
</g>
</svg>
