<?xml version="1.0" encoding="UTF-8" standalone="no"?>
<!DOCTYPE svg PUBLIC "-//W3C//DTD SVG 1.1//EN"
 "http://www.w3.org/Graphics/SVG/1.1/DTD/svg11.dtd">
<!-- Generated by graphviz version 2.38.0 (20140413.2041)
 -->
<!-- Title: HoloGen.Alg.GS.VariantGSStandardWrap.SetVariantParameters Pages: 1 -->
<svg width="345pt" height="50pt"
 viewBox="0.00 0.00 345.00 50.00" xmlns="http://www.w3.org/2000/svg" xmlns:xlink="http://www.w3.org/1999/xlink">
<g id="graph0" class="graph" transform="scale(1 1) rotate(0) translate(4 46)">
<title>HoloGen.Alg.GS.VariantGSStandardWrap.SetVariantParameters</title>
<polygon fill="white" stroke="none" points="-4,4 -4,-46 341,-46 341,4 -4,4"/>
<!-- Node2 -->
<g id="node1" class="node"><title>Node2</title>
<polygon fill="#bfbfbf" stroke="black" points="0,-6 0,-36 176,-36 176,-6 0,-6"/>
<text text-anchor="start" x="8" y="-24" font-family="Helvetica,sans-Serif" font-size="10.00">HoloGen.Alg.GS.VariantGSStandard</text>
<text text-anchor="middle" x="88" y="-13" font-family="Helvetica,sans-Serif" font-size="10.00">Wrap.SetVariantParameters</text>
</g>
<!-- Node3 -->
<g id="node2" class="node"><title>Node3</title>
<g id="a_node2"><a xlink:href="class_holo_gen_1_1_alg_1_1_g_s_1_1_man_1_1_variant_g_s_standard_man.html#ac3570f73e2b087aa40f296dc83eabecc" target="_top" xlink:title="HoloGen::Alg::GS::Man\l::VariantGSStandardMan\l::SetVariantParameters">
<polygon fill="white" stroke="black" points="212,-0.5 212,-41.5 337,-41.5 337,-0.5 212,-0.5"/>
<text text-anchor="start" x="220" y="-29.5" font-family="Helvetica,sans-Serif" font-size="10.00">HoloGen::Alg::GS::Man</text>
<text text-anchor="start" x="220" y="-18.5" font-family="Helvetica,sans-Serif" font-size="10.00">::VariantGSStandardMan</text>
<text text-anchor="middle" x="274.5" y="-7.5" font-family="Helvetica,sans-Serif" font-size="10.00">::SetVariantParameters</text>
</a>
</g>
</g>
<!-- Node2&#45;&gt;Node3 -->
<g id="edge1" class="edge"><title>Node2&#45;&gt;Node3</title>
<path fill="none" stroke="midnightblue" d="M176.117,-21C184.674,-21 193.29,-21 201.669,-21"/>
<polygon fill="midnightblue" stroke="midnightblue" points="201.753,-24.5001 211.753,-21 201.753,-17.5001 201.753,-24.5001"/>
</g>
</g>
</svg>
