<?xml version="1.0" encoding="UTF-8" standalone="no"?>
<!DOCTYPE svg PUBLIC "-//W3C//DTD SVG 1.1//EN"
 "http://www.w3.org/Graphics/SVG/1.1/DTD/svg11.dtd">
<!-- Generated by graphviz version 2.38.0 (20140413.2041)
 -->
<!-- Title: HoloGen.Mask.Options.MouseType.MouseOption Pages: 1 -->
<svg width="2173pt" height="379pt"
 viewBox="0.00 0.00 2173.00 379.31" xmlns="http://www.w3.org/2000/svg" xmlns:xlink="http://www.w3.org/1999/xlink">
<g id="graph0" class="graph" transform="scale(1 1) rotate(0) translate(4 375.311)">
<title>HoloGen.Mask.Options.MouseType.MouseOption</title>
<polygon fill="white" stroke="none" points="-4,4 -4,-375.311 2169,-375.311 2169,4 -4,4"/>
<!-- Node13 -->
<g id="node1" class="node"><title>Node13</title>
<polygon fill="#bfbfbf" stroke="black" points="2015,-283.311 2015,-313.311 2165,-313.311 2165,-283.311 2015,-283.311"/>
<text text-anchor="start" x="2023" y="-301.311" font-family="Helvetica,sans-Serif" font-size="10.00">HoloGen.Mask.Options.Mouse</text>
<text text-anchor="middle" x="2090" y="-290.311" font-family="Helvetica,sans-Serif" font-size="10.00">Type.MouseOption</text>
</g>
<!-- Node14 -->
<g id="node2" class="node"><title>Node14</title>
<g id="a_node2"><a xlink:href="class_holo_gen_1_1_hierarchy_1_1_option_types_1_1_select_option.html" target="_top" xlink:title="SelectOption\&lt; MousePossibility \&gt;">
<polygon fill="white" stroke="black" points="1753,-229.811 1753,-248.811 1918,-248.811 1918,-229.811 1753,-229.811"/>
<text text-anchor="middle" x="1835.5" y="-236.811" font-family="Helvetica,sans-Serif" font-size="10.00">SelectOption&lt; MousePossibility &gt;</text>
</a>
</g>
</g>
<!-- Node14&#45;&gt;Node13 -->
<g id="edge1" class="edge"><title>Node14&#45;&gt;Node13</title>
<path fill="none" stroke="midnightblue" d="M1887.3,-251.18C1926.82,-260.414 1981.91,-273.289 2024.54,-283.249"/>
<polygon fill="midnightblue" stroke="midnightblue" points="1887.88,-247.723 1877.35,-248.856 1886.29,-254.54 1887.88,-247.723"/>
</g>
<!-- Node15 -->
<g id="node3" class="node"><title>Node15</title>
<g id="a_node3"><a xlink:href="class_holo_gen_1_1_hierarchy_1_1_option_types_1_1_select_option.html" target="_top" xlink:title="Extends Option wrapping a multiple&#45;choice PossibilityCollection. Due to the limits of the C# reflecti...">
<polygon fill="white" stroke="black" points="1370,-183.311 1370,-213.311 1500,-213.311 1500,-183.311 1370,-183.311"/>
<text text-anchor="start" x="1378" y="-201.311" font-family="Helvetica,sans-Serif" font-size="10.00">HoloGen.Hierarchy.Option</text>
<text text-anchor="middle" x="1435" y="-190.311" font-family="Helvetica,sans-Serif" font-size="10.00">Types.SelectOption&lt; T &gt;</text>
</a>
</g>
</g>
<!-- Node15&#45;&gt;Node14 -->
<g id="edge2" class="edge"><title>Node15&#45;&gt;Node14</title>
<path fill="none" stroke="orange" stroke-dasharray="5,2" d="M1510.36,-205.962C1579.25,-213.05 1681.51,-223.571 1752.69,-230.894"/>
<polygon fill="orange" stroke="orange" points="1510.33,-202.44 1500.03,-204.898 1509.62,-209.404 1510.33,-202.44"/>
<text text-anchor="middle" x="1626.5" y="-232.311" font-family="Helvetica,sans-Serif" font-size="10.00"> &lt; MousePossibility &gt;</text>
</g>
<!-- Node16 -->
<g id="node4" class="node"><title>Node16</title>
<g id="a_node4"><a xlink:href="class_holo_gen_1_1_hierarchy_1_1_option_types_1_1_option.html" target="_top" xlink:title="Root hierarchy element. Defines Name and ToolTip fields that must be implemented by any implementors...">
<polygon fill="white" stroke="black" points="667,-187.811 667,-206.811 735,-206.811 735,-187.811 667,-187.811"/>
<text text-anchor="middle" x="701" y="-194.811" font-family="Helvetica,sans-Serif" font-size="10.00">Option&lt; T &gt;</text>
</a>
</g>
</g>
<!-- Node16&#45;&gt;Node15 -->
<g id="edge3" class="edge"><title>Node16&#45;&gt;Node15</title>
<path fill="none" stroke="midnightblue" d="M745.582,-197.371C869.386,-197.54 1223.65,-198.024 1369.78,-198.223"/>
<polygon fill="midnightblue" stroke="midnightblue" points="745.359,-193.87 735.355,-197.357 745.35,-200.87 745.359,-193.87"/>
</g>
<!-- Node17 -->
<g id="node5" class="node"><title>Node17</title>
<g id="a_node5"><a xlink:href="class_holo_gen_1_1_utils_1_1_observable_object.html" target="_top" xlink:title="Observable object with INotifyPropertyChanged implemented ">
<polygon fill="white" stroke="black" points="156,-313.811 156,-332.811 249,-332.811 249,-313.811 156,-313.811"/>
<text text-anchor="middle" x="202.5" y="-320.811" font-family="Helvetica,sans-Serif" font-size="10.00">ObservableObject</text>
</a>
</g>
</g>
<!-- Node17&#45;&gt;Node16 -->
<g id="edge4" class="edge"><title>Node17&#45;&gt;Node16</title>
<path fill="none" stroke="midnightblue" d="M259.281,-325.084C338.466,-325.131 485.546,-315.911 591,-254.311 611.354,-242.421 607.642,-228.195 628,-216.311 639.835,-209.403 654.213,-204.958 667,-202.121"/>
<polygon fill="midnightblue" stroke="midnightblue" points="259.056,-321.583 249.036,-325.025 259.016,-328.583 259.056,-321.583"/>
</g>
<!-- Node30 -->
<g id="node18" class="node"><title>Node30</title>
<g id="a_node18"><a xlink:href="class_holo_gen_1_1_hierarchy_1_1_hierarchy_1_1_hierarchy_saveable.html" target="_top" xlink:title="Declares that this object should be serialisable and saveable ">
<polygon fill="white" stroke="black" points="295.5,-351.811 295.5,-370.811 392.5,-370.811 392.5,-351.811 295.5,-351.811"/>
<text text-anchor="middle" x="344" y="-358.811" font-family="Helvetica,sans-Serif" font-size="10.00">HierarchySaveable</text>
</a>
</g>
</g>
<!-- Node17&#45;&gt;Node30 -->
<g id="edge20" class="edge"><title>Node17&#45;&gt;Node30</title>
<path fill="none" stroke="midnightblue" d="M248.456,-335.557C267.685,-340.795 289.803,-346.82 307.81,-351.725"/>
<polygon fill="midnightblue" stroke="midnightblue" points="249.27,-332.151 238.702,-332.9 247.43,-338.905 249.27,-332.151"/>
</g>
<!-- Node18 -->
<g id="node6" class="node"><title>Node18</title>
<polygon fill="white" stroke="#bfbfbf" points="0,-55.8111 0,-74.8111 119,-74.8111 119,-55.8111 0,-55.8111"/>
<text text-anchor="middle" x="59.5" y="-62.8111" font-family="Helvetica,sans-Serif" font-size="10.00">INotifyPropertyChanged</text>
</g>
<!-- Node18&#45;&gt;Node17 -->
<g id="edge5" class="edge"><title>Node18&#45;&gt;Node17</title>
<path fill="none" stroke="midnightblue" d="M70.7661,-84.0958C98.7334,-135.27 175.562,-275.851 196.289,-313.777"/>
<polygon fill="midnightblue" stroke="midnightblue" points="73.7222,-82.2065 65.8552,-75.11 67.5796,-85.5636 73.7222,-82.2065"/>
</g>
<!-- Node19 -->
<g id="node7" class="node"><title>Node19</title>
<g id="a_node7"><a xlink:href="interface_holo_gen_1_1_hierarchy_1_1_option_types_1_1_i_option.html" target="_top" xlink:title="Base interface for the Option that doesn&#39;t need a template parameter. Necessary for a number of refle...">
<polygon fill="white" stroke="black" points="491.5,-100.811 491.5,-119.811 538.5,-119.811 538.5,-100.811 491.5,-100.811"/>
<text text-anchor="middle" x="515" y="-107.811" font-family="Helvetica,sans-Serif" font-size="10.00">IOption</text>
</a>
</g>
</g>
<!-- Node18&#45;&gt;Node19 -->
<g id="edge11" class="edge"><title>Node18&#45;&gt;Node19</title>
<path fill="none" stroke="midnightblue" d="M90.1756,-51.5354C150.7,-25.4521 291.965,25.0703 402,-15.3111 449.394,-32.7041 490.474,-80.0218 506.656,-100.57"/>
<polygon fill="midnightblue" stroke="midnightblue" points="88.5807,-48.4132 80.8373,-55.6444 91.4001,-54.8204 88.5807,-48.4132"/>
</g>
<!-- Node19&#45;&gt;Node15 -->
<g id="edge14" class="edge"><title>Node19&#45;&gt;Node15</title>
<path fill="none" stroke="midnightblue" d="M548.807,-110.311C585.609,-110.311 647.085,-110.311 700,-110.311 700,-110.311 700,-110.311 1116,-110.311 1222.62,-110.311 1251.53,-117.649 1352,-153.311 1373.12,-160.807 1395.3,-173.298 1411.26,-183.22"/>
<polygon fill="midnightblue" stroke="midnightblue" points="548.661,-106.811 538.661,-110.311 548.661,-113.811 548.661,-106.811"/>
</g>
<!-- Node19&#45;&gt;Node16 -->
<g id="edge6" class="edge"><title>Node19&#45;&gt;Node16</title>
<path fill="none" stroke="midnightblue" d="M545.83,-124.416C583.518,-142.235 647.363,-172.423 679.795,-187.758"/>
<polygon fill="midnightblue" stroke="midnightblue" points="546.931,-121.065 536.394,-119.954 543.939,-127.393 546.931,-121.065"/>
</g>
<!-- Node20 -->
<g id="node8" class="node"><title>Node20</title>
<g id="a_node8"><a xlink:href="interface_holo_gen_1_1_hierarchy_1_1_hierarchy_1_1_i_can_error.html" target="_top" xlink:title="Interface implemented by any classes that can be in an error state. Defines the Valid property that c...">
<polygon fill="white" stroke="black" points="315.5,-75.8111 315.5,-94.8111 372.5,-94.8111 372.5,-75.8111 315.5,-75.8111"/>
<text text-anchor="middle" x="344" y="-82.8111" font-family="Helvetica,sans-Serif" font-size="10.00">ICanError</text>
</a>
</g>
</g>
<!-- Node20&#45;&gt;Node19 -->
<g id="edge7" class="edge"><title>Node20&#45;&gt;Node19</title>
<path fill="none" stroke="midnightblue" d="M382.476,-74.9923C394.784,-72.9068 408.509,-71.9779 421,-74.3111 447.89,-79.334 477.013,-91.8699 495.37,-100.732"/>
<polygon fill="midnightblue" stroke="midnightblue" points="381.654,-71.5872 372.528,-76.9699 383.019,-78.4528 381.654,-71.5872"/>
</g>
<!-- Node31 -->
<g id="node19" class="node"><title>Node31</title>
<g id="a_node19"><a xlink:href="interface_holo_gen_1_1_hierarchy_1_1_hierarchy_1_1_i_hierarchy_element.html" target="_top" xlink:title="Base interface for the HierarchyElement that doesn&#39;t need a template parameter. Necessary for a numbe...">
<polygon fill="white" stroke="black" points="467,-225.811 467,-244.811 563,-244.811 563,-225.811 467,-225.811"/>
<text text-anchor="middle" x="515" y="-232.811" font-family="Helvetica,sans-Serif" font-size="10.00">IHierarchyElement</text>
</a>
</g>
</g>
<!-- Node20&#45;&gt;Node31 -->
<g id="edge22" class="edge"><title>Node20&#45;&gt;Node31</title>
<path fill="none" stroke="midnightblue" d="M382.077,-96.6092C389.008,-99.5413 395.964,-103.091 402,-107.311 451.126,-141.658 492.767,-202.019 507.903,-225.54"/>
<polygon fill="midnightblue" stroke="midnightblue" points="383.317,-93.3362 372.728,-92.9887 380.789,-99.8639 383.317,-93.3362"/>
</g>
<!-- Node21 -->
<g id="node9" class="node"><title>Node21</title>
<g id="a_node9"><a xlink:href="interface_holo_gen_1_1_hierarchy_1_1_hierarchy_1_1_i_has_name.html" target="_top" xlink:title="Interface implemented by any classes that have a Name property. ">
<polygon fill="white" stroke="black" points="313,-159.811 313,-178.811 375,-178.811 375,-159.811 313,-159.811"/>
<text text-anchor="middle" x="344" y="-166.811" font-family="Helvetica,sans-Serif" font-size="10.00">IHasName</text>
</a>
</g>
</g>
<!-- Node21&#45;&gt;Node19 -->
<g id="edge8" class="edge"><title>Node21&#45;&gt;Node19</title>
<path fill="none" stroke="midnightblue" d="M382.379,-156.262C415.73,-144.618 463.477,-127.949 491.357,-118.216"/>
<polygon fill="midnightblue" stroke="midnightblue" points="380.816,-153.1 372.529,-159.7 383.124,-159.709 380.816,-153.1"/>
</g>
<!-- Node21&#45;&gt;Node31 -->
<g id="edge23" class="edge"><title>Node21&#45;&gt;Node31</title>
<path fill="none" stroke="midnightblue" d="M381.286,-182.5C388.178,-185.056 395.321,-187.74 402,-190.311 432.898,-202.207 468.32,-216.561 490.911,-225.806"/>
<polygon fill="midnightblue" stroke="midnightblue" points="382.045,-179.05 371.452,-178.875 379.624,-185.618 382.045,-179.05"/>
</g>
<!-- Node22 -->
<g id="node10" class="node"><title>Node22</title>
<g id="a_node10"><a xlink:href="interface_holo_gen_1_1_hierarchy_1_1_hierarchy_1_1_i_has_tool_tip.html" target="_top" xlink:title="Interface implemented by any classes that have a ToolTip property. ">
<polygon fill="white" stroke="black" points="310.5,-116.811 310.5,-135.811 377.5,-135.811 377.5,-116.811 310.5,-116.811"/>
<text text-anchor="middle" x="344" y="-123.811" font-family="Helvetica,sans-Serif" font-size="10.00">IHasToolTip</text>
</a>
</g>
</g>
<!-- Node22&#45;&gt;Node19 -->
<g id="edge9" class="edge"><title>Node22&#45;&gt;Node19</title>
<path fill="none" stroke="midnightblue" d="M387.832,-122.256C420.722,-119.142 464.846,-114.965 491.252,-112.465"/>
<polygon fill="midnightblue" stroke="midnightblue" points="387.21,-118.799 377.585,-123.226 387.87,-125.768 387.21,-118.799"/>
</g>
<!-- Node22&#45;&gt;Node31 -->
<g id="edge24" class="edge"><title>Node22&#45;&gt;Node31</title>
<path fill="none" stroke="midnightblue" d="M380.993,-139.847C388.114,-142.972 395.416,-146.508 402,-150.311 441.948,-173.389 483.957,-208.721 503.21,-225.634"/>
<polygon fill="midnightblue" stroke="midnightblue" points="382.057,-136.498 371.482,-135.854 379.347,-142.952 382.057,-136.498"/>
</g>
<!-- Node23 -->
<g id="node11" class="node"><title>Node23</title>
<g id="a_node11"><a xlink:href="interface_holo_gen_1_1_hierarchy_1_1_hierarchy_1_1_i_can_enable.html" target="_top" xlink:title="Interface implemented by any classes that can be enabled Enabled. ">
<polygon fill="white" stroke="black" points="169.5,-137.811 169.5,-156.811 235.5,-156.811 235.5,-137.811 169.5,-137.811"/>
<text text-anchor="middle" x="202.5" y="-144.811" font-family="Helvetica,sans-Serif" font-size="10.00">ICanEnable</text>
</a>
</g>
</g>
<!-- Node23&#45;&gt;Node19 -->
<g id="edge10" class="edge"><title>Node23&#45;&gt;Node19</title>
<path fill="none" stroke="midnightblue" d="M207.859,-127.89C215.034,-101.097 232.151,-53.79 267,-33.3111 349.679,15.2755 466.248,-70.7346 502.674,-100.632"/>
<polygon fill="midnightblue" stroke="midnightblue" points="204.443,-127.124 205.44,-137.672 211.239,-128.805 204.443,-127.124"/>
</g>
<!-- Node26 -->
<g id="node14" class="node"><title>Node26</title>
<g id="a_node14"><a xlink:href="class_holo_gen_1_1_hierarchy_1_1_hierarchy_1_1_hierarchy_folder.html" target="_top" xlink:title="Folder hierarchy element. Extends HierarchyElement and extends it to split the ReflectiveChildrenElem...">
<polygon fill="white" stroke="black" points="1042,-139.311 1042,-169.311 1188,-169.311 1188,-139.311 1042,-139.311"/>
<text text-anchor="start" x="1050" y="-157.311" font-family="Helvetica,sans-Serif" font-size="10.00">HoloGen.Hierarchy.Hierarchy.</text>
<text text-anchor="middle" x="1115" y="-146.311" font-family="Helvetica,sans-Serif" font-size="10.00">HierarchyFolder</text>
</a>
</g>
</g>
<!-- Node23&#45;&gt;Node26 -->
<g id="edge29" class="edge"><title>Node23&#45;&gt;Node26</title>
<path fill="none" stroke="midnightblue" d="M216.119,-129.368C230.62,-110.282 256.28,-80.8761 286,-66.3111 377.831,-21.3067 411.734,-35.3111 514,-35.3111 514,-35.3111 514,-35.3111 934.5,-35.3111 1008.9,-35.3111 1076.1,-107.218 1102.33,-139.24"/>
<polygon fill="midnightblue" stroke="midnightblue" points="213.2,-127.43 210.097,-137.56 218.84,-131.576 213.2,-127.43"/>
</g>
<!-- Node23&#45;&gt;Node31 -->
<g id="edge28" class="edge"><title>Node23&#45;&gt;Node31</title>
<path fill="none" stroke="midnightblue" d="M215.675,-165.422C229.941,-184.914 255.544,-214.921 286,-228.311 344.186,-253.892 419.032,-250.149 466.777,-243.795"/>
<polygon fill="midnightblue" stroke="midnightblue" points="218.4,-163.213 209.776,-157.059 212.68,-167.248 218.4,-163.213"/>
</g>
<!-- Node32 -->
<g id="node20" class="node"><title>Node32</title>
<g id="a_node20"><a xlink:href="interface_holo_gen_1_1_hierarchy_1_1_hierarchy_1_1_i_can_recursively_enable.html" target="_top" xlink:title="Interface implemented by any classes that can be enabled Enabled and have children that can be Enable...">
<polygon fill="white" stroke="black" points="286,-275.811 286,-294.811 402,-294.811 402,-275.811 286,-275.811"/>
<text text-anchor="middle" x="344" y="-282.811" font-family="Helvetica,sans-Serif" font-size="10.00">ICanRecursivelyEnable</text>
</a>
</g>
</g>
<!-- Node23&#45;&gt;Node32 -->
<g id="edge27" class="edge"><title>Node23&#45;&gt;Node32</title>
<path fill="none" stroke="midnightblue" d="M209.194,-166.422C217.702,-191.74 236.124,-236.126 267,-261.311 274.72,-267.608 284.109,-272.262 293.618,-275.698"/>
<polygon fill="midnightblue" stroke="midnightblue" points="212.516,-165.318 206.147,-156.85 205.845,-167.441 212.516,-165.318"/>
</g>
<!-- Node24 -->
<g id="node12" class="node"><title>Node24</title>
<g id="a_node12"><a xlink:href="interface_holo_gen_1_1_hierarchy_1_1_hierarchy_1_1_i_can_reset.html" target="_top" xlink:title="Interface implemented by any classes that can be reset. ">
<polygon fill="white" stroke="black" points="313,-199.811 313,-218.811 375,-218.811 375,-199.811 313,-199.811"/>
<text text-anchor="middle" x="344" y="-206.811" font-family="Helvetica,sans-Serif" font-size="10.00">ICanReset</text>
</a>
</g>
</g>
<!-- Node24&#45;&gt;Node19 -->
<g id="edge12" class="edge"><title>Node24&#45;&gt;Node19</title>
<path fill="none" stroke="midnightblue" d="M384.919,-196.09C390.754,-193.733 396.609,-191.123 402,-188.311 441.079,-167.933 482.495,-135.991 502.223,-120.047"/>
<polygon fill="midnightblue" stroke="midnightblue" points="383.291,-192.965 375.203,-199.808 385.793,-199.503 383.291,-192.965"/>
</g>
<!-- Node24&#45;&gt;Node31 -->
<g id="edge25" class="edge"><title>Node24&#45;&gt;Node31</title>
<path fill="none" stroke="midnightblue" d="M385.267,-215.836C396.505,-217.635 408.725,-219.57 420,-221.311 435.165,-223.654 451.717,-226.142 466.647,-228.36"/>
<polygon fill="midnightblue" stroke="midnightblue" points="385.705,-212.362 375.277,-214.232 384.595,-219.273 385.705,-212.362"/>
</g>
<!-- Node25 -->
<g id="node13" class="node"><title>Node25</title>
<g id="a_node13"><a xlink:href="interface_holo_gen_1_1_hierarchy_1_1_option_types_1_1_i_select_option.html" target="_top" xlink:title="Base interface for the SelectOption that doesn&#39;t need a template parameter. Necessary for a number of...">
<polygon fill="white" stroke="black" points="1077.5,-226.811 1077.5,-245.811 1152.5,-245.811 1152.5,-226.811 1077.5,-226.811"/>
<text text-anchor="middle" x="1115" y="-233.811" font-family="Helvetica,sans-Serif" font-size="10.00">ISelectOption</text>
</a>
</g>
</g>
<!-- Node25&#45;&gt;Node15 -->
<g id="edge13" class="edge"><title>Node25&#45;&gt;Node15</title>
<path fill="none" stroke="midnightblue" d="M1162.91,-232.484C1210.61,-228.37 1286.61,-221.208 1352,-212.311 1357.72,-211.532 1363.66,-210.655 1369.61,-209.729"/>
<polygon fill="midnightblue" stroke="midnightblue" points="1162.55,-229.002 1152.88,-233.339 1163.14,-235.976 1162.55,-229.002"/>
</g>
<!-- Node26&#45;&gt;Node15 -->
<g id="edge15" class="edge"><title>Node26&#45;&gt;Node15</title>
<path fill="none" stroke="#9a32cd" stroke-dasharray="5,2" d="M1198.2,-156.581C1243.82,-158.926 1301.41,-163.681 1352,-173.311 1364.87,-175.761 1378.58,-179.48 1391.03,-183.307"/>
<polygon fill="#9a32cd" stroke="#9a32cd" points="1198.21,-153.078 1188.06,-156.089 1197.88,-160.069 1198.21,-153.078"/>
<text text-anchor="middle" x="1279" y="-176.311" font-family="Helvetica,sans-Serif" font-size="10.00"> PushLocation</text>
</g>
<!-- Node27 -->
<g id="node15" class="node"><title>Node27</title>
<g id="a_node15"><a xlink:href="class_holo_gen_1_1_hierarchy_1_1_hierarchy_1_1_hierarchy_element.html" target="_top" xlink:title="HierarchyElement\&lt; IOption \&gt;">
<polygon fill="white" stroke="black" points="862,-227.811 862,-246.811 1005,-246.811 1005,-227.811 862,-227.811"/>
<text text-anchor="middle" x="933.5" y="-234.811" font-family="Helvetica,sans-Serif" font-size="10.00">HierarchyElement&lt; IOption &gt;</text>
</a>
</g>
</g>
<!-- Node27&#45;&gt;Node26 -->
<g id="edge16" class="edge"><title>Node27&#45;&gt;Node26</title>
<path fill="none" stroke="midnightblue" d="M964.486,-223.446C996.858,-208.477 1048.24,-184.716 1081.55,-169.318"/>
<polygon fill="midnightblue" stroke="midnightblue" points="962.699,-220.416 955.091,-227.79 965.637,-226.77 962.699,-220.416"/>
</g>
<!-- Node28 -->
<g id="node16" class="node"><title>Node28</title>
<g id="a_node16"><a xlink:href="class_holo_gen_1_1_hierarchy_1_1_hierarchy_1_1_hierarchy_element.html" target="_top" xlink:title="Root hierarchy element. Defines Name and ToolTip fields that must be implemented by any implementors...">
<polygon fill="white" stroke="black" points="628,-226.311 628,-256.311 774,-256.311 774,-226.311 628,-226.311"/>
<text text-anchor="start" x="636" y="-244.311" font-family="Helvetica,sans-Serif" font-size="10.00">HoloGen.Hierarchy.Hierarchy.</text>
<text text-anchor="middle" x="701" y="-233.311" font-family="Helvetica,sans-Serif" font-size="10.00">HierarchyElement&lt; T &gt;</text>
</a>
</g>
</g>
<!-- Node28&#45;&gt;Node27 -->
<g id="edge17" class="edge"><title>Node28&#45;&gt;Node27</title>
<path fill="none" stroke="orange" stroke-dasharray="5,2" d="M784.577,-239.878C809.791,-239.441 837.279,-238.964 861.642,-238.541"/>
<polygon fill="orange" stroke="orange" points="784.237,-236.383 774.299,-240.056 784.358,-243.382 784.237,-236.383"/>
<text text-anchor="middle" x="818" y="-243.311" font-family="Helvetica,sans-Serif" font-size="10.00"> &lt; IOption &gt;</text>
</g>
<!-- Node29 -->
<g id="node17" class="node"><title>Node29</title>
<g id="a_node17"><a xlink:href="class_holo_gen_1_1_hierarchy_1_1_hierarchy_1_1_reflective_children_element.html" target="_top" xlink:title="Reflective hierarchy element template T . The constructor finds all members assignable from T &#160;and us...">
<polygon fill="white" stroke="black" points="439,-351.811 439,-370.811 591,-370.811 591,-351.811 439,-351.811"/>
<text text-anchor="middle" x="515" y="-358.811" font-family="Helvetica,sans-Serif" font-size="10.00">ReflectiveChildrenElement&lt; T &gt;</text>
</a>
</g>
</g>
<!-- Node29&#45;&gt;Node28 -->
<g id="edge18" class="edge"><title>Node29&#45;&gt;Node28</title>
<path fill="none" stroke="midnightblue" d="M576.854,-348.878C588.321,-345.156 599.878,-340.389 610,-334.311 644.095,-313.839 674.067,-277.218 689.318,-256.566"/>
<polygon fill="midnightblue" stroke="midnightblue" points="575.841,-345.527 567.276,-351.763 577.861,-352.23 575.841,-345.527"/>
</g>
<!-- Node34 -->
<g id="node22" class="node"><title>Node34</title>
<g id="a_node22"><a xlink:href="class_holo_gen_1_1_hierarchy_1_1_hierarchy_1_1_possibility_collection.html" target="_top" xlink:title="Collection of Possibilitys. Is wrapped by a SelectOption. Extends ReflectiveChildrenElement. The base class ReflectiveChildrenElement finds all members assignable from T &#160;and uses them to populate the ReflectiveChildrenElement.Children member collection. ">
<polygon fill="white" stroke="black" points="1042,-328.311 1042,-358.311 1188,-358.311 1188,-328.311 1042,-328.311"/>
<text text-anchor="start" x="1050" y="-346.311" font-family="Helvetica,sans-Serif" font-size="10.00">HoloGen.Hierarchy.Hierarchy.</text>
<text text-anchor="middle" x="1115" y="-335.311" font-family="Helvetica,sans-Serif" font-size="10.00">PossibilityCollection&lt; T &gt;</text>
</a>
</g>
</g>
<!-- Node29&#45;&gt;Node34 -->
<g id="edge32" class="edge"><title>Node29&#45;&gt;Node34</title>
<path fill="none" stroke="midnightblue" d="M601.227,-358.746C719.469,-355.187 931.201,-348.813 1041.97,-345.479"/>
<polygon fill="midnightblue" stroke="midnightblue" points="601.022,-355.25 591.132,-359.05 601.232,-362.247 601.022,-355.25"/>
</g>
<!-- Node30&#45;&gt;Node29 -->
<g id="edge19" class="edge"><title>Node30&#45;&gt;Node29</title>
<path fill="none" stroke="midnightblue" d="M402.528,-361.311C414.161,-361.311 426.557,-361.311 438.697,-361.311"/>
<polygon fill="midnightblue" stroke="midnightblue" points="402.526,-357.811 392.526,-361.311 402.526,-364.811 402.526,-357.811"/>
</g>
<!-- Node31&#45;&gt;Node28 -->
<g id="edge21" class="edge"><title>Node31&#45;&gt;Node28</title>
<path fill="none" stroke="midnightblue" d="M573.777,-237.195C590.891,-237.753 609.848,-238.371 627.757,-238.955"/>
<polygon fill="midnightblue" stroke="midnightblue" points="573.493,-233.684 563.385,-236.856 573.265,-240.68 573.493,-233.684"/>
</g>
<!-- Node32&#45;&gt;Node31 -->
<g id="edge26" class="edge"><title>Node32&#45;&gt;Node31</title>
<path fill="none" stroke="midnightblue" d="M411.985,-273.694C415.044,-272.937 418.061,-272.143 421,-271.311 446.155,-264.193 473.991,-252.947 492.594,-244.919"/>
<polygon fill="midnightblue" stroke="midnightblue" points="411.071,-270.313 402.123,-275.986 412.656,-277.132 411.071,-270.313"/>
</g>
<!-- Node33 -->
<g id="node21" class="node"><title>Node33</title>
<g id="a_node21"><a xlink:href="class_holo_gen_1_1_hierarchy_1_1_hierarchy_1_1_possibility_collection.html" target="_top" xlink:title="HoloGen.Hierarchy.Hierarchy.\lPossibilityCollection\&lt; HoloGen.\lMask.Options.MouseType.MousePossibility \&gt;">
<polygon fill="white" stroke="black" points="1518,-277.811 1518,-318.811 1735,-318.811 1735,-277.811 1518,-277.811"/>
<text text-anchor="start" x="1526" y="-306.811" font-family="Helvetica,sans-Serif" font-size="10.00">HoloGen.Hierarchy.Hierarchy.</text>
<text text-anchor="start" x="1526" y="-295.811" font-family="Helvetica,sans-Serif" font-size="10.00">PossibilityCollection&lt; HoloGen.</text>
<text text-anchor="middle" x="1626.5" y="-284.811" font-family="Helvetica,sans-Serif" font-size="10.00">Mask.Options.MouseType.MousePossibility &gt;</text>
</a>
</g>
</g>
<!-- Node33&#45;&gt;Node13 -->
<g id="edge30" class="edge"><title>Node33&#45;&gt;Node13</title>
<path fill="none" stroke="#9a32cd" stroke-dasharray="5,2" d="M1745.33,-298.311C1830.18,-298.311 1942.06,-298.311 2014.75,-298.311"/>
<polygon fill="#9a32cd" stroke="#9a32cd" points="1745.12,-294.811 1735.12,-298.311 1745.12,-301.811 1745.12,-294.811"/>
<text text-anchor="middle" x="1835.5" y="-301.311" font-family="Helvetica,sans-Serif" font-size="10.00"> Possibilities</text>
</g>
<!-- Node34&#45;&gt;Node33 -->
<g id="edge31" class="edge"><title>Node34&#45;&gt;Node33</title>
<path fill="none" stroke="orange" stroke-dasharray="5,2" d="M1170.05,-325.464C1181.79,-322.219 1194.21,-319.252 1206,-317.311 1311.03,-300.012 1432.7,-296.265 1517.88,-296.239"/>
<polygon fill="orange" stroke="orange" points="1169.03,-322.115 1160.39,-328.238 1170.96,-328.843 1169.03,-322.115"/>
<text text-anchor="start" x="1206" y="-331.311" font-family="Helvetica,sans-Serif" font-size="10.00"> &lt; HoloGen::Mask::Options</text>
<text text-anchor="middle" x="1279" y="-320.311" font-family="Helvetica,sans-Serif" font-size="10.00">::MouseType::MousePossibility &gt;</text>
</g>
<!-- Node36 -->
<g id="node24" class="node"><title>Node36</title>
<g id="a_node24"><a xlink:href="class_holo_gen_1_1_hierarchy_1_1_hierarchy_1_1_possibility_collection.html" target="_top" xlink:title="PossibilityCollection\l\&lt; MousePossibility \&gt;">
<polygon fill="white" stroke="black" points="1380.5,-328.311 1380.5,-358.311 1489.5,-358.311 1489.5,-328.311 1380.5,-328.311"/>
<text text-anchor="start" x="1388.5" y="-346.311" font-family="Helvetica,sans-Serif" font-size="10.00">PossibilityCollection</text>
<text text-anchor="middle" x="1435" y="-335.311" font-family="Helvetica,sans-Serif" font-size="10.00">&lt; MousePossibility &gt;</text>
</a>
</g>
</g>
<!-- Node34&#45;&gt;Node36 -->
<g id="edge35" class="edge"><title>Node34&#45;&gt;Node36</title>
<path fill="none" stroke="orange" stroke-dasharray="5,2" d="M1198.3,-343.311C1255.71,-343.311 1330.65,-343.311 1380.46,-343.311"/>
<polygon fill="orange" stroke="orange" points="1198.16,-339.811 1188.16,-343.311 1198.16,-346.811 1198.16,-339.811"/>
<text text-anchor="middle" x="1279" y="-346.311" font-family="Helvetica,sans-Serif" font-size="10.00"> &lt; MousePossibility &gt;</text>
</g>
<!-- Node35 -->
<g id="node23" class="node"><title>Node35</title>
<g id="a_node23"><a xlink:href="class_holo_gen_1_1_mask_1_1_options_1_1_mouse_type_1_1_mouse_possibilities.html" target="_top" xlink:title="Possibilities collection for the image mask operation selection. ">
<polygon fill="white" stroke="black" points="1760.5,-328.311 1760.5,-358.311 1910.5,-358.311 1910.5,-328.311 1760.5,-328.311"/>
<text text-anchor="start" x="1768.5" y="-346.311" font-family="Helvetica,sans-Serif" font-size="10.00">HoloGen.Mask.Options.Mouse</text>
<text text-anchor="middle" x="1835.5" y="-335.311" font-family="Helvetica,sans-Serif" font-size="10.00">Type.MousePossibilities</text>
</a>
</g>
</g>
<!-- Node35&#45;&gt;Node13 -->
<g id="edge33" class="edge"><title>Node35&#45;&gt;Node13</title>
<path fill="none" stroke="#9a32cd" stroke-dasharray="5,2" d="M1920.74,-328.298C1951.23,-322.865 1985.4,-316.774 2014.95,-311.508"/>
<polygon fill="#9a32cd" stroke="#9a32cd" points="1919.78,-324.913 1910.55,-330.114 1921.01,-331.805 1919.78,-324.913"/>
<text text-anchor="middle" x="1966.5" y="-328.311" font-family="Helvetica,sans-Serif" font-size="10.00"> Possibilities2</text>
</g>
<!-- Node36&#45;&gt;Node35 -->
<g id="edge34" class="edge"><title>Node36&#45;&gt;Node35</title>
<path fill="none" stroke="midnightblue" d="M1499.89,-343.311C1570.89,-343.311 1685.37,-343.311 1760.28,-343.311"/>
<polygon fill="midnightblue" stroke="midnightblue" points="1499.74,-339.811 1489.74,-343.311 1499.74,-346.811 1499.74,-339.811"/>
</g>
</g>
</svg>
