<?xml version="1.0" encoding="UTF-8" standalone="no"?>
<!DOCTYPE svg PUBLIC "-//W3C//DTD SVG 1.1//EN"
 "http://www.w3.org/Graphics/SVG/1.1/DTD/svg11.dtd">
<!-- Generated by graphviz version 2.38.0 (20140413.2041)
 -->
<!-- Title: HoloGen.IO.JsonImageFileSaver Pages: 1 -->
<svg width="241pt" height="264pt"
 viewBox="0.00 0.00 241.00 264.00" xmlns="http://www.w3.org/2000/svg" xmlns:xlink="http://www.w3.org/1999/xlink">
<g id="graph0" class="graph" transform="scale(1 1) rotate(0) translate(4 260)">
<title>HoloGen.IO.JsonImageFileSaver</title>
<polygon fill="white" stroke="none" points="-4,4 -4,-260 237,-260 237,4 -4,4"/>
<!-- Node4 -->
<g id="node1" class="node"><title>Node4</title>
<polygon fill="#bfbfbf" stroke="black" points="19,-0.5 19,-30.5 151,-30.5 151,-0.5 19,-0.5"/>
<text text-anchor="start" x="27" y="-18.5" font-family="Helvetica,sans-Serif" font-size="10.00">HoloGen.IO.JsonImageFile</text>
<text text-anchor="middle" x="85" y="-7.5" font-family="Helvetica,sans-Serif" font-size="10.00">Saver</text>
</g>
<!-- Node5 -->
<g id="node2" class="node"><title>Node5</title>
<g id="a_node2"><a xlink:href="class_holo_gen_1_1_i_o_1_1_json_file_saver.html" target="_top" xlink:title="JsonFileSaver\&lt; ComplexImage,\l ComplexImageVersion, JsonImage\lSerialiser \&gt;">
<polygon fill="white" stroke="black" points="0,-68.5 0,-109.5 170,-109.5 170,-68.5 0,-68.5"/>
<text text-anchor="start" x="8" y="-97.5" font-family="Helvetica,sans-Serif" font-size="10.00">JsonFileSaver&lt; ComplexImage,</text>
<text text-anchor="start" x="8" y="-86.5" font-family="Helvetica,sans-Serif" font-size="10.00"> ComplexImageVersion, JsonImage</text>
<text text-anchor="middle" x="85" y="-75.5" font-family="Helvetica,sans-Serif" font-size="10.00">Serialiser &gt;</text>
</a>
</g>
</g>
<!-- Node5&#45;&gt;Node4 -->
<g id="edge1" class="edge"><title>Node5&#45;&gt;Node4</title>
<path fill="none" stroke="midnightblue" d="M85,-58.1581C85,-48.6872 85,-38.6473 85,-30.7972"/>
<polygon fill="midnightblue" stroke="midnightblue" points="81.5001,-58.4623 85,-68.4623 88.5001,-58.4623 81.5001,-58.4623"/>
</g>
<!-- Node6 -->
<g id="node3" class="node"><title>Node6</title>
<g id="a_node3"><a xlink:href="class_holo_gen_1_1_i_o_1_1_json_file_saver.html" target="_top" xlink:title="Saver for files in a JSON format ">
<polygon fill="white" stroke="black" points="20,-168.5 20,-198.5 150,-198.5 150,-168.5 20,-168.5"/>
<text text-anchor="start" x="28" y="-186.5" font-family="Helvetica,sans-Serif" font-size="10.00">HoloGen.IO.JsonFileSaver</text>
<text text-anchor="middle" x="85" y="-175.5" font-family="Helvetica,sans-Serif" font-size="10.00">&lt; S, T, U &gt;</text>
</a>
</g>
</g>
<!-- Node6&#45;&gt;Node5 -->
<g id="edge2" class="edge"><title>Node6&#45;&gt;Node5</title>
<path fill="none" stroke="orange" stroke-dasharray="5,2" d="M85,-158.282C85,-143.138 85,-123.882 85,-109.682"/>
<polygon fill="orange" stroke="orange" points="81.5001,-158.451 85,-168.451 88.5001,-158.451 81.5001,-158.451"/>
<text text-anchor="start" x="85" y="-142" font-family="Helvetica,sans-Serif" font-size="10.00"> &lt; ComplexImage, ComplexImage</text>
<text text-anchor="middle" x="159" y="-131" font-family="Helvetica,sans-Serif" font-size="10.00">Version, JsonImageSerialiser &gt;</text>
</g>
<!-- Node7 -->
<g id="node4" class="node"><title>Node7</title>
<g id="a_node4"><a xlink:href="class_holo_gen_1_1_i_o_1_1_file_saver.html" target="_top" xlink:title="Abstract file saver interface ">
<polygon fill="white" stroke="black" points="32.5,-236.5 32.5,-255.5 137.5,-255.5 137.5,-236.5 32.5,-236.5"/>
<text text-anchor="middle" x="85" y="-243.5" font-family="Helvetica,sans-Serif" font-size="10.00">FileSaver&lt; S, T, U &gt;</text>
</a>
</g>
</g>
<!-- Node7&#45;&gt;Node6 -->
<g id="edge3" class="edge"><title>Node7&#45;&gt;Node6</title>
<path fill="none" stroke="midnightblue" d="M85,-226.215C85,-217.356 85,-206.958 85,-198.759"/>
<polygon fill="midnightblue" stroke="midnightblue" points="81.5001,-226.332 85,-236.332 88.5001,-226.332 81.5001,-226.332"/>
</g>
</g>
</svg>
