<?xml version="1.0" encoding="UTF-8" standalone="no"?>
<!DOCTYPE svg PUBLIC "-//W3C//DTD SVG 1.1//EN"
 "http://www.w3.org/Graphics/SVG/1.1/DTD/svg11.dtd">
<!-- Generated by graphviz version 2.38.0 (20140413.2041)
 -->
<!-- Title: HoloGen.Options.Output.Run.RunFile Pages: 1 -->
<svg width="533pt" height="354pt"
 viewBox="0.00 0.00 532.50 354.00" xmlns="http://www.w3.org/2000/svg" xmlns:xlink="http://www.w3.org/1999/xlink">
<g id="graph0" class="graph" transform="scale(1 1) rotate(0) translate(4 350)">
<title>HoloGen.Options.Output.Run.RunFile</title>
<polygon fill="white" stroke="none" points="-4,4 -4,-350 528.5,-350 528.5,4 -4,4"/>
<!-- Node0 -->
<g id="node1" class="node"><title>Node0</title>
<polygon fill="#bfbfbf" stroke="black" points="165.5,-0.5 165.5,-30.5 311.5,-30.5 311.5,-0.5 165.5,-0.5"/>
<text text-anchor="start" x="173.5" y="-18.5" font-family="Helvetica,sans-Serif" font-size="10.00">HoloGen.Options.Output.Run.</text>
<text text-anchor="middle" x="238.5" y="-7.5" font-family="Helvetica,sans-Serif" font-size="10.00">RunFile</text>
</g>
<!-- Node1 -->
<g id="node2" class="node"><title>Node1</title>
<g id="a_node2"><a xlink:href="class_holo_gen_1_1_hierarchy_1_1_option_types_1_1_path_option.html" target="_top" xlink:title="Extends Option wrapping a FileInfo parameter. Implements ILargeOption. This tells HierarchyFolder tha...">
<polygon fill="white" stroke="black" points="206,-68.5 206,-87.5 271,-87.5 271,-68.5 206,-68.5"/>
<text text-anchor="middle" x="238.5" y="-75.5" font-family="Helvetica,sans-Serif" font-size="10.00">PathOption</text>
</a>
</g>
</g>
<!-- Node1&#45;&gt;Node0 -->
<g id="edge1" class="edge"><title>Node1&#45;&gt;Node0</title>
<path fill="none" stroke="midnightblue" d="M238.5,-58.2154C238.5,-49.3565 238.5,-38.9577 238.5,-30.7587"/>
<polygon fill="midnightblue" stroke="midnightblue" points="235,-58.3318 238.5,-68.3318 242,-58.3319 235,-58.3318"/>
</g>
<!-- Node2 -->
<g id="node3" class="node"><title>Node2</title>
<g id="a_node3"><a xlink:href="class_holo_gen_1_1_hierarchy_1_1_option_types_1_1_option.html" target="_top" xlink:title="Option\&lt; FileInfo \&gt;">
<polygon fill="white" stroke="black" points="107.5,-125.5 107.5,-144.5 201.5,-144.5 201.5,-125.5 107.5,-125.5"/>
<text text-anchor="middle" x="154.5" y="-132.5" font-family="Helvetica,sans-Serif" font-size="10.00">Option&lt; FileInfo &gt;</text>
</a>
</g>
</g>
<!-- Node2&#45;&gt;Node1 -->
<g id="edge2" class="edge"><title>Node2&#45;&gt;Node1</title>
<path fill="none" stroke="midnightblue" d="M176.15,-119.824C191.758,-109.605 212.31,-96.1483 225.467,-87.5334"/>
<polygon fill="midnightblue" stroke="midnightblue" points="174.074,-117 167.625,-125.406 177.908,-122.857 174.074,-117"/>
</g>
<!-- Node3 -->
<g id="node4" class="node"><title>Node3</title>
<g id="a_node4"><a xlink:href="class_holo_gen_1_1_hierarchy_1_1_option_types_1_1_option.html" target="_top" xlink:title="Root hierarchy element. Defines Name and ToolTip fields that must be implemented by any implementors...">
<polygon fill="white" stroke="black" points="85.5,-201.5 85.5,-231.5 215.5,-231.5 215.5,-201.5 85.5,-201.5"/>
<text text-anchor="start" x="93.5" y="-219.5" font-family="Helvetica,sans-Serif" font-size="10.00">HoloGen.Hierarchy.Option</text>
<text text-anchor="middle" x="150.5" y="-208.5" font-family="Helvetica,sans-Serif" font-size="10.00">Types.Option&lt; T &gt;</text>
</a>
</g>
</g>
<!-- Node3&#45;&gt;Node2 -->
<g id="edge3" class="edge"><title>Node3&#45;&gt;Node2</title>
<path fill="none" stroke="orange" stroke-dasharray="5,2" d="M146.418,-191.104C145.518,-182.227 145.175,-172.133 146.5,-163 147.398,-156.807 149.398,-150.057 151.174,-144.855"/>
<polygon fill="orange" stroke="orange" points="142.967,-191.712 147.718,-201.182 149.91,-190.816 142.967,-191.712"/>
<text text-anchor="middle" x="172.5" y="-170.5" font-family="Helvetica,sans-Serif" font-size="10.00"> &lt; FileInfo &gt;</text>
</g>
<!-- Node4 -->
<g id="node5" class="node"><title>Node4</title>
<g id="a_node5"><a xlink:href="class_holo_gen_1_1_utils_1_1_observable_object.html" target="_top" xlink:title="Observable object with INotifyPropertyChanged implemented ">
<polygon fill="white" stroke="black" points="36,-269.5 36,-288.5 129,-288.5 129,-269.5 36,-269.5"/>
<text text-anchor="middle" x="82.5" y="-276.5" font-family="Helvetica,sans-Serif" font-size="10.00">ObservableObject</text>
</a>
</g>
</g>
<!-- Node4&#45;&gt;Node3 -->
<g id="edge4" class="edge"><title>Node4&#45;&gt;Node3</title>
<path fill="none" stroke="midnightblue" d="M99.7871,-262.62C110.545,-253.048 124.275,-240.832 134.735,-231.526"/>
<polygon fill="midnightblue" stroke="midnightblue" points="97.3874,-260.07 92.2427,-269.332 102.04,-265.3 97.3874,-260.07"/>
</g>
<!-- Node5 -->
<g id="node6" class="node"><title>Node5</title>
<polygon fill="white" stroke="#bfbfbf" points="0,-326.5 0,-345.5 119,-345.5 119,-326.5 0,-326.5"/>
<text text-anchor="middle" x="59.5" y="-333.5" font-family="Helvetica,sans-Serif" font-size="10.00">INotifyPropertyChanged</text>
</g>
<!-- Node5&#45;&gt;Node4 -->
<g id="edge5" class="edge"><title>Node5&#45;&gt;Node4</title>
<path fill="none" stroke="midnightblue" d="M67.0141,-317.031C70.9872,-307.531 75.6846,-296.298 78.8556,-288.715"/>
<polygon fill="midnightblue" stroke="midnightblue" points="63.7228,-315.83 63.0938,-326.406 70.1809,-318.531 63.7228,-315.83"/>
</g>
<!-- Node6 -->
<g id="node7" class="node"><title>Node6</title>
<g id="a_node7"><a xlink:href="interface_holo_gen_1_1_hierarchy_1_1_option_types_1_1_i_option.html" target="_top" xlink:title="Base interface for the Option that doesn&#39;t need a template parameter. Necessary for a number of refle...">
<polygon fill="white" stroke="black" points="220,-269.5 220,-288.5 267,-288.5 267,-269.5 220,-269.5"/>
<text text-anchor="middle" x="243.5" y="-276.5" font-family="Helvetica,sans-Serif" font-size="10.00">IOption</text>
</a>
</g>
</g>
<!-- Node5&#45;&gt;Node6 -->
<g id="edge11" class="edge"><title>Node5&#45;&gt;Node6</title>
<path fill="none" stroke="midnightblue" d="M98.1346,-323.452C134.938,-312.451 189.156,-296.244 219.916,-287.05"/>
<polygon fill="midnightblue" stroke="midnightblue" points="96.8287,-320.189 88.25,-326.406 98.8335,-326.896 96.8287,-320.189"/>
</g>
<!-- Node6&#45;&gt;Node3 -->
<g id="edge6" class="edge"><title>Node6&#45;&gt;Node3</title>
<path fill="none" stroke="midnightblue" d="M221.569,-263.733C206.623,-254.01 186.927,-241.197 172.061,-231.526"/>
<polygon fill="midnightblue" stroke="midnightblue" points="219.884,-266.813 230.175,-269.332 223.702,-260.945 219.884,-266.813"/>
</g>
<!-- Node13 -->
<g id="node14" class="node"><title>Node13</title>
<g id="a_node14"><a xlink:href="interface_holo_gen_1_1_hierarchy_1_1_option_types_1_1_i_large_option.html" target="_top" xlink:title="Implements the IOption interface and is implemented by any Option extensions that want to be picked u...">
<polygon fill="white" stroke="black" points="208,-163.5 208,-182.5 279,-182.5 279,-163.5 208,-163.5"/>
<text text-anchor="middle" x="243.5" y="-170.5" font-family="Helvetica,sans-Serif" font-size="10.00">ILargeOption</text>
</a>
</g>
</g>
<!-- Node6&#45;&gt;Node13 -->
<g id="edge15" class="edge"><title>Node6&#45;&gt;Node13</title>
<path fill="none" stroke="midnightblue" d="M243.5,-259.434C243.5,-236.774 243.5,-199.408 243.5,-182.628"/>
<polygon fill="midnightblue" stroke="midnightblue" points="240,-259.489 243.5,-269.489 247,-259.489 240,-259.489"/>
</g>
<!-- Node7 -->
<g id="node8" class="node"><title>Node7</title>
<g id="a_node8"><a xlink:href="interface_holo_gen_1_1_hierarchy_1_1_hierarchy_1_1_i_can_error.html" target="_top" xlink:title="Interface implemented by any classes that can be in an error state. Defines the Valid property that c...">
<polygon fill="white" stroke="black" points="137,-326.5 137,-345.5 194,-345.5 194,-326.5 137,-326.5"/>
<text text-anchor="middle" x="165.5" y="-333.5" font-family="Helvetica,sans-Serif" font-size="10.00">ICanError</text>
</a>
</g>
</g>
<!-- Node7&#45;&gt;Node6 -->
<g id="edge7" class="edge"><title>Node7&#45;&gt;Node6</title>
<path fill="none" stroke="midnightblue" d="M186.011,-320.537C200.453,-310.354 219.295,-297.068 231.398,-288.533"/>
<polygon fill="midnightblue" stroke="midnightblue" points="183.843,-317.783 177.688,-326.406 187.877,-323.504 183.843,-317.783"/>
</g>
<!-- Node8 -->
<g id="node9" class="node"><title>Node8</title>
<g id="a_node9"><a xlink:href="interface_holo_gen_1_1_hierarchy_1_1_hierarchy_1_1_i_has_name.html" target="_top" xlink:title="Interface implemented by any classes that have a Name property. ">
<polygon fill="white" stroke="black" points="212.5,-326.5 212.5,-345.5 274.5,-345.5 274.5,-326.5 212.5,-326.5"/>
<text text-anchor="middle" x="243.5" y="-333.5" font-family="Helvetica,sans-Serif" font-size="10.00">IHasName</text>
</a>
</g>
</g>
<!-- Node8&#45;&gt;Node6 -->
<g id="edge8" class="edge"><title>Node8&#45;&gt;Node6</title>
<path fill="none" stroke="midnightblue" d="M243.5,-316.117C243.5,-306.817 243.5,-296.056 243.5,-288.715"/>
<polygon fill="midnightblue" stroke="midnightblue" points="240,-316.406 243.5,-326.406 247,-316.406 240,-316.406"/>
</g>
<!-- Node9 -->
<g id="node10" class="node"><title>Node9</title>
<g id="a_node10"><a xlink:href="interface_holo_gen_1_1_hierarchy_1_1_hierarchy_1_1_i_has_tool_tip.html" target="_top" xlink:title="Interface implemented by any classes that have a ToolTip property. ">
<polygon fill="white" stroke="black" points="293,-326.5 293,-345.5 360,-345.5 360,-326.5 293,-326.5"/>
<text text-anchor="middle" x="326.5" y="-333.5" font-family="Helvetica,sans-Serif" font-size="10.00">IHasToolTip</text>
</a>
</g>
</g>
<!-- Node9&#45;&gt;Node6 -->
<g id="edge9" class="edge"><title>Node9&#45;&gt;Node6</title>
<path fill="none" stroke="midnightblue" d="M305.108,-320.824C289.686,-310.605 269.378,-297.148 256.378,-288.533"/>
<polygon fill="midnightblue" stroke="midnightblue" points="303.262,-323.8 313.531,-326.406 307.129,-317.965 303.262,-323.8"/>
</g>
<!-- Node10 -->
<g id="node11" class="node"><title>Node10</title>
<g id="a_node11"><a xlink:href="interface_holo_gen_1_1_hierarchy_1_1_hierarchy_1_1_i_can_enable.html" target="_top" xlink:title="Interface implemented by any classes that can be enabled Enabled. ">
<polygon fill="white" stroke="black" points="378.5,-326.5 378.5,-345.5 444.5,-345.5 444.5,-326.5 378.5,-326.5"/>
<text text-anchor="middle" x="411.5" y="-333.5" font-family="Helvetica,sans-Serif" font-size="10.00">ICanEnable</text>
</a>
</g>
</g>
<!-- Node10&#45;&gt;Node6 -->
<g id="edge10" class="edge"><title>Node10&#45;&gt;Node6</title>
<path fill="none" stroke="midnightblue" d="M375.592,-323.244C342.827,-312.518 295.341,-296.972 267.125,-287.734"/>
<polygon fill="midnightblue" stroke="midnightblue" points="374.657,-326.621 385.25,-326.406 376.835,-319.969 374.657,-326.621"/>
</g>
<!-- Node11 -->
<g id="node12" class="node"><title>Node11</title>
<g id="a_node12"><a xlink:href="interface_holo_gen_1_1_hierarchy_1_1_hierarchy_1_1_i_can_reset.html" target="_top" xlink:title="Interface implemented by any classes that can be reset. ">
<polygon fill="white" stroke="black" points="462.5,-326.5 462.5,-345.5 524.5,-345.5 524.5,-326.5 462.5,-326.5"/>
<text text-anchor="middle" x="493.5" y="-333.5" font-family="Helvetica,sans-Serif" font-size="10.00">ICanReset</text>
</a>
</g>
</g>
<!-- Node11&#45;&gt;Node6 -->
<g id="edge12" class="edge"><title>Node11&#45;&gt;Node6</title>
<path fill="none" stroke="midnightblue" d="M452.608,-325.811C379.121,-309.514 304.341,-293.219 267.13,-285.13"/>
<polygon fill="midnightblue" stroke="midnightblue" points="451.974,-329.256 462.495,-328.006 453.491,-322.422 451.974,-329.256"/>
</g>
<!-- Node12 -->
<g id="node13" class="node"><title>Node12</title>
<g id="a_node13"><a xlink:href="interface_holo_gen_1_1_hierarchy_1_1_hierarchy_1_1_i_has_watermark.html" target="_top" xlink:title="Interface implemented by any classes that have a Watermark property. ">
<polygon fill="white" stroke="black" points="266.5,-125.5 266.5,-144.5 350.5,-144.5 350.5,-125.5 266.5,-125.5"/>
<text text-anchor="middle" x="308.5" y="-132.5" font-family="Helvetica,sans-Serif" font-size="10.00">IHasWatermark</text>
</a>
</g>
</g>
<!-- Node12&#45;&gt;Node1 -->
<g id="edge13" class="edge"><title>Node12&#45;&gt;Node1</title>
<path fill="none" stroke="midnightblue" d="M289.407,-118.998C276.633,-108.962 260.269,-96.1044 249.592,-87.7149"/>
<polygon fill="midnightblue" stroke="midnightblue" points="287.537,-121.98 297.563,-125.406 291.862,-116.476 287.537,-121.98"/>
</g>
<!-- Node13&#45;&gt;Node1 -->
<g id="edge14" class="edge"><title>Node13&#45;&gt;Node1</title>
<path fill="none" stroke="midnightblue" d="M242.497,-153.343C241.421,-133.331 239.759,-102.426 238.96,-87.5618"/>
<polygon fill="midnightblue" stroke="midnightblue" points="239.007,-153.62 243.039,-163.417 245.997,-153.244 239.007,-153.62"/>
</g>
</g>
</svg>
