<?xml version="1.0" encoding="UTF-8" standalone="no"?>
<!DOCTYPE svg PUBLIC "-//W3C//DTD SVG 1.1//EN"
 "http://www.w3.org/Graphics/SVG/1.1/DTD/svg11.dtd">
<!-- Generated by graphviz version 2.38.0 (20140413.2041)
 -->
<!-- Title: HoloGen.UI.Commands.OpenFileCommand.Execute Pages: 1 -->
<svg width="348pt" height="127pt"
 viewBox="0.00 0.00 348.00 127.00" xmlns="http://www.w3.org/2000/svg" xmlns:xlink="http://www.w3.org/1999/xlink">
<g id="graph0" class="graph" transform="scale(1 1) rotate(0) translate(4 123)">
<title>HoloGen.UI.Commands.OpenFileCommand.Execute</title>
<polygon fill="white" stroke="none" points="-4,4 -4,-123 344,-123 344,4 -4,4"/>
<!-- Node2 -->
<g id="node1" class="node"><title>Node2</title>
<polygon fill="#bfbfbf" stroke="black" points="0,-44.5 0,-74.5 145,-74.5 145,-44.5 0,-44.5"/>
<text text-anchor="start" x="8" y="-62.5" font-family="Helvetica,sans-Serif" font-size="10.00">HoloGen.UI.Commands.Open</text>
<text text-anchor="middle" x="72.5" y="-51.5" font-family="Helvetica,sans-Serif" font-size="10.00">FileCommand.Execute</text>
</g>
<!-- Node3 -->
<g id="node2" class="node"><title>Node3</title>
<g id="a_node2"><a xlink:href="class_holo_gen_1_1_u_i_1_1_utils_1_1_tab_handler_framework.html#a44d3e2cdde5c80b9278faf280df91673" target="_top" xlink:title="HoloGen.UI.Utils.TabHandler\lFramework.GetActiveHandler">
<polygon fill="white" stroke="black" points="189,-88.5 189,-118.5 332,-118.5 332,-88.5 189,-88.5"/>
<text text-anchor="start" x="197" y="-106.5" font-family="Helvetica,sans-Serif" font-size="10.00">HoloGen.UI.Utils.TabHandler</text>
<text text-anchor="middle" x="260.5" y="-95.5" font-family="Helvetica,sans-Serif" font-size="10.00">Framework.GetActiveHandler</text>
</a>
</g>
</g>
<!-- Node2&#45;&gt;Node3 -->
<g id="edge1" class="edge"><title>Node2&#45;&gt;Node3</title>
<path fill="none" stroke="midnightblue" d="M136.99,-74.5192C152.765,-78.2508 169.803,-82.2814 186.013,-86.116"/>
<polygon fill="midnightblue" stroke="midnightblue" points="185.443,-89.5777 195.98,-88.4738 187.054,-82.7657 185.443,-89.5777"/>
</g>
<!-- Node4 -->
<g id="node3" class="node"><title>Node4</title>
<g id="a_node3"><a xlink:href="class_holo_gen_1_1_i_o_1_1_json_file_loader.html#a9776c40f1c45c42f642fcd701c2bfbb5" target="_top" xlink:title="HoloGen.IO.JsonFileLoader.Load">
<polygon fill="white" stroke="black" points="181,-50 181,-69 340,-69 340,-50 181,-50"/>
<text text-anchor="middle" x="260.5" y="-57" font-family="Helvetica,sans-Serif" font-size="10.00">HoloGen.IO.JsonFileLoader.Load</text>
</a>
</g>
</g>
<!-- Node2&#45;&gt;Node4 -->
<g id="edge2" class="edge"><title>Node2&#45;&gt;Node4</title>
<path fill="none" stroke="midnightblue" d="M145.146,-59.5C153.532,-59.5 162.162,-59.5 170.744,-59.5"/>
<polygon fill="midnightblue" stroke="midnightblue" points="170.778,-63.0001 180.778,-59.5 170.778,-56.0001 170.778,-63.0001"/>
</g>
<!-- Node5 -->
<g id="node4" class="node"><title>Node5</title>
<g id="a_node4"><a xlink:href="class_holo_gen_1_1_u_i_1_1_main_window_view_model.html#a16e225812ffca00b22e9437072e5c4bb" target="_top" xlink:title="HoloGen.UI.MainWindowView\lModel.AddTab">
<polygon fill="white" stroke="black" points="187.5,-0.5 187.5,-30.5 333.5,-30.5 333.5,-0.5 187.5,-0.5"/>
<text text-anchor="start" x="195.5" y="-18.5" font-family="Helvetica,sans-Serif" font-size="10.00">HoloGen.UI.MainWindowView</text>
<text text-anchor="middle" x="260.5" y="-7.5" font-family="Helvetica,sans-Serif" font-size="10.00">Model.AddTab</text>
</a>
</g>
</g>
<!-- Node2&#45;&gt;Node5 -->
<g id="edge3" class="edge"><title>Node2&#45;&gt;Node5</title>
<path fill="none" stroke="midnightblue" d="M136.99,-44.4808C152.765,-40.7492 169.803,-36.7186 186.013,-32.884"/>
<polygon fill="midnightblue" stroke="midnightblue" points="187.054,-36.2343 195.98,-30.5262 185.443,-29.4223 187.054,-36.2343"/>
</g>
</g>
</svg>
