<?xml version="1.0" encoding="UTF-8" standalone="no"?>
<!DOCTYPE svg PUBLIC "-//W3C//DTD SVG 1.1//EN"
 "http://www.w3.org/Graphics/SVG/1.1/DTD/svg11.dtd">
<!-- Generated by graphviz version 2.38.0 (20140413.2041)
 -->
<!-- Title: HoloGen.UI.ViewModels.BatchTabViewModel Pages: 1 -->
<svg width="204pt" height="299pt"
 viewBox="0.00 0.00 203.50 299.00" xmlns="http://www.w3.org/2000/svg" xmlns:xlink="http://www.w3.org/1999/xlink">
<g id="graph0" class="graph" transform="scale(1 1) rotate(0) translate(4 295)">
<title>HoloGen.UI.ViewModels.BatchTabViewModel</title>
<polygon fill="white" stroke="none" points="-4,4 -4,-295 199.5,-295 199.5,4 -4,4"/>
<!-- Node0 -->
<g id="node1" class="node"><title>Node0</title>
<polygon fill="#bfbfbf" stroke="black" points="5.5,-0.5 5.5,-30.5 155.5,-30.5 155.5,-0.5 5.5,-0.5"/>
<text text-anchor="start" x="13.5" y="-18.5" font-family="Helvetica,sans-Serif" font-size="10.00">HoloGen.UI.ViewModels.Batch</text>
<text text-anchor="middle" x="80.5" y="-7.5" font-family="Helvetica,sans-Serif" font-size="10.00">TabViewModel</text>
</g>
<!-- Node1 -->
<g id="node2" class="node"><title>Node1</title>
<g id="a_node2"><a xlink:href="class_holo_gen_1_1_u_i_1_1_view_models_1_1_abstract_tab_view_model.html" target="_top" xlink:title="AbstractTabViewModel\l\&lt; OptionsRoot \&gt;">
<polygon fill="white" stroke="black" points="22.5,-68.5 22.5,-98.5 138.5,-98.5 138.5,-68.5 22.5,-68.5"/>
<text text-anchor="start" x="30.5" y="-86.5" font-family="Helvetica,sans-Serif" font-size="10.00">AbstractTabViewModel</text>
<text text-anchor="middle" x="80.5" y="-75.5" font-family="Helvetica,sans-Serif" font-size="10.00">&lt; OptionsRoot &gt;</text>
</a>
</g>
</g>
<!-- Node1&#45;&gt;Node0 -->
<g id="edge1" class="edge"><title>Node1&#45;&gt;Node0</title>
<path fill="none" stroke="midnightblue" d="M80.5,-58.0322C80.5,-48.8606 80.5,-38.7449 80.5,-30.7931"/>
<polygon fill="midnightblue" stroke="midnightblue" points="77.0001,-58.1789 80.5,-68.179 84.0001,-58.179 77.0001,-58.1789"/>
</g>
<!-- Node2 -->
<g id="node3" class="node"><title>Node2</title>
<g id="a_node3"><a xlink:href="class_holo_gen_1_1_u_i_1_1_view_models_1_1_abstract_tab_view_model.html" target="_top" xlink:title="HoloGen tab viewmodel ">
<polygon fill="white" stroke="black" points="0,-146.5 0,-176.5 161,-176.5 161,-146.5 0,-146.5"/>
<text text-anchor="start" x="8" y="-164.5" font-family="Helvetica,sans-Serif" font-size="10.00">HoloGen.UI.ViewModels.Abstract</text>
<text text-anchor="middle" x="80.5" y="-153.5" font-family="Helvetica,sans-Serif" font-size="10.00">TabViewModel&lt; T &gt;</text>
</a>
</g>
</g>
<!-- Node2&#45;&gt;Node1 -->
<g id="edge2" class="edge"><title>Node2&#45;&gt;Node1</title>
<path fill="none" stroke="orange" stroke-dasharray="5,2" d="M80.5,-136.09C80.5,-123.757 80.5,-109.224 80.5,-98.7309"/>
<polygon fill="orange" stroke="orange" points="77.0001,-136.205 80.5,-146.205 84.0001,-136.205 77.0001,-136.205"/>
<text text-anchor="middle" x="118.5" y="-120" font-family="Helvetica,sans-Serif" font-size="10.00"> &lt; OptionsRoot &gt;</text>
</g>
<!-- Node3 -->
<g id="node4" class="node"><title>Node3</title>
<g id="a_node4"><a xlink:href="class_holo_gen_1_1_utils_1_1_observable_object.html" target="_top" xlink:title="Observable object with INotifyPropertyChanged implemented ">
<polygon fill="white" stroke="black" points="2,-214.5 2,-233.5 95,-233.5 95,-214.5 2,-214.5"/>
<text text-anchor="middle" x="48.5" y="-221.5" font-family="Helvetica,sans-Serif" font-size="10.00">ObservableObject</text>
</a>
</g>
</g>
<!-- Node3&#45;&gt;Node2 -->
<g id="edge3" class="edge"><title>Node3&#45;&gt;Node2</title>
<path fill="none" stroke="midnightblue" d="M57.8159,-205.387C62.6302,-196.285 68.4288,-185.322 72.9582,-176.759"/>
<polygon fill="midnightblue" stroke="midnightblue" points="54.6665,-203.856 53.0848,-214.332 60.8543,-207.129 54.6665,-203.856"/>
</g>
<!-- Node4 -->
<g id="node5" class="node"><title>Node4</title>
<polygon fill="white" stroke="#bfbfbf" points="51,-271.5 51,-290.5 170,-290.5 170,-271.5 51,-271.5"/>
<text text-anchor="middle" x="110.5" y="-278.5" font-family="Helvetica,sans-Serif" font-size="10.00">INotifyPropertyChanged</text>
</g>
<!-- Node4&#45;&gt;Node3 -->
<g id="edge4" class="edge"><title>Node4&#45;&gt;Node3</title>
<path fill="none" stroke="midnightblue" d="M93.2617,-264.708C81.9969,-254.715 67.6904,-242.024 58.3241,-233.715"/>
<polygon fill="midnightblue" stroke="midnightblue" points="91.0091,-267.388 100.813,-271.406 95.6544,-262.152 91.0091,-267.388"/>
</g>
<!-- Node5 -->
<g id="node6" class="node"><title>Node5</title>
<g id="a_node6"><a xlink:href="interface_holo_gen_1_1_u_i_1_1_utils_1_1_i_tab_view_model.html" target="_top" xlink:title="Tab view model interface ">
<polygon fill="white" stroke="black" points="113.5,-214.5 113.5,-233.5 195.5,-233.5 195.5,-214.5 113.5,-214.5"/>
<text text-anchor="middle" x="154.5" y="-221.5" font-family="Helvetica,sans-Serif" font-size="10.00">ITabViewModel</text>
</a>
</g>
</g>
<!-- Node4&#45;&gt;Node5 -->
<g id="edge6" class="edge"><title>Node4&#45;&gt;Node5</title>
<path fill="none" stroke="midnightblue" d="M123.674,-263.532C131.511,-253.736 141.139,-241.701 147.528,-233.715"/>
<polygon fill="midnightblue" stroke="midnightblue" points="120.889,-261.411 117.375,-271.406 126.355,-265.784 120.889,-261.411"/>
</g>
<!-- Node5&#45;&gt;Node2 -->
<g id="edge5" class="edge"><title>Node5&#45;&gt;Node2</title>
<path fill="none" stroke="midnightblue" d="M136.031,-207.9C124.273,-198.288 109.15,-185.923 97.6558,-176.526"/>
<polygon fill="midnightblue" stroke="midnightblue" points="133.94,-210.712 143.898,-214.332 138.371,-205.293 133.94,-210.712"/>
</g>
</g>
</svg>
