<?xml version="1.0" encoding="UTF-8" standalone="no"?>
<!DOCTYPE svg PUBLIC "-//W3C//DTD SVG 1.1//EN"
 "http://www.w3.org/Graphics/SVG/1.1/DTD/svg11.dtd">
<!-- Generated by graphviz version 2.38.0 (20140413.2041)
 -->
<!-- Title: HoloGen.IO.JsonFileSaver&lt; S, T, U &gt; Pages: 1 -->
<!--zoomable 182 -->
<svg id="main" version="1.1" xmlns="http://www.w3.org/2000/svg" xmlns:xlink="http://www.w3.org/1999/xlink" xml:space="preserve" onload="init(evt)">
<style type="text/css"><![CDATA[
.edge:hover path { stroke: red; }
.edge:hover polygon { stroke: red; fill: red; }
]]></style>
<script type="text/javascript"><![CDATA[
var edges = document.getElementsByTagName('g');
if (edges && edges.length) {
  for (var i=0;i<edges.length;i++) {
    if (edges[i].id.substr(0,4)=='edge') {
      edges[i].setAttribute('class','edge');
    }
  }
}
]]></script>
        <defs>
                <circle id="rim" cx="0" cy="0" r="7"/>
                <circle id="rim2" cx="0" cy="0" r="3.5"/>
                <g id="zoomPlus">
                        <use xlink:href="#rim" fill="#404040">
                                <set attributeName="fill" to="#808080" begin="zoomplus.mouseover" end="zoomplus.mouseout"/>
                        </use>
                        <path d="M-4,0h8M0,-4v8" fill="none" stroke="white" stroke-width="1.5" pointer-events="none"/>
                </g>
                <g id="zoomMin">
                        <use xlink:href="#rim" fill="#404040">
                                <set attributeName="fill" to="#808080" begin="zoomminus.mouseover" end="zoomminus.mouseout"/>
                        </use>
                        <path d="M-4,0h8" fill="none" stroke="white" stroke-width="1.5" pointer-events="none"/>
                </g>
                <g id="dirArrow">
                        <path fill="none" stroke="white" stroke-width="1.5" d="M0,-3.0v7 M-2.5,-0.5L0,-3.0L2.5,-0.5"/>
                </g>
               <g id="resetDef">
                       <use xlink:href="#rim2" fill="#404040">
                               <set attributeName="fill" to="#808080" begin="reset.mouseover" end="reset.mouseout"/>
                       </use>
               </g>
        </defs>

<script type="text/javascript">
var viewWidth = 840;
var viewHeight = 182;
var sectionId = 'dynsection-0';
</script>
<script xlink:href="svgpan.js"/>
<svg id="graph" class="graph">
<g id="viewport">
<title>HoloGen.IO.JsonFileSaver&lt; S, T, U &gt;</title>
<polygon fill="white" stroke="none" points="-4,4 -4,-177.5 836,-177.5 836,4 -4,4"/>
<!-- Node0 -->
<g id="node1" class="node"><title>Node0</title>
<polygon fill="#bfbfbf" stroke="black" points="142,-77.5 142,-107.5 272,-107.5 272,-77.5 142,-77.5"/>
<text text-anchor="start" x="150" y="-95.5" font-family="Helvetica,sans-Serif" font-size="10.00">HoloGen.IO.JsonFileSaver</text>
<text text-anchor="middle" x="207" y="-84.5" font-family="Helvetica,sans-Serif" font-size="10.00">&lt; S, T, U &gt;</text>
</g>
<!-- Node2 -->
<g id="node3" class="node"><title>Node2</title>
<g id="a_node3"><a xlink:href="class_holo_gen_1_1_i_o_1_1_json_file_saver.html" target="_top" xlink:title="HoloGen.IO.JsonFileSaver\l\&lt; ComplexImage, ComplexImageVersion,\l JsonImageSerialiser \&gt;">
<polygon fill="white" stroke="black" points="456,-132 456,-173 653,-173 653,-132 456,-132"/>
<text text-anchor="start" x="464" y="-161" font-family="Helvetica,sans-Serif" font-size="10.00">HoloGen.IO.JsonFileSaver</text>
<text text-anchor="start" x="464" y="-150" font-family="Helvetica,sans-Serif" font-size="10.00">&lt; ComplexImage, ComplexImageVersion,</text>
<text text-anchor="middle" x="554.5" y="-139" font-family="Helvetica,sans-Serif" font-size="10.00"> JsonImageSerialiser &gt;</text>
</a>
</g>
</g>
<!-- Node0&#45;&gt;Node2 -->
<g id="edge2" class="edge"><title>Node0&#45;&gt;Node2</title>
<path fill="none" stroke="orange" stroke-dasharray="5,2" d="M260.224,-110.589C270.034,-113.549 280.266,-116.347 290,-118.5 344.27,-130.504 405.831,-138.74 455.796,-144.096"/>
<polygon fill="orange" stroke="orange" points="261.178,-107.22 250.59,-107.593 259.099,-113.905 261.178,-107.22"/>
<text text-anchor="start" x="290" y="-155.5" font-family="Helvetica,sans-Serif" font-size="10.00"> &lt; ComplexImage, ComplexImage</text>
<text text-anchor="middle" x="364" y="-144.5" font-family="Helvetica,sans-Serif" font-size="10.00">Version, JsonImageSerialiser &gt;</text>
</g>
<!-- Node4 -->
<g id="node5" class="node"><title>Node4</title>
<g id="a_node5"><a xlink:href="class_holo_gen_1_1_i_o_1_1_json_file_saver.html" target="_top" xlink:title="HoloGen.IO.JsonFileSaver\l\&lt; OptionsRoot, OptionsRootVersion,\l JsonOptionsSerialiser \&gt;">
<polygon fill="white" stroke="black" points="466.5,-72 466.5,-113 642.5,-113 642.5,-72 466.5,-72"/>
<text text-anchor="start" x="474.5" y="-101" font-family="Helvetica,sans-Serif" font-size="10.00">HoloGen.IO.JsonFileSaver</text>
<text text-anchor="start" x="474.5" y="-90" font-family="Helvetica,sans-Serif" font-size="10.00">&lt; OptionsRoot, OptionsRootVersion,</text>
<text text-anchor="middle" x="554.5" y="-79" font-family="Helvetica,sans-Serif" font-size="10.00"> JsonOptionsSerialiser &gt;</text>
</a>
</g>
</g>
<!-- Node0&#45;&gt;Node4 -->
<g id="edge4" class="edge"><title>Node0&#45;&gt;Node4</title>
<path fill="none" stroke="orange" stroke-dasharray="5,2" d="M282.36,-92.5C336.318,-92.5 409.487,-92.5 466.218,-92.5"/>
<polygon fill="orange" stroke="orange" points="282.176,-89.0001 272.176,-92.5 282.176,-96.0001 282.176,-89.0001"/>
<text text-anchor="start" x="292.5" y="-106.5" font-family="Helvetica,sans-Serif" font-size="10.00"> &lt; OptionsRoot, OptionsRoot</text>
<text text-anchor="middle" x="364" y="-95.5" font-family="Helvetica,sans-Serif" font-size="10.00">Version, JsonOptionsSerialiser &gt;</text>
</g>
<!-- Node6 -->
<g id="node7" class="node"><title>Node6</title>
<g id="a_node7"><a xlink:href="class_holo_gen_1_1_i_o_1_1_json_file_saver.html" target="_top" xlink:title="HoloGen.IO.JsonFileSaver\l\&lt; ApplicationSettings,\l ApplicationSettingsVersion,\l JsonSettingsSerialiser \&gt;">
<polygon fill="white" stroke="black" points="484.5,-0.5 484.5,-52.5 624.5,-52.5 624.5,-0.5 484.5,-0.5"/>
<text text-anchor="start" x="492.5" y="-40.5" font-family="Helvetica,sans-Serif" font-size="10.00">HoloGen.IO.JsonFileSaver</text>
<text text-anchor="start" x="492.5" y="-29.5" font-family="Helvetica,sans-Serif" font-size="10.00">&lt; ApplicationSettings,</text>
<text text-anchor="start" x="492.5" y="-18.5" font-family="Helvetica,sans-Serif" font-size="10.00"> ApplicationSettingsVersion,</text>
<text text-anchor="middle" x="554.5" y="-7.5" font-family="Helvetica,sans-Serif" font-size="10.00"> JsonSettingsSerialiser &gt;</text>
</a>
</g>
</g>
<!-- Node0&#45;&gt;Node6 -->
<g id="edge6" class="edge"><title>Node0&#45;&gt;Node6</title>
<path fill="none" stroke="orange" stroke-dasharray="5,2" d="M244.816,-72.9149C258.632,-66.3683 274.699,-59.6811 290,-55.5 354.484,-37.8795 430.621,-30.9184 484.428,-28.1932"/>
<polygon fill="orange" stroke="orange" points="243.097,-69.8591 235.647,-77.3923 246.169,-76.1492 243.097,-69.8591"/>
<text text-anchor="start" x="302" y="-80.5" font-family="Helvetica,sans-Serif" font-size="10.00"> &lt; ApplicationSettings,</text>
<text text-anchor="start" x="302" y="-69.5" font-family="Helvetica,sans-Serif" font-size="10.00"> ApplicationSettingsVersion,</text>
<text text-anchor="middle" x="364" y="-58.5" font-family="Helvetica,sans-Serif" font-size="10.00"> JsonSettingsSerialiser &gt;</text>
</g>
<!-- Node1 -->
<g id="node2" class="node"><title>Node1</title>
<g id="a_node2"><a xlink:href="class_holo_gen_1_1_i_o_1_1_file_saver.html" target="_top" xlink:title="Abstract file saver interface ">
<polygon fill="white" stroke="black" points="0,-83 0,-102 105,-102 105,-83 0,-83"/>
<text text-anchor="middle" x="52.5" y="-90" font-family="Helvetica,sans-Serif" font-size="10.00">FileSaver&lt; S, T, U &gt;</text>
</a>
</g>
</g>
<!-- Node1&#45;&gt;Node0 -->
<g id="edge1" class="edge"><title>Node1&#45;&gt;Node0</title>
<path fill="none" stroke="midnightblue" d="M115.299,-92.5C124.091,-92.5 133.149,-92.5 141.982,-92.5"/>
<polygon fill="midnightblue" stroke="midnightblue" points="115.13,-89.0001 105.13,-92.5 115.13,-96.0001 115.13,-89.0001"/>
</g>
<!-- Node3 -->
<g id="node4" class="node"><title>Node3</title>
<g id="a_node4"><a xlink:href="class_holo_gen_1_1_i_o_1_1_json_image_file_saver.html" target="_top" xlink:title="Loader for image files in a JSON format ">
<polygon fill="white" stroke="black" points="695,-137.5 695,-167.5 827,-167.5 827,-137.5 695,-137.5"/>
<text text-anchor="start" x="703" y="-155.5" font-family="Helvetica,sans-Serif" font-size="10.00">HoloGen.IO.JsonImageFile</text>
<text text-anchor="middle" x="761" y="-144.5" font-family="Helvetica,sans-Serif" font-size="10.00">Saver</text>
</a>
</g>
</g>
<!-- Node2&#45;&gt;Node3 -->
<g id="edge3" class="edge"><title>Node2&#45;&gt;Node3</title>
<path fill="none" stroke="midnightblue" d="M663.484,-152.5C674.14,-152.5 684.712,-152.5 694.737,-152.5"/>
<polygon fill="midnightblue" stroke="midnightblue" points="663.258,-149 653.258,-152.5 663.258,-156 663.258,-149"/>
</g>
<!-- Node5 -->
<g id="node6" class="node"><title>Node5</title>
<g id="a_node6"><a xlink:href="class_holo_gen_1_1_i_o_1_1_json_options_file_saver.html" target="_top" xlink:title="Saver for option files in a JSON format ">
<polygon fill="white" stroke="black" points="691,-77.5 691,-107.5 831,-107.5 831,-77.5 691,-77.5"/>
<text text-anchor="start" x="699" y="-95.5" font-family="Helvetica,sans-Serif" font-size="10.00">HoloGen.IO.JsonOptionsFile</text>
<text text-anchor="middle" x="761" y="-84.5" font-family="Helvetica,sans-Serif" font-size="10.00">Saver</text>
</a>
</g>
</g>
<!-- Node4&#45;&gt;Node5 -->
<g id="edge5" class="edge"><title>Node4&#45;&gt;Node5</title>
<path fill="none" stroke="midnightblue" d="M652.758,-92.5C665.567,-92.5 678.48,-92.5 690.692,-92.5"/>
<polygon fill="midnightblue" stroke="midnightblue" points="652.523,-89.0001 642.523,-92.5 652.523,-96.0001 652.523,-89.0001"/>
</g>
<!-- Node7 -->
<g id="node8" class="node"><title>Node7</title>
<g id="a_node8"><a xlink:href="class_holo_gen_1_1_i_o_1_1_json_settings_file_saver.html" target="_top" xlink:title="Saver for settings files in a JSON format ">
<polygon fill="white" stroke="black" points="690,-11.5 690,-41.5 832,-41.5 832,-11.5 690,-11.5"/>
<text text-anchor="start" x="698" y="-29.5" font-family="Helvetica,sans-Serif" font-size="10.00">HoloGen.IO.JsonSettingsFile</text>
<text text-anchor="middle" x="761" y="-18.5" font-family="Helvetica,sans-Serif" font-size="10.00">Saver</text>
</a>
</g>
</g>
<!-- Node6&#45;&gt;Node7 -->
<g id="edge7" class="edge"><title>Node6&#45;&gt;Node7</title>
<path fill="none" stroke="midnightblue" d="M634.954,-26.5C653.039,-26.5 672.126,-26.5 689.793,-26.5"/>
<polygon fill="midnightblue" stroke="midnightblue" points="634.734,-23.0001 624.734,-26.5 634.734,-30.0001 634.734,-23.0001"/>
</g>
</g>
</svg>
        <g id="navigator" transform="translate(0 0)" fill="#404254">
                <rect fill="#f2f5e9" fill-opacity="0.5" stroke="#606060" stroke-width=".5" x="0" y="0" width="60" height="60"/>
                <use id="zoomplus" xlink:href="#zoomPlus" x="17" y="9" onmousedown="handleZoom(evt,'in')"/>
                <use id="zoomminus" xlink:href="#zoomMin" x="42" y="9" onmousedown="handleZoom(evt,'out')"/>
                <use id="reset" xlink:href="#resetDef" x="30" y="36" onmousedown="handleReset()"/>
                <g id="arrowUp" xlink:href="#dirArrow" transform="translate(30 24)" onmousedown="handlePan(0,-1)">
                  <use xlink:href="#rim" fill="#404040">
                        <set attributeName="fill" to="#808080" begin="arrowUp.mouseover" end="arrowUp.mouseout"/>
                  </use>
                  <path fill="none" stroke="white" stroke-width="1.5" d="M0,-3.0v7 M-2.5,-0.5L0,-3.0L2.5,-0.5"/>
                </g>
                <g id="arrowRight" xlink:href="#dirArrow" transform="rotate(90) translate(36 -43)" onmousedown="handlePan(1,0)">
                  <use xlink:href="#rim" fill="#404040">
                        <set attributeName="fill" to="#808080" begin="arrowRight.mouseover" end="arrowRight.mouseout"/>
                  </use>
                  <path fill="none" stroke="white" stroke-width="1.5" d="M0,-3.0v7 M-2.5,-0.5L0,-3.0L2.5,-0.5"/>
                </g>
                <g id="arrowDown" xlink:href="#dirArrow" transform="rotate(180) translate(-30 -48)" onmousedown="handlePan(0,1)">
                  <use xlink:href="#rim" fill="#404040">
                        <set attributeName="fill" to="#808080" begin="arrowDown.mouseover" end="arrowDown.mouseout"/>
                  </use>
                  <path fill="none" stroke="white" stroke-width="1.5" d="M0,-3.0v7 M-2.5,-0.5L0,-3.0L2.5,-0.5"/>
                </g>
                <g id="arrowLeft" xlink:href="#dirArrow" transform="rotate(270) translate(-36 17)" onmousedown="handlePan(-1,0)">
                  <use xlink:href="#rim" fill="#404040">
                        <set attributeName="fill" to="#808080" begin="arrowLeft.mouseover" end="arrowLeft.mouseout"/>
                  </use>
                  <path fill="none" stroke="white" stroke-width="1.5" d="M0,-3.0v7 M-2.5,-0.5L0,-3.0L2.5,-0.5"/>
                </g>
        </g>
        <svg viewBox="0 0 15 15" width="100%" height="30px" preserveAspectRatio="xMaxYMin meet">
         <g id="arrow_out" transform="scale(0.3 0.3)">
          <a xlink:href="class_holo_gen_1_1_i_o_1_1_json_file_saver__inherit__graph_org.svg" target="_base">
           <rect id="button" ry="5" rx="5" y="6" x="6" height="38" width="38"
                fill="#f2f5e9" fill-opacity="0.5" stroke="#606060" stroke-width="1.0"/>
           <path id="arrow"
             d="M 11.500037,31.436501 C 11.940474,20.09759 22.043105,11.32322 32.158766,21.979434 L 37.068811,17.246167 C 37.068811,17.246167 37.088388,32 37.088388,32 L 22.160133,31.978069 C 22.160133,31.978069 26.997745,27.140456 26.997745,27.140456 C 18.528582,18.264221 13.291696,25.230495 11.500037,31.436501 z"
             style="fill:#404040;"/>
          </a>
         </g>
        </svg>
</svg>
