<?xml version="1.0" encoding="UTF-8" standalone="no"?>
<!DOCTYPE svg PUBLIC "-//W3C//DTD SVG 1.1//EN"
 "http://www.w3.org/Graphics/SVG/1.1/DTD/svg11.dtd">
<!-- Generated by graphviz version 2.38.0 (20140413.2041)
 -->
<!-- Title: HoloGen.UI.MainWindowViewModel Pages: 1 -->
<svg width="283pt" height="151pt"
 viewBox="0.00 0.00 282.50 151.00" xmlns="http://www.w3.org/2000/svg" xmlns:xlink="http://www.w3.org/1999/xlink">
<g id="graph0" class="graph" transform="scale(1 1) rotate(0) translate(4 147)">
<title>HoloGen.UI.MainWindowViewModel</title>
<polygon fill="white" stroke="none" points="-4,4 -4,-147 278.5,-147 278.5,4 -4,4"/>
<!-- Node5 -->
<g id="node1" class="node"><title>Node5</title>
<polygon fill="#bfbfbf" stroke="black" points="76.5,-0.5 76.5,-30.5 222.5,-30.5 222.5,-0.5 76.5,-0.5"/>
<text text-anchor="start" x="84.5" y="-18.5" font-family="Helvetica,sans-Serif" font-size="10.00">HoloGen.UI.MainWindowView</text>
<text text-anchor="middle" x="149.5" y="-7.5" font-family="Helvetica,sans-Serif" font-size="10.00">Model</text>
</g>
<!-- Node6 -->
<g id="node2" class="node"><title>Node6</title>
<g id="a_node2"><a xlink:href="class_holo_gen_1_1_utils_1_1_observable_object.html" target="_top" xlink:title="Observable object with INotifyPropertyChanged implemented ">
<polygon fill="white" stroke="black" points="0,-67.5 0,-86.5 93,-86.5 93,-67.5 0,-67.5"/>
<text text-anchor="middle" x="46.5" y="-74.5" font-family="Helvetica,sans-Serif" font-size="10.00">ObservableObject</text>
</a>
</g>
</g>
<!-- Node6&#45;&gt;Node5 -->
<g id="edge1" class="edge"><title>Node6&#45;&gt;Node5</title>
<path fill="none" stroke="midnightblue" d="M70.2572,-62.2762C86.7409,-52.7541 108.63,-40.1096 125.225,-30.523"/>
<polygon fill="midnightblue" stroke="midnightblue" points="68.1657,-59.4423 61.2574,-67.4751 71.6672,-65.5037 68.1657,-59.4423"/>
</g>
<!-- Node7 -->
<g id="node3" class="node"><title>Node7</title>
<polygon fill="white" stroke="#bfbfbf" points="38,-123.5 38,-142.5 157,-142.5 157,-123.5 38,-123.5"/>
<text text-anchor="middle" x="97.5" y="-130.5" font-family="Helvetica,sans-Serif" font-size="10.00">INotifyPropertyChanged</text>
</g>
<!-- Node7&#45;&gt;Node6 -->
<g id="edge2" class="edge"><title>Node7&#45;&gt;Node6</title>
<path fill="none" stroke="midnightblue" d="M82.1221,-115.718C73.1331,-106.2 62.1408,-94.5608 54.7649,-86.7511"/>
<polygon fill="midnightblue" stroke="midnightblue" points="79.6676,-118.216 89.0784,-123.083 84.7567,-113.41 79.6676,-118.216"/>
</g>
<!-- Node9 -->
<g id="node5" class="node"><title>Node9</title>
<g id="a_node5"><a xlink:href="interface_holo_gen_1_1_u_i_1_1_menus_1_1_i_menu_window.html" target="_top" xlink:title="IMenuWindow">
<polygon fill="white" stroke="black" points="111,-67.5 111,-86.5 188,-86.5 188,-67.5 111,-67.5"/>
<text text-anchor="middle" x="149.5" y="-74.5" font-family="Helvetica,sans-Serif" font-size="10.00">IMenuWindow</text>
</a>
</g>
</g>
<!-- Node7&#45;&gt;Node9 -->
<g id="edge5" class="edge"><title>Node7&#45;&gt;Node9</title>
<path fill="none" stroke="midnightblue" d="M113.179,-115.718C122.345,-106.2 133.553,-94.5608 141.073,-86.7511"/>
<polygon fill="midnightblue" stroke="midnightblue" points="110.502,-113.452 106.087,-123.083 115.544,-118.308 110.502,-113.452"/>
</g>
<!-- Node8 -->
<g id="node4" class="node"><title>Node8</title>
<g id="a_node4"><a xlink:href="interface_holo_gen_1_1_u_i_1_1_utils_1_1_i_tab_handler.html" target="_top" xlink:title="Generic object that can handle tabs. e.g. the main window ">
<polygon fill="white" stroke="black" points="206.5,-67.5 206.5,-86.5 274.5,-86.5 274.5,-67.5 206.5,-67.5"/>
<text text-anchor="middle" x="240.5" y="-74.5" font-family="Helvetica,sans-Serif" font-size="10.00">ITabHandler</text>
</a>
</g>
</g>
<!-- Node8&#45;&gt;Node5 -->
<g id="edge3" class="edge"><title>Node8&#45;&gt;Node5</title>
<path fill="none" stroke="midnightblue" d="M218.689,-61.739C204.226,-52.2824 185.335,-39.9304 170.947,-30.523"/>
<polygon fill="midnightblue" stroke="midnightblue" points="217.177,-64.932 227.462,-67.4751 221.008,-59.0732 217.177,-64.932"/>
</g>
<!-- Node9&#45;&gt;Node5 -->
<g id="edge4" class="edge"><title>Node9&#45;&gt;Node5</title>
<path fill="none" stroke="midnightblue" d="M149.5,-57.2349C149.5,-48.5864 149.5,-38.4969 149.5,-30.523"/>
<polygon fill="midnightblue" stroke="midnightblue" points="146,-57.4751 149.5,-67.4751 153,-57.4751 146,-57.4751"/>
</g>
</g>
</svg>
