<?xml version="1.0" encoding="UTF-8" standalone="no"?>
<!DOCTYPE svg PUBLIC "-//W3C//DTD SVG 1.1//EN"
 "http://www.w3.org/Graphics/SVG/1.1/DTD/svg11.dtd">
<!-- Generated by graphviz version 2.38.0 (20140413.2041)
 -->
<!-- Title: HoloGen.Options.Algorithm.Algorithms.Type.Variants.DS.DSVariantPossibilities Pages: 1 -->
<svg width="214pt" height="424pt"
 viewBox="0.00 0.00 214.00 424.00" xmlns="http://www.w3.org/2000/svg" xmlns:xlink="http://www.w3.org/1999/xlink">
<g id="graph0" class="graph" transform="scale(1 1) rotate(0) translate(4 420)">
<title>HoloGen.Options.Algorithm.Algorithms.Type.Variants.DS.DSVariantPossibilities</title>
<polygon fill="white" stroke="none" points="-4,4 -4,-420 210,-420 210,4 -4,4"/>
<!-- Node7 -->
<g id="node1" class="node"><title>Node7</title>
<polygon fill="#bfbfbf" stroke="black" points="0,-0.5 0,-41.5 190,-41.5 190,-0.5 0,-0.5"/>
<text text-anchor="start" x="8" y="-29.5" font-family="Helvetica,sans-Serif" font-size="10.00">HoloGen.Options.Algorithm.</text>
<text text-anchor="start" x="8" y="-18.5" font-family="Helvetica,sans-Serif" font-size="10.00">Algorithms.Type.Variants.DS.DSVariant</text>
<text text-anchor="middle" x="95" y="-7.5" font-family="Helvetica,sans-Serif" font-size="10.00">Possibilities</text>
</g>
<!-- Node8 -->
<g id="node2" class="node"><title>Node8</title>
<g id="a_node2"><a xlink:href="class_holo_gen_1_1_hierarchy_1_1_hierarchy_1_1_possibility_collection.html" target="_top" xlink:title="PossibilityCollection\l\&lt; DSVariantPossibility \&gt;">
<polygon fill="white" stroke="black" points="33,-79.5 33,-109.5 157,-109.5 157,-79.5 33,-79.5"/>
<text text-anchor="start" x="41" y="-97.5" font-family="Helvetica,sans-Serif" font-size="10.00">PossibilityCollection</text>
<text text-anchor="middle" x="95" y="-86.5" font-family="Helvetica,sans-Serif" font-size="10.00">&lt; DSVariantPossibility &gt;</text>
</a>
</g>
</g>
<!-- Node8&#45;&gt;Node7 -->
<g id="edge1" class="edge"><title>Node8&#45;&gt;Node7</title>
<path fill="none" stroke="midnightblue" d="M95,-69.1008C95,-60.0979 95,-50.0235 95,-41.5096"/>
<polygon fill="midnightblue" stroke="midnightblue" points="91.5001,-69.3739 95,-79.3739 98.5001,-69.3739 91.5001,-69.3739"/>
</g>
<!-- Node9 -->
<g id="node3" class="node"><title>Node9</title>
<g id="a_node3"><a xlink:href="class_holo_gen_1_1_hierarchy_1_1_hierarchy_1_1_possibility_collection.html" target="_top" xlink:title="Collection of Possibilitys. Is wrapped by a SelectOption. Extends ReflectiveChildrenElement. The base class ReflectiveChildrenElement finds all members assignable from T &#160;and uses them to populate the ReflectiveChildrenElement.Children member collection. ">
<polygon fill="white" stroke="black" points="22,-157.5 22,-187.5 168,-187.5 168,-157.5 22,-157.5"/>
<text text-anchor="start" x="30" y="-175.5" font-family="Helvetica,sans-Serif" font-size="10.00">HoloGen.Hierarchy.Hierarchy.</text>
<text text-anchor="middle" x="95" y="-164.5" font-family="Helvetica,sans-Serif" font-size="10.00">PossibilityCollection&lt; T &gt;</text>
</a>
</g>
</g>
<!-- Node9&#45;&gt;Node8 -->
<g id="edge2" class="edge"><title>Node9&#45;&gt;Node8</title>
<path fill="none" stroke="orange" stroke-dasharray="5,2" d="M95,-147.09C95,-134.757 95,-120.224 95,-109.731"/>
<polygon fill="orange" stroke="orange" points="91.5001,-147.205 95,-157.205 98.5001,-147.205 91.5001,-147.205"/>
<text text-anchor="middle" x="150.5" y="-131" font-family="Helvetica,sans-Serif" font-size="10.00"> &lt; DSVariantPossibility &gt;</text>
</g>
<!-- Node10 -->
<g id="node4" class="node"><title>Node10</title>
<g id="a_node4"><a xlink:href="class_holo_gen_1_1_hierarchy_1_1_hierarchy_1_1_reflective_children_element.html" target="_top" xlink:title="Reflective hierarchy element template T . The constructor finds all members assignable from T &#160;and us...">
<polygon fill="white" stroke="black" points="19,-225.5 19,-244.5 171,-244.5 171,-225.5 19,-225.5"/>
<text text-anchor="middle" x="95" y="-232.5" font-family="Helvetica,sans-Serif" font-size="10.00">ReflectiveChildrenElement&lt; T &gt;</text>
</a>
</g>
</g>
<!-- Node10&#45;&gt;Node9 -->
<g id="edge3" class="edge"><title>Node10&#45;&gt;Node9</title>
<path fill="none" stroke="midnightblue" d="M95,-215.215C95,-206.356 95,-195.958 95,-187.759"/>
<polygon fill="midnightblue" stroke="midnightblue" points="91.5001,-215.332 95,-225.332 98.5001,-215.332 91.5001,-215.332"/>
</g>
<!-- Node11 -->
<g id="node5" class="node"><title>Node11</title>
<g id="a_node5"><a xlink:href="class_holo_gen_1_1_hierarchy_1_1_hierarchy_1_1_hierarchy_saveable.html" target="_top" xlink:title="Declares that this object should be serialisable and saveable ">
<polygon fill="white" stroke="black" points="46.5,-282.5 46.5,-301.5 143.5,-301.5 143.5,-282.5 46.5,-282.5"/>
<text text-anchor="middle" x="95" y="-289.5" font-family="Helvetica,sans-Serif" font-size="10.00">HierarchySaveable</text>
</a>
</g>
</g>
<!-- Node11&#45;&gt;Node10 -->
<g id="edge4" class="edge"><title>Node11&#45;&gt;Node10</title>
<path fill="none" stroke="midnightblue" d="M95,-272.117C95,-262.817 95,-252.056 95,-244.715"/>
<polygon fill="midnightblue" stroke="midnightblue" points="91.5001,-272.406 95,-282.406 98.5001,-272.406 91.5001,-272.406"/>
</g>
<!-- Node12 -->
<g id="node6" class="node"><title>Node12</title>
<g id="a_node6"><a xlink:href="class_holo_gen_1_1_utils_1_1_observable_object.html" target="_top" xlink:title="Observable object with INotifyPropertyChanged implemented ">
<polygon fill="white" stroke="black" points="48.5,-339.5 48.5,-358.5 141.5,-358.5 141.5,-339.5 48.5,-339.5"/>
<text text-anchor="middle" x="95" y="-346.5" font-family="Helvetica,sans-Serif" font-size="10.00">ObservableObject</text>
</a>
</g>
</g>
<!-- Node12&#45;&gt;Node11 -->
<g id="edge5" class="edge"><title>Node12&#45;&gt;Node11</title>
<path fill="none" stroke="midnightblue" d="M95,-329.117C95,-319.817 95,-309.056 95,-301.715"/>
<polygon fill="midnightblue" stroke="midnightblue" points="91.5001,-329.406 95,-339.406 98.5001,-329.406 91.5001,-329.406"/>
</g>
<!-- Node13 -->
<g id="node7" class="node"><title>Node13</title>
<polygon fill="white" stroke="#bfbfbf" points="35.5,-396.5 35.5,-415.5 154.5,-415.5 154.5,-396.5 35.5,-396.5"/>
<text text-anchor="middle" x="95" y="-403.5" font-family="Helvetica,sans-Serif" font-size="10.00">INotifyPropertyChanged</text>
</g>
<!-- Node13&#45;&gt;Node12 -->
<g id="edge6" class="edge"><title>Node13&#45;&gt;Node12</title>
<path fill="none" stroke="midnightblue" d="M95,-386.117C95,-376.817 95,-366.056 95,-358.715"/>
<polygon fill="midnightblue" stroke="midnightblue" points="91.5001,-386.406 95,-396.406 98.5001,-386.406 91.5001,-386.406"/>
</g>
</g>
</svg>
