<?xml version="1.0" encoding="UTF-8" standalone="no"?>
<!DOCTYPE svg PUBLIC "-//W3C//DTD SVG 1.1//EN"
 "http://www.w3.org/Graphics/SVG/1.1/DTD/svg11.dtd">
<!-- Generated by graphviz version 2.38.0 (20140413.2041)
 -->
<!-- Title: HoloGen.Options.Hardware.Hardware.Type.HardwarePossibilities Pages: 1 -->
<svg width="204pt" height="413pt"
 viewBox="0.00 0.00 203.50 413.00" xmlns="http://www.w3.org/2000/svg" xmlns:xlink="http://www.w3.org/1999/xlink">
<g id="graph0" class="graph" transform="scale(1 1) rotate(0) translate(4 409)">
<title>HoloGen.Options.Hardware.Hardware.Type.HardwarePossibilities</title>
<polygon fill="white" stroke="none" points="-4,4 -4,-409 199.5,-409 199.5,4 -4,4"/>
<!-- Node0 -->
<g id="node1" class="node"><title>Node0</title>
<polygon fill="#bfbfbf" stroke="black" points="0,-0.5 0,-30.5 177,-30.5 177,-0.5 0,-0.5"/>
<text text-anchor="start" x="8" y="-18.5" font-family="Helvetica,sans-Serif" font-size="10.00">HoloGen.Options.Hardware.</text>
<text text-anchor="middle" x="88.5" y="-7.5" font-family="Helvetica,sans-Serif" font-size="10.00">Hardware.Type.HardwarePossibilities</text>
</g>
<!-- Node1 -->
<g id="node2" class="node"><title>Node1</title>
<g id="a_node2"><a xlink:href="class_holo_gen_1_1_hierarchy_1_1_hierarchy_1_1_possibility_collection.html" target="_top" xlink:title="PossibilityCollection\l\&lt; HardwarePossibility \&gt;">
<polygon fill="white" stroke="black" points="28.5,-68.5 28.5,-98.5 148.5,-98.5 148.5,-68.5 28.5,-68.5"/>
<text text-anchor="start" x="36.5" y="-86.5" font-family="Helvetica,sans-Serif" font-size="10.00">PossibilityCollection</text>
<text text-anchor="middle" x="88.5" y="-75.5" font-family="Helvetica,sans-Serif" font-size="10.00">&lt; HardwarePossibility &gt;</text>
</a>
</g>
</g>
<!-- Node1&#45;&gt;Node0 -->
<g id="edge1" class="edge"><title>Node1&#45;&gt;Node0</title>
<path fill="none" stroke="midnightblue" d="M88.5,-58.0322C88.5,-48.8606 88.5,-38.7449 88.5,-30.7931"/>
<polygon fill="midnightblue" stroke="midnightblue" points="85.0001,-58.1789 88.5,-68.179 92.0001,-58.179 85.0001,-58.1789"/>
</g>
<!-- Node2 -->
<g id="node3" class="node"><title>Node2</title>
<g id="a_node3"><a xlink:href="class_holo_gen_1_1_hierarchy_1_1_hierarchy_1_1_possibility_collection.html" target="_top" xlink:title="Collection of Possibilitys. Is wrapped by a SelectOption. Extends ReflectiveChildrenElement. The base class ReflectiveChildrenElement finds all members assignable from T &#160;and uses them to populate the ReflectiveChildrenElement.Children member collection. ">
<polygon fill="white" stroke="black" points="15.5,-146.5 15.5,-176.5 161.5,-176.5 161.5,-146.5 15.5,-146.5"/>
<text text-anchor="start" x="23.5" y="-164.5" font-family="Helvetica,sans-Serif" font-size="10.00">HoloGen.Hierarchy.Hierarchy.</text>
<text text-anchor="middle" x="88.5" y="-153.5" font-family="Helvetica,sans-Serif" font-size="10.00">PossibilityCollection&lt; T &gt;</text>
</a>
</g>
</g>
<!-- Node2&#45;&gt;Node1 -->
<g id="edge2" class="edge"><title>Node2&#45;&gt;Node1</title>
<path fill="none" stroke="orange" stroke-dasharray="5,2" d="M88.5,-136.09C88.5,-123.757 88.5,-109.224 88.5,-98.7309"/>
<polygon fill="orange" stroke="orange" points="85.0001,-136.205 88.5,-146.205 92.0001,-136.205 85.0001,-136.205"/>
<text text-anchor="middle" x="142" y="-120" font-family="Helvetica,sans-Serif" font-size="10.00"> &lt; HardwarePossibility &gt;</text>
</g>
<!-- Node3 -->
<g id="node4" class="node"><title>Node3</title>
<g id="a_node4"><a xlink:href="class_holo_gen_1_1_hierarchy_1_1_hierarchy_1_1_reflective_children_element.html" target="_top" xlink:title="Reflective hierarchy element template T . The constructor finds all members assignable from T &#160;and us...">
<polygon fill="white" stroke="black" points="12.5,-214.5 12.5,-233.5 164.5,-233.5 164.5,-214.5 12.5,-214.5"/>
<text text-anchor="middle" x="88.5" y="-221.5" font-family="Helvetica,sans-Serif" font-size="10.00">ReflectiveChildrenElement&lt; T &gt;</text>
</a>
</g>
</g>
<!-- Node3&#45;&gt;Node2 -->
<g id="edge3" class="edge"><title>Node3&#45;&gt;Node2</title>
<path fill="none" stroke="midnightblue" d="M88.5,-204.215C88.5,-195.356 88.5,-184.958 88.5,-176.759"/>
<polygon fill="midnightblue" stroke="midnightblue" points="85.0001,-204.332 88.5,-214.332 92.0001,-204.332 85.0001,-204.332"/>
</g>
<!-- Node4 -->
<g id="node5" class="node"><title>Node4</title>
<g id="a_node5"><a xlink:href="class_holo_gen_1_1_hierarchy_1_1_hierarchy_1_1_hierarchy_saveable.html" target="_top" xlink:title="Declares that this object should be serialisable and saveable ">
<polygon fill="white" stroke="black" points="40,-271.5 40,-290.5 137,-290.5 137,-271.5 40,-271.5"/>
<text text-anchor="middle" x="88.5" y="-278.5" font-family="Helvetica,sans-Serif" font-size="10.00">HierarchySaveable</text>
</a>
</g>
</g>
<!-- Node4&#45;&gt;Node3 -->
<g id="edge4" class="edge"><title>Node4&#45;&gt;Node3</title>
<path fill="none" stroke="midnightblue" d="M88.5,-261.117C88.5,-251.817 88.5,-241.056 88.5,-233.715"/>
<polygon fill="midnightblue" stroke="midnightblue" points="85.0001,-261.406 88.5,-271.406 92.0001,-261.406 85.0001,-261.406"/>
</g>
<!-- Node5 -->
<g id="node6" class="node"><title>Node5</title>
<g id="a_node6"><a xlink:href="class_holo_gen_1_1_utils_1_1_observable_object.html" target="_top" xlink:title="Observable object with INotifyPropertyChanged implemented ">
<polygon fill="white" stroke="black" points="42,-328.5 42,-347.5 135,-347.5 135,-328.5 42,-328.5"/>
<text text-anchor="middle" x="88.5" y="-335.5" font-family="Helvetica,sans-Serif" font-size="10.00">ObservableObject</text>
</a>
</g>
</g>
<!-- Node5&#45;&gt;Node4 -->
<g id="edge5" class="edge"><title>Node5&#45;&gt;Node4</title>
<path fill="none" stroke="midnightblue" d="M88.5,-318.117C88.5,-308.817 88.5,-298.056 88.5,-290.715"/>
<polygon fill="midnightblue" stroke="midnightblue" points="85.0001,-318.406 88.5,-328.406 92.0001,-318.406 85.0001,-318.406"/>
</g>
<!-- Node6 -->
<g id="node7" class="node"><title>Node6</title>
<polygon fill="white" stroke="#bfbfbf" points="29,-385.5 29,-404.5 148,-404.5 148,-385.5 29,-385.5"/>
<text text-anchor="middle" x="88.5" y="-392.5" font-family="Helvetica,sans-Serif" font-size="10.00">INotifyPropertyChanged</text>
</g>
<!-- Node6&#45;&gt;Node5 -->
<g id="edge6" class="edge"><title>Node6&#45;&gt;Node5</title>
<path fill="none" stroke="midnightblue" d="M88.5,-375.117C88.5,-365.817 88.5,-355.056 88.5,-347.715"/>
<polygon fill="midnightblue" stroke="midnightblue" points="85.0001,-375.406 88.5,-385.406 92.0001,-375.406 85.0001,-375.406"/>
</g>
</g>
</svg>
