<?xml version="1.0" encoding="UTF-8" standalone="no"?>
<!DOCTYPE svg PUBLIC "-//W3C//DTD SVG 1.1//EN"
 "http://www.w3.org/Graphics/SVG/1.1/DTD/svg11.dtd">
<!-- Generated by graphviz version 2.38.0 (20140413.2041)
 -->
<!-- Title: HoloGen.Options.Algorithm.Algorithms.Variants.OSPR.OSPRVariantOption Pages: 1 -->
<svg width="2193pt" height="382pt"
 viewBox="0.00 0.00 2193.00 381.67" xmlns="http://www.w3.org/2000/svg" xmlns:xlink="http://www.w3.org/1999/xlink">
<g id="graph0" class="graph" transform="scale(1 1) rotate(0) translate(4 377.674)">
<title>HoloGen.Options.Algorithm.Algorithms.Variants.OSPR.OSPRVariantOption</title>
<polygon fill="white" stroke="none" points="-4,4 -4,-377.674 2189,-377.674 2189,4 -4,4"/>
<!-- Node14 -->
<g id="node1" class="node"><title>Node14</title>
<polygon fill="#bfbfbf" stroke="black" points="1991,-216.728 1991,-257.728 2185,-257.728 2185,-216.728 1991,-216.728"/>
<text text-anchor="start" x="1999" y="-245.728" font-family="Helvetica,sans-Serif" font-size="10.00">HoloGen.Options.Algorithm.</text>
<text text-anchor="start" x="1999" y="-234.728" font-family="Helvetica,sans-Serif" font-size="10.00">Algorithms.Variants.OSPR.OSPRVariant</text>
<text text-anchor="middle" x="2088" y="-223.728" font-family="Helvetica,sans-Serif" font-size="10.00">Option</text>
</g>
<!-- Node15 -->
<g id="node2" class="node"><title>Node15</title>
<g id="a_node2"><a xlink:href="class_holo_gen_1_1_hierarchy_1_1_option_types_1_1_select_option.html" target="_top" xlink:title="SelectOption\&lt; OSPRVariant\lPossibility \&gt;">
<polygon fill="white" stroke="black" points="1715.5,-118.228 1715.5,-148.228 1855.5,-148.228 1855.5,-118.228 1715.5,-118.228"/>
<text text-anchor="start" x="1723.5" y="-136.228" font-family="Helvetica,sans-Serif" font-size="10.00">SelectOption&lt; OSPRVariant</text>
<text text-anchor="middle" x="1785.5" y="-125.228" font-family="Helvetica,sans-Serif" font-size="10.00">Possibility &gt;</text>
</a>
</g>
</g>
<!-- Node15&#45;&gt;Node14 -->
<g id="edge1" class="edge"><title>Node15&#45;&gt;Node14</title>
<path fill="none" stroke="midnightblue" d="M1855.93,-151.106C1862.74,-153.081 1869.52,-155.137 1876,-157.228 1931.92,-175.278 1994.75,-199.642 2037.2,-216.723"/>
<polygon fill="midnightblue" stroke="midnightblue" points="1856.54,-147.641 1845.96,-148.275 1854.62,-154.375 1856.54,-147.641"/>
</g>
<!-- Node16 -->
<g id="node3" class="node"><title>Node16</title>
<g id="a_node3"><a xlink:href="class_holo_gen_1_1_hierarchy_1_1_option_types_1_1_select_option.html" target="_top" xlink:title="Extends Option wrapping a multiple&#45;choice PossibilityCollection. Due to the limits of the C# reflecti...">
<polygon fill="white" stroke="black" points="1353,-118.228 1353,-148.228 1483,-148.228 1483,-118.228 1353,-118.228"/>
<text text-anchor="start" x="1361" y="-136.228" font-family="Helvetica,sans-Serif" font-size="10.00">HoloGen.Hierarchy.Option</text>
<text text-anchor="middle" x="1418" y="-125.228" font-family="Helvetica,sans-Serif" font-size="10.00">Types.SelectOption&lt; T &gt;</text>
</a>
</g>
</g>
<!-- Node16&#45;&gt;Node15 -->
<g id="edge2" class="edge"><title>Node16&#45;&gt;Node15</title>
<path fill="none" stroke="orange" stroke-dasharray="5,2" d="M1493.25,-133.228C1558.19,-133.228 1651.77,-133.228 1715.2,-133.228"/>
<polygon fill="orange" stroke="orange" points="1493.08,-129.729 1483.08,-133.228 1493.08,-136.729 1493.08,-129.729"/>
<text text-anchor="middle" x="1591" y="-136.228" font-family="Helvetica,sans-Serif" font-size="10.00"> &lt; OSPRVariantPossibility &gt;</text>
</g>
<!-- Node17 -->
<g id="node4" class="node"><title>Node17</title>
<g id="a_node4"><a xlink:href="class_holo_gen_1_1_hierarchy_1_1_option_types_1_1_option.html" target="_top" xlink:title="Root hierarchy element. Defines Name and ToolTip fields that must be implemented by any implementors...">
<polygon fill="white" stroke="black" points="667,-222.728 667,-241.728 735,-241.728 735,-222.728 667,-222.728"/>
<text text-anchor="middle" x="701" y="-229.728" font-family="Helvetica,sans-Serif" font-size="10.00">Option&lt; T &gt;</text>
</a>
</g>
</g>
<!-- Node17&#45;&gt;Node16 -->
<g id="edge3" class="edge"><title>Node17&#45;&gt;Node16</title>
<path fill="none" stroke="midnightblue" d="M745.095,-232.712C830.375,-232.96 1026.39,-229.998 1188,-201.228 1255.37,-189.235 1331.03,-164.453 1376.3,-148.351"/>
<polygon fill="midnightblue" stroke="midnightblue" points="745.029,-229.212 735.013,-232.666 744.997,-236.212 745.029,-229.212"/>
</g>
<!-- Node18 -->
<g id="node5" class="node"><title>Node18</title>
<g id="a_node5"><a xlink:href="class_holo_gen_1_1_utils_1_1_observable_object.html" target="_top" xlink:title="Observable object with INotifyPropertyChanged implemented ">
<polygon fill="white" stroke="black" points="156,-319.728 156,-338.728 249,-338.728 249,-319.728 156,-319.728"/>
<text text-anchor="middle" x="202.5" y="-326.728" font-family="Helvetica,sans-Serif" font-size="10.00">ObservableObject</text>
</a>
</g>
</g>
<!-- Node18&#45;&gt;Node17 -->
<g id="edge4" class="edge"><title>Node18&#45;&gt;Node17</title>
<path fill="none" stroke="midnightblue" d="M242.274,-341.816C314.401,-362.957 472.606,-398.508 591,-347.228 642.495,-324.925 681.136,-265.141 694.709,-241.775"/>
<polygon fill="midnightblue" stroke="midnightblue" points="242.856,-338.337 232.272,-338.814 240.844,-345.041 242.856,-338.337"/>
</g>
<!-- Node31 -->
<g id="node18" class="node"><title>Node31</title>
<g id="a_node18"><a xlink:href="class_holo_gen_1_1_hierarchy_1_1_hierarchy_1_1_hierarchy_saveable.html" target="_top" xlink:title="Declares that this object should be serialisable and saveable ">
<polygon fill="white" stroke="black" points="295.5,-319.728 295.5,-338.728 392.5,-338.728 392.5,-319.728 295.5,-319.728"/>
<text text-anchor="middle" x="344" y="-326.728" font-family="Helvetica,sans-Serif" font-size="10.00">HierarchySaveable</text>
</a>
</g>
</g>
<!-- Node18&#45;&gt;Node31 -->
<g id="edge20" class="edge"><title>Node18&#45;&gt;Node31</title>
<path fill="none" stroke="midnightblue" d="M259.44,-329.228C271.322,-329.228 283.762,-329.228 295.303,-329.228"/>
<polygon fill="midnightblue" stroke="midnightblue" points="259.178,-325.729 249.178,-329.228 259.177,-332.729 259.178,-325.729"/>
</g>
<!-- Node19 -->
<g id="node6" class="node"><title>Node19</title>
<polygon fill="white" stroke="#bfbfbf" points="0,-62.7285 0,-81.7285 119,-81.7285 119,-62.7285 0,-62.7285"/>
<text text-anchor="middle" x="59.5" y="-69.7285" font-family="Helvetica,sans-Serif" font-size="10.00">INotifyPropertyChanged</text>
</g>
<!-- Node19&#45;&gt;Node18 -->
<g id="edge5" class="edge"><title>Node19&#45;&gt;Node18</title>
<path fill="none" stroke="midnightblue" d="M70.7535,-90.9175C98.6434,-141.752 175.191,-281.276 196.139,-319.458"/>
<polygon fill="midnightblue" stroke="midnightblue" points="73.7338,-89.073 65.8552,-81.9893 67.5967,-92.4401 73.7338,-89.073"/>
</g>
<!-- Node20 -->
<g id="node7" class="node"><title>Node20</title>
<g id="a_node7"><a xlink:href="interface_holo_gen_1_1_hierarchy_1_1_option_types_1_1_i_option.html" target="_top" xlink:title="Base interface for the Option that doesn&#39;t need a template parameter. Necessary for a number of refle...">
<polygon fill="white" stroke="black" points="491.5,-82.7285 491.5,-101.728 538.5,-101.728 538.5,-82.7285 491.5,-82.7285"/>
<text text-anchor="middle" x="515" y="-89.7285" font-family="Helvetica,sans-Serif" font-size="10.00">IOption</text>
</a>
</g>
</g>
<!-- Node19&#45;&gt;Node20 -->
<g id="edge11" class="edge"><title>Node19&#45;&gt;Node20</title>
<path fill="none" stroke="midnightblue" d="M82.8083,-56.7073C120.199,-32.5341 198.287,10.1235 268,-2.22846 356.215,-17.8588 454.338,-62.7291 494.88,-82.5813"/>
<polygon fill="midnightblue" stroke="midnightblue" points="80.6085,-53.9664 74.2088,-62.4101 84.4772,-59.8002 80.6085,-53.9664"/>
</g>
<!-- Node20&#45;&gt;Node16 -->
<g id="edge14" class="edge"><title>Node20&#45;&gt;Node16</title>
<path fill="none" stroke="midnightblue" d="M548.806,-92.5142C585.609,-92.8098 647.084,-93.2285 700,-93.2285 700,-93.2285 700,-93.2285 1116,-93.2285 1198.24,-93.2285 1292.02,-108.082 1352.74,-119.686"/>
<polygon fill="midnightblue" stroke="midnightblue" points="548.69,-89.0132 538.661,-92.4308 548.632,-96.013 548.69,-89.0132"/>
</g>
<!-- Node20&#45;&gt;Node17 -->
<g id="edge6" class="edge"><title>Node20&#45;&gt;Node17</title>
<path fill="none" stroke="midnightblue" d="M532.175,-109.415C547.387,-125.594 570.781,-150.517 591,-172.228 607.504,-189.951 607.325,-199.619 628,-212.228 639.741,-219.389 654.103,-224.048 666.903,-227.05"/>
<polygon fill="midnightblue" stroke="midnightblue" points="534.427,-106.7 525.026,-101.814 529.328,-111.496 534.427,-106.7"/>
</g>
<!-- Node21 -->
<g id="node8" class="node"><title>Node21</title>
<g id="a_node8"><a xlink:href="interface_holo_gen_1_1_hierarchy_1_1_hierarchy_1_1_i_can_error.html" target="_top" xlink:title="Interface implemented by any classes that can be in an error state. Defines the Valid property that c...">
<polygon fill="white" stroke="black" points="315.5,-166.728 315.5,-185.728 372.5,-185.728 372.5,-166.728 315.5,-166.728"/>
<text text-anchor="middle" x="344" y="-173.728" font-family="Helvetica,sans-Serif" font-size="10.00">ICanError</text>
</a>
</g>
</g>
<!-- Node21&#45;&gt;Node20 -->
<g id="edge7" class="edge"><title>Node21&#45;&gt;Node20</title>
<path fill="none" stroke="midnightblue" d="M382.193,-163.501C388.864,-160.943 395.696,-158.14 402,-155.228 437.849,-138.671 477.666,-114.892 498.827,-101.794"/>
<polygon fill="midnightblue" stroke="midnightblue" points="380.771,-160.296 372.614,-167.057 383.207,-166.858 380.771,-160.296"/>
</g>
<!-- Node32 -->
<g id="node19" class="node"><title>Node32</title>
<g id="a_node19"><a xlink:href="interface_holo_gen_1_1_hierarchy_1_1_hierarchy_1_1_i_hierarchy_element.html" target="_top" xlink:title="Base interface for the HierarchyElement that doesn&#39;t need a template parameter. Necessary for a numbe...">
<polygon fill="white" stroke="black" points="467,-181.728 467,-200.728 563,-200.728 563,-181.728 467,-181.728"/>
<text text-anchor="middle" x="515" y="-188.728" font-family="Helvetica,sans-Serif" font-size="10.00">IHierarchyElement</text>
</a>
</g>
</g>
<!-- Node21&#45;&gt;Node32 -->
<g id="edge22" class="edge"><title>Node21&#45;&gt;Node32</title>
<path fill="none" stroke="midnightblue" d="M382.672,-179.572C407.567,-181.782 440.389,-184.695 466.992,-187.056"/>
<polygon fill="midnightblue" stroke="midnightblue" points="382.799,-176.07 372.529,-178.672 382.18,-183.042 382.799,-176.07"/>
</g>
<!-- Node22 -->
<g id="node9" class="node"><title>Node22</title>
<g id="a_node9"><a xlink:href="interface_holo_gen_1_1_hierarchy_1_1_hierarchy_1_1_i_has_name.html" target="_top" xlink:title="Interface implemented by any classes that have a Name property. ">
<polygon fill="white" stroke="black" points="313,-84.7285 313,-103.728 375,-103.728 375,-84.7285 313,-84.7285"/>
<text text-anchor="middle" x="344" y="-91.7285" font-family="Helvetica,sans-Serif" font-size="10.00">IHasName</text>
</a>
</g>
</g>
<!-- Node22&#45;&gt;Node20 -->
<g id="edge8" class="edge"><title>Node22&#45;&gt;Node20</title>
<path fill="none" stroke="midnightblue" d="M385.088,-85.333C396.325,-83.2255 408.589,-81.2844 420,-80.2285 444.409,-77.9698 472.248,-82.4055 491.255,-86.508"/>
<polygon fill="midnightblue" stroke="midnightblue" points="384.247,-81.9312 375.11,-87.2946 385.598,-88.7997 384.247,-81.9312"/>
</g>
<!-- Node22&#45;&gt;Node32 -->
<g id="edge23" class="edge"><title>Node22&#45;&gt;Node32</title>
<path fill="none" stroke="midnightblue" d="M381.243,-107.58C388.246,-110.514 395.44,-113.783 402,-117.228 439.962,-137.171 481.213,-166.675 501.414,-181.693"/>
<polygon fill="midnightblue" stroke="midnightblue" points="382.473,-104.302 371.89,-103.801 379.851,-110.792 382.473,-104.302"/>
</g>
<!-- Node23 -->
<g id="node10" class="node"><title>Node23</title>
<g id="a_node10"><a xlink:href="interface_holo_gen_1_1_hierarchy_1_1_hierarchy_1_1_i_has_tool_tip.html" target="_top" xlink:title="Interface implemented by any classes that have a ToolTip property. ">
<polygon fill="white" stroke="black" points="310.5,-126.728 310.5,-145.728 377.5,-145.728 377.5,-126.728 310.5,-126.728"/>
<text text-anchor="middle" x="344" y="-133.728" font-family="Helvetica,sans-Serif" font-size="10.00">IHasToolTip</text>
</a>
</g>
</g>
<!-- Node23&#45;&gt;Node20 -->
<g id="edge9" class="edge"><title>Node23&#45;&gt;Node20</title>
<path fill="none" stroke="midnightblue" d="M378.644,-122.878C386.34,-119.762 394.47,-116.42 402,-113.228 410.06,-109.812 411.581,-107.63 420,-105.228 443.765,-98.4508 471.952,-95.1525 491.221,-93.5831"/>
<polygon fill="midnightblue" stroke="midnightblue" points="377.176,-119.696 369.206,-126.677 379.789,-126.19 377.176,-119.696"/>
</g>
<!-- Node23&#45;&gt;Node32 -->
<g id="edge24" class="edge"><title>Node23&#45;&gt;Node32</title>
<path fill="none" stroke="midnightblue" d="M383.964,-148.909C414.639,-158.892 456.731,-172.591 484.617,-181.666"/>
<polygon fill="midnightblue" stroke="midnightblue" points="385.03,-145.575 374.438,-145.809 382.863,-152.232 385.03,-145.575"/>
</g>
<!-- Node24 -->
<g id="node11" class="node"><title>Node24</title>
<g id="a_node11"><a xlink:href="interface_holo_gen_1_1_hierarchy_1_1_hierarchy_1_1_i_can_enable.html" target="_top" xlink:title="Interface implemented by any classes that can be enabled Enabled. ">
<polygon fill="white" stroke="black" points="169.5,-143.728 169.5,-162.728 235.5,-162.728 235.5,-143.728 169.5,-143.728"/>
<text text-anchor="middle" x="202.5" y="-150.728" font-family="Helvetica,sans-Serif" font-size="10.00">ICanEnable</text>
</a>
</g>
</g>
<!-- Node24&#45;&gt;Node20 -->
<g id="edge10" class="edge"><title>Node24&#45;&gt;Node20</title>
<path fill="none" stroke="midnightblue" d="M215.712,-135.485C230.012,-116.443 255.644,-87.3069 286,-75.2285 356.627,-47.1268 449.172,-70.5806 491.323,-84.183"/>
<polygon fill="midnightblue" stroke="midnightblue" points="212.821,-133.51 209.797,-143.664 218.493,-137.612 212.821,-133.51"/>
</g>
<!-- Node27 -->
<g id="node14" class="node"><title>Node27</title>
<g id="a_node14"><a xlink:href="class_holo_gen_1_1_hierarchy_1_1_hierarchy_1_1_hierarchy_folder.html" target="_top" xlink:title="Folder hierarchy element. Extends HierarchyElement and extends it to split the ReflectiveChildrenElem...">
<polygon fill="white" stroke="black" points="1042,-122.228 1042,-152.228 1188,-152.228 1188,-122.228 1042,-122.228"/>
<text text-anchor="start" x="1050" y="-140.228" font-family="Helvetica,sans-Serif" font-size="10.00">HoloGen.Hierarchy.Hierarchy.</text>
<text text-anchor="middle" x="1115" y="-129.228" font-family="Helvetica,sans-Serif" font-size="10.00">HierarchyFolder</text>
</a>
</g>
</g>
<!-- Node24&#45;&gt;Node27 -->
<g id="edge29" class="edge"><title>Node24&#45;&gt;Node27</title>
<path fill="none" stroke="midnightblue" d="M212.041,-133.954C230.226,-96.2156 276.6,-16.2285 343,-16.2285 343,-16.2285 343,-16.2285 934.5,-16.2285 971.988,-16.2285 1060.06,-89.7122 1097.11,-122.148"/>
<polygon fill="midnightblue" stroke="midnightblue" points="208.703,-132.832 207.667,-143.376 215.052,-135.78 208.703,-132.832"/>
</g>
<!-- Node24&#45;&gt;Node32 -->
<g id="edge28" class="edge"><title>Node24&#45;&gt;Node32</title>
<path fill="none" stroke="midnightblue" d="M215.675,-171.339C229.941,-190.832 255.544,-220.838 286,-234.228 341,-258.409 362.738,-255.898 421,-241.228 451.931,-233.441 483.779,-213.141 501.008,-200.935"/>
<polygon fill="midnightblue" stroke="midnightblue" points="218.4,-169.13 209.776,-162.976 212.68,-173.165 218.4,-169.13"/>
</g>
<!-- Node33 -->
<g id="node20" class="node"><title>Node33</title>
<g id="a_node20"><a xlink:href="interface_holo_gen_1_1_hierarchy_1_1_hierarchy_1_1_i_can_recursively_enable.html" target="_top" xlink:title="Interface implemented by any classes that can be enabled Enabled and have children that can be Enable...">
<polygon fill="white" stroke="black" points="286,-281.728 286,-300.728 402,-300.728 402,-281.728 286,-281.728"/>
<text text-anchor="middle" x="344" y="-288.728" font-family="Helvetica,sans-Serif" font-size="10.00">ICanRecursivelyEnable</text>
</a>
</g>
</g>
<!-- Node24&#45;&gt;Node33 -->
<g id="edge27" class="edge"><title>Node24&#45;&gt;Node33</title>
<path fill="none" stroke="midnightblue" d="M209.194,-172.339C217.702,-197.657 236.124,-242.044 267,-267.228 274.72,-273.525 284.109,-278.179 293.618,-281.615"/>
<polygon fill="midnightblue" stroke="midnightblue" points="212.516,-171.235 206.147,-162.768 205.845,-173.358 212.516,-171.235"/>
</g>
<!-- Node25 -->
<g id="node12" class="node"><title>Node25</title>
<g id="a_node12"><a xlink:href="interface_holo_gen_1_1_hierarchy_1_1_hierarchy_1_1_i_can_reset.html" target="_top" xlink:title="Interface implemented by any classes that can be reset. ">
<polygon fill="white" stroke="black" points="313,-205.728 313,-224.728 375,-224.728 375,-205.728 313,-205.728"/>
<text text-anchor="middle" x="344" y="-212.728" font-family="Helvetica,sans-Serif" font-size="10.00">ICanReset</text>
</a>
</g>
</g>
<!-- Node25&#45;&gt;Node20 -->
<g id="edge12" class="edge"><title>Node25&#45;&gt;Node20</title>
<path fill="none" stroke="midnightblue" d="M384.473,-203.749C390.532,-201.32 396.571,-198.487 402,-195.228 446.623,-168.449 488.892,-121.891 506.006,-101.852"/>
<polygon fill="midnightblue" stroke="midnightblue" points="383.193,-200.49 375.021,-207.234 385.614,-207.058 383.193,-200.49"/>
</g>
<!-- Node25&#45;&gt;Node32 -->
<g id="edge25" class="edge"><title>Node25&#45;&gt;Node32</title>
<path fill="none" stroke="midnightblue" d="M384.932,-226.676C396.583,-228.627 409.321,-229.41 421,-227.228 447.89,-222.206 477.013,-209.67 495.37,-200.808"/>
<polygon fill="midnightblue" stroke="midnightblue" points="385.517,-223.224 375.027,-224.706 384.152,-230.09 385.517,-223.224"/>
</g>
<!-- Node26 -->
<g id="node13" class="node"><title>Node26</title>
<g id="a_node13"><a xlink:href="interface_holo_gen_1_1_hierarchy_1_1_option_types_1_1_i_select_option.html" target="_top" xlink:title="Base interface for the SelectOption that doesn&#39;t need a template parameter. Necessary for a number of...">
<polygon fill="white" stroke="black" points="1077.5,-45.7285 1077.5,-64.7285 1152.5,-64.7285 1152.5,-45.7285 1077.5,-45.7285"/>
<text text-anchor="middle" x="1115" y="-52.7285" font-family="Helvetica,sans-Serif" font-size="10.00">ISelectOption</text>
</a>
</g>
</g>
<!-- Node26&#45;&gt;Node16 -->
<g id="edge13" class="edge"><title>Node26&#45;&gt;Node16</title>
<path fill="none" stroke="midnightblue" d="M1163.08,-54.5063C1207.55,-55.1998 1275.52,-59.8577 1331,-79.2285 1356.3,-88.0621 1381.87,-105.443 1398.48,-118.107"/>
<polygon fill="midnightblue" stroke="midnightblue" points="1162.89,-51.0044 1152.85,-54.4104 1162.82,-58.0041 1162.89,-51.0044"/>
</g>
<!-- Node27&#45;&gt;Node16 -->
<g id="edge15" class="edge"><title>Node27&#45;&gt;Node16</title>
<path fill="none" stroke="#9a32cd" stroke-dasharray="5,2" d="M1198.3,-136.135C1247,-135.488 1307.79,-134.68 1352.91,-134.08"/>
<polygon fill="#9a32cd" stroke="#9a32cd" points="1198.05,-132.638 1188.1,-136.27 1198.14,-139.637 1198.05,-132.638"/>
<text text-anchor="middle" x="1268.5" y="-139.228" font-family="Helvetica,sans-Serif" font-size="10.00"> PushLocation</text>
</g>
<!-- Node28 -->
<g id="node15" class="node"><title>Node28</title>
<g id="a_node15"><a xlink:href="class_holo_gen_1_1_hierarchy_1_1_hierarchy_1_1_hierarchy_element.html" target="_top" xlink:title="HierarchyElement\&lt; IOption \&gt;">
<polygon fill="white" stroke="black" points="862,-172.728 862,-191.728 1005,-191.728 1005,-172.728 862,-172.728"/>
<text text-anchor="middle" x="933.5" y="-179.728" font-family="Helvetica,sans-Serif" font-size="10.00">HierarchyElement&lt; IOption &gt;</text>
</a>
</g>
</g>
<!-- Node28&#45;&gt;Node27 -->
<g id="edge16" class="edge"><title>Node28&#45;&gt;Node27</title>
<path fill="none" stroke="midnightblue" d="M982.357,-170.231C1004.39,-164.708 1030.76,-158.098 1054.09,-152.248"/>
<polygon fill="midnightblue" stroke="midnightblue" points="981.416,-166.858 972.567,-172.685 983.118,-173.648 981.416,-166.858"/>
</g>
<!-- Node40 -->
<g id="node27" class="node"><title>Node40</title>
<g id="a_node27"><a xlink:href="class_holo_gen_1_1_hierarchy_1_1_hierarchy_1_1_option_collection.html" target="_top" xlink:title="Option collection. Extends HierarchyElement. The base class ReflectiveChildrenElement finds all membe...">
<polygon fill="white" stroke="black" points="1071,-172.728 1071,-191.728 1159,-191.728 1159,-172.728 1071,-172.728"/>
<text text-anchor="middle" x="1115" y="-179.728" font-family="Helvetica,sans-Serif" font-size="10.00">OptionCollection</text>
</a>
</g>
</g>
<!-- Node28&#45;&gt;Node40 -->
<g id="edge38" class="edge"><title>Node28&#45;&gt;Node40</title>
<path fill="none" stroke="midnightblue" d="M1015.41,-182.228C1034.51,-182.228 1054.15,-182.228 1070.83,-182.228"/>
<polygon fill="midnightblue" stroke="midnightblue" points="1015.19,-178.729 1005.19,-182.228 1015.19,-185.729 1015.19,-178.729"/>
</g>
<!-- Node29 -->
<g id="node16" class="node"><title>Node29</title>
<g id="a_node16"><a xlink:href="class_holo_gen_1_1_hierarchy_1_1_hierarchy_1_1_hierarchy_element.html" target="_top" xlink:title="Root hierarchy element. Defines Name and ToolTip fields that must be implemented by any implementors...">
<polygon fill="white" stroke="black" points="628,-173.228 628,-203.228 774,-203.228 774,-173.228 628,-173.228"/>
<text text-anchor="start" x="636" y="-191.228" font-family="Helvetica,sans-Serif" font-size="10.00">HoloGen.Hierarchy.Hierarchy.</text>
<text text-anchor="middle" x="701" y="-180.228" font-family="Helvetica,sans-Serif" font-size="10.00">HierarchyElement&lt; T &gt;</text>
</a>
</g>
</g>
<!-- Node29&#45;&gt;Node28 -->
<g id="edge17" class="edge"><title>Node29&#45;&gt;Node28</title>
<path fill="none" stroke="orange" stroke-dasharray="5,2" d="M784.577,-186.079C809.791,-185.423 837.279,-184.707 861.642,-184.073"/>
<polygon fill="orange" stroke="orange" points="784.205,-182.587 774.299,-186.346 784.387,-189.585 784.205,-182.587"/>
<text text-anchor="middle" x="818" y="-189.228" font-family="Helvetica,sans-Serif" font-size="10.00"> &lt; IOption &gt;</text>
</g>
<!-- Node30 -->
<g id="node17" class="node"><title>Node30</title>
<g id="a_node17"><a xlink:href="class_holo_gen_1_1_hierarchy_1_1_hierarchy_1_1_reflective_children_element.html" target="_top" xlink:title="Reflective hierarchy element template T . The constructor finds all members assignable from T &#160;and us...">
<polygon fill="white" stroke="black" points="439,-318.728 439,-337.728 591,-337.728 591,-318.728 439,-318.728"/>
<text text-anchor="middle" x="515" y="-325.728" font-family="Helvetica,sans-Serif" font-size="10.00">ReflectiveChildrenElement&lt; T &gt;</text>
</a>
</g>
</g>
<!-- Node30&#45;&gt;Node29 -->
<g id="edge18" class="edge"><title>Node30&#45;&gt;Node29</title>
<path fill="none" stroke="midnightblue" d="M529.158,-310.173C548.291,-285.111 586.11,-239.867 628,-213.228 633.918,-209.465 640.471,-206.189 647.144,-203.359"/>
<polygon fill="midnightblue" stroke="midnightblue" points="526.174,-308.318 522.981,-318.421 531.777,-312.514 526.174,-308.318"/>
</g>
<!-- Node37 -->
<g id="node24" class="node"><title>Node37</title>
<g id="a_node24"><a xlink:href="class_holo_gen_1_1_hierarchy_1_1_hierarchy_1_1_possibility_collection.html" target="_top" xlink:title="Collection of Possibilitys. Is wrapped by a SelectOption. Extends ReflectiveChildrenElement. The base class ReflectiveChildrenElement finds all members assignable from T &#160;and uses them to populate the ReflectiveChildrenElement.Children member collection. ">
<polygon fill="white" stroke="black" points="1042,-313.228 1042,-343.228 1188,-343.228 1188,-313.228 1042,-313.228"/>
<text text-anchor="start" x="1050" y="-331.228" font-family="Helvetica,sans-Serif" font-size="10.00">HoloGen.Hierarchy.Hierarchy.</text>
<text text-anchor="middle" x="1115" y="-320.228" font-family="Helvetica,sans-Serif" font-size="10.00">PossibilityCollection&lt; T &gt;</text>
</a>
</g>
</g>
<!-- Node30&#45;&gt;Node37 -->
<g id="edge34" class="edge"><title>Node30&#45;&gt;Node37</title>
<path fill="none" stroke="midnightblue" d="M601.227,-328.228C719.469,-328.228 931.201,-328.228 1041.97,-328.228"/>
<polygon fill="midnightblue" stroke="midnightblue" points="601.132,-324.729 591.132,-328.228 601.132,-331.729 601.132,-324.729"/>
</g>
<!-- Node31&#45;&gt;Node30 -->
<g id="edge19" class="edge"><title>Node31&#45;&gt;Node30</title>
<path fill="none" stroke="midnightblue" d="M402.528,-328.888C414.161,-328.819 426.557,-328.746 438.697,-328.674"/>
<polygon fill="midnightblue" stroke="midnightblue" points="402.505,-325.388 392.526,-328.947 402.546,-332.388 402.505,-325.388"/>
</g>
<!-- Node32&#45;&gt;Node29 -->
<g id="edge21" class="edge"><title>Node32&#45;&gt;Node29</title>
<path fill="none" stroke="midnightblue" d="M573.777,-190.286C590.891,-190.007 609.848,-189.698 627.757,-189.406"/>
<polygon fill="midnightblue" stroke="midnightblue" points="573.326,-186.793 563.385,-190.456 573.44,-193.792 573.326,-186.793"/>
</g>
<!-- Node33&#45;&gt;Node32 -->
<g id="edge26" class="edge"><title>Node33&#45;&gt;Node32</title>
<path fill="none" stroke="midnightblue" d="M411.835,-281.199C414.988,-280.018 418.061,-278.7 421,-277.228 458.951,-258.225 492.538,-218.995 506.77,-200.837"/>
<polygon fill="midnightblue" stroke="midnightblue" points="410.606,-277.918 402.183,-284.344 412.775,-284.574 410.606,-277.918"/>
</g>
<!-- Node34 -->
<g id="node21" class="node"><title>Node34</title>
<g id="a_node21"><a xlink:href="interface_holo_gen_1_1_options_1_1_algorithm_1_1_algorithms_1_1_variants_1_1_variant_option.html" target="_top" xlink:title="VariantOption">
<polygon fill="white" stroke="black" points="1747.5,-276.728 1747.5,-295.728 1823.5,-295.728 1823.5,-276.728 1747.5,-276.728"/>
<text text-anchor="middle" x="1785.5" y="-283.728" font-family="Helvetica,sans-Serif" font-size="10.00">VariantOption</text>
</a>
</g>
</g>
<!-- Node34&#45;&gt;Node14 -->
<g id="edge30" class="edge"><title>Node34&#45;&gt;Node14</title>
<path fill="none" stroke="midnightblue" d="M1833.6,-278.548C1875.61,-271.698 1938.42,-261.456 1991,-252.883"/>
<polygon fill="midnightblue" stroke="midnightblue" points="1832.95,-275.107 1823.65,-280.171 1834.08,-282.016 1832.95,-275.107"/>
</g>
<!-- Node35 -->
<g id="node22" class="node"><title>Node35</title>
<g id="a_node22"><a xlink:href="class_holo_gen_1_1_options_1_1_algorithm_1_1_algorithms_1_1_type_1_1_variants_1_1_o_s_p_r_1_1_o_s_p_r_variant_possibilities.html" target="_top" xlink:title="Collection of all OSPR variant possibilities. ">
<polygon fill="white" stroke="black" points="1705.5,-216.728 1705.5,-257.728 1865.5,-257.728 1865.5,-216.728 1705.5,-216.728"/>
<text text-anchor="start" x="1713.5" y="-245.728" font-family="Helvetica,sans-Serif" font-size="10.00">HoloGen.Options.Algorithm.</text>
<text text-anchor="start" x="1713.5" y="-234.728" font-family="Helvetica,sans-Serif" font-size="10.00">Algorithms.Type.Variants.OSPR.</text>
<text text-anchor="middle" x="1785.5" y="-223.728" font-family="Helvetica,sans-Serif" font-size="10.00">OSPRVariantPossibilities</text>
</a>
</g>
</g>
<!-- Node35&#45;&gt;Node14 -->
<g id="edge31" class="edge"><title>Node35&#45;&gt;Node14</title>
<path fill="none" stroke="#9a32cd" stroke-dasharray="5,2" d="M1875.9,-237.228C1912.11,-237.228 1953.99,-237.228 1990.85,-237.228"/>
<polygon fill="#9a32cd" stroke="#9a32cd" points="1875.85,-233.729 1865.85,-237.228 1875.85,-240.729 1875.85,-233.729"/>
<text text-anchor="middle" x="1933.5" y="-240.228" font-family="Helvetica,sans-Serif" font-size="10.00"> Possibilities2</text>
</g>
<!-- Node36 -->
<g id="node23" class="node"><title>Node36</title>
<g id="a_node23"><a xlink:href="class_holo_gen_1_1_hierarchy_1_1_hierarchy_1_1_possibility_collection.html" target="_top" xlink:title="PossibilityCollection\l\&lt; OSPRVariantPossibility \&gt;">
<polygon fill="white" stroke="black" points="1349,-258.228 1349,-288.228 1487,-288.228 1487,-258.228 1349,-258.228"/>
<text text-anchor="start" x="1357" y="-276.228" font-family="Helvetica,sans-Serif" font-size="10.00">PossibilityCollection</text>
<text text-anchor="middle" x="1418" y="-265.228" font-family="Helvetica,sans-Serif" font-size="10.00">&lt; OSPRVariantPossibility &gt;</text>
</a>
</g>
</g>
<!-- Node36&#45;&gt;Node35 -->
<g id="edge32" class="edge"><title>Node36&#45;&gt;Node35</title>
<path fill="none" stroke="midnightblue" d="M1497.35,-265.512C1558.74,-259.464 1643.8,-251.086 1705.4,-245.02"/>
<polygon fill="midnightblue" stroke="midnightblue" points="1496.93,-262.036 1487.32,-266.499 1497.61,-269.002 1496.93,-262.036"/>
</g>
<!-- Node37&#45;&gt;Node36 -->
<g id="edge33" class="edge"><title>Node37&#45;&gt;Node36</title>
<path fill="none" stroke="orange" stroke-dasharray="5,2" d="M1161.64,-309.682C1175.67,-304.614 1191.29,-299.597 1206,-296.228 1253.05,-285.454 1307.2,-279.684 1348.86,-276.618"/>
<polygon fill="orange" stroke="orange" points="1160.37,-306.42 1152.21,-313.179 1162.8,-312.983 1160.37,-306.42"/>
<text text-anchor="middle" x="1268.5" y="-299.228" font-family="Helvetica,sans-Serif" font-size="10.00"> &lt; OSPRVariantPossibility &gt;</text>
</g>
<!-- Node41 -->
<g id="node28" class="node"><title>Node41</title>
<g id="a_node28"><a xlink:href="class_holo_gen_1_1_hierarchy_1_1_hierarchy_1_1_possibility_collection.html" target="_top" xlink:title="HoloGen.Hierarchy.Hierarchy.\lPossibilityCollection\&lt; OSPRVariant\lPossibility \&gt;">
<polygon fill="white" stroke="black" points="1505,-310.728 1505,-351.728 1677,-351.728 1677,-310.728 1505,-310.728"/>
<text text-anchor="start" x="1513" y="-339.728" font-family="Helvetica,sans-Serif" font-size="10.00">HoloGen.Hierarchy.Hierarchy.</text>
<text text-anchor="start" x="1513" y="-328.728" font-family="Helvetica,sans-Serif" font-size="10.00">PossibilityCollection&lt; OSPRVariant</text>
<text text-anchor="middle" x="1591" y="-317.728" font-family="Helvetica,sans-Serif" font-size="10.00">Possibility &gt;</text>
</a>
</g>
</g>
<!-- Node37&#45;&gt;Node41 -->
<g id="edge40" class="edge"><title>Node37&#45;&gt;Node41</title>
<path fill="none" stroke="orange" stroke-dasharray="5,2" d="M1198.48,-328.75C1284.34,-329.294 1418.18,-330.141 1504.98,-330.69"/>
<polygon fill="orange" stroke="orange" points="1198.27,-325.249 1188.25,-328.686 1198.23,-332.249 1198.27,-325.249"/>
<text text-anchor="middle" x="1268.5" y="-333.228" font-family="Helvetica,sans-Serif" font-size="10.00"> &lt; OSPRVariantPossibility &gt;</text>
</g>
<!-- Node38 -->
<g id="node25" class="node"><title>Node38</title>
<g id="a_node25"><a xlink:href="class_holo_gen_1_1_options_1_1_algorithm_1_1_algorithms_1_1_variants_1_1_variant_possibility.html" target="_top" xlink:title="Variant posibility. ">
<polygon fill="white" stroke="black" points="1695,-167.228 1695,-197.228 1876,-197.228 1876,-167.228 1695,-167.228"/>
<text text-anchor="start" x="1703" y="-185.228" font-family="Helvetica,sans-Serif" font-size="10.00">HoloGen.Options.Algorithm.</text>
<text text-anchor="middle" x="1785.5" y="-174.228" font-family="Helvetica,sans-Serif" font-size="10.00">Algorithms.Variants.VariantPossibility</text>
</a>
</g>
</g>
<!-- Node38&#45;&gt;Node14 -->
<g id="edge35" class="edge"><title>Node38&#45;&gt;Node14</title>
<path fill="none" stroke="#9a32cd" stroke-dasharray="5,2" d="M1878.51,-199.069C1914.12,-205.586 1954.89,-213.048 1990.87,-219.635"/>
<polygon fill="#9a32cd" stroke="#9a32cd" points="1879.08,-195.615 1868.61,-197.257 1877.82,-202.501 1879.08,-195.615"/>
<text text-anchor="middle" x="1933.5" y="-220.228" font-family="Helvetica,sans-Serif" font-size="10.00"> VariantPossibility</text>
</g>
<!-- Node39 -->
<g id="node26" class="node"><title>Node39</title>
<g id="a_node26"><a xlink:href="class_holo_gen_1_1_hierarchy_1_1_option_types_1_1_possibility.html" target="_top" xlink:title="Possibility for a PossibilityCollection wrapped by a SelectOption. Extends OptionCollection. The base class ReflectiveChildrenElement finds all members assignable from T &#160;and uses them to populate the ReflectiveChildrenElement.Children member collection. ">
<polygon fill="white" stroke="black" points="1387,-172.728 1387,-191.728 1449,-191.728 1449,-172.728 1387,-172.728"/>
<text text-anchor="middle" x="1418" y="-179.728" font-family="Helvetica,sans-Serif" font-size="10.00">Possibility</text>
</a>
</g>
</g>
<!-- Node39&#45;&gt;Node38 -->
<g id="edge36" class="edge"><title>Node39&#45;&gt;Node38</title>
<path fill="none" stroke="midnightblue" d="M1459.51,-182.228C1515.89,-182.228 1619.53,-182.228 1694.65,-182.228"/>
<polygon fill="midnightblue" stroke="midnightblue" points="1459.22,-178.729 1449.22,-182.228 1459.22,-185.729 1459.22,-178.729"/>
</g>
<!-- Node40&#45;&gt;Node39 -->
<g id="edge37" class="edge"><title>Node40&#45;&gt;Node39</title>
<path fill="none" stroke="midnightblue" d="M1169.3,-182.228C1232.56,-182.228 1335.86,-182.228 1386.73,-182.228"/>
<polygon fill="midnightblue" stroke="midnightblue" points="1169.13,-178.729 1159.13,-182.228 1169.13,-185.729 1169.13,-178.729"/>
</g>
<!-- Node41&#45;&gt;Node14 -->
<g id="edge39" class="edge"><title>Node41&#45;&gt;Node14</title>
<path fill="none" stroke="#9a32cd" stroke-dasharray="5,2" d="M1687.29,-327.25C1742.74,-323.757 1813.76,-317.257 1876,-305.228 1920.18,-296.691 1930.15,-289.958 1973,-276.228 1991.03,-270.452 2010.56,-263.886 2028.27,-257.81"/>
<polygon fill="#9a32cd" stroke="#9a32cd" points="1686.89,-323.767 1677.12,-327.868 1687.32,-330.755 1686.89,-323.767"/>
<text text-anchor="middle" x="1785.5" y="-330.228" font-family="Helvetica,sans-Serif" font-size="10.00"> Possibilities</text>
</g>
</g>
</svg>
