<?xml version="1.0" encoding="UTF-8" standalone="no"?>
<!DOCTYPE svg PUBLIC "-//W3C//DTD SVG 1.1//EN"
 "http://www.w3.org/Graphics/SVG/1.1/DTD/svg11.dtd">
<!-- Generated by graphviz version 2.38.0 (20140413.2041)
 -->
<!-- Title: HoloGen.Options.Algorithm.Target.EfficiencyLimit Pages: 1 -->
<svg width="533pt" height="402pt"
 viewBox="0.00 0.00 532.50 402.00" xmlns="http://www.w3.org/2000/svg" xmlns:xlink="http://www.w3.org/1999/xlink">
<g id="graph0" class="graph" transform="scale(1 1) rotate(0) translate(4 398)">
<title>HoloGen.Options.Algorithm.Target.EfficiencyLimit</title>
<polygon fill="white" stroke="none" points="-4,4 -4,-398 528.5,-398 528.5,4 -4,4"/>
<!-- Node0 -->
<g id="node1" class="node"><title>Node0</title>
<polygon fill="#bfbfbf" stroke="black" points="142.5,-0.5 142.5,-30.5 280.5,-30.5 280.5,-0.5 142.5,-0.5"/>
<text text-anchor="start" x="150.5" y="-18.5" font-family="Helvetica,sans-Serif" font-size="10.00">HoloGen.Options.Algorithm.</text>
<text text-anchor="middle" x="211.5" y="-7.5" font-family="Helvetica,sans-Serif" font-size="10.00">Target.EfficiencyLimit</text>
</g>
<!-- Node1 -->
<g id="node2" class="node"><title>Node1</title>
<g id="a_node2"><a xlink:href="class_holo_gen_1_1_hierarchy_1_1_option_types_1_1_double_option.html" target="_top" xlink:title="Extends NumericOption for the case of a double parameter. ">
<polygon fill="white" stroke="black" points="174,-68.5 174,-87.5 249,-87.5 249,-68.5 174,-68.5"/>
<text text-anchor="middle" x="211.5" y="-75.5" font-family="Helvetica,sans-Serif" font-size="10.00">DoubleOption</text>
</a>
</g>
</g>
<!-- Node1&#45;&gt;Node0 -->
<g id="edge1" class="edge"><title>Node1&#45;&gt;Node0</title>
<path fill="none" stroke="midnightblue" d="M211.5,-58.2154C211.5,-49.3565 211.5,-38.9577 211.5,-30.7587"/>
<polygon fill="midnightblue" stroke="midnightblue" points="208,-58.3318 211.5,-68.3318 215,-58.3319 208,-58.3318"/>
</g>
<!-- Node2 -->
<g id="node3" class="node"><title>Node2</title>
<g id="a_node3"><a xlink:href="class_holo_gen_1_1_hierarchy_1_1_option_types_1_1_numeric_option.html" target="_top" xlink:title="NumericOption\&lt; double \&gt;">
<polygon fill="white" stroke="black" points="147.5,-125.5 147.5,-144.5 275.5,-144.5 275.5,-125.5 147.5,-125.5"/>
<text text-anchor="middle" x="211.5" y="-132.5" font-family="Helvetica,sans-Serif" font-size="10.00">NumericOption&lt; double &gt;</text>
</a>
</g>
</g>
<!-- Node2&#45;&gt;Node1 -->
<g id="edge2" class="edge"><title>Node2&#45;&gt;Node1</title>
<path fill="none" stroke="midnightblue" d="M211.5,-115.117C211.5,-105.817 211.5,-95.0557 211.5,-87.7149"/>
<polygon fill="midnightblue" stroke="midnightblue" points="208,-115.406 211.5,-125.406 215,-115.406 208,-115.406"/>
</g>
<!-- Node3 -->
<g id="node4" class="node"><title>Node3</title>
<g id="a_node4"><a xlink:href="class_holo_gen_1_1_hierarchy_1_1_option_types_1_1_numeric_option.html" target="_top" xlink:title="Extends Option wrapping a numeric parameter. Implements the IHasWatermark interface in addition...">
<polygon fill="white" stroke="black" points="144.5,-192.5 144.5,-222.5 278.5,-222.5 278.5,-192.5 144.5,-192.5"/>
<text text-anchor="start" x="152.5" y="-210.5" font-family="Helvetica,sans-Serif" font-size="10.00">HoloGen.Hierarchy.Option</text>
<text text-anchor="middle" x="211.5" y="-199.5" font-family="Helvetica,sans-Serif" font-size="10.00">Types.NumericOption&lt; T &gt;</text>
</a>
</g>
</g>
<!-- Node3&#45;&gt;Node2 -->
<g id="edge3" class="edge"><title>Node3&#45;&gt;Node2</title>
<path fill="none" stroke="orange" stroke-dasharray="5,2" d="M211.5,-182.091C211.5,-169.214 211.5,-154.197 211.5,-144.893"/>
<polygon fill="orange" stroke="orange" points="208,-182.233 211.5,-192.233 215,-182.233 208,-182.233"/>
<text text-anchor="middle" x="236.5" y="-166" font-family="Helvetica,sans-Serif" font-size="10.00"> &lt; double &gt;</text>
</g>
<!-- Node4 -->
<g id="node5" class="node"><title>Node4</title>
<g id="a_node5"><a xlink:href="class_holo_gen_1_1_hierarchy_1_1_option_types_1_1_option.html" target="_top" xlink:title="Root hierarchy element. Defines Name and ToolTip fields that must be implemented by any implementors...">
<polygon fill="white" stroke="black" points="107.5,-260.5 107.5,-279.5 175.5,-279.5 175.5,-260.5 107.5,-260.5"/>
<text text-anchor="middle" x="141.5" y="-267.5" font-family="Helvetica,sans-Serif" font-size="10.00">Option&lt; T &gt;</text>
</a>
</g>
</g>
<!-- Node4&#45;&gt;Node3 -->
<g id="edge4" class="edge"><title>Node4&#45;&gt;Node3</title>
<path fill="none" stroke="midnightblue" d="M159.296,-253.62C170.37,-244.048 184.504,-231.832 195.272,-222.526"/>
<polygon fill="midnightblue" stroke="midnightblue" points="156.806,-251.145 151.529,-260.332 161.384,-256.441 156.806,-251.145"/>
</g>
<!-- Node5 -->
<g id="node6" class="node"><title>Node5</title>
<g id="a_node6"><a xlink:href="class_holo_gen_1_1_utils_1_1_observable_object.html" target="_top" xlink:title="Observable object with INotifyPropertyChanged implemented ">
<polygon fill="white" stroke="black" points="43,-317.5 43,-336.5 136,-336.5 136,-317.5 43,-317.5"/>
<text text-anchor="middle" x="89.5" y="-324.5" font-family="Helvetica,sans-Serif" font-size="10.00">ObservableObject</text>
</a>
</g>
</g>
<!-- Node5&#45;&gt;Node4 -->
<g id="edge5" class="edge"><title>Node5&#45;&gt;Node4</title>
<path fill="none" stroke="midnightblue" d="M104.511,-310.123C113.87,-300.224 125.557,-287.862 133.26,-279.715"/>
<polygon fill="midnightblue" stroke="midnightblue" points="101.952,-307.735 97.625,-317.406 107.038,-312.544 101.952,-307.735"/>
</g>
<!-- Node6 -->
<g id="node7" class="node"><title>Node6</title>
<polygon fill="white" stroke="#bfbfbf" points="0,-374.5 0,-393.5 119,-393.5 119,-374.5 0,-374.5"/>
<text text-anchor="middle" x="59.5" y="-381.5" font-family="Helvetica,sans-Serif" font-size="10.00">INotifyPropertyChanged</text>
</g>
<!-- Node6&#45;&gt;Node5 -->
<g id="edge6" class="edge"><title>Node6&#45;&gt;Node5</title>
<path fill="none" stroke="midnightblue" d="M69.136,-365.334C74.3527,-355.77 80.5663,-344.378 84.7464,-336.715"/>
<polygon fill="midnightblue" stroke="midnightblue" points="65.9034,-363.951 64.1875,-374.406 72.0487,-367.303 65.9034,-363.951"/>
</g>
<!-- Node7 -->
<g id="node8" class="node"><title>Node7</title>
<g id="a_node8"><a xlink:href="interface_holo_gen_1_1_hierarchy_1_1_option_types_1_1_i_option.html" target="_top" xlink:title="Base interface for the Option that doesn&#39;t need a template parameter. Necessary for a number of refle...">
<polygon fill="white" stroke="black" points="220,-317.5 220,-336.5 267,-336.5 267,-317.5 220,-317.5"/>
<text text-anchor="middle" x="243.5" y="-324.5" font-family="Helvetica,sans-Serif" font-size="10.00">IOption</text>
</a>
</g>
</g>
<!-- Node6&#45;&gt;Node7 -->
<g id="edge12" class="edge"><title>Node6&#45;&gt;Node7</title>
<path fill="none" stroke="midnightblue" d="M98.1346,-371.452C134.938,-360.451 189.156,-344.244 219.916,-335.05"/>
<polygon fill="midnightblue" stroke="midnightblue" points="96.8287,-368.189 88.25,-374.406 98.8335,-374.896 96.8287,-368.189"/>
</g>
<!-- Node7&#45;&gt;Node4 -->
<g id="edge7" class="edge"><title>Node7&#45;&gt;Node4</title>
<path fill="none" stroke="midnightblue" d="M218.529,-312.535C199.429,-302.236 173.676,-288.35 157.326,-279.533"/>
<polygon fill="midnightblue" stroke="midnightblue" points="217.099,-315.741 227.563,-317.406 220.422,-309.579 217.099,-315.741"/>
</g>
<!-- Node8 -->
<g id="node9" class="node"><title>Node8</title>
<g id="a_node9"><a xlink:href="interface_holo_gen_1_1_hierarchy_1_1_hierarchy_1_1_i_can_error.html" target="_top" xlink:title="Interface implemented by any classes that can be in an error state. Defines the Valid property that c...">
<polygon fill="white" stroke="black" points="137,-374.5 137,-393.5 194,-393.5 194,-374.5 137,-374.5"/>
<text text-anchor="middle" x="165.5" y="-381.5" font-family="Helvetica,sans-Serif" font-size="10.00">ICanError</text>
</a>
</g>
</g>
<!-- Node8&#45;&gt;Node7 -->
<g id="edge8" class="edge"><title>Node8&#45;&gt;Node7</title>
<path fill="none" stroke="midnightblue" d="M186.011,-368.537C200.453,-358.354 219.295,-345.068 231.398,-336.533"/>
<polygon fill="midnightblue" stroke="midnightblue" points="183.843,-365.783 177.688,-374.406 187.877,-371.504 183.843,-365.783"/>
</g>
<!-- Node9 -->
<g id="node10" class="node"><title>Node9</title>
<g id="a_node10"><a xlink:href="interface_holo_gen_1_1_hierarchy_1_1_hierarchy_1_1_i_has_name.html" target="_top" xlink:title="Interface implemented by any classes that have a Name property. ">
<polygon fill="white" stroke="black" points="212.5,-374.5 212.5,-393.5 274.5,-393.5 274.5,-374.5 212.5,-374.5"/>
<text text-anchor="middle" x="243.5" y="-381.5" font-family="Helvetica,sans-Serif" font-size="10.00">IHasName</text>
</a>
</g>
</g>
<!-- Node9&#45;&gt;Node7 -->
<g id="edge9" class="edge"><title>Node9&#45;&gt;Node7</title>
<path fill="none" stroke="midnightblue" d="M243.5,-364.117C243.5,-354.817 243.5,-344.056 243.5,-336.715"/>
<polygon fill="midnightblue" stroke="midnightblue" points="240,-364.406 243.5,-374.406 247,-364.406 240,-364.406"/>
</g>
<!-- Node10 -->
<g id="node11" class="node"><title>Node10</title>
<g id="a_node11"><a xlink:href="interface_holo_gen_1_1_hierarchy_1_1_hierarchy_1_1_i_has_tool_tip.html" target="_top" xlink:title="Interface implemented by any classes that have a ToolTip property. ">
<polygon fill="white" stroke="black" points="293,-374.5 293,-393.5 360,-393.5 360,-374.5 293,-374.5"/>
<text text-anchor="middle" x="326.5" y="-381.5" font-family="Helvetica,sans-Serif" font-size="10.00">IHasToolTip</text>
</a>
</g>
</g>
<!-- Node10&#45;&gt;Node7 -->
<g id="edge10" class="edge"><title>Node10&#45;&gt;Node7</title>
<path fill="none" stroke="midnightblue" d="M305.108,-368.824C289.686,-358.605 269.378,-345.148 256.378,-336.533"/>
<polygon fill="midnightblue" stroke="midnightblue" points="303.262,-371.8 313.531,-374.406 307.129,-365.965 303.262,-371.8"/>
</g>
<!-- Node11 -->
<g id="node12" class="node"><title>Node11</title>
<g id="a_node12"><a xlink:href="interface_holo_gen_1_1_hierarchy_1_1_hierarchy_1_1_i_can_enable.html" target="_top" xlink:title="Interface implemented by any classes that can be enabled Enabled. ">
<polygon fill="white" stroke="black" points="378.5,-374.5 378.5,-393.5 444.5,-393.5 444.5,-374.5 378.5,-374.5"/>
<text text-anchor="middle" x="411.5" y="-381.5" font-family="Helvetica,sans-Serif" font-size="10.00">ICanEnable</text>
</a>
</g>
</g>
<!-- Node11&#45;&gt;Node7 -->
<g id="edge11" class="edge"><title>Node11&#45;&gt;Node7</title>
<path fill="none" stroke="midnightblue" d="M375.592,-371.244C342.827,-360.518 295.341,-344.972 267.125,-335.734"/>
<polygon fill="midnightblue" stroke="midnightblue" points="374.657,-374.621 385.25,-374.406 376.835,-367.969 374.657,-374.621"/>
</g>
<!-- Node12 -->
<g id="node13" class="node"><title>Node12</title>
<g id="a_node13"><a xlink:href="interface_holo_gen_1_1_hierarchy_1_1_hierarchy_1_1_i_can_reset.html" target="_top" xlink:title="Interface implemented by any classes that can be reset. ">
<polygon fill="white" stroke="black" points="462.5,-374.5 462.5,-393.5 524.5,-393.5 524.5,-374.5 462.5,-374.5"/>
<text text-anchor="middle" x="493.5" y="-381.5" font-family="Helvetica,sans-Serif" font-size="10.00">ICanReset</text>
</a>
</g>
</g>
<!-- Node12&#45;&gt;Node7 -->
<g id="edge13" class="edge"><title>Node12&#45;&gt;Node7</title>
<path fill="none" stroke="midnightblue" d="M452.608,-373.811C379.121,-357.514 304.341,-341.219 267.13,-333.13"/>
<polygon fill="midnightblue" stroke="midnightblue" points="451.974,-377.256 462.495,-376.006 453.491,-370.422 451.974,-377.256"/>
</g>
<!-- Node13 -->
<g id="node14" class="node"><title>Node13</title>
<g id="a_node14"><a xlink:href="interface_holo_gen_1_1_hierarchy_1_1_hierarchy_1_1_i_has_watermark.html" target="_top" xlink:title="Interface implemented by any classes that have a Watermark property. ">
<polygon fill="white" stroke="black" points="193.5,-260.5 193.5,-279.5 277.5,-279.5 277.5,-260.5 193.5,-260.5"/>
<text text-anchor="middle" x="235.5" y="-267.5" font-family="Helvetica,sans-Serif" font-size="10.00">IHasWatermark</text>
</a>
</g>
</g>
<!-- Node13&#45;&gt;Node3 -->
<g id="edge14" class="edge"><title>Node13&#45;&gt;Node3</title>
<path fill="none" stroke="midnightblue" d="M228.282,-250.804C224.718,-241.82 220.481,-231.14 217.156,-222.759"/>
<polygon fill="midnightblue" stroke="midnightblue" points="225.121,-252.327 232.061,-260.332 231.627,-249.746 225.121,-252.327"/>
</g>
</g>
</svg>
