<?xml version="1.0" encoding="UTF-8" standalone="no"?>
<!DOCTYPE svg PUBLIC "-//W3C//DTD SVG 1.1//EN"
 "http://www.w3.org/Graphics/SVG/1.1/DTD/svg11.dtd">
<!-- Generated by graphviz version 2.38.0 (20140413.2041)
 -->
<!-- Title: HoloGen::Alg::Base::Man::AlgorithmMan::AddInitalImage Pages: 1 -->
<svg width="318pt" height="50pt"
 viewBox="0.00 0.00 318.00 50.00" xmlns="http://www.w3.org/2000/svg" xmlns:xlink="http://www.w3.org/1999/xlink">
<g id="graph0" class="graph" transform="scale(1 1) rotate(0) translate(4 46)">
<title>HoloGen::Alg::Base::Man::AlgorithmMan::AddInitalImage</title>
<polygon fill="white" stroke="none" points="-4,4 -4,-46 314,-46 314,4 -4,4"/>
<!-- Node8 -->
<g id="node1" class="node"><title>Node8</title>
<polygon fill="#bfbfbf" stroke="black" points="0,-0.5 0,-41.5 107,-41.5 107,-0.5 0,-0.5"/>
<text text-anchor="start" x="8" y="-29.5" font-family="Helvetica,sans-Serif" font-size="10.00">HoloGen::Alg::Base</text>
<text text-anchor="start" x="8" y="-18.5" font-family="Helvetica,sans-Serif" font-size="10.00">::Man::AlgorithmMan</text>
<text text-anchor="middle" x="53.5" y="-7.5" font-family="Helvetica,sans-Serif" font-size="10.00">::AddInitalImage</text>
</g>
<!-- Node9 -->
<g id="node2" class="node"><title>Node9</title>
<g id="a_node2"><a xlink:href="class_holo_gen_1_1_alg_1_1_base_1_1_wrap_1_1_algorithm_wrap.html#aaac3ea20137c3bad88c62906b3252a67" target="_top" xlink:title="HoloGen.Alg.Base.Wrap.Algorithm\lWrap.AddInitalImage">
<polygon fill="white" stroke="black" points="143,-6 143,-36 310,-36 310,-6 143,-6"/>
<text text-anchor="start" x="151" y="-24" font-family="Helvetica,sans-Serif" font-size="10.00">HoloGen.Alg.Base.Wrap.Algorithm</text>
<text text-anchor="middle" x="226.5" y="-13" font-family="Helvetica,sans-Serif" font-size="10.00">Wrap.AddInitalImage</text>
</a>
</g>
</g>
<!-- Node8&#45;&gt;Node9 -->
<g id="edge1" class="edge"><title>Node8&#45;&gt;Node9</title>
<path fill="none" stroke="midnightblue" d="M117.464,-21C125.714,-21 134.265,-21 142.779,-21"/>
<polygon fill="midnightblue" stroke="midnightblue" points="117.201,-17.5001 107.201,-21 117.201,-24.5001 117.201,-17.5001"/>
</g>
</g>
</svg>
