<?xml version="1.0" encoding="UTF-8" standalone="no"?>
<!DOCTYPE svg PUBLIC "-//W3C//DTD SVG 1.1//EN"
 "http://www.w3.org/Graphics/SVG/1.1/DTD/svg11.dtd">
<!-- Generated by graphviz version 2.38.0 (20140413.2041)
 -->
<!-- Title: HoloGen.Hierarchy.Hierarchy.HierarchyFolder Pages: 1 -->
<!--zoomable 402 -->
<svg id="main" version="1.1" xmlns="http://www.w3.org/2000/svg" xmlns:xlink="http://www.w3.org/1999/xlink" xml:space="preserve" onload="init(evt)">
<style type="text/css"><![CDATA[
.edge:hover path { stroke: red; }
.edge:hover polygon { stroke: red; fill: red; }
]]></style>
<script type="text/javascript"><![CDATA[
var edges = document.getElementsByTagName('g');
if (edges && edges.length) {
  for (var i=0;i<edges.length;i++) {
    if (edges[i].id.substr(0,4)=='edge') {
      edges[i].setAttribute('class','edge');
    }
  }
}
]]></script>
        <defs>
                <circle id="rim" cx="0" cy="0" r="7"/>
                <circle id="rim2" cx="0" cy="0" r="3.5"/>
                <g id="zoomPlus">
                        <use xlink:href="#rim" fill="#404040">
                                <set attributeName="fill" to="#808080" begin="zoomplus.mouseover" end="zoomplus.mouseout"/>
                        </use>
                        <path d="M-4,0h8M0,-4v8" fill="none" stroke="white" stroke-width="1.5" pointer-events="none"/>
                </g>
                <g id="zoomMin">
                        <use xlink:href="#rim" fill="#404040">
                                <set attributeName="fill" to="#808080" begin="zoomminus.mouseover" end="zoomminus.mouseout"/>
                        </use>
                        <path d="M-4,0h8" fill="none" stroke="white" stroke-width="1.5" pointer-events="none"/>
                </g>
                <g id="dirArrow">
                        <path fill="none" stroke="white" stroke-width="1.5" d="M0,-3.0v7 M-2.5,-0.5L0,-3.0L2.5,-0.5"/>
                </g>
               <g id="resetDef">
                       <use xlink:href="#rim2" fill="#404040">
                               <set attributeName="fill" to="#808080" begin="reset.mouseover" end="reset.mouseout"/>
                       </use>
               </g>
        </defs>

<script type="text/javascript">
var viewWidth = 669;
var viewHeight = 402;
var sectionId = 'dynsection-1';
</script>
<script xlink:href="svgpan.js"/>
<svg id="graph" class="graph">
<g id="viewport">
<title>HoloGen.Hierarchy.Hierarchy.HierarchyFolder</title>
<polygon fill="white" stroke="none" points="-4,4 -4,-398 664.5,-398 664.5,4 -4,4"/>
<!-- Node32 -->
<g id="node1" class="node"><title>Node32</title>
<polygon fill="#bfbfbf" stroke="black" points="514.5,-0.5 514.5,-30.5 660.5,-30.5 660.5,-0.5 514.5,-0.5"/>
<text text-anchor="start" x="522.5" y="-18.5" font-family="Helvetica,sans-Serif" font-size="10.00">HoloGen.Hierarchy.Hierarchy.</text>
<text text-anchor="middle" x="587.5" y="-7.5" font-family="Helvetica,sans-Serif" font-size="10.00">HierarchyFolder</text>
</g>
<!-- Node33 -->
<g id="node2" class="node"><title>Node33</title>
<g id="a_node2"><a xlink:href="class_holo_gen_1_1_hierarchy_1_1_hierarchy_1_1_hierarchy_element.html" target="_top" xlink:title="HierarchyElement\&lt; IOption \&gt;">
<polygon fill="white" stroke="black" points="415,-68.5 415,-87.5 558,-87.5 558,-68.5 415,-68.5"/>
<text text-anchor="middle" x="486.5" y="-75.5" font-family="Helvetica,sans-Serif" font-size="10.00">HierarchyElement&lt; IOption &gt;</text>
</a>
</g>
</g>
<!-- Node33&#45;&gt;Node32 -->
<g id="edge1" class="edge"><title>Node33&#45;&gt;Node32</title>
<path fill="none" stroke="midnightblue" d="M509.859,-63.0075C526.145,-53.2524 547.787,-40.2884 564.085,-30.526"/>
<polygon fill="midnightblue" stroke="midnightblue" points="507.751,-60.1905 500.971,-68.3318 511.348,-66.1956 507.751,-60.1905"/>
</g>
<!-- Node34 -->
<g id="node3" class="node"><title>Node34</title>
<g id="a_node3"><a xlink:href="class_holo_gen_1_1_hierarchy_1_1_hierarchy_1_1_hierarchy_element.html" target="_top" xlink:title="Root hierarchy element. Defines Name and ToolTip fields that must be implemented by any implementors...">
<polygon fill="white" stroke="black" points="284.5,-135.5 284.5,-165.5 430.5,-165.5 430.5,-135.5 284.5,-135.5"/>
<text text-anchor="start" x="292.5" y="-153.5" font-family="Helvetica,sans-Serif" font-size="10.00">HoloGen.Hierarchy.Hierarchy.</text>
<text text-anchor="middle" x="357.5" y="-142.5" font-family="Helvetica,sans-Serif" font-size="10.00">HierarchyElement&lt; T &gt;</text>
</a>
</g>
</g>
<!-- Node34&#45;&gt;Node33 -->
<g id="edge2" class="edge"><title>Node34&#45;&gt;Node33</title>
<path fill="none" stroke="orange" stroke-dasharray="5,2" d="M392.327,-130.467C417.934,-116.472 451.519,-98.1173 470.885,-87.5336"/>
<polygon fill="orange" stroke="orange" points="390.392,-127.536 383.295,-135.403 393.749,-133.678 390.392,-127.536"/>
<text text-anchor="middle" x="459.5" y="-109" font-family="Helvetica,sans-Serif" font-size="10.00"> &lt; IOption &gt;</text>
</g>
<!-- Node35 -->
<g id="node4" class="node"><title>Node35</title>
<g id="a_node4"><a xlink:href="class_holo_gen_1_1_hierarchy_1_1_hierarchy_1_1_reflective_children_element.html" target="_top" xlink:title="Reflective hierarchy element template T . The constructor finds all members assignable from T &#160;and us...">
<polygon fill="white" stroke="black" points="61.5,-203.5 61.5,-222.5 213.5,-222.5 213.5,-203.5 61.5,-203.5"/>
<text text-anchor="middle" x="137.5" y="-210.5" font-family="Helvetica,sans-Serif" font-size="10.00">ReflectiveChildrenElement&lt; T &gt;</text>
</a>
</g>
</g>
<!-- Node35&#45;&gt;Node34 -->
<g id="edge3" class="edge"><title>Node35&#45;&gt;Node34</title>
<path fill="none" stroke="midnightblue" d="M178.272,-200.788C214.395,-190.854 267.298,-176.306 306.269,-165.589"/>
<polygon fill="midnightblue" stroke="midnightblue" points="177.268,-197.434 168.554,-203.46 179.124,-204.183 177.268,-197.434"/>
</g>
<!-- Node36 -->
<g id="node5" class="node"><title>Node36</title>
<g id="a_node5"><a xlink:href="class_holo_gen_1_1_hierarchy_1_1_hierarchy_1_1_hierarchy_saveable.html" target="_top" xlink:title="Declares that this object should be serialisable and saveable ">
<polygon fill="white" stroke="black" points="11,-260.5 11,-279.5 108,-279.5 108,-260.5 11,-260.5"/>
<text text-anchor="middle" x="59.5" y="-267.5" font-family="Helvetica,sans-Serif" font-size="10.00">HierarchySaveable</text>
</a>
</g>
</g>
<!-- Node36&#45;&gt;Node35 -->
<g id="edge4" class="edge"><title>Node36&#45;&gt;Node35</title>
<path fill="none" stroke="midnightblue" d="M80.0111,-254.537C94.4526,-244.354 113.295,-231.068 125.398,-222.533"/>
<polygon fill="midnightblue" stroke="midnightblue" points="77.8431,-251.783 71.6875,-260.406 81.8771,-257.504 77.8431,-251.783"/>
</g>
<!-- Node37 -->
<g id="node6" class="node"><title>Node37</title>
<g id="a_node6"><a xlink:href="class_holo_gen_1_1_utils_1_1_observable_object.html" target="_top" xlink:title="Observable object with INotifyPropertyChanged implemented ">
<polygon fill="white" stroke="black" points="13,-317.5 13,-336.5 106,-336.5 106,-317.5 13,-317.5"/>
<text text-anchor="middle" x="59.5" y="-324.5" font-family="Helvetica,sans-Serif" font-size="10.00">ObservableObject</text>
</a>
</g>
</g>
<!-- Node37&#45;&gt;Node36 -->
<g id="edge5" class="edge"><title>Node37&#45;&gt;Node36</title>
<path fill="none" stroke="midnightblue" d="M59.5,-307.117C59.5,-297.817 59.5,-287.056 59.5,-279.715"/>
<polygon fill="midnightblue" stroke="midnightblue" points="56.0001,-307.406 59.5,-317.406 63.0001,-307.406 56.0001,-307.406"/>
</g>
<!-- Node38 -->
<g id="node7" class="node"><title>Node38</title>
<polygon fill="white" stroke="#bfbfbf" points="0,-374.5 0,-393.5 119,-393.5 119,-374.5 0,-374.5"/>
<text text-anchor="middle" x="59.5" y="-381.5" font-family="Helvetica,sans-Serif" font-size="10.00">INotifyPropertyChanged</text>
</g>
<!-- Node38&#45;&gt;Node37 -->
<g id="edge6" class="edge"><title>Node38&#45;&gt;Node37</title>
<path fill="none" stroke="midnightblue" d="M59.5,-364.117C59.5,-354.817 59.5,-344.056 59.5,-336.715"/>
<polygon fill="midnightblue" stroke="midnightblue" points="56.0001,-364.406 59.5,-374.406 63.0001,-364.406 56.0001,-364.406"/>
</g>
<!-- Node39 -->
<g id="node8" class="node"><title>Node39</title>
<g id="a_node8"><a xlink:href="interface_holo_gen_1_1_hierarchy_1_1_hierarchy_1_1_i_hierarchy_element.html" target="_top" xlink:title="Base interface for the HierarchyElement that doesn&#39;t need a template parameter. Necessary for a numbe...">
<polygon fill="white" stroke="black" points="309.5,-203.5 309.5,-222.5 405.5,-222.5 405.5,-203.5 309.5,-203.5"/>
<text text-anchor="middle" x="357.5" y="-210.5" font-family="Helvetica,sans-Serif" font-size="10.00">IHierarchyElement</text>
</a>
</g>
</g>
<!-- Node39&#45;&gt;Node34 -->
<g id="edge7" class="edge"><title>Node39&#45;&gt;Node34</title>
<path fill="none" stroke="midnightblue" d="M357.5,-193.215C357.5,-184.356 357.5,-173.958 357.5,-165.759"/>
<polygon fill="midnightblue" stroke="midnightblue" points="354,-193.332 357.5,-203.332 361,-193.332 354,-193.332"/>
</g>
<!-- Node40 -->
<g id="node9" class="node"><title>Node40</title>
<g id="a_node9"><a xlink:href="interface_holo_gen_1_1_hierarchy_1_1_hierarchy_1_1_i_can_error.html" target="_top" xlink:title="Interface implemented by any classes that can be in an error state. Defines the Valid property that c...">
<polygon fill="white" stroke="black" points="126,-260.5 126,-279.5 183,-279.5 183,-260.5 126,-260.5"/>
<text text-anchor="middle" x="154.5" y="-267.5" font-family="Helvetica,sans-Serif" font-size="10.00">ICanError</text>
</a>
</g>
</g>
<!-- Node40&#45;&gt;Node39 -->
<g id="edge8" class="edge"><title>Node40&#45;&gt;Node39</title>
<path fill="none" stroke="midnightblue" d="M192.975,-258.576C231.515,-248.134 290.118,-232.256 325.989,-222.537"/>
<polygon fill="midnightblue" stroke="midnightblue" points="191.891,-255.243 183.154,-261.236 193.722,-262 191.891,-255.243"/>
</g>
<!-- Node41 -->
<g id="node10" class="node"><title>Node41</title>
<g id="a_node10"><a xlink:href="interface_holo_gen_1_1_hierarchy_1_1_hierarchy_1_1_i_has_name.html" target="_top" xlink:title="Interface implemented by any classes that have a Name property. ">
<polygon fill="white" stroke="black" points="201.5,-260.5 201.5,-279.5 263.5,-279.5 263.5,-260.5 201.5,-260.5"/>
<text text-anchor="middle" x="232.5" y="-267.5" font-family="Helvetica,sans-Serif" font-size="10.00">IHasName</text>
</a>
</g>
</g>
<!-- Node41&#45;&gt;Node39 -->
<g id="edge9" class="edge"><title>Node41&#45;&gt;Node39</title>
<path fill="none" stroke="midnightblue" d="M261.197,-256.374C284.77,-246.001 317.52,-231.591 338.106,-222.533"/>
<polygon fill="midnightblue" stroke="midnightblue" points="259.775,-253.175 252.031,-260.406 262.594,-259.582 259.775,-253.175"/>
</g>
<!-- Node42 -->
<g id="node11" class="node"><title>Node42</title>
<g id="a_node11"><a xlink:href="interface_holo_gen_1_1_hierarchy_1_1_hierarchy_1_1_i_has_tool_tip.html" target="_top" xlink:title="Interface implemented by any classes that have a ToolTip property. ">
<polygon fill="white" stroke="black" points="282,-260.5 282,-279.5 349,-279.5 349,-260.5 282,-260.5"/>
<text text-anchor="middle" x="315.5" y="-267.5" font-family="Helvetica,sans-Serif" font-size="10.00">IHasToolTip</text>
</a>
</g>
</g>
<!-- Node42&#45;&gt;Node39 -->
<g id="edge10" class="edge"><title>Node42&#45;&gt;Node39</title>
<path fill="none" stroke="midnightblue" d="M328.303,-252.234C335.742,-242.493 344.808,-230.62 350.845,-222.715"/>
<polygon fill="midnightblue" stroke="midnightblue" points="325.35,-250.334 322.063,-260.406 330.913,-254.583 325.35,-250.334"/>
</g>
<!-- Node43 -->
<g id="node12" class="node"><title>Node43</title>
<g id="a_node12"><a xlink:href="interface_holo_gen_1_1_hierarchy_1_1_hierarchy_1_1_i_can_reset.html" target="_top" xlink:title="Interface implemented by any classes that can be reset. ">
<polygon fill="white" stroke="black" points="367.5,-260.5 367.5,-279.5 429.5,-279.5 429.5,-260.5 367.5,-260.5"/>
<text text-anchor="middle" x="398.5" y="-267.5" font-family="Helvetica,sans-Serif" font-size="10.00">ICanReset</text>
</a>
</g>
</g>
<!-- Node43&#45;&gt;Node39 -->
<g id="edge11" class="edge"><title>Node43&#45;&gt;Node39</title>
<path fill="none" stroke="midnightblue" d="M386.002,-252.234C378.74,-242.493 369.89,-230.62 363.997,-222.715"/>
<polygon fill="midnightblue" stroke="midnightblue" points="383.311,-254.481 392.094,-260.406 388.923,-250.297 383.311,-254.481"/>
</g>
<!-- Node44 -->
<g id="node13" class="node"><title>Node44</title>
<g id="a_node13"><a xlink:href="interface_holo_gen_1_1_hierarchy_1_1_hierarchy_1_1_i_can_recursively_enable.html" target="_top" xlink:title="Interface implemented by any classes that can be enabled Enabled and have children that can be Enable...">
<polygon fill="white" stroke="black" points="485.5,-260.5 485.5,-279.5 601.5,-279.5 601.5,-260.5 485.5,-260.5"/>
<text text-anchor="middle" x="543.5" y="-267.5" font-family="Helvetica,sans-Serif" font-size="10.00">ICanRecursivelyEnable</text>
</a>
</g>
</g>
<!-- Node44&#45;&gt;Node39 -->
<g id="edge12" class="edge"><title>Node44&#45;&gt;Node39</title>
<path fill="none" stroke="midnightblue" d="M514.247,-256.564C501.295,-251.335 485.787,-245.446 471.5,-241 448.001,-233.687 421.248,-227.255 399.567,-222.505"/>
<polygon fill="midnightblue" stroke="midnightblue" points="513.011,-259.84 523.591,-260.4 515.669,-253.365 513.011,-259.84"/>
</g>
<!-- Node45 -->
<g id="node14" class="node"><title>Node45</title>
<g id="a_node14"><a xlink:href="interface_holo_gen_1_1_hierarchy_1_1_hierarchy_1_1_i_can_enable.html" target="_top" xlink:title="Interface implemented by any classes that can be enabled Enabled. ">
<polygon fill="white" stroke="black" points="510.5,-317.5 510.5,-336.5 576.5,-336.5 576.5,-317.5 510.5,-317.5"/>
<text text-anchor="middle" x="543.5" y="-324.5" font-family="Helvetica,sans-Serif" font-size="10.00">ICanEnable</text>
</a>
</g>
</g>
<!-- Node45&#45;&gt;Node32 -->
<g id="edge15" class="edge"><title>Node45&#45;&gt;Node32</title>
<path fill="none" stroke="midnightblue" d="M586.035,-315.688C607.689,-307.633 629.5,-293.849 629.5,-271 629.5,-271 629.5,-271 629.5,-77 629.5,-58.5876 616.211,-41.7466 604.583,-30.5349"/>
<polygon fill="midnightblue" stroke="midnightblue" points="584.864,-312.389 576.504,-318.898 587.098,-319.023 584.864,-312.389"/>
</g>
<!-- Node45&#45;&gt;Node39 -->
<g id="edge14" class="edge"><title>Node45&#45;&gt;Node39</title>
<path fill="none" stroke="midnightblue" d="M521.823,-311.978C500.713,-298.417 467.638,-277.42 438.5,-260 416.013,-246.557 389.55,-231.707 373.147,-222.614"/>
<polygon fill="midnightblue" stroke="midnightblue" points="520.055,-315.002 530.357,-317.474 523.845,-309.117 520.055,-315.002"/>
</g>
<!-- Node45&#45;&gt;Node44 -->
<g id="edge13" class="edge"><title>Node45&#45;&gt;Node44</title>
<path fill="none" stroke="midnightblue" d="M543.5,-307.117C543.5,-297.817 543.5,-287.056 543.5,-279.715"/>
<polygon fill="midnightblue" stroke="midnightblue" points="540,-307.406 543.5,-317.406 547,-307.406 540,-307.406"/>
</g>
</g>
</svg>
        <g id="navigator" transform="translate(0 0)" fill="#404254">
                <rect fill="#f2f5e9" fill-opacity="0.5" stroke="#606060" stroke-width=".5" x="0" y="0" width="60" height="60"/>
                <use id="zoomplus" xlink:href="#zoomPlus" x="17" y="9" onmousedown="handleZoom(evt,'in')"/>
                <use id="zoomminus" xlink:href="#zoomMin" x="42" y="9" onmousedown="handleZoom(evt,'out')"/>
                <use id="reset" xlink:href="#resetDef" x="30" y="36" onmousedown="handleReset()"/>
                <g id="arrowUp" xlink:href="#dirArrow" transform="translate(30 24)" onmousedown="handlePan(0,-1)">
                  <use xlink:href="#rim" fill="#404040">
                        <set attributeName="fill" to="#808080" begin="arrowUp.mouseover" end="arrowUp.mouseout"/>
                  </use>
                  <path fill="none" stroke="white" stroke-width="1.5" d="M0,-3.0v7 M-2.5,-0.5L0,-3.0L2.5,-0.5"/>
                </g>
                <g id="arrowRight" xlink:href="#dirArrow" transform="rotate(90) translate(36 -43)" onmousedown="handlePan(1,0)">
                  <use xlink:href="#rim" fill="#404040">
                        <set attributeName="fill" to="#808080" begin="arrowRight.mouseover" end="arrowRight.mouseout"/>
                  </use>
                  <path fill="none" stroke="white" stroke-width="1.5" d="M0,-3.0v7 M-2.5,-0.5L0,-3.0L2.5,-0.5"/>
                </g>
                <g id="arrowDown" xlink:href="#dirArrow" transform="rotate(180) translate(-30 -48)" onmousedown="handlePan(0,1)">
                  <use xlink:href="#rim" fill="#404040">
                        <set attributeName="fill" to="#808080" begin="arrowDown.mouseover" end="arrowDown.mouseout"/>
                  </use>
                  <path fill="none" stroke="white" stroke-width="1.5" d="M0,-3.0v7 M-2.5,-0.5L0,-3.0L2.5,-0.5"/>
                </g>
                <g id="arrowLeft" xlink:href="#dirArrow" transform="rotate(270) translate(-36 17)" onmousedown="handlePan(-1,0)">
                  <use xlink:href="#rim" fill="#404040">
                        <set attributeName="fill" to="#808080" begin="arrowLeft.mouseover" end="arrowLeft.mouseout"/>
                  </use>
                  <path fill="none" stroke="white" stroke-width="1.5" d="M0,-3.0v7 M-2.5,-0.5L0,-3.0L2.5,-0.5"/>
                </g>
        </g>
        <svg viewBox="0 0 15 15" width="100%" height="30px" preserveAspectRatio="xMaxYMin meet">
         <g id="arrow_out" transform="scale(0.3 0.3)">
          <a xlink:href="class_holo_gen_1_1_hierarchy_1_1_hierarchy_1_1_hierarchy_folder__coll__graph_org.svg" target="_base">
           <rect id="button" ry="5" rx="5" y="6" x="6" height="38" width="38"
                fill="#f2f5e9" fill-opacity="0.5" stroke="#606060" stroke-width="1.0"/>
           <path id="arrow"
             d="M 11.500037,31.436501 C 11.940474,20.09759 22.043105,11.32322 32.158766,21.979434 L 37.068811,17.246167 C 37.068811,17.246167 37.088388,32 37.088388,32 L 22.160133,31.978069 C 22.160133,31.978069 26.997745,27.140456 26.997745,27.140456 C 18.528582,18.264221 13.291696,25.230495 11.500037,31.436501 z"
             style="fill:#404040;"/>
          </a>
         </g>
        </svg>
</svg>
