<?xml version="1.0" encoding="UTF-8" standalone="no"?>
<!DOCTYPE svg PUBLIC "-//W3C//DTD SVG 1.1//EN"
 "http://www.w3.org/Graphics/SVG/1.1/DTD/svg11.dtd">
<!-- Generated by graphviz version 2.38.0 (20140413.2041)
 -->
<!-- Title: HoloGen.Options.Target.Region.Type.VariantPossibilities Pages: 1 -->
<svg width="184pt" height="413pt"
 viewBox="0.00 0.00 183.50 413.00" xmlns="http://www.w3.org/2000/svg" xmlns:xlink="http://www.w3.org/1999/xlink">
<g id="graph0" class="graph" transform="scale(1 1) rotate(0) translate(4 409)">
<title>HoloGen.Options.Target.Region.Type.VariantPossibilities</title>
<polygon fill="white" stroke="none" points="-4,4 -4,-409 179.5,-409 179.5,4 -4,4"/>
<!-- Node0 -->
<g id="node1" class="node"><title>Node0</title>
<polygon fill="#bfbfbf" stroke="black" points="0,-0.5 0,-30.5 157,-30.5 157,-0.5 0,-0.5"/>
<text text-anchor="start" x="8" y="-18.5" font-family="Helvetica,sans-Serif" font-size="10.00">HoloGen.Options.Target.Region.</text>
<text text-anchor="middle" x="78.5" y="-7.5" font-family="Helvetica,sans-Serif" font-size="10.00">Type.VariantPossibilities</text>
</g>
<!-- Node1 -->
<g id="node2" class="node"><title>Node1</title>
<g id="a_node2"><a xlink:href="class_holo_gen_1_1_hierarchy_1_1_hierarchy_1_1_possibility_collection.html" target="_top" xlink:title="PossibilityCollection\l\&lt; VariantPossibility \&gt;">
<polygon fill="white" stroke="black" points="23.5,-68.5 23.5,-98.5 133.5,-98.5 133.5,-68.5 23.5,-68.5"/>
<text text-anchor="start" x="31.5" y="-86.5" font-family="Helvetica,sans-Serif" font-size="10.00">PossibilityCollection</text>
<text text-anchor="middle" x="78.5" y="-75.5" font-family="Helvetica,sans-Serif" font-size="10.00">&lt; VariantPossibility &gt;</text>
</a>
</g>
</g>
<!-- Node1&#45;&gt;Node0 -->
<g id="edge1" class="edge"><title>Node1&#45;&gt;Node0</title>
<path fill="none" stroke="midnightblue" d="M78.5,-58.0322C78.5,-48.8606 78.5,-38.7449 78.5,-30.7931"/>
<polygon fill="midnightblue" stroke="midnightblue" points="75.0001,-58.1789 78.5,-68.179 82.0001,-58.179 75.0001,-58.1789"/>
</g>
<!-- Node2 -->
<g id="node3" class="node"><title>Node2</title>
<g id="a_node3"><a xlink:href="class_holo_gen_1_1_hierarchy_1_1_hierarchy_1_1_possibility_collection.html" target="_top" xlink:title="Collection of Possibilitys. Is wrapped by a SelectOption. Extends ReflectiveChildrenElement. The base class ReflectiveChildrenElement finds all members assignable from T &#160;and uses them to populate the ReflectiveChildrenElement.Children member collection. ">
<polygon fill="white" stroke="black" points="5.5,-146.5 5.5,-176.5 151.5,-176.5 151.5,-146.5 5.5,-146.5"/>
<text text-anchor="start" x="13.5" y="-164.5" font-family="Helvetica,sans-Serif" font-size="10.00">HoloGen.Hierarchy.Hierarchy.</text>
<text text-anchor="middle" x="78.5" y="-153.5" font-family="Helvetica,sans-Serif" font-size="10.00">PossibilityCollection&lt; T &gt;</text>
</a>
</g>
</g>
<!-- Node2&#45;&gt;Node1 -->
<g id="edge2" class="edge"><title>Node2&#45;&gt;Node1</title>
<path fill="none" stroke="orange" stroke-dasharray="5,2" d="M78.5,-136.09C78.5,-123.757 78.5,-109.224 78.5,-98.7309"/>
<polygon fill="orange" stroke="orange" points="75.0001,-136.205 78.5,-146.205 82.0001,-136.205 75.0001,-136.205"/>
<text text-anchor="middle" x="127" y="-120" font-family="Helvetica,sans-Serif" font-size="10.00"> &lt; VariantPossibility &gt;</text>
</g>
<!-- Node3 -->
<g id="node4" class="node"><title>Node3</title>
<g id="a_node4"><a xlink:href="class_holo_gen_1_1_hierarchy_1_1_hierarchy_1_1_reflective_children_element.html" target="_top" xlink:title="Reflective hierarchy element template T . The constructor finds all members assignable from T &#160;and us...">
<polygon fill="white" stroke="black" points="2.5,-214.5 2.5,-233.5 154.5,-233.5 154.5,-214.5 2.5,-214.5"/>
<text text-anchor="middle" x="78.5" y="-221.5" font-family="Helvetica,sans-Serif" font-size="10.00">ReflectiveChildrenElement&lt; T &gt;</text>
</a>
</g>
</g>
<!-- Node3&#45;&gt;Node2 -->
<g id="edge3" class="edge"><title>Node3&#45;&gt;Node2</title>
<path fill="none" stroke="midnightblue" d="M78.5,-204.215C78.5,-195.356 78.5,-184.958 78.5,-176.759"/>
<polygon fill="midnightblue" stroke="midnightblue" points="75.0001,-204.332 78.5,-214.332 82.0001,-204.332 75.0001,-204.332"/>
</g>
<!-- Node4 -->
<g id="node5" class="node"><title>Node4</title>
<g id="a_node5"><a xlink:href="class_holo_gen_1_1_hierarchy_1_1_hierarchy_1_1_hierarchy_saveable.html" target="_top" xlink:title="Declares that this object should be serialisable and saveable ">
<polygon fill="white" stroke="black" points="30,-271.5 30,-290.5 127,-290.5 127,-271.5 30,-271.5"/>
<text text-anchor="middle" x="78.5" y="-278.5" font-family="Helvetica,sans-Serif" font-size="10.00">HierarchySaveable</text>
</a>
</g>
</g>
<!-- Node4&#45;&gt;Node3 -->
<g id="edge4" class="edge"><title>Node4&#45;&gt;Node3</title>
<path fill="none" stroke="midnightblue" d="M78.5,-261.117C78.5,-251.817 78.5,-241.056 78.5,-233.715"/>
<polygon fill="midnightblue" stroke="midnightblue" points="75.0001,-261.406 78.5,-271.406 82.0001,-261.406 75.0001,-261.406"/>
</g>
<!-- Node5 -->
<g id="node6" class="node"><title>Node5</title>
<g id="a_node6"><a xlink:href="class_holo_gen_1_1_utils_1_1_observable_object.html" target="_top" xlink:title="Observable object with INotifyPropertyChanged implemented ">
<polygon fill="white" stroke="black" points="32,-328.5 32,-347.5 125,-347.5 125,-328.5 32,-328.5"/>
<text text-anchor="middle" x="78.5" y="-335.5" font-family="Helvetica,sans-Serif" font-size="10.00">ObservableObject</text>
</a>
</g>
</g>
<!-- Node5&#45;&gt;Node4 -->
<g id="edge5" class="edge"><title>Node5&#45;&gt;Node4</title>
<path fill="none" stroke="midnightblue" d="M78.5,-318.117C78.5,-308.817 78.5,-298.056 78.5,-290.715"/>
<polygon fill="midnightblue" stroke="midnightblue" points="75.0001,-318.406 78.5,-328.406 82.0001,-318.406 75.0001,-318.406"/>
</g>
<!-- Node6 -->
<g id="node7" class="node"><title>Node6</title>
<polygon fill="white" stroke="#bfbfbf" points="19,-385.5 19,-404.5 138,-404.5 138,-385.5 19,-385.5"/>
<text text-anchor="middle" x="78.5" y="-392.5" font-family="Helvetica,sans-Serif" font-size="10.00">INotifyPropertyChanged</text>
</g>
<!-- Node6&#45;&gt;Node5 -->
<g id="edge6" class="edge"><title>Node6&#45;&gt;Node5</title>
<path fill="none" stroke="midnightblue" d="M78.5,-375.117C78.5,-365.817 78.5,-355.056 78.5,-347.715"/>
<polygon fill="midnightblue" stroke="midnightblue" points="75.0001,-375.406 78.5,-385.406 82.0001,-375.406 75.0001,-375.406"/>
</g>
</g>
</svg>
