<?xml version="1.0" encoding="UTF-8" standalone="no"?>
<!DOCTYPE svg PUBLIC "-//W3C//DTD SVG 1.1//EN"
 "http://www.w3.org/Graphics/SVG/1.1/DTD/svg11.dtd">
<!-- Generated by graphviz version 2.38.0 (20140413.2041)
 -->
<!-- Title: HoloGen.UI.Commands.CloseCurrentTabCommand Pages: 1 -->
<svg width="363pt" height="231pt"
 viewBox="0.00 0.00 363.00 231.00" xmlns="http://www.w3.org/2000/svg" xmlns:xlink="http://www.w3.org/1999/xlink">
<g id="graph0" class="graph" transform="scale(1 1) rotate(0) translate(4 227)">
<title>HoloGen.UI.Commands.CloseCurrentTabCommand</title>
<polygon fill="white" stroke="none" points="-4,4 -4,-227 359,-227 359,4 -4,4"/>
<!-- Node5 -->
<g id="node1" class="node"><title>Node5</title>
<polygon fill="#bfbfbf" stroke="black" points="119.5,-0.5 119.5,-30.5 265.5,-30.5 265.5,-0.5 119.5,-0.5"/>
<text text-anchor="start" x="127.5" y="-18.5" font-family="Helvetica,sans-Serif" font-size="10.00">HoloGen.UI.Commands.Close</text>
<text text-anchor="middle" x="192.5" y="-7.5" font-family="Helvetica,sans-Serif" font-size="10.00">CurrentTabCommand</text>
</g>
<!-- Node6 -->
<g id="node2" class="node"><title>Node6</title>
<g id="a_node2"><a xlink:href="class_holo_gen_1_1_u_i_1_1_commands_1_1_connected_command.html" target="_top" xlink:title="HoloGen menu command ">
<polygon fill="white" stroke="black" points="139,-68.5 139,-87.5 246,-87.5 246,-68.5 139,-68.5"/>
<text text-anchor="middle" x="192.5" y="-75.5" font-family="Helvetica,sans-Serif" font-size="10.00">ConnectedCommand</text>
</a>
</g>
</g>
<!-- Node6&#45;&gt;Node5 -->
<g id="edge1" class="edge"><title>Node6&#45;&gt;Node5</title>
<path fill="none" stroke="midnightblue" d="M192.5,-58.2154C192.5,-49.3565 192.5,-38.9577 192.5,-30.7587"/>
<polygon fill="midnightblue" stroke="midnightblue" points="189,-58.3318 192.5,-68.3318 196,-58.3319 189,-58.3318"/>
</g>
<!-- Node7 -->
<g id="node3" class="node"><title>Node7</title>
<g id="a_node3"><a xlink:href="class_holo_gen_1_1_utils_1_1_observable_object.html" target="_top" xlink:title="Observable object with INotifyPropertyChanged implemented ">
<polygon fill="white" stroke="black" points="0,-146.5 0,-165.5 93,-165.5 93,-146.5 0,-146.5"/>
<text text-anchor="middle" x="46.5" y="-153.5" font-family="Helvetica,sans-Serif" font-size="10.00">ObservableObject</text>
</a>
</g>
</g>
<!-- Node7&#45;&gt;Node6 -->
<g id="edge2" class="edge"><title>Node7&#45;&gt;Node6</title>
<path fill="none" stroke="midnightblue" d="M71.9463,-141.754C101.81,-126.209 150.469,-100.879 175.872,-87.6557"/>
<polygon fill="midnightblue" stroke="midnightblue" points="70.2183,-138.708 62.9643,-146.43 73.4505,-144.917 70.2183,-138.708"/>
</g>
<!-- Node8 -->
<g id="node4" class="node"><title>Node8</title>
<polygon fill="white" stroke="#bfbfbf" points="74,-203.5 74,-222.5 193,-222.5 193,-203.5 74,-203.5"/>
<text text-anchor="middle" x="133.5" y="-210.5" font-family="Helvetica,sans-Serif" font-size="10.00">INotifyPropertyChanged</text>
</g>
<!-- Node8&#45;&gt;Node7 -->
<g id="edge3" class="edge"><title>Node8&#45;&gt;Node7</title>
<path fill="none" stroke="midnightblue" d="M111.077,-197.824C94.9116,-187.605 73.6255,-174.148 59.9983,-165.533"/>
<polygon fill="midnightblue" stroke="midnightblue" points="109.583,-201.021 119.906,-203.406 113.324,-195.104 109.583,-201.021"/>
</g>
<!-- Node10 -->
<g id="node6" class="node"><title>Node10</title>
<g id="a_node6"><a xlink:href="interface_holo_gen_1_1_u_i_1_1_menus_1_1_i_menu_window.html" target="_top" xlink:title="HoloGen.UI.Menus.IMenuWindow">
<polygon fill="white" stroke="black" points="111.5,-146.5 111.5,-165.5 273.5,-165.5 273.5,-146.5 111.5,-146.5"/>
<text text-anchor="middle" x="192.5" y="-153.5" font-family="Helvetica,sans-Serif" font-size="10.00">HoloGen.UI.Menus.IMenuWindow</text>
</a>
</g>
</g>
<!-- Node8&#45;&gt;Node10 -->
<g id="edge6" class="edge"><title>Node8&#45;&gt;Node10</title>
<path fill="none" stroke="midnightblue" d="M150.217,-196.416C160.888,-186.469 174.325,-173.943 183.151,-165.715"/>
<polygon fill="midnightblue" stroke="midnightblue" points="147.647,-194.027 142.719,-203.406 152.42,-199.148 147.647,-194.027"/>
</g>
<!-- Node9 -->
<g id="node5" class="node"><title>Node9</title>
<polygon fill="white" stroke="#bfbfbf" points="292,-146.5 292,-165.5 355,-165.5 355,-146.5 292,-146.5"/>
<text text-anchor="middle" x="323.5" y="-153.5" font-family="Helvetica,sans-Serif" font-size="10.00">ICommand</text>
</g>
<!-- Node9&#45;&gt;Node6 -->
<g id="edge4" class="edge"><title>Node9&#45;&gt;Node6</title>
<path fill="none" stroke="midnightblue" d="M306.724,-139.811C294.541,-129.333 277.309,-115.613 260.5,-106 247.489,-98.5589 232.025,-92.2411 219.134,-87.592"/>
<polygon fill="midnightblue" stroke="midnightblue" points="304.463,-142.484 314.285,-146.457 309.084,-137.226 304.463,-142.484"/>
</g>
<!-- Node10&#45;&gt;Node6 -->
<g id="edge5" class="edge"><title>Node10&#45;&gt;Node6</title>
<path fill="none" stroke="#9a32cd" stroke-dasharray="5,2" d="M192.5,-136.224C192.5,-120.697 192.5,-99.3582 192.5,-87.6165"/>
<polygon fill="#9a32cd" stroke="#9a32cd" points="189,-136.282 192.5,-146.282 196,-136.282 189,-136.282"/>
<text text-anchor="middle" x="224.5" y="-120" font-family="Helvetica,sans-Serif" font-size="10.00"> MenuWindow</text>
<text text-anchor="middle" x="224.5" y="-109" font-family="Helvetica,sans-Serif" font-size="10.00">_MenuWindow</text>
</g>
</g>
</svg>
