<?xml version="1.0" encoding="UTF-8" standalone="no"?>
<!DOCTYPE svg PUBLIC "-//W3C//DTD SVG 1.1//EN"
 "http://www.w3.org/Graphics/SVG/1.1/DTD/svg11.dtd">
<!-- Generated by graphviz version 2.38.0 (20140413.2041)
 -->
<!-- Title: HoloGen.Alg.Base.Wrap.AlgorithmWrap.AddIlluminationImage Pages: 1 -->
<svg width="326pt" height="50pt"
 viewBox="0.00 0.00 326.00 50.00" xmlns="http://www.w3.org/2000/svg" xmlns:xlink="http://www.w3.org/1999/xlink">
<g id="graph0" class="graph" transform="scale(1 1) rotate(0) translate(4 46)">
<title>HoloGen.Alg.Base.Wrap.AlgorithmWrap.AddIlluminationImage</title>
<polygon fill="white" stroke="none" points="-4,4 -4,-46 322,-46 322,4 -4,4"/>
<!-- Node2 -->
<g id="node1" class="node"><title>Node2</title>
<polygon fill="#bfbfbf" stroke="black" points="0,-6 0,-36 167,-36 167,-6 0,-6"/>
<text text-anchor="start" x="8" y="-24" font-family="Helvetica,sans-Serif" font-size="10.00">HoloGen.Alg.Base.Wrap.Algorithm</text>
<text text-anchor="middle" x="83.5" y="-13" font-family="Helvetica,sans-Serif" font-size="10.00">Wrap.AddIlluminationImage</text>
</g>
<!-- Node3 -->
<g id="node2" class="node"><title>Node3</title>
<g id="a_node2"><a xlink:href="class_holo_gen_1_1_alg_1_1_base_1_1_man_1_1_algorithm_man.html#af4f3da16d6e743388ea9b8cdfb6fecb7" target="_top" xlink:title="HoloGen::Alg::Base\l::Man::AlgorithmMan\l::AddIlluminationImage">
<polygon fill="white" stroke="black" points="203,-0.5 203,-41.5 318,-41.5 318,-0.5 203,-0.5"/>
<text text-anchor="start" x="211" y="-29.5" font-family="Helvetica,sans-Serif" font-size="10.00">HoloGen::Alg::Base</text>
<text text-anchor="start" x="211" y="-18.5" font-family="Helvetica,sans-Serif" font-size="10.00">::Man::AlgorithmMan</text>
<text text-anchor="middle" x="260.5" y="-7.5" font-family="Helvetica,sans-Serif" font-size="10.00">::AddIlluminationImage</text>
</a>
</g>
</g>
<!-- Node2&#45;&gt;Node3 -->
<g id="edge1" class="edge"><title>Node2&#45;&gt;Node3</title>
<path fill="none" stroke="midnightblue" d="M167.132,-21C175.688,-21 184.307,-21 192.66,-21"/>
<polygon fill="midnightblue" stroke="midnightblue" points="192.694,-24.5001 202.694,-21 192.694,-17.5001 192.694,-24.5001"/>
</g>
</g>
</svg>
