<?xml version="1.0" encoding="UTF-8" standalone="no"?>
<!DOCTYPE svg PUBLIC "-//W3C//DTD SVG 1.1//EN"
 "http://www.w3.org/Graphics/SVG/1.1/DTD/svg11.dtd">
<!-- Generated by graphviz version 2.38.0 (20140413.2041)
 -->
<!-- Title: HoloGen.UI.ViewModels.ProcessTabViewModel.ProcessTabViewModel Pages: 1 -->
<svg width="372pt" height="88pt"
 viewBox="0.00 0.00 372.00 88.00" xmlns="http://www.w3.org/2000/svg" xmlns:xlink="http://www.w3.org/1999/xlink">
<g id="graph0" class="graph" transform="scale(1 1) rotate(0) translate(4 84)">
<title>HoloGen.UI.ViewModels.ProcessTabViewModel.ProcessTabViewModel</title>
<polygon fill="white" stroke="none" points="-4,4 -4,-84 368,-84 368,4 -4,4"/>
<!-- Node0 -->
<g id="node1" class="node"><title>Node0</title>
<polygon fill="#bfbfbf" stroke="black" points="0,-24.5 0,-54.5 182,-54.5 182,-24.5 0,-24.5"/>
<text text-anchor="start" x="8" y="-42.5" font-family="Helvetica,sans-Serif" font-size="10.00">HoloGen.UI.ViewModels.Process</text>
<text text-anchor="middle" x="91" y="-31.5" font-family="Helvetica,sans-Serif" font-size="10.00">TabViewModel.ProcessTabViewModel</text>
</g>
<!-- Node1 -->
<g id="node2" class="node"><title>Node1</title>
<g id="a_node2"><a xlink:href="class_holo_gen_1_1_u_i_1_1_utils_1_1_tab_handler_framework.html#a44d3e2cdde5c80b9278faf280df91673" target="_top" xlink:title="HoloGen.UI.Utils.TabHandler\lFramework.GetActiveHandler">
<polygon fill="white" stroke="black" points="219.5,-49.5 219.5,-79.5 362.5,-79.5 362.5,-49.5 219.5,-49.5"/>
<text text-anchor="start" x="227.5" y="-67.5" font-family="Helvetica,sans-Serif" font-size="10.00">HoloGen.UI.Utils.TabHandler</text>
<text text-anchor="middle" x="291" y="-56.5" font-family="Helvetica,sans-Serif" font-size="10.00">Framework.GetActiveHandler</text>
</a>
</g>
</g>
<!-- Node0&#45;&gt;Node1 -->
<g id="edge1" class="edge"><title>Node0&#45;&gt;Node1</title>
<path fill="none" stroke="midnightblue" d="M182.02,-50.8661C191.149,-52.0189 200.382,-53.1845 209.402,-54.3235"/>
<polygon fill="midnightblue" stroke="midnightblue" points="209.121,-57.8157 219.481,-55.5961 209.998,-50.8709 209.121,-57.8157"/>
</g>
<!-- Node2 -->
<g id="node3" class="node"><title>Node2</title>
<g id="a_node3"><a xlink:href="interface_holo_gen_1_1_u_i_1_1_utils_1_1_i_tab_handler.html#a23ed2fc59ee5bea8f34eb29ad83c2c44" target="_top" xlink:title="HoloGen.UI.Utils.ITabHandler.\lAddTab">
<polygon fill="white" stroke="black" points="218,-0.5 218,-30.5 364,-30.5 364,-0.5 218,-0.5"/>
<text text-anchor="start" x="226" y="-18.5" font-family="Helvetica,sans-Serif" font-size="10.00">HoloGen.UI.Utils.ITabHandler.</text>
<text text-anchor="middle" x="291" y="-7.5" font-family="Helvetica,sans-Serif" font-size="10.00">AddTab</text>
</a>
</g>
</g>
<!-- Node0&#45;&gt;Node2 -->
<g id="edge2" class="edge"><title>Node0&#45;&gt;Node2</title>
<path fill="none" stroke="midnightblue" d="M182.02,-28.5885C190.684,-27.5383 199.441,-26.4769 208.022,-25.4368"/>
<polygon fill="midnightblue" stroke="midnightblue" points="208.492,-28.9055 217.998,-24.2275 207.649,-21.9564 208.492,-28.9055"/>
</g>
</g>
</svg>
