<?xml version="1.0" encoding="UTF-8" standalone="no"?>
<!DOCTYPE svg PUBLIC "-//W3C//DTD SVG 1.1//EN"
 "http://www.w3.org/Graphics/SVG/1.1/DTD/svg11.dtd">
<!-- Generated by graphviz version 2.38.0 (20140413.2041)
 -->
<!-- Title: HoloGen.Options.Algorithm.ErrorCalculation.Type.ErrorTypePossibilities Pages: 1 -->
<svg width="195pt" height="424pt"
 viewBox="0.00 0.00 194.50 424.00" xmlns="http://www.w3.org/2000/svg" xmlns:xlink="http://www.w3.org/1999/xlink">
<g id="graph0" class="graph" transform="scale(1 1) rotate(0) translate(4 420)">
<title>HoloGen.Options.Algorithm.ErrorCalculation.Type.ErrorTypePossibilities</title>
<polygon fill="white" stroke="none" points="-4,4 -4,-420 190.5,-420 190.5,4 -4,4"/>
<!-- Node0 -->
<g id="node1" class="node"><title>Node0</title>
<polygon fill="#bfbfbf" stroke="black" points="0,-0.5 0,-41.5 155,-41.5 155,-0.5 0,-0.5"/>
<text text-anchor="start" x="8" y="-29.5" font-family="Helvetica,sans-Serif" font-size="10.00">HoloGen.Options.Algorithm.</text>
<text text-anchor="start" x="8" y="-18.5" font-family="Helvetica,sans-Serif" font-size="10.00">ErrorCalculation.Type.ErrorType</text>
<text text-anchor="middle" x="77.5" y="-7.5" font-family="Helvetica,sans-Serif" font-size="10.00">Possibilities</text>
</g>
<!-- Node1 -->
<g id="node2" class="node"><title>Node1</title>
<g id="a_node2"><a xlink:href="class_holo_gen_1_1_hierarchy_1_1_hierarchy_1_1_possibility_collection.html" target="_top" xlink:title="PossibilityCollection\l\&lt; ErrorTypePossibility \&gt;">
<polygon fill="white" stroke="black" points="16.5,-79.5 16.5,-109.5 138.5,-109.5 138.5,-79.5 16.5,-79.5"/>
<text text-anchor="start" x="24.5" y="-97.5" font-family="Helvetica,sans-Serif" font-size="10.00">PossibilityCollection</text>
<text text-anchor="middle" x="77.5" y="-86.5" font-family="Helvetica,sans-Serif" font-size="10.00">&lt; ErrorTypePossibility &gt;</text>
</a>
</g>
</g>
<!-- Node1&#45;&gt;Node0 -->
<g id="edge1" class="edge"><title>Node1&#45;&gt;Node0</title>
<path fill="none" stroke="midnightblue" d="M77.5,-69.1008C77.5,-60.0979 77.5,-50.0235 77.5,-41.5096"/>
<polygon fill="midnightblue" stroke="midnightblue" points="74.0001,-69.3739 77.5,-79.3739 81.0001,-69.3739 74.0001,-69.3739"/>
</g>
<!-- Node2 -->
<g id="node3" class="node"><title>Node2</title>
<g id="a_node3"><a xlink:href="class_holo_gen_1_1_hierarchy_1_1_hierarchy_1_1_possibility_collection.html" target="_top" xlink:title="Collection of Possibilitys. Is wrapped by a SelectOption. Extends ReflectiveChildrenElement. The base class ReflectiveChildrenElement finds all members assignable from T &#160;and uses them to populate the ReflectiveChildrenElement.Children member collection. ">
<polygon fill="white" stroke="black" points="4.5,-157.5 4.5,-187.5 150.5,-187.5 150.5,-157.5 4.5,-157.5"/>
<text text-anchor="start" x="12.5" y="-175.5" font-family="Helvetica,sans-Serif" font-size="10.00">HoloGen.Hierarchy.Hierarchy.</text>
<text text-anchor="middle" x="77.5" y="-164.5" font-family="Helvetica,sans-Serif" font-size="10.00">PossibilityCollection&lt; T &gt;</text>
</a>
</g>
</g>
<!-- Node2&#45;&gt;Node1 -->
<g id="edge2" class="edge"><title>Node2&#45;&gt;Node1</title>
<path fill="none" stroke="orange" stroke-dasharray="5,2" d="M77.5,-147.09C77.5,-134.757 77.5,-120.224 77.5,-109.731"/>
<polygon fill="orange" stroke="orange" points="74.0001,-147.205 77.5,-157.205 81.0001,-147.205 74.0001,-147.205"/>
<text text-anchor="middle" x="132" y="-131" font-family="Helvetica,sans-Serif" font-size="10.00"> &lt; ErrorTypePossibility &gt;</text>
</g>
<!-- Node3 -->
<g id="node4" class="node"><title>Node3</title>
<g id="a_node4"><a xlink:href="class_holo_gen_1_1_hierarchy_1_1_hierarchy_1_1_reflective_children_element.html" target="_top" xlink:title="Reflective hierarchy element template T . The constructor finds all members assignable from T &#160;and us...">
<polygon fill="white" stroke="black" points="1.5,-225.5 1.5,-244.5 153.5,-244.5 153.5,-225.5 1.5,-225.5"/>
<text text-anchor="middle" x="77.5" y="-232.5" font-family="Helvetica,sans-Serif" font-size="10.00">ReflectiveChildrenElement&lt; T &gt;</text>
</a>
</g>
</g>
<!-- Node3&#45;&gt;Node2 -->
<g id="edge3" class="edge"><title>Node3&#45;&gt;Node2</title>
<path fill="none" stroke="midnightblue" d="M77.5,-215.215C77.5,-206.356 77.5,-195.958 77.5,-187.759"/>
<polygon fill="midnightblue" stroke="midnightblue" points="74.0001,-215.332 77.5,-225.332 81.0001,-215.332 74.0001,-215.332"/>
</g>
<!-- Node4 -->
<g id="node5" class="node"><title>Node4</title>
<g id="a_node5"><a xlink:href="class_holo_gen_1_1_hierarchy_1_1_hierarchy_1_1_hierarchy_saveable.html" target="_top" xlink:title="Declares that this object should be serialisable and saveable ">
<polygon fill="white" stroke="black" points="29,-282.5 29,-301.5 126,-301.5 126,-282.5 29,-282.5"/>
<text text-anchor="middle" x="77.5" y="-289.5" font-family="Helvetica,sans-Serif" font-size="10.00">HierarchySaveable</text>
</a>
</g>
</g>
<!-- Node4&#45;&gt;Node3 -->
<g id="edge4" class="edge"><title>Node4&#45;&gt;Node3</title>
<path fill="none" stroke="midnightblue" d="M77.5,-272.117C77.5,-262.817 77.5,-252.056 77.5,-244.715"/>
<polygon fill="midnightblue" stroke="midnightblue" points="74.0001,-272.406 77.5,-282.406 81.0001,-272.406 74.0001,-272.406"/>
</g>
<!-- Node5 -->
<g id="node6" class="node"><title>Node5</title>
<g id="a_node6"><a xlink:href="class_holo_gen_1_1_utils_1_1_observable_object.html" target="_top" xlink:title="Observable object with INotifyPropertyChanged implemented ">
<polygon fill="white" stroke="black" points="31,-339.5 31,-358.5 124,-358.5 124,-339.5 31,-339.5"/>
<text text-anchor="middle" x="77.5" y="-346.5" font-family="Helvetica,sans-Serif" font-size="10.00">ObservableObject</text>
</a>
</g>
</g>
<!-- Node5&#45;&gt;Node4 -->
<g id="edge5" class="edge"><title>Node5&#45;&gt;Node4</title>
<path fill="none" stroke="midnightblue" d="M77.5,-329.117C77.5,-319.817 77.5,-309.056 77.5,-301.715"/>
<polygon fill="midnightblue" stroke="midnightblue" points="74.0001,-329.406 77.5,-339.406 81.0001,-329.406 74.0001,-329.406"/>
</g>
<!-- Node6 -->
<g id="node7" class="node"><title>Node6</title>
<polygon fill="white" stroke="#bfbfbf" points="18,-396.5 18,-415.5 137,-415.5 137,-396.5 18,-396.5"/>
<text text-anchor="middle" x="77.5" y="-403.5" font-family="Helvetica,sans-Serif" font-size="10.00">INotifyPropertyChanged</text>
</g>
<!-- Node6&#45;&gt;Node5 -->
<g id="edge6" class="edge"><title>Node6&#45;&gt;Node5</title>
<path fill="none" stroke="midnightblue" d="M77.5,-386.117C77.5,-376.817 77.5,-366.056 77.5,-358.715"/>
<polygon fill="midnightblue" stroke="midnightblue" points="74.0001,-386.406 77.5,-396.406 81.0001,-386.406 74.0001,-386.406"/>
</g>
</g>
</svg>
