<?xml version="1.0" encoding="UTF-8" standalone="no"?>
<!DOCTYPE svg PUBLIC "-//W3C//DTD SVG 1.1//EN"
 "http://www.w3.org/Graphics/SVG/1.1/DTD/svg11.dtd">
<!-- Generated by graphviz version 2.38.0 (20140413.2041)
 -->
<!-- Title: HoloGen.UI.Utils.TabHandlerFramework.GetActiveHandler Pages: 1 -->
<svg width="548pt" height="666pt"
 viewBox="0.00 0.00 548.00 666.00" xmlns="http://www.w3.org/2000/svg" xmlns:xlink="http://www.w3.org/1999/xlink">
<g id="graph0" class="graph" transform="scale(1 1) rotate(0) translate(4 662)">
<title>HoloGen.UI.Utils.TabHandlerFramework.GetActiveHandler</title>
<polygon fill="white" stroke="none" points="-4,4 -4,-662 544,-662 544,4 -4,4"/>
<!-- Node3 -->
<g id="node1" class="node"><title>Node3</title>
<polygon fill="#bfbfbf" stroke="black" points="0,-308.5 0,-338.5 143,-338.5 143,-308.5 0,-308.5"/>
<text text-anchor="start" x="8" y="-326.5" font-family="Helvetica,sans-Serif" font-size="10.00">HoloGen.UI.Utils.TabHandler</text>
<text text-anchor="middle" x="71.5" y="-315.5" font-family="Helvetica,sans-Serif" font-size="10.00">Framework.GetActiveHandler</text>
</g>
<!-- Node4 -->
<g id="node2" class="node"><title>Node4</title>
<g id="a_node2"><a xlink:href="class_holo_gen_1_1_u_i_1_1_view_models_1_1_process_tab_view_model.html#ad5b57eee646253e8bd56a1107f575e17" target="_top" xlink:title="HoloGen.UI.ViewModels.Process\lTabViewModel.ProcessTabViewModel">
<polygon fill="white" stroke="black" points="179,-627.5 179,-657.5 361,-657.5 361,-627.5 179,-627.5"/>
<text text-anchor="start" x="187" y="-645.5" font-family="Helvetica,sans-Serif" font-size="10.00">HoloGen.UI.ViewModels.Process</text>
<text text-anchor="middle" x="270" y="-634.5" font-family="Helvetica,sans-Serif" font-size="10.00">TabViewModel.ProcessTabViewModel</text>
</a>
</g>
</g>
<!-- Node3&#45;&gt;Node4 -->
<g id="edge1" class="edge"><title>Node3&#45;&gt;Node4</title>
<path fill="none" stroke="midnightblue" d="M74.029,-348.969C78.8623,-406.017 98.6989,-544.813 179,-618.5 182.694,-621.889 186.812,-624.81 191.199,-627.325"/>
<polygon fill="midnightblue" stroke="midnightblue" points="77.496,-348.4 73.249,-338.693 70.516,-348.929 77.496,-348.4"/>
</g>
<!-- Node5 -->
<g id="node3" class="node"><title>Node5</title>
<g id="a_node3"><a xlink:href="class_holo_gen_1_1_u_i_1_1_commands_1_1_close_current_tab_command.html#afc1fe6fdb730dd23e456633bcbee1faa" target="_top" xlink:title="HoloGen.UI.Commands.Close\lCurrentTabCommand.Execute">
<polygon fill="white" stroke="black" points="196.5,-578.5 196.5,-608.5 343.5,-608.5 343.5,-578.5 196.5,-578.5"/>
<text text-anchor="start" x="204.5" y="-596.5" font-family="Helvetica,sans-Serif" font-size="10.00">HoloGen.UI.Commands.Close</text>
<text text-anchor="middle" x="270" y="-585.5" font-family="Helvetica,sans-Serif" font-size="10.00">CurrentTabCommand.Execute</text>
</a>
</g>
</g>
<!-- Node3&#45;&gt;Node5 -->
<g id="edge2" class="edge"><title>Node3&#45;&gt;Node5</title>
<path fill="none" stroke="midnightblue" d="M76.0274,-348.516C84.4018,-398.325 110.199,-510.194 179,-569.5 184.144,-573.934 190.023,-577.56 196.257,-580.522"/>
<polygon fill="midnightblue" stroke="midnightblue" points="79.478,-347.928 74.4553,-338.6 72.5643,-349.024 79.478,-347.928"/>
</g>
<!-- Node6 -->
<g id="node4" class="node"><title>Node6</title>
<g id="a_node4"><a xlink:href="class_holo_gen_1_1_u_i_1_1_commands_1_1_export_image_file_command.html#a82644cf066f68789ff63b4121851bb9d" target="_top" xlink:title="HoloGen.UI.Commands.Export\lImageFileCommand.Execute">
<polygon fill="white" stroke="black" points="195,-529.5 195,-559.5 345,-559.5 345,-529.5 195,-529.5"/>
<text text-anchor="start" x="203" y="-547.5" font-family="Helvetica,sans-Serif" font-size="10.00">HoloGen.UI.Commands.Export</text>
<text text-anchor="middle" x="270" y="-536.5" font-family="Helvetica,sans-Serif" font-size="10.00">ImageFileCommand.Execute</text>
</a>
</g>
</g>
<!-- Node3&#45;&gt;Node6 -->
<g id="edge3" class="edge"><title>Node3&#45;&gt;Node6</title>
<path fill="none" stroke="midnightblue" d="M78.8916,-348.191C91.0566,-390.151 121.594,-475.216 179,-520.5 183.825,-524.306 189.2,-527.511 194.856,-530.209"/>
<polygon fill="midnightblue" stroke="midnightblue" points="82.2473,-347.194 76.1895,-338.502 75.5046,-349.075 82.2473,-347.194"/>
</g>
<!-- Node7 -->
<g id="node5" class="node"><title>Node7</title>
<g id="a_node5"><a xlink:href="class_holo_gen_1_1_u_i_1_1_commands_1_1_export_mat_file_command.html#ac7e6c1ad4d18bd37a8c03dc3af0b9ee8" target="_top" xlink:title="HoloGen.UI.Commands.Export\lMatFileCommand.Execute">
<polygon fill="white" stroke="black" points="195,-480.5 195,-510.5 345,-510.5 345,-480.5 195,-480.5"/>
<text text-anchor="start" x="203" y="-498.5" font-family="Helvetica,sans-Serif" font-size="10.00">HoloGen.UI.Commands.Export</text>
<text text-anchor="middle" x="270" y="-487.5" font-family="Helvetica,sans-Serif" font-size="10.00">MatFileCommand.Execute</text>
</a>
</g>
</g>
<!-- Node3&#45;&gt;Node7 -->
<g id="edge4" class="edge"><title>Node3&#45;&gt;Node7</title>
<path fill="none" stroke="midnightblue" d="M83.5668,-348.153C99.728,-381.301 132.951,-439.737 179,-471.5 183.925,-474.897 189.307,-477.814 194.91,-480.318"/>
<polygon fill="midnightblue" stroke="midnightblue" points="86.549,-346.273 79.1037,-338.735 80.2233,-349.27 86.549,-346.273"/>
</g>
<!-- Node8 -->
<g id="node6" class="node"><title>Node8</title>
<g id="a_node6"><a xlink:href="class_holo_gen_1_1_u_i_1_1_commands_1_1_import_command.html#aec748fcf6ccec3ef66b0a64823a213fa" target="_top" xlink:title="HoloGen.UI.Commands.Import\lCommand.SaveAndOpen">
<polygon fill="white" stroke="black" points="195.5,-431.5 195.5,-461.5 344.5,-461.5 344.5,-431.5 195.5,-431.5"/>
<text text-anchor="start" x="203.5" y="-449.5" font-family="Helvetica,sans-Serif" font-size="10.00">HoloGen.UI.Commands.Import</text>
<text text-anchor="middle" x="270" y="-438.5" font-family="Helvetica,sans-Serif" font-size="10.00">Command.SaveAndOpen</text>
</a>
</g>
</g>
<!-- Node3&#45;&gt;Node8 -->
<g id="edge5" class="edge"><title>Node3&#45;&gt;Node8</title>
<path fill="none" stroke="midnightblue" d="M91.1677,-346.452C110.755,-369.046 143.577,-402.929 179,-422.5 185.228,-425.941 191.974,-428.908 198.875,-431.462"/>
<polygon fill="midnightblue" stroke="midnightblue" points="93.7117,-344.04 84.5698,-338.685 88.377,-348.572 93.7117,-344.04"/>
</g>
<!-- Node9 -->
<g id="node7" class="node"><title>Node9</title>
<g id="a_node7"><a xlink:href="class_holo_gen_1_1_u_i_1_1_commands_1_1_import_image_file_command.html#a10bd4db78cdeab8387f8f95280e79d82" target="_top" xlink:title="HoloGen.UI.Commands.Import\lImageFileCommand.Execute">
<polygon fill="white" stroke="black" points="195.5,-382.5 195.5,-412.5 344.5,-412.5 344.5,-382.5 195.5,-382.5"/>
<text text-anchor="start" x="203.5" y="-400.5" font-family="Helvetica,sans-Serif" font-size="10.00">HoloGen.UI.Commands.Import</text>
<text text-anchor="middle" x="270" y="-389.5" font-family="Helvetica,sans-Serif" font-size="10.00">ImageFileCommand.Execute</text>
</a>
</g>
</g>
<!-- Node3&#45;&gt;Node9 -->
<g id="edge6" class="edge"><title>Node3&#45;&gt;Node9</title>
<path fill="none" stroke="midnightblue" d="M109.96,-343.094C130.062,-353.092 155.477,-364.919 179,-373.5 187.811,-376.714 197.25,-379.704 206.579,-382.406"/>
<polygon fill="midnightblue" stroke="midnightblue" points="111.344,-339.872 100.838,-338.502 108.196,-346.125 111.344,-339.872"/>
</g>
<!-- Node10 -->
<g id="node8" class="node"><title>Node10</title>
<g id="a_node8"><a xlink:href="class_holo_gen_1_1_u_i_1_1_commands_1_1_import_mat_file_command.html#ac011f537917b3bbc9a6cd437c7d206ab" target="_top" xlink:title="HoloGen.UI.Commands.Import\lMatFileCommand.Execute">
<polygon fill="white" stroke="black" points="195.5,-333.5 195.5,-363.5 344.5,-363.5 344.5,-333.5 195.5,-333.5"/>
<text text-anchor="start" x="203.5" y="-351.5" font-family="Helvetica,sans-Serif" font-size="10.00">HoloGen.UI.Commands.Import</text>
<text text-anchor="middle" x="270" y="-340.5" font-family="Helvetica,sans-Serif" font-size="10.00">MatFileCommand.Execute</text>
</a>
</g>
</g>
<!-- Node3&#45;&gt;Node10 -->
<g id="edge7" class="edge"><title>Node3&#45;&gt;Node10</title>
<path fill="none" stroke="midnightblue" d="M153.211,-333.769C167.152,-335.542 181.579,-337.378 195.321,-339.126"/>
<polygon fill="midnightblue" stroke="midnightblue" points="153.525,-330.28 143.163,-332.49 152.642,-337.224 153.525,-330.28"/>
</g>
<!-- Node11 -->
<g id="node9" class="node"><title>Node11</title>
<g id="a_node9"><a xlink:href="class_holo_gen_1_1_u_i_1_1_commands_1_1_new_batch_file.html#a5762a1a088d108b4be79e0e1f72a3dca" target="_top" xlink:title="HoloGen.UI.Commands.NewBatch\lFile.Execute">
<polygon fill="white" stroke="black" points="187,-284.5 187,-314.5 353,-314.5 353,-284.5 187,-284.5"/>
<text text-anchor="start" x="195" y="-302.5" font-family="Helvetica,sans-Serif" font-size="10.00">HoloGen.UI.Commands.NewBatch</text>
<text text-anchor="middle" x="270" y="-291.5" font-family="Helvetica,sans-Serif" font-size="10.00">File.Execute</text>
</a>
</g>
</g>
<!-- Node3&#45;&gt;Node11 -->
<g id="edge8" class="edge"><title>Node3&#45;&gt;Node11</title>
<path fill="none" stroke="midnightblue" d="M153.264,-313.636C164.375,-312.279 175.795,-310.884 186.93,-309.524"/>
<polygon fill="midnightblue" stroke="midnightblue" points="152.665,-310.183 143.163,-314.869 153.514,-317.131 152.665,-310.183"/>
</g>
<!-- Node12 -->
<g id="node10" class="node"><title>Node12</title>
<g id="a_node10"><a xlink:href="class_holo_gen_1_1_u_i_1_1_commands_1_1_new_setup_file.html#a5ba724850ce18aac64881b4cf24735a3" target="_top" xlink:title="HoloGen.UI.Commands.NewSetup\lFile.Execute">
<polygon fill="white" stroke="black" points="187,-235.5 187,-265.5 353,-265.5 353,-235.5 187,-235.5"/>
<text text-anchor="start" x="195" y="-253.5" font-family="Helvetica,sans-Serif" font-size="10.00">HoloGen.UI.Commands.NewSetup</text>
<text text-anchor="middle" x="270" y="-242.5" font-family="Helvetica,sans-Serif" font-size="10.00">File.Execute</text>
</a>
</g>
</g>
<!-- Node3&#45;&gt;Node12 -->
<g id="edge9" class="edge"><title>Node3&#45;&gt;Node12</title>
<path fill="none" stroke="midnightblue" d="M111.792,-304.06C131.643,-294.686 156.281,-283.721 179,-275.5 188.759,-271.969 199.264,-268.64 209.531,-265.634"/>
<polygon fill="midnightblue" stroke="midnightblue" points="110.265,-300.91 102.748,-308.377 113.28,-307.228 110.265,-300.91"/>
</g>
<!-- Node13 -->
<g id="node11" class="node"><title>Node13</title>
<g id="a_node11"><a xlink:href="class_holo_gen_1_1_u_i_1_1_commands_1_1_open_file_command.html#aedfec7c934164775d323ddb91710b4f9" target="_top" xlink:title="HoloGen.UI.Commands.Open\lFileCommand.Execute">
<polygon fill="white" stroke="black" points="197.5,-186.5 197.5,-216.5 342.5,-216.5 342.5,-186.5 197.5,-186.5"/>
<text text-anchor="start" x="205.5" y="-204.5" font-family="Helvetica,sans-Serif" font-size="10.00">HoloGen.UI.Commands.Open</text>
<text text-anchor="middle" x="270" y="-193.5" font-family="Helvetica,sans-Serif" font-size="10.00">FileCommand.Execute</text>
</a>
</g>
</g>
<!-- Node3&#45;&gt;Node13 -->
<g id="edge10" class="edge"><title>Node3&#45;&gt;Node13</title>
<path fill="none" stroke="midnightblue" d="M91.6362,-300.734C111.369,-278.668 144.104,-245.784 179,-226.5 185.955,-222.657 193.545,-219.369 201.271,-216.564"/>
<polygon fill="midnightblue" stroke="midnightblue" points="88.9373,-298.503 84.9747,-308.329 94.1999,-303.119 88.9373,-298.503"/>
</g>
<!-- Node14 -->
<g id="node12" class="node"><title>Node14</title>
<g id="a_node12"><a xlink:href="class_holo_gen_1_1_u_i_1_1_commands_1_1_save_as_file_command.html#ad1d417e46f827af8930d4cdbe55fdbfa" target="_top" xlink:title="HoloGen.UI.Commands.Save\lAsFileCommand.Execute">
<polygon fill="white" stroke="black" points="198.5,-137.5 198.5,-167.5 341.5,-167.5 341.5,-137.5 198.5,-137.5"/>
<text text-anchor="start" x="206.5" y="-155.5" font-family="Helvetica,sans-Serif" font-size="10.00">HoloGen.UI.Commands.Save</text>
<text text-anchor="middle" x="270" y="-144.5" font-family="Helvetica,sans-Serif" font-size="10.00">AsFileCommand.Execute</text>
</a>
</g>
</g>
<!-- Node3&#45;&gt;Node14 -->
<g id="edge11" class="edge"><title>Node3&#45;&gt;Node14</title>
<path fill="none" stroke="midnightblue" d="M83.9545,-298.744C100.362,-266.036 133.655,-208.907 179,-177.5 184.866,-173.437 191.374,-170.033 198.13,-167.18"/>
<polygon fill="midnightblue" stroke="midnightblue" points="80.6508,-297.534 79.4099,-308.055 86.9415,-300.604 80.6508,-297.534"/>
</g>
<!-- Node15 -->
<g id="node13" class="node"><title>Node15</title>
<g id="a_node13"><a xlink:href="class_holo_gen_1_1_u_i_1_1_commands_1_1_save_file_command.html#a7d8c6359cae75dabd84510268f234fb0" target="_top" xlink:title="HoloGen.UI.Commands.Save\lFileCommand.Execute">
<polygon fill="white" stroke="black" points="397,-115.5 397,-145.5 540,-145.5 540,-115.5 397,-115.5"/>
<text text-anchor="start" x="405" y="-133.5" font-family="Helvetica,sans-Serif" font-size="10.00">HoloGen.UI.Commands.Save</text>
<text text-anchor="middle" x="468.5" y="-122.5" font-family="Helvetica,sans-Serif" font-size="10.00">FileCommand.Execute</text>
</a>
</g>
</g>
<!-- Node3&#45;&gt;Node15 -->
<g id="edge13" class="edge"><title>Node3&#45;&gt;Node15</title>
<path fill="none" stroke="midnightblue" d="M77.5424,-298.651C87.8794,-255.052 116.018,-165.865 179,-128.5 252.555,-84.8622 356.336,-100.326 417.299,-115.465"/>
<polygon fill="midnightblue" stroke="midnightblue" points="74.118,-297.927 75.339,-308.451 80.9475,-299.462 74.118,-297.927"/>
</g>
<!-- Node16 -->
<g id="node14" class="node"><title>Node16</title>
<g id="a_node14"><a xlink:href="class_holo_gen_1_1_u_i_1_1_commands_1_1_show_about_command.html#a4a54c8a7c72a28b8fa402e1030e4c489" target="_top" xlink:title="HoloGen.UI.Commands.Show\lAboutCommand.Execute">
<polygon fill="white" stroke="black" points="197,-49.5 197,-79.5 343,-79.5 343,-49.5 197,-49.5"/>
<text text-anchor="start" x="205" y="-67.5" font-family="Helvetica,sans-Serif" font-size="10.00">HoloGen.UI.Commands.Show</text>
<text text-anchor="middle" x="270" y="-56.5" font-family="Helvetica,sans-Serif" font-size="10.00">AboutCommand.Execute</text>
</a>
</g>
</g>
<!-- Node3&#45;&gt;Node16 -->
<g id="edge14" class="edge"><title>Node3&#45;&gt;Node16</title>
<path fill="none" stroke="midnightblue" d="M77.2827,-298.598C87.5393,-251.87 116.025,-150.701 179,-94.5 185.881,-88.3588 194.059,-83.4688 202.636,-79.5765"/>
<polygon fill="midnightblue" stroke="midnightblue" points="73.8375,-297.974 75.2101,-308.479 80.6884,-299.411 73.8375,-297.974"/>
</g>
<!-- Node17 -->
<g id="node15" class="node"><title>Node17</title>
<g id="a_node15"><a xlink:href="class_holo_gen_1_1_u_i_1_1_commands_1_1_show_help_command.html#a44236b039c8dbe8e4c276467544fdf7e" target="_top" xlink:title="HoloGen.UI.Commands.Show\lHelpCommand.Execute">
<polygon fill="white" stroke="black" points="197,-0.5 197,-30.5 343,-30.5 343,-0.5 197,-0.5"/>
<text text-anchor="start" x="205" y="-18.5" font-family="Helvetica,sans-Serif" font-size="10.00">HoloGen.UI.Commands.Show</text>
<text text-anchor="middle" x="270" y="-7.5" font-family="Helvetica,sans-Serif" font-size="10.00">HelpCommand.Execute</text>
</a>
</g>
</g>
<!-- Node3&#45;&gt;Node17 -->
<g id="edge15" class="edge"><title>Node3&#45;&gt;Node17</title>
<path fill="none" stroke="midnightblue" d="M74.5051,-298.327C80.2732,-243.196 101.834,-111.088 179,-40.5 184.265,-35.684 190.379,-31.7849 196.894,-28.6299"/>
<polygon fill="midnightblue" stroke="midnightblue" points="71.0207,-297.997 73.5503,-308.285 77.9888,-298.665 71.0207,-297.997"/>
</g>
<!-- Node14&#45;&gt;Node15 -->
<g id="edge12" class="edge"><title>Node14&#45;&gt;Node15</title>
<path fill="none" stroke="midnightblue" d="M351.875,-143.445C366.777,-141.777 382.23,-140.047 396.804,-138.415"/>
<polygon fill="midnightblue" stroke="midnightblue" points="351.212,-139.998 341.663,-144.589 351.991,-146.954 351.212,-139.998"/>
</g>
</g>
</svg>
