<?xml version="1.0" encoding="UTF-8" standalone="no"?>
<!DOCTYPE svg PUBLIC "-//W3C//DTD SVG 1.1//EN"
 "http://www.w3.org/Graphics/SVG/1.1/DTD/svg11.dtd">
<!-- Generated by graphviz version 2.38.0 (20140413.2041)
 -->
<!-- Title: HoloGen.Options.Projector.Hologram.Oversampling Pages: 1 -->
<!--zoomable 402 -->
<svg id="main" version="1.1" xmlns="http://www.w3.org/2000/svg" xmlns:xlink="http://www.w3.org/1999/xlink" xml:space="preserve" onload="init(evt)">
<style type="text/css"><![CDATA[
.edge:hover path { stroke: red; }
.edge:hover polygon { stroke: red; fill: red; }
]]></style>
<script type="text/javascript"><![CDATA[
var edges = document.getElementsByTagName('g');
if (edges && edges.length) {
  for (var i=0;i<edges.length;i++) {
    if (edges[i].id.substr(0,4)=='edge') {
      edges[i].setAttribute('class','edge');
    }
  }
}
]]></script>
        <defs>
                <circle id="rim" cx="0" cy="0" r="7"/>
                <circle id="rim2" cx="0" cy="0" r="3.5"/>
                <g id="zoomPlus">
                        <use xlink:href="#rim" fill="#404040">
                                <set attributeName="fill" to="#808080" begin="zoomplus.mouseover" end="zoomplus.mouseout"/>
                        </use>
                        <path d="M-4,0h8M0,-4v8" fill="none" stroke="white" stroke-width="1.5" pointer-events="none"/>
                </g>
                <g id="zoomMin">
                        <use xlink:href="#rim" fill="#404040">
                                <set attributeName="fill" to="#808080" begin="zoomminus.mouseover" end="zoomminus.mouseout"/>
                        </use>
                        <path d="M-4,0h8" fill="none" stroke="white" stroke-width="1.5" pointer-events="none"/>
                </g>
                <g id="dirArrow">
                        <path fill="none" stroke="white" stroke-width="1.5" d="M0,-3.0v7 M-2.5,-0.5L0,-3.0L2.5,-0.5"/>
                </g>
               <g id="resetDef">
                       <use xlink:href="#rim2" fill="#404040">
                               <set attributeName="fill" to="#808080" begin="reset.mouseover" end="reset.mouseout"/>
                       </use>
               </g>
        </defs>

<script type="text/javascript">
var viewWidth = 533;
var viewHeight = 402;
var sectionId = 'dynsection-1';
</script>
<script xlink:href="svgpan.js"/>
<svg id="graph" class="graph">
<g id="viewport">
<title>HoloGen.Options.Projector.Hologram.Oversampling</title>
<polygon fill="white" stroke="none" points="-4,4 -4,-398 528.5,-398 528.5,4 -4,4"/>
<!-- Node14 -->
<g id="node1" class="node"><title>Node14</title>
<polygon fill="#bfbfbf" stroke="black" points="143.5,-0.5 143.5,-30.5 279.5,-30.5 279.5,-0.5 143.5,-0.5"/>
<text text-anchor="start" x="151.5" y="-18.5" font-family="Helvetica,sans-Serif" font-size="10.00">HoloGen.Options.Projector.</text>
<text text-anchor="middle" x="211.5" y="-7.5" font-family="Helvetica,sans-Serif" font-size="10.00">Hologram.Oversampling</text>
</g>
<!-- Node15 -->
<g id="node2" class="node"><title>Node15</title>
<g id="a_node2"><a xlink:href="class_holo_gen_1_1_hierarchy_1_1_option_types_1_1_integer_option.html" target="_top" xlink:title="Extends NumericOption for the case of an integer parameter. ">
<polygon fill="white" stroke="black" points="174.5,-68.5 174.5,-87.5 248.5,-87.5 248.5,-68.5 174.5,-68.5"/>
<text text-anchor="middle" x="211.5" y="-75.5" font-family="Helvetica,sans-Serif" font-size="10.00">IntegerOption</text>
</a>
</g>
</g>
<!-- Node15&#45;&gt;Node14 -->
<g id="edge1" class="edge"><title>Node15&#45;&gt;Node14</title>
<path fill="none" stroke="midnightblue" d="M211.5,-58.2154C211.5,-49.3565 211.5,-38.9577 211.5,-30.7587"/>
<polygon fill="midnightblue" stroke="midnightblue" points="208,-58.3318 211.5,-68.3318 215,-58.3319 208,-58.3318"/>
</g>
<!-- Node16 -->
<g id="node3" class="node"><title>Node16</title>
<g id="a_node3"><a xlink:href="class_holo_gen_1_1_hierarchy_1_1_option_types_1_1_numeric_option.html" target="_top" xlink:title="NumericOption\&lt; int \&gt;">
<polygon fill="white" stroke="black" points="156.5,-125.5 156.5,-144.5 266.5,-144.5 266.5,-125.5 156.5,-125.5"/>
<text text-anchor="middle" x="211.5" y="-132.5" font-family="Helvetica,sans-Serif" font-size="10.00">NumericOption&lt; int &gt;</text>
</a>
</g>
</g>
<!-- Node16&#45;&gt;Node15 -->
<g id="edge2" class="edge"><title>Node16&#45;&gt;Node15</title>
<path fill="none" stroke="midnightblue" d="M211.5,-115.117C211.5,-105.817 211.5,-95.0557 211.5,-87.7149"/>
<polygon fill="midnightblue" stroke="midnightblue" points="208,-115.406 211.5,-125.406 215,-115.406 208,-115.406"/>
</g>
<!-- Node17 -->
<g id="node4" class="node"><title>Node17</title>
<g id="a_node4"><a xlink:href="class_holo_gen_1_1_hierarchy_1_1_option_types_1_1_numeric_option.html" target="_top" xlink:title="Extends Option wrapping a numeric parameter. Implements the IHasWatermark interface in addition...">
<polygon fill="white" stroke="black" points="144.5,-192.5 144.5,-222.5 278.5,-222.5 278.5,-192.5 144.5,-192.5"/>
<text text-anchor="start" x="152.5" y="-210.5" font-family="Helvetica,sans-Serif" font-size="10.00">HoloGen.Hierarchy.Option</text>
<text text-anchor="middle" x="211.5" y="-199.5" font-family="Helvetica,sans-Serif" font-size="10.00">Types.NumericOption&lt; T &gt;</text>
</a>
</g>
</g>
<!-- Node17&#45;&gt;Node16 -->
<g id="edge3" class="edge"><title>Node17&#45;&gt;Node16</title>
<path fill="none" stroke="orange" stroke-dasharray="5,2" d="M211.5,-182.091C211.5,-169.214 211.5,-154.197 211.5,-144.893"/>
<polygon fill="orange" stroke="orange" points="208,-182.233 211.5,-192.233 215,-182.233 208,-182.233"/>
<text text-anchor="middle" x="227.5" y="-166" font-family="Helvetica,sans-Serif" font-size="10.00"> &lt; int &gt;</text>
</g>
<!-- Node18 -->
<g id="node5" class="node"><title>Node18</title>
<g id="a_node5"><a xlink:href="class_holo_gen_1_1_hierarchy_1_1_option_types_1_1_option.html" target="_top" xlink:title="Root hierarchy element. Defines Name and ToolTip fields that must be implemented by any implementors...">
<polygon fill="white" stroke="black" points="107.5,-260.5 107.5,-279.5 175.5,-279.5 175.5,-260.5 107.5,-260.5"/>
<text text-anchor="middle" x="141.5" y="-267.5" font-family="Helvetica,sans-Serif" font-size="10.00">Option&lt; T &gt;</text>
</a>
</g>
</g>
<!-- Node18&#45;&gt;Node17 -->
<g id="edge4" class="edge"><title>Node18&#45;&gt;Node17</title>
<path fill="none" stroke="midnightblue" d="M159.296,-253.62C170.37,-244.048 184.504,-231.832 195.272,-222.526"/>
<polygon fill="midnightblue" stroke="midnightblue" points="156.806,-251.145 151.529,-260.332 161.384,-256.441 156.806,-251.145"/>
</g>
<!-- Node19 -->
<g id="node6" class="node"><title>Node19</title>
<g id="a_node6"><a xlink:href="class_holo_gen_1_1_utils_1_1_observable_object.html" target="_top" xlink:title="Observable object with INotifyPropertyChanged implemented ">
<polygon fill="white" stroke="black" points="43,-317.5 43,-336.5 136,-336.5 136,-317.5 43,-317.5"/>
<text text-anchor="middle" x="89.5" y="-324.5" font-family="Helvetica,sans-Serif" font-size="10.00">ObservableObject</text>
</a>
</g>
</g>
<!-- Node19&#45;&gt;Node18 -->
<g id="edge5" class="edge"><title>Node19&#45;&gt;Node18</title>
<path fill="none" stroke="midnightblue" d="M104.511,-310.123C113.87,-300.224 125.557,-287.862 133.26,-279.715"/>
<polygon fill="midnightblue" stroke="midnightblue" points="101.952,-307.735 97.625,-317.406 107.038,-312.544 101.952,-307.735"/>
</g>
<!-- Node20 -->
<g id="node7" class="node"><title>Node20</title>
<polygon fill="white" stroke="#bfbfbf" points="0,-374.5 0,-393.5 119,-393.5 119,-374.5 0,-374.5"/>
<text text-anchor="middle" x="59.5" y="-381.5" font-family="Helvetica,sans-Serif" font-size="10.00">INotifyPropertyChanged</text>
</g>
<!-- Node20&#45;&gt;Node19 -->
<g id="edge6" class="edge"><title>Node20&#45;&gt;Node19</title>
<path fill="none" stroke="midnightblue" d="M69.136,-365.334C74.3527,-355.77 80.5663,-344.378 84.7464,-336.715"/>
<polygon fill="midnightblue" stroke="midnightblue" points="65.9034,-363.951 64.1875,-374.406 72.0487,-367.303 65.9034,-363.951"/>
</g>
<!-- Node21 -->
<g id="node8" class="node"><title>Node21</title>
<g id="a_node8"><a xlink:href="interface_holo_gen_1_1_hierarchy_1_1_option_types_1_1_i_option.html" target="_top" xlink:title="Base interface for the Option that doesn&#39;t need a template parameter. Necessary for a number of refle...">
<polygon fill="white" stroke="black" points="220,-317.5 220,-336.5 267,-336.5 267,-317.5 220,-317.5"/>
<text text-anchor="middle" x="243.5" y="-324.5" font-family="Helvetica,sans-Serif" font-size="10.00">IOption</text>
</a>
</g>
</g>
<!-- Node20&#45;&gt;Node21 -->
<g id="edge12" class="edge"><title>Node20&#45;&gt;Node21</title>
<path fill="none" stroke="midnightblue" d="M98.1346,-371.452C134.938,-360.451 189.156,-344.244 219.916,-335.05"/>
<polygon fill="midnightblue" stroke="midnightblue" points="96.8287,-368.189 88.25,-374.406 98.8335,-374.896 96.8287,-368.189"/>
</g>
<!-- Node21&#45;&gt;Node18 -->
<g id="edge7" class="edge"><title>Node21&#45;&gt;Node18</title>
<path fill="none" stroke="midnightblue" d="M218.529,-312.535C199.429,-302.236 173.676,-288.35 157.326,-279.533"/>
<polygon fill="midnightblue" stroke="midnightblue" points="217.099,-315.741 227.563,-317.406 220.422,-309.579 217.099,-315.741"/>
</g>
<!-- Node22 -->
<g id="node9" class="node"><title>Node22</title>
<g id="a_node9"><a xlink:href="interface_holo_gen_1_1_hierarchy_1_1_hierarchy_1_1_i_can_error.html" target="_top" xlink:title="Interface implemented by any classes that can be in an error state. Defines the Valid property that c...">
<polygon fill="white" stroke="black" points="137,-374.5 137,-393.5 194,-393.5 194,-374.5 137,-374.5"/>
<text text-anchor="middle" x="165.5" y="-381.5" font-family="Helvetica,sans-Serif" font-size="10.00">ICanError</text>
</a>
</g>
</g>
<!-- Node22&#45;&gt;Node21 -->
<g id="edge8" class="edge"><title>Node22&#45;&gt;Node21</title>
<path fill="none" stroke="midnightblue" d="M186.011,-368.537C200.453,-358.354 219.295,-345.068 231.398,-336.533"/>
<polygon fill="midnightblue" stroke="midnightblue" points="183.843,-365.783 177.688,-374.406 187.877,-371.504 183.843,-365.783"/>
</g>
<!-- Node23 -->
<g id="node10" class="node"><title>Node23</title>
<g id="a_node10"><a xlink:href="interface_holo_gen_1_1_hierarchy_1_1_hierarchy_1_1_i_has_name.html" target="_top" xlink:title="Interface implemented by any classes that have a Name property. ">
<polygon fill="white" stroke="black" points="212.5,-374.5 212.5,-393.5 274.5,-393.5 274.5,-374.5 212.5,-374.5"/>
<text text-anchor="middle" x="243.5" y="-381.5" font-family="Helvetica,sans-Serif" font-size="10.00">IHasName</text>
</a>
</g>
</g>
<!-- Node23&#45;&gt;Node21 -->
<g id="edge9" class="edge"><title>Node23&#45;&gt;Node21</title>
<path fill="none" stroke="midnightblue" d="M243.5,-364.117C243.5,-354.817 243.5,-344.056 243.5,-336.715"/>
<polygon fill="midnightblue" stroke="midnightblue" points="240,-364.406 243.5,-374.406 247,-364.406 240,-364.406"/>
</g>
<!-- Node24 -->
<g id="node11" class="node"><title>Node24</title>
<g id="a_node11"><a xlink:href="interface_holo_gen_1_1_hierarchy_1_1_hierarchy_1_1_i_has_tool_tip.html" target="_top" xlink:title="Interface implemented by any classes that have a ToolTip property. ">
<polygon fill="white" stroke="black" points="293,-374.5 293,-393.5 360,-393.5 360,-374.5 293,-374.5"/>
<text text-anchor="middle" x="326.5" y="-381.5" font-family="Helvetica,sans-Serif" font-size="10.00">IHasToolTip</text>
</a>
</g>
</g>
<!-- Node24&#45;&gt;Node21 -->
<g id="edge10" class="edge"><title>Node24&#45;&gt;Node21</title>
<path fill="none" stroke="midnightblue" d="M305.108,-368.824C289.686,-358.605 269.378,-345.148 256.378,-336.533"/>
<polygon fill="midnightblue" stroke="midnightblue" points="303.262,-371.8 313.531,-374.406 307.129,-365.965 303.262,-371.8"/>
</g>
<!-- Node25 -->
<g id="node12" class="node"><title>Node25</title>
<g id="a_node12"><a xlink:href="interface_holo_gen_1_1_hierarchy_1_1_hierarchy_1_1_i_can_enable.html" target="_top" xlink:title="Interface implemented by any classes that can be enabled Enabled. ">
<polygon fill="white" stroke="black" points="378.5,-374.5 378.5,-393.5 444.5,-393.5 444.5,-374.5 378.5,-374.5"/>
<text text-anchor="middle" x="411.5" y="-381.5" font-family="Helvetica,sans-Serif" font-size="10.00">ICanEnable</text>
</a>
</g>
</g>
<!-- Node25&#45;&gt;Node21 -->
<g id="edge11" class="edge"><title>Node25&#45;&gt;Node21</title>
<path fill="none" stroke="midnightblue" d="M375.592,-371.244C342.827,-360.518 295.341,-344.972 267.125,-335.734"/>
<polygon fill="midnightblue" stroke="midnightblue" points="374.657,-374.621 385.25,-374.406 376.835,-367.969 374.657,-374.621"/>
</g>
<!-- Node26 -->
<g id="node13" class="node"><title>Node26</title>
<g id="a_node13"><a xlink:href="interface_holo_gen_1_1_hierarchy_1_1_hierarchy_1_1_i_can_reset.html" target="_top" xlink:title="Interface implemented by any classes that can be reset. ">
<polygon fill="white" stroke="black" points="462.5,-374.5 462.5,-393.5 524.5,-393.5 524.5,-374.5 462.5,-374.5"/>
<text text-anchor="middle" x="493.5" y="-381.5" font-family="Helvetica,sans-Serif" font-size="10.00">ICanReset</text>
</a>
</g>
</g>
<!-- Node26&#45;&gt;Node21 -->
<g id="edge13" class="edge"><title>Node26&#45;&gt;Node21</title>
<path fill="none" stroke="midnightblue" d="M452.608,-373.811C379.121,-357.514 304.341,-341.219 267.13,-333.13"/>
<polygon fill="midnightblue" stroke="midnightblue" points="451.974,-377.256 462.495,-376.006 453.491,-370.422 451.974,-377.256"/>
</g>
<!-- Node27 -->
<g id="node14" class="node"><title>Node27</title>
<g id="a_node14"><a xlink:href="interface_holo_gen_1_1_hierarchy_1_1_hierarchy_1_1_i_has_watermark.html" target="_top" xlink:title="Interface implemented by any classes that have a Watermark property. ">
<polygon fill="white" stroke="black" points="193.5,-260.5 193.5,-279.5 277.5,-279.5 277.5,-260.5 193.5,-260.5"/>
<text text-anchor="middle" x="235.5" y="-267.5" font-family="Helvetica,sans-Serif" font-size="10.00">IHasWatermark</text>
</a>
</g>
</g>
<!-- Node27&#45;&gt;Node17 -->
<g id="edge14" class="edge"><title>Node27&#45;&gt;Node17</title>
<path fill="none" stroke="midnightblue" d="M228.282,-250.804C224.718,-241.82 220.481,-231.14 217.156,-222.759"/>
<polygon fill="midnightblue" stroke="midnightblue" points="225.121,-252.327 232.061,-260.332 231.627,-249.746 225.121,-252.327"/>
</g>
</g>
</svg>
        <g id="navigator" transform="translate(0 0)" fill="#404254">
                <rect fill="#f2f5e9" fill-opacity="0.5" stroke="#606060" stroke-width=".5" x="0" y="0" width="60" height="60"/>
                <use id="zoomplus" xlink:href="#zoomPlus" x="17" y="9" onmousedown="handleZoom(evt,'in')"/>
                <use id="zoomminus" xlink:href="#zoomMin" x="42" y="9" onmousedown="handleZoom(evt,'out')"/>
                <use id="reset" xlink:href="#resetDef" x="30" y="36" onmousedown="handleReset()"/>
                <g id="arrowUp" xlink:href="#dirArrow" transform="translate(30 24)" onmousedown="handlePan(0,-1)">
                  <use xlink:href="#rim" fill="#404040">
                        <set attributeName="fill" to="#808080" begin="arrowUp.mouseover" end="arrowUp.mouseout"/>
                  </use>
                  <path fill="none" stroke="white" stroke-width="1.5" d="M0,-3.0v7 M-2.5,-0.5L0,-3.0L2.5,-0.5"/>
                </g>
                <g id="arrowRight" xlink:href="#dirArrow" transform="rotate(90) translate(36 -43)" onmousedown="handlePan(1,0)">
                  <use xlink:href="#rim" fill="#404040">
                        <set attributeName="fill" to="#808080" begin="arrowRight.mouseover" end="arrowRight.mouseout"/>
                  </use>
                  <path fill="none" stroke="white" stroke-width="1.5" d="M0,-3.0v7 M-2.5,-0.5L0,-3.0L2.5,-0.5"/>
                </g>
                <g id="arrowDown" xlink:href="#dirArrow" transform="rotate(180) translate(-30 -48)" onmousedown="handlePan(0,1)">
                  <use xlink:href="#rim" fill="#404040">
                        <set attributeName="fill" to="#808080" begin="arrowDown.mouseover" end="arrowDown.mouseout"/>
                  </use>
                  <path fill="none" stroke="white" stroke-width="1.5" d="M0,-3.0v7 M-2.5,-0.5L0,-3.0L2.5,-0.5"/>
                </g>
                <g id="arrowLeft" xlink:href="#dirArrow" transform="rotate(270) translate(-36 17)" onmousedown="handlePan(-1,0)">
                  <use xlink:href="#rim" fill="#404040">
                        <set attributeName="fill" to="#808080" begin="arrowLeft.mouseover" end="arrowLeft.mouseout"/>
                  </use>
                  <path fill="none" stroke="white" stroke-width="1.5" d="M0,-3.0v7 M-2.5,-0.5L0,-3.0L2.5,-0.5"/>
                </g>
        </g>
        <svg viewBox="0 0 15 15" width="100%" height="30px" preserveAspectRatio="xMaxYMin meet">
         <g id="arrow_out" transform="scale(0.3 0.3)">
          <a xlink:href="class_holo_gen_1_1_options_1_1_projector_1_1_hologram_1_1_oversampling__coll__graph_org.svg" target="_base">
           <rect id="button" ry="5" rx="5" y="6" x="6" height="38" width="38"
                fill="#f2f5e9" fill-opacity="0.5" stroke="#606060" stroke-width="1.0"/>
           <path id="arrow"
             d="M 11.500037,31.436501 C 11.940474,20.09759 22.043105,11.32322 32.158766,21.979434 L 37.068811,17.246167 C 37.068811,17.246167 37.088388,32 37.088388,32 L 22.160133,31.978069 C 22.160133,31.978069 26.997745,27.140456 26.997745,27.140456 C 18.528582,18.264221 13.291696,25.230495 11.500037,31.436501 z"
             style="fill:#404040;"/>
          </a>
         </g>
        </svg>
</svg>
