<?xml version="1.0" encoding="UTF-8" standalone="no"?>
<!DOCTYPE svg PUBLIC "-//W3C//DTD SVG 1.1//EN"
 "http://www.w3.org/Graphics/SVG/1.1/DTD/svg11.dtd">
<!-- Generated by graphviz version 2.38.0 (20140413.2041)
 -->
<!-- Title: HoloGen.UI.OptionEditors.PathEditor Pages: 1 -->
<svg width="307pt" height="95pt"
 viewBox="0.00 0.00 306.50 95.00" xmlns="http://www.w3.org/2000/svg" xmlns:xlink="http://www.w3.org/1999/xlink">
<g id="graph0" class="graph" transform="scale(1 1) rotate(0) translate(4 91)">
<title>HoloGen.UI.OptionEditors.PathEditor</title>
<polygon fill="white" stroke="none" points="-4,4 -4,-91 302.5,-91 302.5,4 -4,4"/>
<!-- Node0 -->
<g id="node1" class="node"><title>Node0</title>
<polygon fill="#bfbfbf" stroke="black" points="80.5,-0.5 80.5,-30.5 211.5,-30.5 211.5,-0.5 80.5,-0.5"/>
<text text-anchor="start" x="88.5" y="-18.5" font-family="Helvetica,sans-Serif" font-size="10.00">HoloGen.UI.OptionEditors.</text>
<text text-anchor="middle" x="146" y="-7.5" font-family="Helvetica,sans-Serif" font-size="10.00">PathEditor</text>
</g>
<!-- Node1 -->
<g id="node2" class="node"><title>Node1</title>
<polygon fill="white" stroke="#bfbfbf" points="0,-67.5 0,-86.5 68,-86.5 68,-67.5 0,-67.5"/>
<text text-anchor="middle" x="34" y="-74.5" font-family="Helvetica,sans-Serif" font-size="10.00">UserControl</text>
</g>
<!-- Node1&#45;&gt;Node0 -->
<g id="edge1" class="edge"><title>Node1&#45;&gt;Node0</title>
<path fill="none" stroke="midnightblue" d="M59.3321,-62.5423C77.3117,-52.9907 101.39,-40.1992 119.604,-30.523"/>
<polygon fill="midnightblue" stroke="midnightblue" points="57.236,-59.6926 50.0469,-67.4751 60.5201,-65.8744 57.236,-59.6926"/>
</g>
<!-- Node2 -->
<g id="node3" class="node"><title>Node2</title>
<polygon fill="white" stroke="#bfbfbf" points="86.5,-67.5 86.5,-86.5 205.5,-86.5 205.5,-67.5 86.5,-67.5"/>
<text text-anchor="middle" x="146" y="-74.5" font-family="Helvetica,sans-Serif" font-size="10.00">INotifyPropertyChanged</text>
</g>
<!-- Node2&#45;&gt;Node0 -->
<g id="edge2" class="edge"><title>Node2&#45;&gt;Node0</title>
<path fill="none" stroke="midnightblue" d="M146,-57.2349C146,-48.5864 146,-38.4969 146,-30.523"/>
<polygon fill="midnightblue" stroke="midnightblue" points="142.5,-57.4751 146,-67.4751 149.5,-57.4751 142.5,-57.4751"/>
</g>
<!-- Node3 -->
<g id="node4" class="node"><title>Node3</title>
<polygon fill="white" stroke="#bfbfbf" points="223.5,-67.5 223.5,-86.5 298.5,-86.5 298.5,-67.5 223.5,-67.5"/>
<text text-anchor="middle" x="261" y="-74.5" font-family="Helvetica,sans-Serif" font-size="10.00">IDataErrorInfo</text>
</g>
<!-- Node3&#45;&gt;Node0 -->
<g id="edge3" class="edge"><title>Node3&#45;&gt;Node0</title>
<path fill="none" stroke="midnightblue" d="M235.501,-62.8068C216.987,-53.2278 191.978,-40.2888 173.103,-30.523"/>
<polygon fill="midnightblue" stroke="midnightblue" points="234.033,-65.9883 244.523,-67.4751 237.25,-59.7712 234.033,-65.9883"/>
</g>
</g>
</svg>
