<?xml version="1.0" encoding="UTF-8" standalone="no"?>
<!DOCTYPE svg PUBLIC "-//W3C//DTD SVG 1.1//EN"
 "http://www.w3.org/Graphics/SVG/1.1/DTD/svg11.dtd">
<!-- Generated by graphviz version 2.38.0 (20140413.2041)
 -->
<!-- Title: HoloGen.Process.Options.ProcessViewOption Pages: 1 -->
<!--zoomable 362 -->
<svg id="main" version="1.1" xmlns="http://www.w3.org/2000/svg" xmlns:xlink="http://www.w3.org/1999/xlink" xml:space="preserve" onload="init(evt)">
<style type="text/css"><![CDATA[
.edge:hover path { stroke: red; }
.edge:hover polygon { stroke: red; fill: red; }
]]></style>
<script type="text/javascript"><![CDATA[
var edges = document.getElementsByTagName('g');
if (edges && edges.length) {
  for (var i=0;i<edges.length;i++) {
    if (edges[i].id.substr(0,4)=='edge') {
      edges[i].setAttribute('class','edge');
    }
  }
}
]]></script>
        <defs>
                <circle id="rim" cx="0" cy="0" r="7"/>
                <circle id="rim2" cx="0" cy="0" r="3.5"/>
                <g id="zoomPlus">
                        <use xlink:href="#rim" fill="#404040">
                                <set attributeName="fill" to="#808080" begin="zoomplus.mouseover" end="zoomplus.mouseout"/>
                        </use>
                        <path d="M-4,0h8M0,-4v8" fill="none" stroke="white" stroke-width="1.5" pointer-events="none"/>
                </g>
                <g id="zoomMin">
                        <use xlink:href="#rim" fill="#404040">
                                <set attributeName="fill" to="#808080" begin="zoomminus.mouseover" end="zoomminus.mouseout"/>
                        </use>
                        <path d="M-4,0h8" fill="none" stroke="white" stroke-width="1.5" pointer-events="none"/>
                </g>
                <g id="dirArrow">
                        <path fill="none" stroke="white" stroke-width="1.5" d="M0,-3.0v7 M-2.5,-0.5L0,-3.0L2.5,-0.5"/>
                </g>
               <g id="resetDef">
                       <use xlink:href="#rim2" fill="#404040">
                               <set attributeName="fill" to="#808080" begin="reset.mouseover" end="reset.mouseout"/>
                       </use>
               </g>
        </defs>

<script type="text/javascript">
var viewWidth = 2134;
var viewHeight = 362;
var sectionId = 'dynsection-1';
</script>
<script xlink:href="svgpan.js"/>
<svg id="graph" class="graph">
<g id="viewport">
<title>HoloGen.Process.Options.ProcessViewOption</title>
<polygon fill="white" stroke="none" points="-4,4 -4,-357.508 2130,-357.508 2130,4 -4,4"/>
<!-- Node13 -->
<g id="node1" class="node"><title>Node13</title>
<polygon fill="#bfbfbf" stroke="black" points="1993,-196.228 1993,-226.228 2126,-226.228 2126,-196.228 1993,-196.228"/>
<text text-anchor="start" x="2001" y="-214.228" font-family="Helvetica,sans-Serif" font-size="10.00">HoloGen.Process.Options.</text>
<text text-anchor="middle" x="2059.5" y="-203.228" font-family="Helvetica,sans-Serif" font-size="10.00">ProcessViewOption</text>
</g>
<!-- Node14 -->
<g id="node2" class="node"><title>Node14</title>
<g id="a_node2"><a xlink:href="class_holo_gen_1_1_hierarchy_1_1_option_types_1_1_select_option.html" target="_top" xlink:title="SelectOption\&lt; ProcessView\lPossibility \&gt;">
<polygon fill="white" stroke="black" points="1757,-124.228 1757,-154.228 1896,-154.228 1896,-124.228 1757,-124.228"/>
<text text-anchor="start" x="1765" y="-142.228" font-family="Helvetica,sans-Serif" font-size="10.00">SelectOption&lt; ProcessView</text>
<text text-anchor="middle" x="1826.5" y="-131.228" font-family="Helvetica,sans-Serif" font-size="10.00">Possibility &gt;</text>
</a>
</g>
</g>
<!-- Node14&#45;&gt;Node13 -->
<g id="edge1" class="edge"><title>Node14&#45;&gt;Node13</title>
<path fill="none" stroke="midnightblue" d="M1885.65,-157.352C1924.04,-169.319 1973.77,-184.818 2010.02,-196.118"/>
<polygon fill="midnightblue" stroke="midnightblue" points="1886.23,-153.869 1875.64,-154.234 1884.15,-160.552 1886.23,-153.869"/>
</g>
<!-- Node15 -->
<g id="node3" class="node"><title>Node15</title>
<g id="a_node3"><a xlink:href="class_holo_gen_1_1_hierarchy_1_1_option_types_1_1_select_option.html" target="_top" xlink:title="Extends Option wrapping a multiple&#45;choice PossibilityCollection. Due to the limits of the C# reflecti...">
<polygon fill="white" stroke="black" points="1384.5,-124.228 1384.5,-154.228 1514.5,-154.228 1514.5,-124.228 1384.5,-124.228"/>
<text text-anchor="start" x="1392.5" y="-142.228" font-family="Helvetica,sans-Serif" font-size="10.00">HoloGen.Hierarchy.Option</text>
<text text-anchor="middle" x="1449.5" y="-131.228" font-family="Helvetica,sans-Serif" font-size="10.00">Types.SelectOption&lt; T &gt;</text>
</a>
</g>
</g>
<!-- Node15&#45;&gt;Node14 -->
<g id="edge2" class="edge"><title>Node15&#45;&gt;Node14</title>
<path fill="none" stroke="orange" stroke-dasharray="5,2" d="M1524.69,-139.228C1592.25,-139.228 1691.23,-139.228 1756.96,-139.228"/>
<polygon fill="orange" stroke="orange" points="1524.54,-135.729 1514.54,-139.228 1524.54,-142.729 1524.54,-135.729"/>
<text text-anchor="middle" x="1637.5" y="-142.228" font-family="Helvetica,sans-Serif" font-size="10.00"> &lt; ProcessViewPossibility &gt;</text>
</g>
<!-- Node16 -->
<g id="node4" class="node"><title>Node16</title>
<g id="a_node4"><a xlink:href="class_holo_gen_1_1_hierarchy_1_1_option_types_1_1_option.html" target="_top" xlink:title="Root hierarchy element. Defines Name and ToolTip fields that must be implemented by any implementors...">
<polygon fill="white" stroke="black" points="667,-222.728 667,-241.728 735,-241.728 735,-222.728 667,-222.728"/>
<text text-anchor="middle" x="701" y="-229.728" font-family="Helvetica,sans-Serif" font-size="10.00">Option&lt; T &gt;</text>
</a>
</g>
</g>
<!-- Node16&#45;&gt;Node15 -->
<g id="edge3" class="edge"><title>Node16&#45;&gt;Node15</title>
<path fill="none" stroke="midnightblue" d="M745.298,-232.268C830.545,-231.768 1025.94,-227.763 1188,-203.228 1262.36,-191.97 1346.58,-169.446 1398.62,-154.35"/>
<polygon fill="midnightblue" stroke="midnightblue" points="745.2,-228.768 735.216,-232.313 745.232,-235.768 745.2,-228.768"/>
</g>
<!-- Node17 -->
<g id="node5" class="node"><title>Node17</title>
<g id="a_node5"><a xlink:href="class_holo_gen_1_1_utils_1_1_observable_object.html" target="_top" xlink:title="Observable object with INotifyPropertyChanged implemented ">
<polygon fill="white" stroke="black" points="156,-319.728 156,-338.728 249,-338.728 249,-319.728 156,-319.728"/>
<text text-anchor="middle" x="202.5" y="-326.728" font-family="Helvetica,sans-Serif" font-size="10.00">ObservableObject</text>
</a>
</g>
</g>
<!-- Node17&#45;&gt;Node16 -->
<g id="edge4" class="edge"><title>Node17&#45;&gt;Node16</title>
<path fill="none" stroke="midnightblue" d="M246.693,-341.112C259.267,-344.043 273.094,-346.762 286,-348.228 337.226,-354.051 351.015,-355.876 402,-348.228 488.894,-335.195 509.845,-323.909 591,-290.228 625.45,-275.932 663.425,-254.275 684.218,-241.868"/>
<polygon fill="midnightblue" stroke="midnightblue" points="247.462,-337.697 236.918,-338.736 245.808,-344.499 247.462,-337.697"/>
</g>
<!-- Node30 -->
<g id="node18" class="node"><title>Node30</title>
<g id="a_node18"><a xlink:href="class_holo_gen_1_1_hierarchy_1_1_hierarchy_1_1_hierarchy_saveable.html" target="_top" xlink:title="Declares that this object should be serialisable and saveable ">
<polygon fill="white" stroke="black" points="295.5,-319.728 295.5,-338.728 392.5,-338.728 392.5,-319.728 295.5,-319.728"/>
<text text-anchor="middle" x="344" y="-326.728" font-family="Helvetica,sans-Serif" font-size="10.00">HierarchySaveable</text>
</a>
</g>
</g>
<!-- Node17&#45;&gt;Node30 -->
<g id="edge20" class="edge"><title>Node17&#45;&gt;Node30</title>
<path fill="none" stroke="midnightblue" d="M259.44,-329.228C271.322,-329.228 283.762,-329.228 295.303,-329.228"/>
<polygon fill="midnightblue" stroke="midnightblue" points="259.178,-325.729 249.178,-329.228 259.177,-332.729 259.178,-325.729"/>
</g>
<!-- Node18 -->
<g id="node6" class="node"><title>Node18</title>
<polygon fill="white" stroke="#bfbfbf" points="0,-62.7285 0,-81.7285 119,-81.7285 119,-62.7285 0,-62.7285"/>
<text text-anchor="middle" x="59.5" y="-69.7285" font-family="Helvetica,sans-Serif" font-size="10.00">INotifyPropertyChanged</text>
</g>
<!-- Node18&#45;&gt;Node17 -->
<g id="edge5" class="edge"><title>Node18&#45;&gt;Node17</title>
<path fill="none" stroke="midnightblue" d="M70.7535,-90.9175C98.6434,-141.752 175.191,-281.276 196.139,-319.458"/>
<polygon fill="midnightblue" stroke="midnightblue" points="73.7338,-89.073 65.8552,-81.9893 67.5967,-92.4401 73.7338,-89.073"/>
</g>
<!-- Node19 -->
<g id="node7" class="node"><title>Node19</title>
<g id="a_node7"><a xlink:href="interface_holo_gen_1_1_hierarchy_1_1_option_types_1_1_i_option.html" target="_top" xlink:title="Base interface for the Option that doesn&#39;t need a template parameter. Necessary for a number of refle...">
<polygon fill="white" stroke="black" points="491.5,-82.7285 491.5,-101.728 538.5,-101.728 538.5,-82.7285 491.5,-82.7285"/>
<text text-anchor="middle" x="515" y="-89.7285" font-family="Helvetica,sans-Serif" font-size="10.00">IOption</text>
</a>
</g>
</g>
<!-- Node18&#45;&gt;Node19 -->
<g id="edge11" class="edge"><title>Node18&#45;&gt;Node19</title>
<path fill="none" stroke="midnightblue" d="M82.8083,-56.7073C120.199,-32.5341 198.287,10.1235 268,-2.22846 356.215,-17.8588 454.338,-62.7291 494.88,-82.5813"/>
<polygon fill="midnightblue" stroke="midnightblue" points="80.6085,-53.9664 74.2088,-62.4101 84.4772,-59.8002 80.6085,-53.9664"/>
</g>
<!-- Node19&#45;&gt;Node15 -->
<g id="edge14" class="edge"><title>Node19&#45;&gt;Node15</title>
<path fill="none" stroke="midnightblue" d="M548.804,-93.0858C585.604,-93.9724 647.077,-95.2285 700,-95.2285 700,-95.2285 700,-95.2285 1116,-95.2285 1210.04,-95.2285 1317.76,-112.74 1384.47,-125.668"/>
<polygon fill="midnightblue" stroke="midnightblue" points="548.743,-89.5833 538.659,-92.8356 548.57,-96.5811 548.743,-89.5833"/>
</g>
<!-- Node19&#45;&gt;Node16 -->
<g id="edge6" class="edge"><title>Node19&#45;&gt;Node16</title>
<path fill="none" stroke="midnightblue" d="M532.175,-109.415C547.387,-125.594 570.781,-150.517 591,-172.228 607.504,-189.951 607.325,-199.619 628,-212.228 639.741,-219.389 654.103,-224.048 666.903,-227.05"/>
<polygon fill="midnightblue" stroke="midnightblue" points="534.427,-106.7 525.026,-101.814 529.328,-111.496 534.427,-106.7"/>
</g>
<!-- Node20 -->
<g id="node8" class="node"><title>Node20</title>
<g id="a_node8"><a xlink:href="interface_holo_gen_1_1_hierarchy_1_1_hierarchy_1_1_i_can_error.html" target="_top" xlink:title="Interface implemented by any classes that can be in an error state. Defines the Valid property that c...">
<polygon fill="white" stroke="black" points="315.5,-166.728 315.5,-185.728 372.5,-185.728 372.5,-166.728 315.5,-166.728"/>
<text text-anchor="middle" x="344" y="-173.728" font-family="Helvetica,sans-Serif" font-size="10.00">ICanError</text>
</a>
</g>
</g>
<!-- Node20&#45;&gt;Node19 -->
<g id="edge7" class="edge"><title>Node20&#45;&gt;Node19</title>
<path fill="none" stroke="midnightblue" d="M382.193,-163.501C388.864,-160.943 395.696,-158.14 402,-155.228 437.849,-138.671 477.666,-114.892 498.827,-101.794"/>
<polygon fill="midnightblue" stroke="midnightblue" points="380.771,-160.296 372.614,-167.057 383.207,-166.858 380.771,-160.296"/>
</g>
<!-- Node31 -->
<g id="node19" class="node"><title>Node31</title>
<g id="a_node19"><a xlink:href="interface_holo_gen_1_1_hierarchy_1_1_hierarchy_1_1_i_hierarchy_element.html" target="_top" xlink:title="Base interface for the HierarchyElement that doesn&#39;t need a template parameter. Necessary for a numbe...">
<polygon fill="white" stroke="black" points="467,-181.728 467,-200.728 563,-200.728 563,-181.728 467,-181.728"/>
<text text-anchor="middle" x="515" y="-188.728" font-family="Helvetica,sans-Serif" font-size="10.00">IHierarchyElement</text>
</a>
</g>
</g>
<!-- Node20&#45;&gt;Node31 -->
<g id="edge22" class="edge"><title>Node20&#45;&gt;Node31</title>
<path fill="none" stroke="midnightblue" d="M382.672,-179.572C407.567,-181.782 440.389,-184.695 466.992,-187.056"/>
<polygon fill="midnightblue" stroke="midnightblue" points="382.799,-176.07 372.529,-178.672 382.18,-183.042 382.799,-176.07"/>
</g>
<!-- Node21 -->
<g id="node9" class="node"><title>Node21</title>
<g id="a_node9"><a xlink:href="interface_holo_gen_1_1_hierarchy_1_1_hierarchy_1_1_i_has_name.html" target="_top" xlink:title="Interface implemented by any classes that have a Name property. ">
<polygon fill="white" stroke="black" points="313,-84.7285 313,-103.728 375,-103.728 375,-84.7285 313,-84.7285"/>
<text text-anchor="middle" x="344" y="-91.7285" font-family="Helvetica,sans-Serif" font-size="10.00">IHasName</text>
</a>
</g>
</g>
<!-- Node21&#45;&gt;Node19 -->
<g id="edge8" class="edge"><title>Node21&#45;&gt;Node19</title>
<path fill="none" stroke="midnightblue" d="M385.088,-85.333C396.325,-83.2255 408.589,-81.2844 420,-80.2285 444.409,-77.9698 472.248,-82.4055 491.255,-86.508"/>
<polygon fill="midnightblue" stroke="midnightblue" points="384.247,-81.9312 375.11,-87.2946 385.598,-88.7997 384.247,-81.9312"/>
</g>
<!-- Node21&#45;&gt;Node31 -->
<g id="edge23" class="edge"><title>Node21&#45;&gt;Node31</title>
<path fill="none" stroke="midnightblue" d="M381.243,-107.58C388.246,-110.514 395.44,-113.783 402,-117.228 439.962,-137.171 481.213,-166.675 501.414,-181.693"/>
<polygon fill="midnightblue" stroke="midnightblue" points="382.473,-104.302 371.89,-103.801 379.851,-110.792 382.473,-104.302"/>
</g>
<!-- Node22 -->
<g id="node10" class="node"><title>Node22</title>
<g id="a_node10"><a xlink:href="interface_holo_gen_1_1_hierarchy_1_1_hierarchy_1_1_i_has_tool_tip.html" target="_top" xlink:title="Interface implemented by any classes that have a ToolTip property. ">
<polygon fill="white" stroke="black" points="310.5,-126.728 310.5,-145.728 377.5,-145.728 377.5,-126.728 310.5,-126.728"/>
<text text-anchor="middle" x="344" y="-133.728" font-family="Helvetica,sans-Serif" font-size="10.00">IHasToolTip</text>
</a>
</g>
</g>
<!-- Node22&#45;&gt;Node19 -->
<g id="edge9" class="edge"><title>Node22&#45;&gt;Node19</title>
<path fill="none" stroke="midnightblue" d="M378.644,-122.878C386.34,-119.762 394.47,-116.42 402,-113.228 410.06,-109.812 411.581,-107.63 420,-105.228 443.765,-98.4508 471.952,-95.1525 491.221,-93.5831"/>
<polygon fill="midnightblue" stroke="midnightblue" points="377.176,-119.696 369.206,-126.677 379.789,-126.19 377.176,-119.696"/>
</g>
<!-- Node22&#45;&gt;Node31 -->
<g id="edge24" class="edge"><title>Node22&#45;&gt;Node31</title>
<path fill="none" stroke="midnightblue" d="M383.964,-148.909C414.639,-158.892 456.731,-172.591 484.617,-181.666"/>
<polygon fill="midnightblue" stroke="midnightblue" points="385.03,-145.575 374.438,-145.809 382.863,-152.232 385.03,-145.575"/>
</g>
<!-- Node23 -->
<g id="node11" class="node"><title>Node23</title>
<g id="a_node11"><a xlink:href="interface_holo_gen_1_1_hierarchy_1_1_hierarchy_1_1_i_can_enable.html" target="_top" xlink:title="Interface implemented by any classes that can be enabled Enabled. ">
<polygon fill="white" stroke="black" points="169.5,-143.728 169.5,-162.728 235.5,-162.728 235.5,-143.728 169.5,-143.728"/>
<text text-anchor="middle" x="202.5" y="-150.728" font-family="Helvetica,sans-Serif" font-size="10.00">ICanEnable</text>
</a>
</g>
</g>
<!-- Node23&#45;&gt;Node19 -->
<g id="edge10" class="edge"><title>Node23&#45;&gt;Node19</title>
<path fill="none" stroke="midnightblue" d="M215.712,-135.485C230.012,-116.443 255.644,-87.3069 286,-75.2285 356.627,-47.1268 449.172,-70.5806 491.323,-84.183"/>
<polygon fill="midnightblue" stroke="midnightblue" points="212.821,-133.51 209.797,-143.664 218.493,-137.612 212.821,-133.51"/>
</g>
<!-- Node26 -->
<g id="node14" class="node"><title>Node26</title>
<g id="a_node14"><a xlink:href="class_holo_gen_1_1_hierarchy_1_1_hierarchy_1_1_hierarchy_folder.html" target="_top" xlink:title="Folder hierarchy element. Extends HierarchyElement and extends it to split the ReflectiveChildrenElem...">
<polygon fill="white" stroke="black" points="1042,-124.228 1042,-154.228 1188,-154.228 1188,-124.228 1042,-124.228"/>
<text text-anchor="start" x="1050" y="-142.228" font-family="Helvetica,sans-Serif" font-size="10.00">HoloGen.Hierarchy.Hierarchy.</text>
<text text-anchor="middle" x="1115" y="-131.228" font-family="Helvetica,sans-Serif" font-size="10.00">HierarchyFolder</text>
</a>
</g>
</g>
<!-- Node23&#45;&gt;Node26 -->
<g id="edge29" class="edge"><title>Node23&#45;&gt;Node26</title>
<path fill="none" stroke="midnightblue" d="M212.041,-133.954C230.226,-96.2156 276.6,-16.2285 343,-16.2285 343,-16.2285 343,-16.2285 934.5,-16.2285 972.278,-16.2285 1060.59,-91.3017 1097.41,-124.146"/>
<polygon fill="midnightblue" stroke="midnightblue" points="208.703,-132.832 207.667,-143.376 215.052,-135.78 208.703,-132.832"/>
</g>
<!-- Node23&#45;&gt;Node31 -->
<g id="edge28" class="edge"><title>Node23&#45;&gt;Node31</title>
<path fill="none" stroke="midnightblue" d="M215.675,-171.339C229.941,-190.832 255.544,-220.838 286,-234.228 341,-258.409 362.738,-255.898 421,-241.228 451.931,-233.441 483.779,-213.141 501.008,-200.935"/>
<polygon fill="midnightblue" stroke="midnightblue" points="218.4,-169.13 209.776,-162.976 212.68,-173.165 218.4,-169.13"/>
</g>
<!-- Node32 -->
<g id="node20" class="node"><title>Node32</title>
<g id="a_node20"><a xlink:href="interface_holo_gen_1_1_hierarchy_1_1_hierarchy_1_1_i_can_recursively_enable.html" target="_top" xlink:title="Interface implemented by any classes that can be enabled Enabled and have children that can be Enable...">
<polygon fill="white" stroke="black" points="286,-281.728 286,-300.728 402,-300.728 402,-281.728 286,-281.728"/>
<text text-anchor="middle" x="344" y="-288.728" font-family="Helvetica,sans-Serif" font-size="10.00">ICanRecursivelyEnable</text>
</a>
</g>
</g>
<!-- Node23&#45;&gt;Node32 -->
<g id="edge27" class="edge"><title>Node23&#45;&gt;Node32</title>
<path fill="none" stroke="midnightblue" d="M209.194,-172.339C217.702,-197.657 236.124,-242.044 267,-267.228 274.72,-273.525 284.109,-278.179 293.618,-281.615"/>
<polygon fill="midnightblue" stroke="midnightblue" points="212.516,-171.235 206.147,-162.768 205.845,-173.358 212.516,-171.235"/>
</g>
<!-- Node24 -->
<g id="node12" class="node"><title>Node24</title>
<g id="a_node12"><a xlink:href="interface_holo_gen_1_1_hierarchy_1_1_hierarchy_1_1_i_can_reset.html" target="_top" xlink:title="Interface implemented by any classes that can be reset. ">
<polygon fill="white" stroke="black" points="313,-205.728 313,-224.728 375,-224.728 375,-205.728 313,-205.728"/>
<text text-anchor="middle" x="344" y="-212.728" font-family="Helvetica,sans-Serif" font-size="10.00">ICanReset</text>
</a>
</g>
</g>
<!-- Node24&#45;&gt;Node19 -->
<g id="edge12" class="edge"><title>Node24&#45;&gt;Node19</title>
<path fill="none" stroke="midnightblue" d="M384.473,-203.749C390.532,-201.32 396.571,-198.487 402,-195.228 446.623,-168.449 488.892,-121.891 506.006,-101.852"/>
<polygon fill="midnightblue" stroke="midnightblue" points="383.193,-200.49 375.021,-207.234 385.614,-207.058 383.193,-200.49"/>
</g>
<!-- Node24&#45;&gt;Node31 -->
<g id="edge25" class="edge"><title>Node24&#45;&gt;Node31</title>
<path fill="none" stroke="midnightblue" d="M384.932,-226.676C396.583,-228.627 409.321,-229.41 421,-227.228 447.89,-222.206 477.013,-209.67 495.37,-200.808"/>
<polygon fill="midnightblue" stroke="midnightblue" points="385.517,-223.224 375.027,-224.706 384.152,-230.09 385.517,-223.224"/>
</g>
<!-- Node25 -->
<g id="node13" class="node"><title>Node25</title>
<g id="a_node13"><a xlink:href="interface_holo_gen_1_1_hierarchy_1_1_option_types_1_1_i_select_option.html" target="_top" xlink:title="Base interface for the SelectOption that doesn&#39;t need a template parameter. Necessary for a number of...">
<polygon fill="white" stroke="black" points="1077.5,-47.7285 1077.5,-66.7285 1152.5,-66.7285 1152.5,-47.7285 1077.5,-47.7285"/>
<text text-anchor="middle" x="1115" y="-54.7285" font-family="Helvetica,sans-Serif" font-size="10.00">ISelectOption</text>
</a>
</g>
</g>
<!-- Node25&#45;&gt;Node15 -->
<g id="edge13" class="edge"><title>Node25&#45;&gt;Node15</title>
<path fill="none" stroke="midnightblue" d="M1162.85,-55.0063C1213.67,-54.1267 1296.46,-57.2077 1363,-81.2285 1389.49,-90.791 1415.64,-110.439 1431.91,-124.206"/>
<polygon fill="midnightblue" stroke="midnightblue" points="1162.73,-51.508 1152.81,-55.2389 1162.89,-58.5061 1162.73,-51.508"/>
</g>
<!-- Node26&#45;&gt;Node15 -->
<g id="edge15" class="edge"><title>Node26&#45;&gt;Node15</title>
<path fill="none" stroke="#9a32cd" stroke-dasharray="5,2" d="M1198.29,-139.228C1255.75,-139.228 1331.36,-139.228 1384.36,-139.228"/>
<polygon fill="#9a32cd" stroke="#9a32cd" points="1198.15,-135.729 1188.15,-139.228 1198.15,-142.729 1198.15,-135.729"/>
<text text-anchor="middle" x="1284.5" y="-142.228" font-family="Helvetica,sans-Serif" font-size="10.00"> PushLocation</text>
</g>
<!-- Node27 -->
<g id="node15" class="node"><title>Node27</title>
<g id="a_node15"><a xlink:href="class_holo_gen_1_1_hierarchy_1_1_hierarchy_1_1_hierarchy_element.html" target="_top" xlink:title="HierarchyElement\&lt; IOption \&gt;">
<polygon fill="white" stroke="black" points="862,-174.728 862,-193.728 1005,-193.728 1005,-174.728 862,-174.728"/>
<text text-anchor="middle" x="933.5" y="-181.728" font-family="Helvetica,sans-Serif" font-size="10.00">HierarchyElement&lt; IOption &gt;</text>
</a>
</g>
</g>
<!-- Node27&#45;&gt;Node26 -->
<g id="edge16" class="edge"><title>Node27&#45;&gt;Node26</title>
<path fill="none" stroke="midnightblue" d="M982.357,-172.231C1004.39,-166.708 1030.76,-160.098 1054.09,-154.248"/>
<polygon fill="midnightblue" stroke="midnightblue" points="981.416,-168.858 972.567,-174.685 983.118,-175.648 981.416,-168.858"/>
</g>
<!-- Node38 -->
<g id="node26" class="node"><title>Node38</title>
<g id="a_node26"><a xlink:href="class_holo_gen_1_1_hierarchy_1_1_hierarchy_1_1_option_collection.html" target="_top" xlink:title="Option collection. Extends HierarchyElement. The base class ReflectiveChildrenElement finds all membe...">
<polygon fill="white" stroke="black" points="1071,-174.728 1071,-193.728 1159,-193.728 1159,-174.728 1071,-174.728"/>
<text text-anchor="middle" x="1115" y="-181.728" font-family="Helvetica,sans-Serif" font-size="10.00">OptionCollection</text>
</a>
</g>
</g>
<!-- Node27&#45;&gt;Node38 -->
<g id="edge37" class="edge"><title>Node27&#45;&gt;Node38</title>
<path fill="none" stroke="midnightblue" d="M1015.41,-184.228C1034.51,-184.228 1054.15,-184.228 1070.83,-184.228"/>
<polygon fill="midnightblue" stroke="midnightblue" points="1015.19,-180.729 1005.19,-184.228 1015.19,-187.729 1015.19,-180.729"/>
</g>
<!-- Node28 -->
<g id="node16" class="node"><title>Node28</title>
<g id="a_node16"><a xlink:href="class_holo_gen_1_1_hierarchy_1_1_hierarchy_1_1_hierarchy_element.html" target="_top" xlink:title="Root hierarchy element. Defines Name and ToolTip fields that must be implemented by any implementors...">
<polygon fill="white" stroke="black" points="628,-173.228 628,-203.228 774,-203.228 774,-173.228 628,-173.228"/>
<text text-anchor="start" x="636" y="-191.228" font-family="Helvetica,sans-Serif" font-size="10.00">HoloGen.Hierarchy.Hierarchy.</text>
<text text-anchor="middle" x="701" y="-180.228" font-family="Helvetica,sans-Serif" font-size="10.00">HierarchyElement&lt; T &gt;</text>
</a>
</g>
</g>
<!-- Node28&#45;&gt;Node27 -->
<g id="edge17" class="edge"><title>Node28&#45;&gt;Node27</title>
<path fill="none" stroke="orange" stroke-dasharray="5,2" d="M784.577,-186.795C809.791,-186.358 837.279,-185.881 861.642,-185.458"/>
<polygon fill="orange" stroke="orange" points="784.237,-183.301 774.299,-186.974 784.358,-190.3 784.237,-183.301"/>
<text text-anchor="middle" x="818" y="-190.228" font-family="Helvetica,sans-Serif" font-size="10.00"> &lt; IOption &gt;</text>
</g>
<!-- Node29 -->
<g id="node17" class="node"><title>Node29</title>
<g id="a_node17"><a xlink:href="class_holo_gen_1_1_hierarchy_1_1_hierarchy_1_1_reflective_children_element.html" target="_top" xlink:title="Reflective hierarchy element template T . The constructor finds all members assignable from T &#160;and us...">
<polygon fill="white" stroke="black" points="439,-261.728 439,-280.728 591,-280.728 591,-261.728 439,-261.728"/>
<text text-anchor="middle" x="515" y="-268.728" font-family="Helvetica,sans-Serif" font-size="10.00">ReflectiveChildrenElement&lt; T &gt;</text>
</a>
</g>
</g>
<!-- Node29&#45;&gt;Node28 -->
<g id="edge18" class="edge"><title>Node29&#45;&gt;Node28</title>
<path fill="none" stroke="midnightblue" d="M541.572,-256.644C563.949,-244.209 597.548,-226.32 628,-213.228 636.145,-209.727 644.958,-206.346 653.532,-203.262"/>
<polygon fill="midnightblue" stroke="midnightblue" points="539.723,-253.668 532.71,-261.61 543.145,-259.774 539.723,-253.668"/>
</g>
<!-- Node35 -->
<g id="node23" class="node"><title>Node35</title>
<g id="a_node23"><a xlink:href="class_holo_gen_1_1_hierarchy_1_1_hierarchy_1_1_possibility_collection.html" target="_top" xlink:title="Collection of Possibilitys. Is wrapped by a SelectOption. Extends ReflectiveChildrenElement. The base class ReflectiveChildrenElement finds all members assignable from T &#160;and uses them to populate the ReflectiveChildrenElement.Children member collection. ">
<polygon fill="white" stroke="black" points="1042,-256.228 1042,-286.228 1188,-286.228 1188,-256.228 1042,-256.228"/>
<text text-anchor="start" x="1050" y="-274.228" font-family="Helvetica,sans-Serif" font-size="10.00">HoloGen.Hierarchy.Hierarchy.</text>
<text text-anchor="middle" x="1115" y="-263.228" font-family="Helvetica,sans-Serif" font-size="10.00">PossibilityCollection&lt; T &gt;</text>
</a>
</g>
</g>
<!-- Node29&#45;&gt;Node35 -->
<g id="edge33" class="edge"><title>Node29&#45;&gt;Node35</title>
<path fill="none" stroke="midnightblue" d="M601.227,-271.228C719.469,-271.228 931.201,-271.228 1041.97,-271.228"/>
<polygon fill="midnightblue" stroke="midnightblue" points="601.132,-267.729 591.132,-271.228 601.132,-274.729 601.132,-267.729"/>
</g>
<!-- Node30&#45;&gt;Node29 -->
<g id="edge19" class="edge"><title>Node30&#45;&gt;Node29</title>
<path fill="none" stroke="midnightblue" d="M386.188,-316.59C397.505,-313.017 409.755,-309.057 421,-305.228 444.108,-297.36 470.195,-287.76 488.846,-280.77"/>
<polygon fill="midnightblue" stroke="midnightblue" points="385.028,-313.286 376.533,-319.617 387.122,-319.965 385.028,-313.286"/>
</g>
<!-- Node31&#45;&gt;Node28 -->
<g id="edge21" class="edge"><title>Node31&#45;&gt;Node28</title>
<path fill="none" stroke="midnightblue" d="M573.777,-190.286C590.891,-190.007 609.848,-189.698 627.757,-189.406"/>
<polygon fill="midnightblue" stroke="midnightblue" points="573.326,-186.793 563.385,-190.456 573.44,-193.792 573.326,-186.793"/>
</g>
<!-- Node32&#45;&gt;Node31 -->
<g id="edge26" class="edge"><title>Node32&#45;&gt;Node31</title>
<path fill="none" stroke="midnightblue" d="M411.559,-282.2C414.849,-280.763 418.019,-279.116 421,-277.228 432.568,-269.904 429.607,-262.19 439,-252.228 458.228,-231.835 484.286,-212.09 500.08,-200.826"/>
<polygon fill="midnightblue" stroke="midnightblue" points="410.202,-278.97 402.032,-285.716 412.625,-285.537 410.202,-278.97"/>
</g>
<!-- Node33 -->
<g id="node21" class="node"><title>Node33</title>
<g id="a_node21"><a xlink:href="class_holo_gen_1_1_process_1_1_options_1_1_process_view_possibilities.html" target="_top" xlink:title="Possibilities for viewing the process. ">
<polygon fill="white" stroke="black" points="1760,-222.228 1760,-252.228 1893,-252.228 1893,-222.228 1760,-222.228"/>
<text text-anchor="start" x="1768" y="-240.228" font-family="Helvetica,sans-Serif" font-size="10.00">HoloGen.Process.Options.</text>
<text text-anchor="middle" x="1826.5" y="-229.228" font-family="Helvetica,sans-Serif" font-size="10.00">ProcessViewPossibilities</text>
</a>
</g>
</g>
<!-- Node33&#45;&gt;Node13 -->
<g id="edge30" class="edge"><title>Node33&#45;&gt;Node13</title>
<path fill="none" stroke="#9a32cd" stroke-dasharray="5,2" d="M1903.14,-228.715C1932.08,-225.458 1964.82,-221.773 1992.76,-218.628"/>
<polygon fill="#9a32cd" stroke="#9a32cd" points="1902.62,-225.251 1893.08,-229.847 1903.41,-232.207 1902.62,-225.251"/>
<text text-anchor="middle" x="1944.5" y="-231.228" font-family="Helvetica,sans-Serif" font-size="10.00"> Possibilities2</text>
</g>
<!-- Node34 -->
<g id="node22" class="node"><title>Node34</title>
<g id="a_node22"><a xlink:href="class_holo_gen_1_1_hierarchy_1_1_hierarchy_1_1_possibility_collection.html" target="_top" xlink:title="PossibilityCollection\l\&lt; ProcessViewPossibility \&gt;">
<polygon fill="white" stroke="black" points="1381,-228.228 1381,-258.228 1518,-258.228 1518,-228.228 1381,-228.228"/>
<text text-anchor="start" x="1389" y="-246.228" font-family="Helvetica,sans-Serif" font-size="10.00">PossibilityCollection</text>
<text text-anchor="middle" x="1449.5" y="-235.228" font-family="Helvetica,sans-Serif" font-size="10.00">&lt; ProcessViewPossibility &gt;</text>
</a>
</g>
</g>
<!-- Node34&#45;&gt;Node33 -->
<g id="edge31" class="edge"><title>Node34&#45;&gt;Node33</title>
<path fill="none" stroke="midnightblue" d="M1528.71,-241.977C1597.19,-240.881 1695.56,-239.308 1759.98,-238.277"/>
<polygon fill="midnightblue" stroke="midnightblue" points="1528.35,-238.482 1518.41,-242.142 1528.46,-245.481 1528.35,-238.482"/>
</g>
<!-- Node35&#45;&gt;Node34 -->
<g id="edge32" class="edge"><title>Node35&#45;&gt;Node34</title>
<path fill="none" stroke="orange" stroke-dasharray="5,2" d="M1198.26,-257.138C1200.86,-256.813 1203.45,-256.508 1206,-256.228 1264.88,-249.764 1332.18,-246.479 1380.91,-244.832"/>
<polygon fill="orange" stroke="orange" points="1197.57,-253.698 1188.11,-258.482 1198.49,-260.638 1197.57,-253.698"/>
<text text-anchor="middle" x="1284.5" y="-259.228" font-family="Helvetica,sans-Serif" font-size="10.00"> &lt; ProcessViewPossibility &gt;</text>
</g>
<!-- Node39 -->
<g id="node27" class="node"><title>Node39</title>
<g id="a_node27"><a xlink:href="class_holo_gen_1_1_hierarchy_1_1_hierarchy_1_1_possibility_collection.html" target="_top" xlink:title="HoloGen.Hierarchy.Hierarchy.\lPossibilityCollection\&lt; HoloGen.\lProcess.Options.ProcessViewPossibility \&gt;">
<polygon fill="white" stroke="black" points="1536,-268.728 1536,-309.728 1739,-309.728 1739,-268.728 1536,-268.728"/>
<text text-anchor="start" x="1544" y="-297.728" font-family="Helvetica,sans-Serif" font-size="10.00">HoloGen.Hierarchy.Hierarchy.</text>
<text text-anchor="start" x="1544" y="-286.728" font-family="Helvetica,sans-Serif" font-size="10.00">PossibilityCollection&lt; HoloGen.</text>
<text text-anchor="middle" x="1637.5" y="-275.728" font-family="Helvetica,sans-Serif" font-size="10.00">Process.Options.ProcessViewPossibility &gt;</text>
</a>
</g>
</g>
<!-- Node35&#45;&gt;Node39 -->
<g id="edge39" class="edge"><title>Node35&#45;&gt;Node39</title>
<path fill="none" stroke="orange" stroke-dasharray="5,2" d="M1198.14,-274.069C1289.54,-277.23 1437.28,-282.339 1535.63,-285.74"/>
<polygon fill="orange" stroke="orange" points="1198.21,-270.57 1188.1,-273.722 1197.97,-277.565 1198.21,-270.57"/>
<text text-anchor="start" x="1206" y="-294.228" font-family="Helvetica,sans-Serif" font-size="10.00"> &lt; HoloGen::Process</text>
<text text-anchor="middle" x="1284.5" y="-283.228" font-family="Helvetica,sans-Serif" font-size="10.00">::Options::ProcessViewPossibility &gt;</text>
</g>
<!-- Node36 -->
<g id="node24" class="node"><title>Node36</title>
<g id="a_node24"><a xlink:href="class_holo_gen_1_1_process_1_1_options_1_1_process_view_possibility.html" target="_top" xlink:title="Base level possibility for the process viewing style. ">
<polygon fill="white" stroke="black" points="1760,-173.228 1760,-203.228 1893,-203.228 1893,-173.228 1760,-173.228"/>
<text text-anchor="start" x="1768" y="-191.228" font-family="Helvetica,sans-Serif" font-size="10.00">HoloGen.Process.Options.</text>
<text text-anchor="middle" x="1826.5" y="-180.228" font-family="Helvetica,sans-Serif" font-size="10.00">ProcessViewPossibility</text>
</a>
</g>
</g>
<!-- Node36&#45;&gt;Node13 -->
<g id="edge34" class="edge"><title>Node36&#45;&gt;Node13</title>
<path fill="none" stroke="#9a32cd" stroke-dasharray="5,2" d="M1903.41,-191.328C1926.44,-192.681 1951.8,-194.583 1975,-197.228 1980.84,-197.895 1986.9,-198.694 1992.96,-199.57"/>
<polygon fill="#9a32cd" stroke="#9a32cd" points="1903.53,-187.829 1893.34,-190.763 1903.13,-194.818 1903.53,-187.829"/>
<text text-anchor="middle" x="1944.5" y="-200.228" font-family="Helvetica,sans-Serif" font-size="10.00"> Default</text>
</g>
<!-- Node37 -->
<g id="node25" class="node"><title>Node37</title>
<g id="a_node25"><a xlink:href="class_holo_gen_1_1_hierarchy_1_1_option_types_1_1_possibility.html" target="_top" xlink:title="Possibility for a PossibilityCollection wrapped by a SelectOption. Extends OptionCollection. The base class ReflectiveChildrenElement finds all members assignable from T &#160;and uses them to populate the ReflectiveChildrenElement.Children member collection. ">
<polygon fill="white" stroke="black" points="1418.5,-177.728 1418.5,-196.728 1480.5,-196.728 1480.5,-177.728 1418.5,-177.728"/>
<text text-anchor="middle" x="1449.5" y="-184.728" font-family="Helvetica,sans-Serif" font-size="10.00">Possibility</text>
</a>
</g>
</g>
<!-- Node37&#45;&gt;Node36 -->
<g id="edge35" class="edge"><title>Node37&#45;&gt;Node36</title>
<path fill="none" stroke="midnightblue" d="M1490.72,-187.336C1555.16,-187.508 1682.19,-187.846 1759.91,-188.054"/>
<polygon fill="midnightblue" stroke="midnightblue" points="1490.56,-183.835 1480.55,-187.309 1490.54,-190.835 1490.56,-183.835"/>
</g>
<!-- Node38&#45;&gt;Node37 -->
<g id="edge36" class="edge"><title>Node38&#45;&gt;Node37</title>
<path fill="none" stroke="midnightblue" d="M1169.14,-184.708C1239.65,-185.344 1361.79,-186.446 1418.26,-186.956"/>
<polygon fill="midnightblue" stroke="midnightblue" points="1169.16,-181.208 1159.13,-184.618 1169.1,-188.208 1169.16,-181.208"/>
</g>
<!-- Node39&#45;&gt;Node13 -->
<g id="edge38" class="edge"><title>Node39&#45;&gt;Node13</title>
<path fill="none" stroke="#9a32cd" stroke-dasharray="5,2" d="M1749.39,-282.973C1815.93,-277.041 1901.62,-265.527 1975,-243.228 1990.75,-238.444 2007.77,-232.135 2022.31,-226.385"/>
<polygon fill="#9a32cd" stroke="#9a32cd" points="1748.97,-279.497 1739.3,-283.844 1749.57,-286.472 1748.97,-279.497"/>
<text text-anchor="middle" x="1826.5" y="-285.228" font-family="Helvetica,sans-Serif" font-size="10.00"> Possibilities</text>
</g>
</g>
</svg>
        <g id="navigator" transform="translate(0 0)" fill="#404254">
                <rect fill="#f2f5e9" fill-opacity="0.5" stroke="#606060" stroke-width=".5" x="0" y="0" width="60" height="60"/>
                <use id="zoomplus" xlink:href="#zoomPlus" x="17" y="9" onmousedown="handleZoom(evt,'in')"/>
                <use id="zoomminus" xlink:href="#zoomMin" x="42" y="9" onmousedown="handleZoom(evt,'out')"/>
                <use id="reset" xlink:href="#resetDef" x="30" y="36" onmousedown="handleReset()"/>
                <g id="arrowUp" xlink:href="#dirArrow" transform="translate(30 24)" onmousedown="handlePan(0,-1)">
                  <use xlink:href="#rim" fill="#404040">
                        <set attributeName="fill" to="#808080" begin="arrowUp.mouseover" end="arrowUp.mouseout"/>
                  </use>
                  <path fill="none" stroke="white" stroke-width="1.5" d="M0,-3.0v7 M-2.5,-0.5L0,-3.0L2.5,-0.5"/>
                </g>
                <g id="arrowRight" xlink:href="#dirArrow" transform="rotate(90) translate(36 -43)" onmousedown="handlePan(1,0)">
                  <use xlink:href="#rim" fill="#404040">
                        <set attributeName="fill" to="#808080" begin="arrowRight.mouseover" end="arrowRight.mouseout"/>
                  </use>
                  <path fill="none" stroke="white" stroke-width="1.5" d="M0,-3.0v7 M-2.5,-0.5L0,-3.0L2.5,-0.5"/>
                </g>
                <g id="arrowDown" xlink:href="#dirArrow" transform="rotate(180) translate(-30 -48)" onmousedown="handlePan(0,1)">
                  <use xlink:href="#rim" fill="#404040">
                        <set attributeName="fill" to="#808080" begin="arrowDown.mouseover" end="arrowDown.mouseout"/>
                  </use>
                  <path fill="none" stroke="white" stroke-width="1.5" d="M0,-3.0v7 M-2.5,-0.5L0,-3.0L2.5,-0.5"/>
                </g>
                <g id="arrowLeft" xlink:href="#dirArrow" transform="rotate(270) translate(-36 17)" onmousedown="handlePan(-1,0)">
                  <use xlink:href="#rim" fill="#404040">
                        <set attributeName="fill" to="#808080" begin="arrowLeft.mouseover" end="arrowLeft.mouseout"/>
                  </use>
                  <path fill="none" stroke="white" stroke-width="1.5" d="M0,-3.0v7 M-2.5,-0.5L0,-3.0L2.5,-0.5"/>
                </g>
        </g>
        <svg viewBox="0 0 15 15" width="100%" height="30px" preserveAspectRatio="xMaxYMin meet">
         <g id="arrow_out" transform="scale(0.3 0.3)">
          <a xlink:href="class_holo_gen_1_1_process_1_1_options_1_1_process_view_option__coll__graph_org.svg" target="_base">
           <rect id="button" ry="5" rx="5" y="6" x="6" height="38" width="38"
                fill="#f2f5e9" fill-opacity="0.5" stroke="#606060" stroke-width="1.0"/>
           <path id="arrow"
             d="M 11.500037,31.436501 C 11.940474,20.09759 22.043105,11.32322 32.158766,21.979434 L 37.068811,17.246167 C 37.068811,17.246167 37.088388,32 37.088388,32 L 22.160133,31.978069 C 22.160133,31.978069 26.997745,27.140456 26.997745,27.140456 C 18.528582,18.264221 13.291696,25.230495 11.500037,31.436501 z"
             style="fill:#404040;"/>
          </a>
         </g>
        </svg>
</svg>
