<?xml version="1.0" encoding="UTF-8" standalone="no"?>
<!DOCTYPE svg PUBLIC "-//W3C//DTD SVG 1.1//EN"
 "http://www.w3.org/Graphics/SVG/1.1/DTD/svg11.dtd">
<!-- Generated by graphviz version 2.38.0 (20140413.2041)
 -->
<!-- Title: HoloGen.UI.Menus.ViewModels.AbstractMenuViewModel Pages: 1 -->
<!--zoomable 284 -->
<svg id="main" version="1.1" xmlns="http://www.w3.org/2000/svg" xmlns:xlink="http://www.w3.org/1999/xlink" xml:space="preserve" onload="init(evt)">
<style type="text/css"><![CDATA[
.edge:hover path { stroke: red; }
.edge:hover polygon { stroke: red; fill: red; }
]]></style>
<script type="text/javascript"><![CDATA[
var edges = document.getElementsByTagName('g');
if (edges && edges.length) {
  for (var i=0;i<edges.length;i++) {
    if (edges[i].id.substr(0,4)=='edge') {
      edges[i].setAttribute('class','edge');
    }
  }
}
]]></script>
        <defs>
                <circle id="rim" cx="0" cy="0" r="7"/>
                <circle id="rim2" cx="0" cy="0" r="3.5"/>
                <g id="zoomPlus">
                        <use xlink:href="#rim" fill="#404040">
                                <set attributeName="fill" to="#808080" begin="zoomplus.mouseover" end="zoomplus.mouseout"/>
                        </use>
                        <path d="M-4,0h8M0,-4v8" fill="none" stroke="white" stroke-width="1.5" pointer-events="none"/>
                </g>
                <g id="zoomMin">
                        <use xlink:href="#rim" fill="#404040">
                                <set attributeName="fill" to="#808080" begin="zoomminus.mouseover" end="zoomminus.mouseout"/>
                        </use>
                        <path d="M-4,0h8" fill="none" stroke="white" stroke-width="1.5" pointer-events="none"/>
                </g>
                <g id="dirArrow">
                        <path fill="none" stroke="white" stroke-width="1.5" d="M0,-3.0v7 M-2.5,-0.5L0,-3.0L2.5,-0.5"/>
                </g>
               <g id="resetDef">
                       <use xlink:href="#rim2" fill="#404040">
                               <set attributeName="fill" to="#808080" begin="reset.mouseover" end="reset.mouseout"/>
                       </use>
               </g>
        </defs>

<script type="text/javascript">
var viewWidth = 642;
var viewHeight = 284;
var sectionId = 'dynsection-0';
</script>
<script xlink:href="svgpan.js"/>
<svg id="graph" class="graph">
<g id="viewport">
<title>HoloGen.UI.Menus.ViewModels.AbstractMenuViewModel</title>
<polygon fill="white" stroke="none" points="-4,4 -4,-280 638,-280 638,4 -4,4"/>
<!-- Node0 -->
<g id="node1" class="node"><title>Node0</title>
<polygon fill="#bfbfbf" stroke="black" points="284,-122.5 284,-152.5 441,-152.5 441,-122.5 284,-122.5"/>
<text text-anchor="start" x="292" y="-140.5" font-family="Helvetica,sans-Serif" font-size="10.00">HoloGen.UI.Menus.ViewModels.</text>
<text text-anchor="middle" x="362.5" y="-129.5" font-family="Helvetica,sans-Serif" font-size="10.00">AbstractMenuViewModel</text>
</g>
<!-- Node3 -->
<g id="node4" class="node"><title>Node3</title>
<g id="a_node4"><a xlink:href="class_holo_gen_1_1_u_i_1_1_menus_1_1_view_models_1_1_accent_menu_view_model.html" target="_top" xlink:title="HoloGen menu view model ">
<polygon fill="white" stroke="black" points="477,-245.5 477,-275.5 634,-275.5 634,-245.5 477,-245.5"/>
<text text-anchor="start" x="485" y="-263.5" font-family="Helvetica,sans-Serif" font-size="10.00">HoloGen.UI.Menus.ViewModels.</text>
<text text-anchor="middle" x="555.5" y="-252.5" font-family="Helvetica,sans-Serif" font-size="10.00">AccentMenuViewModel</text>
</a>
</g>
</g>
<!-- Node0&#45;&gt;Node3 -->
<g id="edge3" class="edge"><title>Node0&#45;&gt;Node3</title>
<path fill="none" stroke="midnightblue" d="M383.95,-160.176C405.208,-182.493 440.436,-216.105 477,-236.5 483.028,-239.862 489.587,-242.816 496.254,-245.396"/>
<polygon fill="midnightblue" stroke="midnightblue" points="386.425,-157.699 377.034,-152.794 381.316,-162.484 386.425,-157.699"/>
</g>
<!-- Node4 -->
<g id="node5" class="node"><title>Node4</title>
<g id="a_node5"><a xlink:href="class_holo_gen_1_1_u_i_1_1_menus_1_1_view_models_1_1_file_menu_view_model.html" target="_top" xlink:title="HoloGen menu view model ">
<polygon fill="white" stroke="black" points="477,-196.5 477,-226.5 634,-226.5 634,-196.5 477,-196.5"/>
<text text-anchor="start" x="485" y="-214.5" font-family="Helvetica,sans-Serif" font-size="10.00">HoloGen.UI.Menus.ViewModels.</text>
<text text-anchor="middle" x="555.5" y="-203.5" font-family="Helvetica,sans-Serif" font-size="10.00">FileMenuViewModel</text>
</a>
</g>
</g>
<!-- Node0&#45;&gt;Node4 -->
<g id="edge4" class="edge"><title>Node0&#45;&gt;Node4</title>
<path fill="none" stroke="midnightblue" d="M404.496,-156.92C425.867,-166.695 452.578,-178.374 477,-187.5 485.312,-190.606 494.227,-193.637 502.944,-196.442"/>
<polygon fill="midnightblue" stroke="midnightblue" points="405.931,-153.727 395.384,-152.72 403.001,-160.085 405.931,-153.727"/>
</g>
<!-- Node5 -->
<g id="node6" class="node"><title>Node5</title>
<g id="a_node6"><a xlink:href="class_holo_gen_1_1_u_i_1_1_menus_1_1_view_models_1_1_help_menu_view_model.html" target="_top" xlink:title="HoloGen menu view model ">
<polygon fill="white" stroke="black" points="477,-147.5 477,-177.5 634,-177.5 634,-147.5 477,-147.5"/>
<text text-anchor="start" x="485" y="-165.5" font-family="Helvetica,sans-Serif" font-size="10.00">HoloGen.UI.Menus.ViewModels.</text>
<text text-anchor="middle" x="555.5" y="-154.5" font-family="Helvetica,sans-Serif" font-size="10.00">HelpMenuViewModel</text>
</a>
</g>
</g>
<!-- Node0&#45;&gt;Node5 -->
<g id="edge5" class="edge"><title>Node0&#45;&gt;Node5</title>
<path fill="none" stroke="midnightblue" d="M451.193,-148.978C459.765,-150.1 468.42,-151.233 476.882,-152.341"/>
<polygon fill="midnightblue" stroke="midnightblue" points="451.557,-145.496 441.187,-147.668 450.648,-152.437 451.557,-145.496"/>
</g>
<!-- Node6 -->
<g id="node7" class="node"><title>Node6</title>
<g id="a_node7"><a xlink:href="class_holo_gen_1_1_u_i_1_1_menus_1_1_view_models_1_1_menu_view_model.html" target="_top" xlink:title="HoloGen menu view model ">
<polygon fill="white" stroke="black" points="477,-98.5 477,-128.5 634,-128.5 634,-98.5 477,-98.5"/>
<text text-anchor="start" x="485" y="-116.5" font-family="Helvetica,sans-Serif" font-size="10.00">HoloGen.UI.Menus.ViewModels.</text>
<text text-anchor="middle" x="555.5" y="-105.5" font-family="Helvetica,sans-Serif" font-size="10.00">MenuViewModel</text>
</a>
</g>
</g>
<!-- Node0&#45;&gt;Node6 -->
<g id="edge6" class="edge"><title>Node0&#45;&gt;Node6</title>
<path fill="none" stroke="midnightblue" d="M451.193,-126.481C459.765,-125.404 468.42,-124.316 476.882,-123.253"/>
<polygon fill="midnightblue" stroke="midnightblue" points="450.673,-123.019 441.187,-127.738 451.545,-129.964 450.673,-123.019"/>
</g>
<!-- Node7 -->
<g id="node8" class="node"><title>Node7</title>
<g id="a_node8"><a xlink:href="class_holo_gen_1_1_u_i_1_1_menus_1_1_view_models_1_1_settings_menu_view_model.html" target="_top" xlink:title="HoloGen menu view model ">
<polygon fill="white" stroke="black" points="477,-49.5 477,-79.5 634,-79.5 634,-49.5 477,-49.5"/>
<text text-anchor="start" x="485" y="-67.5" font-family="Helvetica,sans-Serif" font-size="10.00">HoloGen.UI.Menus.ViewModels.</text>
<text text-anchor="middle" x="555.5" y="-56.5" font-family="Helvetica,sans-Serif" font-size="10.00">SettingsMenuViewModel</text>
</a>
</g>
</g>
<!-- Node0&#45;&gt;Node7 -->
<g id="edge7" class="edge"><title>Node0&#45;&gt;Node7</title>
<path fill="none" stroke="midnightblue" d="M405.283,-118.186C426.537,-108.689 452.907,-97.402 477,-88.5 485.324,-85.4245 494.244,-82.4092 502.964,-79.6108"/>
<polygon fill="midnightblue" stroke="midnightblue" points="403.586,-115.111 395.905,-122.408 406.46,-121.494 403.586,-115.111"/>
</g>
<!-- Node8 -->
<g id="node9" class="node"><title>Node8</title>
<g id="a_node9"><a xlink:href="class_holo_gen_1_1_u_i_1_1_menus_1_1_view_models_1_1_theme_menu_view_model.html" target="_top" xlink:title="HoloGen menu view model ">
<polygon fill="white" stroke="black" points="477,-0.5 477,-30.5 634,-30.5 634,-0.5 477,-0.5"/>
<text text-anchor="start" x="485" y="-18.5" font-family="Helvetica,sans-Serif" font-size="10.00">HoloGen.UI.Menus.ViewModels.</text>
<text text-anchor="middle" x="555.5" y="-7.5" font-family="Helvetica,sans-Serif" font-size="10.00">ThemeMenuViewModel</text>
</a>
</g>
</g>
<!-- Node0&#45;&gt;Node8 -->
<g id="edge8" class="edge"><title>Node0&#45;&gt;Node8</title>
<path fill="none" stroke="midnightblue" d="M383.995,-115.064C405.289,-92.9808 440.544,-59.7143 477,-39.5 483.036,-36.1532 489.601,-33.2083 496.27,-30.634"/>
<polygon fill="midnightblue" stroke="midnightblue" points="381.409,-112.705 377.067,-122.369 386.488,-117.522 381.409,-112.705"/>
</g>
<!-- Node1 -->
<g id="node2" class="node"><title>Node1</title>
<g id="a_node2"><a xlink:href="class_holo_gen_1_1_utils_1_1_observable_object.html" target="_top" xlink:title="Observable object with INotifyPropertyChanged implemented ">
<polygon fill="white" stroke="black" points="155,-128 155,-147 248,-147 248,-128 155,-128"/>
<text text-anchor="middle" x="201.5" y="-135" font-family="Helvetica,sans-Serif" font-size="10.00">ObservableObject</text>
</a>
</g>
</g>
<!-- Node1&#45;&gt;Node0 -->
<g id="edge1" class="edge"><title>Node1&#45;&gt;Node0</title>
<path fill="none" stroke="midnightblue" d="M258.296,-137.5C266.557,-137.5 275.194,-137.5 283.803,-137.5"/>
<polygon fill="midnightblue" stroke="midnightblue" points="258.063,-134 248.063,-137.5 258.063,-141 258.063,-134"/>
</g>
<!-- Node2 -->
<g id="node3" class="node"><title>Node2</title>
<polygon fill="white" stroke="#bfbfbf" points="0,-128 0,-147 119,-147 119,-128 0,-128"/>
<text text-anchor="middle" x="59.5" y="-135" font-family="Helvetica,sans-Serif" font-size="10.00">INotifyPropertyChanged</text>
</g>
<!-- Node2&#45;&gt;Node1 -->
<g id="edge2" class="edge"><title>Node2&#45;&gt;Node1</title>
<path fill="none" stroke="midnightblue" d="M129.254,-137.5C137.973,-137.5 146.719,-137.5 154.949,-137.5"/>
<polygon fill="midnightblue" stroke="midnightblue" points="129.061,-134 119.061,-137.5 129.061,-141 129.061,-134"/>
</g>
</g>
</svg>
        <g id="navigator" transform="translate(0 0)" fill="#404254">
                <rect fill="#f2f5e9" fill-opacity="0.5" stroke="#606060" stroke-width=".5" x="0" y="0" width="60" height="60"/>
                <use id="zoomplus" xlink:href="#zoomPlus" x="17" y="9" onmousedown="handleZoom(evt,'in')"/>
                <use id="zoomminus" xlink:href="#zoomMin" x="42" y="9" onmousedown="handleZoom(evt,'out')"/>
                <use id="reset" xlink:href="#resetDef" x="30" y="36" onmousedown="handleReset()"/>
                <g id="arrowUp" xlink:href="#dirArrow" transform="translate(30 24)" onmousedown="handlePan(0,-1)">
                  <use xlink:href="#rim" fill="#404040">
                        <set attributeName="fill" to="#808080" begin="arrowUp.mouseover" end="arrowUp.mouseout"/>
                  </use>
                  <path fill="none" stroke="white" stroke-width="1.5" d="M0,-3.0v7 M-2.5,-0.5L0,-3.0L2.5,-0.5"/>
                </g>
                <g id="arrowRight" xlink:href="#dirArrow" transform="rotate(90) translate(36 -43)" onmousedown="handlePan(1,0)">
                  <use xlink:href="#rim" fill="#404040">
                        <set attributeName="fill" to="#808080" begin="arrowRight.mouseover" end="arrowRight.mouseout"/>
                  </use>
                  <path fill="none" stroke="white" stroke-width="1.5" d="M0,-3.0v7 M-2.5,-0.5L0,-3.0L2.5,-0.5"/>
                </g>
                <g id="arrowDown" xlink:href="#dirArrow" transform="rotate(180) translate(-30 -48)" onmousedown="handlePan(0,1)">
                  <use xlink:href="#rim" fill="#404040">
                        <set attributeName="fill" to="#808080" begin="arrowDown.mouseover" end="arrowDown.mouseout"/>
                  </use>
                  <path fill="none" stroke="white" stroke-width="1.5" d="M0,-3.0v7 M-2.5,-0.5L0,-3.0L2.5,-0.5"/>
                </g>
                <g id="arrowLeft" xlink:href="#dirArrow" transform="rotate(270) translate(-36 17)" onmousedown="handlePan(-1,0)">
                  <use xlink:href="#rim" fill="#404040">
                        <set attributeName="fill" to="#808080" begin="arrowLeft.mouseover" end="arrowLeft.mouseout"/>
                  </use>
                  <path fill="none" stroke="white" stroke-width="1.5" d="M0,-3.0v7 M-2.5,-0.5L0,-3.0L2.5,-0.5"/>
                </g>
        </g>
        <svg viewBox="0 0 15 15" width="100%" height="30px" preserveAspectRatio="xMaxYMin meet">
         <g id="arrow_out" transform="scale(0.3 0.3)">
          <a xlink:href="class_holo_gen_1_1_u_i_1_1_menus_1_1_view_models_1_1_abstract_menu_view_model__inherit__graph_org.svg" target="_base">
           <rect id="button" ry="5" rx="5" y="6" x="6" height="38" width="38"
                fill="#f2f5e9" fill-opacity="0.5" stroke="#606060" stroke-width="1.0"/>
           <path id="arrow"
             d="M 11.500037,31.436501 C 11.940474,20.09759 22.043105,11.32322 32.158766,21.979434 L 37.068811,17.246167 C 37.068811,17.246167 37.088388,32 37.088388,32 L 22.160133,31.978069 C 22.160133,31.978069 26.997745,27.140456 26.997745,27.140456 C 18.528582,18.264221 13.291696,25.230495 11.500037,31.436501 z"
             style="fill:#404040;"/>
          </a>
         </g>
        </svg>
</svg>
