<?xml version="1.0" encoding="UTF-8" standalone="no"?>
<!DOCTYPE svg PUBLIC "-//W3C//DTD SVG 1.1//EN"
 "http://www.w3.org/Graphics/SVG/1.1/DTD/svg11.dtd">
<!-- Generated by graphviz version 2.38.0 (20140413.2041)
 -->
<!-- Title: HoloGen.Serial.JsonSerialiser&lt; S, T &gt; Pages: 1 -->
<svg width="154pt" height="95pt"
 viewBox="0.00 0.00 154.00 95.00" xmlns="http://www.w3.org/2000/svg" xmlns:xlink="http://www.w3.org/1999/xlink">
<g id="graph0" class="graph" transform="scale(1 1) rotate(0) translate(4 91)">
<title>HoloGen.Serial.JsonSerialiser&lt; S, T &gt;</title>
<polygon fill="white" stroke="none" points="-4,4 -4,-91 150,-91 150,4 -4,4"/>
<!-- Node8 -->
<g id="node1" class="node"><title>Node8</title>
<polygon fill="#bfbfbf" stroke="black" points="0,-0.5 0,-30.5 146,-30.5 146,-0.5 0,-0.5"/>
<text text-anchor="start" x="8" y="-18.5" font-family="Helvetica,sans-Serif" font-size="10.00">HoloGen.Serial.JsonSerialiser</text>
<text text-anchor="middle" x="73" y="-7.5" font-family="Helvetica,sans-Serif" font-size="10.00">&lt; S, T &gt;</text>
</g>
<!-- Node9 -->
<g id="node2" class="node"><title>Node9</title>
<g id="a_node2"><a xlink:href="class_holo_gen_1_1_serial_1_1_serialiser.html" target="_top" xlink:title="Abstract serialiser class ">
<polygon fill="white" stroke="black" points="26.5,-67.5 26.5,-86.5 119.5,-86.5 119.5,-67.5 26.5,-67.5"/>
<text text-anchor="middle" x="73" y="-74.5" font-family="Helvetica,sans-Serif" font-size="10.00">Serialiser&lt; S, T &gt;</text>
</a>
</g>
</g>
<!-- Node9&#45;&gt;Node8 -->
<g id="edge1" class="edge"><title>Node9&#45;&gt;Node8</title>
<path fill="none" stroke="midnightblue" d="M73,-57.2349C73,-48.5864 73,-38.4969 73,-30.523"/>
<polygon fill="midnightblue" stroke="midnightblue" points="69.5001,-57.4751 73,-67.4751 76.5001,-57.4751 69.5001,-57.4751"/>
</g>
</g>
</svg>
