<?xml version="1.0" encoding="UTF-8" standalone="no"?>
<!DOCTYPE svg PUBLIC "-//W3C//DTD SVG 1.1//EN"
 "http://www.w3.org/Graphics/SVG/1.1/DTD/svg11.dtd">
<!-- Generated by graphviz version 2.38.0 (20140413.2041)
 -->
<!-- Title: HoloGen.Options.Algorithm.Algorithms.Variants.SA.SAVariantOption Pages: 1 -->
<svg width="2138pt" height="364pt"
 viewBox="0.00 0.00 2138.00 364.23" xmlns="http://www.w3.org/2000/svg" xmlns:xlink="http://www.w3.org/1999/xlink">
<g id="graph0" class="graph" transform="scale(1 1) rotate(0) translate(4 360.234)">
<title>HoloGen.Options.Algorithm.Algorithms.Variants.SA.SAVariantOption</title>
<polygon fill="white" stroke="none" points="-4,4 -4,-360.234 2134,-360.234 2134,4 -4,4"/>
<!-- Node14 -->
<g id="node1" class="node"><title>Node14</title>
<polygon fill="#bfbfbf" stroke="black" points="1964,-213.728 1964,-254.728 2130,-254.728 2130,-213.728 1964,-213.728"/>
<text text-anchor="start" x="1972" y="-242.728" font-family="Helvetica,sans-Serif" font-size="10.00">HoloGen.Options.Algorithm.</text>
<text text-anchor="start" x="1972" y="-231.728" font-family="Helvetica,sans-Serif" font-size="10.00">Algorithms.Variants.SA.SAVariant</text>
<text text-anchor="middle" x="2047" y="-220.728" font-family="Helvetica,sans-Serif" font-size="10.00">Option</text>
</g>
<!-- Node15 -->
<g id="node2" class="node"><title>Node15</title>
<g id="a_node2"><a xlink:href="class_holo_gen_1_1_hierarchy_1_1_option_types_1_1_select_option.html" target="_top" xlink:title="SelectOption\&lt; SAVariantPossibility \&gt;">
<polygon fill="white" stroke="black" points="1664,-128.728 1664,-147.728 1844,-147.728 1844,-128.728 1664,-128.728"/>
<text text-anchor="middle" x="1754" y="-135.728" font-family="Helvetica,sans-Serif" font-size="10.00">SelectOption&lt; SAVariantPossibility &gt;</text>
</a>
</g>
</g>
<!-- Node15&#45;&gt;Node14 -->
<g id="edge1" class="edge"><title>Node15&#45;&gt;Node14</title>
<path fill="none" stroke="midnightblue" d="M1819.01,-149.852C1829.11,-152.062 1839.38,-154.536 1849,-157.228 1902.57,-172.221 1961.73,-196.436 2001.1,-213.706"/>
<polygon fill="midnightblue" stroke="midnightblue" points="1819.52,-146.382 1809.01,-147.732 1818.07,-153.23 1819.52,-146.382"/>
</g>
<!-- Node16 -->
<g id="node3" class="node"><title>Node16</title>
<g id="a_node3"><a xlink:href="class_holo_gen_1_1_hierarchy_1_1_option_types_1_1_select_option.html" target="_top" xlink:title="Extends Option wrapping a multiple&#45;choice PossibilityCollection. Due to the limits of the C# reflecti...">
<polygon fill="white" stroke="black" points="1335,-123.228 1335,-153.228 1465,-153.228 1465,-123.228 1335,-123.228"/>
<text text-anchor="start" x="1343" y="-141.228" font-family="Helvetica,sans-Serif" font-size="10.00">HoloGen.Hierarchy.Option</text>
<text text-anchor="middle" x="1400" y="-130.228" font-family="Helvetica,sans-Serif" font-size="10.00">Types.SelectOption&lt; T &gt;</text>
</a>
</g>
</g>
<!-- Node16&#45;&gt;Node15 -->
<g id="edge2" class="edge"><title>Node16&#45;&gt;Node15</title>
<path fill="none" stroke="orange" stroke-dasharray="5,2" d="M1475.18,-138.228C1530.21,-138.228 1605.48,-138.228 1663.79,-138.228"/>
<polygon fill="orange" stroke="orange" points="1475.15,-134.729 1465.15,-138.228 1475.15,-141.729 1475.15,-134.729"/>
<text text-anchor="middle" x="1562" y="-141.228" font-family="Helvetica,sans-Serif" font-size="10.00"> &lt; SAVariantPossibility &gt;</text>
</g>
<!-- Node17 -->
<g id="node4" class="node"><title>Node17</title>
<g id="a_node4"><a xlink:href="class_holo_gen_1_1_hierarchy_1_1_option_types_1_1_option.html" target="_top" xlink:title="Root hierarchy element. Defines Name and ToolTip fields that must be implemented by any implementors...">
<polygon fill="white" stroke="black" points="667,-218.728 667,-237.728 735,-237.728 735,-218.728 667,-218.728"/>
<text text-anchor="middle" x="701" y="-225.728" font-family="Helvetica,sans-Serif" font-size="10.00">Option&lt; T &gt;</text>
</a>
</g>
</g>
<!-- Node17&#45;&gt;Node16 -->
<g id="edge3" class="edge"><title>Node17&#45;&gt;Node16</title>
<path fill="none" stroke="midnightblue" d="M745.093,-229.203C830.368,-230.391 1026.38,-229.443 1188,-201.228 1248.82,-190.611 1316.88,-168.317 1358.83,-153.304"/>
<polygon fill="midnightblue" stroke="midnightblue" points="745.064,-225.702 735.011,-229.044 744.955,-232.701 745.064,-225.702"/>
</g>
<!-- Node18 -->
<g id="node5" class="node"><title>Node18</title>
<g id="a_node5"><a xlink:href="class_holo_gen_1_1_utils_1_1_observable_object.html" target="_top" xlink:title="Observable object with INotifyPropertyChanged implemented ">
<polygon fill="white" stroke="black" points="156,-319.728 156,-338.728 249,-338.728 249,-319.728 156,-319.728"/>
<text text-anchor="middle" x="202.5" y="-326.728" font-family="Helvetica,sans-Serif" font-size="10.00">ObservableObject</text>
</a>
</g>
</g>
<!-- Node18&#45;&gt;Node17 -->
<g id="edge4" class="edge"><title>Node18&#45;&gt;Node17</title>
<path fill="none" stroke="midnightblue" d="M246.693,-341.112C259.267,-344.043 273.094,-346.762 286,-348.228 422.083,-363.696 465.878,-359.925 591,-304.228 630.622,-286.591 670.834,-253.871 689.4,-237.733"/>
<polygon fill="midnightblue" stroke="midnightblue" points="247.462,-337.697 236.918,-338.736 245.808,-344.499 247.462,-337.697"/>
</g>
<!-- Node31 -->
<g id="node18" class="node"><title>Node31</title>
<g id="a_node18"><a xlink:href="class_holo_gen_1_1_hierarchy_1_1_hierarchy_1_1_hierarchy_saveable.html" target="_top" xlink:title="Declares that this object should be serialisable and saveable ">
<polygon fill="white" stroke="black" points="295.5,-319.728 295.5,-338.728 392.5,-338.728 392.5,-319.728 295.5,-319.728"/>
<text text-anchor="middle" x="344" y="-326.728" font-family="Helvetica,sans-Serif" font-size="10.00">HierarchySaveable</text>
</a>
</g>
</g>
<!-- Node18&#45;&gt;Node31 -->
<g id="edge20" class="edge"><title>Node18&#45;&gt;Node31</title>
<path fill="none" stroke="midnightblue" d="M259.44,-329.228C271.322,-329.228 283.762,-329.228 295.303,-329.228"/>
<polygon fill="midnightblue" stroke="midnightblue" points="259.178,-325.729 249.178,-329.228 259.177,-332.729 259.178,-325.729"/>
</g>
<!-- Node19 -->
<g id="node6" class="node"><title>Node19</title>
<polygon fill="white" stroke="#bfbfbf" points="0,-62.7285 0,-81.7285 119,-81.7285 119,-62.7285 0,-62.7285"/>
<text text-anchor="middle" x="59.5" y="-69.7285" font-family="Helvetica,sans-Serif" font-size="10.00">INotifyPropertyChanged</text>
</g>
<!-- Node19&#45;&gt;Node18 -->
<g id="edge5" class="edge"><title>Node19&#45;&gt;Node18</title>
<path fill="none" stroke="midnightblue" d="M70.7535,-90.9175C98.6434,-141.752 175.191,-281.276 196.139,-319.458"/>
<polygon fill="midnightblue" stroke="midnightblue" points="73.7338,-89.073 65.8552,-81.9893 67.5967,-92.4401 73.7338,-89.073"/>
</g>
<!-- Node20 -->
<g id="node7" class="node"><title>Node20</title>
<g id="a_node7"><a xlink:href="interface_holo_gen_1_1_hierarchy_1_1_option_types_1_1_i_option.html" target="_top" xlink:title="Base interface for the Option that doesn&#39;t need a template parameter. Necessary for a number of refle...">
<polygon fill="white" stroke="black" points="491.5,-82.7285 491.5,-101.728 538.5,-101.728 538.5,-82.7285 491.5,-82.7285"/>
<text text-anchor="middle" x="515" y="-89.7285" font-family="Helvetica,sans-Serif" font-size="10.00">IOption</text>
</a>
</g>
</g>
<!-- Node19&#45;&gt;Node20 -->
<g id="edge11" class="edge"><title>Node19&#45;&gt;Node20</title>
<path fill="none" stroke="midnightblue" d="M82.8083,-56.7073C120.199,-32.5341 198.287,10.1235 268,-2.22846 356.215,-17.8588 454.338,-62.7291 494.88,-82.5813"/>
<polygon fill="midnightblue" stroke="midnightblue" points="80.6085,-53.9664 74.2088,-62.4101 84.4772,-59.8002 80.6085,-53.9664"/>
</g>
<!-- Node20&#45;&gt;Node16 -->
<g id="edge14" class="edge"><title>Node20&#45;&gt;Node16</title>
<path fill="none" stroke="midnightblue" d="M548.806,-92.8C585.607,-93.3911 647.081,-94.2285 700,-94.2285 700,-94.2285 700,-94.2285 1116,-94.2285 1193.32,-94.2285 1281.12,-110.463 1338.15,-123.209"/>
<polygon fill="midnightblue" stroke="midnightblue" points="548.717,-89.2982 538.661,-92.6332 548.602,-96.2972 548.717,-89.2982"/>
</g>
<!-- Node20&#45;&gt;Node17 -->
<g id="edge6" class="edge"><title>Node20&#45;&gt;Node17</title>
<path fill="none" stroke="midnightblue" d="M532.06,-109.329C561.628,-140.747 622.204,-204.778 628,-208.228 639.816,-215.263 654.192,-219.901 666.981,-222.921"/>
<polygon fill="midnightblue" stroke="midnightblue" points="534.338,-106.642 524.937,-101.754 529.238,-111.437 534.338,-106.642"/>
</g>
<!-- Node21 -->
<g id="node8" class="node"><title>Node21</title>
<g id="a_node8"><a xlink:href="interface_holo_gen_1_1_hierarchy_1_1_hierarchy_1_1_i_can_error.html" target="_top" xlink:title="Interface implemented by any classes that can be in an error state. Defines the Valid property that c...">
<polygon fill="white" stroke="black" points="315.5,-166.728 315.5,-185.728 372.5,-185.728 372.5,-166.728 315.5,-166.728"/>
<text text-anchor="middle" x="344" y="-173.728" font-family="Helvetica,sans-Serif" font-size="10.00">ICanError</text>
</a>
</g>
</g>
<!-- Node21&#45;&gt;Node20 -->
<g id="edge7" class="edge"><title>Node21&#45;&gt;Node20</title>
<path fill="none" stroke="midnightblue" d="M382.193,-163.501C388.864,-160.943 395.696,-158.14 402,-155.228 437.849,-138.671 477.666,-114.892 498.827,-101.794"/>
<polygon fill="midnightblue" stroke="midnightblue" points="380.771,-160.296 372.614,-167.057 383.207,-166.858 380.771,-160.296"/>
</g>
<!-- Node32 -->
<g id="node19" class="node"><title>Node32</title>
<g id="a_node19"><a xlink:href="interface_holo_gen_1_1_hierarchy_1_1_hierarchy_1_1_i_hierarchy_element.html" target="_top" xlink:title="Base interface for the HierarchyElement that doesn&#39;t need a template parameter. Necessary for a numbe...">
<polygon fill="white" stroke="black" points="467,-181.728 467,-200.728 563,-200.728 563,-181.728 467,-181.728"/>
<text text-anchor="middle" x="515" y="-188.728" font-family="Helvetica,sans-Serif" font-size="10.00">IHierarchyElement</text>
</a>
</g>
</g>
<!-- Node21&#45;&gt;Node32 -->
<g id="edge22" class="edge"><title>Node21&#45;&gt;Node32</title>
<path fill="none" stroke="midnightblue" d="M382.672,-179.572C407.567,-181.782 440.389,-184.695 466.992,-187.056"/>
<polygon fill="midnightblue" stroke="midnightblue" points="382.799,-176.07 372.529,-178.672 382.18,-183.042 382.799,-176.07"/>
</g>
<!-- Node22 -->
<g id="node9" class="node"><title>Node22</title>
<g id="a_node9"><a xlink:href="interface_holo_gen_1_1_hierarchy_1_1_hierarchy_1_1_i_has_name.html" target="_top" xlink:title="Interface implemented by any classes that have a Name property. ">
<polygon fill="white" stroke="black" points="313,-84.7285 313,-103.728 375,-103.728 375,-84.7285 313,-84.7285"/>
<text text-anchor="middle" x="344" y="-91.7285" font-family="Helvetica,sans-Serif" font-size="10.00">IHasName</text>
</a>
</g>
</g>
<!-- Node22&#45;&gt;Node20 -->
<g id="edge8" class="edge"><title>Node22&#45;&gt;Node20</title>
<path fill="none" stroke="midnightblue" d="M385.088,-85.333C396.325,-83.2255 408.589,-81.2844 420,-80.2285 444.409,-77.9698 472.248,-82.4055 491.255,-86.508"/>
<polygon fill="midnightblue" stroke="midnightblue" points="384.247,-81.9312 375.11,-87.2946 385.598,-88.7997 384.247,-81.9312"/>
</g>
<!-- Node22&#45;&gt;Node32 -->
<g id="edge23" class="edge"><title>Node22&#45;&gt;Node32</title>
<path fill="none" stroke="midnightblue" d="M381.243,-107.58C388.246,-110.514 395.44,-113.783 402,-117.228 439.962,-137.171 481.213,-166.675 501.414,-181.693"/>
<polygon fill="midnightblue" stroke="midnightblue" points="382.473,-104.302 371.89,-103.801 379.851,-110.792 382.473,-104.302"/>
</g>
<!-- Node23 -->
<g id="node10" class="node"><title>Node23</title>
<g id="a_node10"><a xlink:href="interface_holo_gen_1_1_hierarchy_1_1_hierarchy_1_1_i_has_tool_tip.html" target="_top" xlink:title="Interface implemented by any classes that have a ToolTip property. ">
<polygon fill="white" stroke="black" points="310.5,-126.728 310.5,-145.728 377.5,-145.728 377.5,-126.728 310.5,-126.728"/>
<text text-anchor="middle" x="344" y="-133.728" font-family="Helvetica,sans-Serif" font-size="10.00">IHasToolTip</text>
</a>
</g>
</g>
<!-- Node23&#45;&gt;Node20 -->
<g id="edge9" class="edge"><title>Node23&#45;&gt;Node20</title>
<path fill="none" stroke="midnightblue" d="M378.644,-122.878C386.34,-119.762 394.47,-116.42 402,-113.228 410.06,-109.812 411.581,-107.63 420,-105.228 443.765,-98.4508 471.952,-95.1525 491.221,-93.5831"/>
<polygon fill="midnightblue" stroke="midnightblue" points="377.176,-119.696 369.206,-126.677 379.789,-126.19 377.176,-119.696"/>
</g>
<!-- Node23&#45;&gt;Node32 -->
<g id="edge24" class="edge"><title>Node23&#45;&gt;Node32</title>
<path fill="none" stroke="midnightblue" d="M383.964,-148.909C414.639,-158.892 456.731,-172.591 484.617,-181.666"/>
<polygon fill="midnightblue" stroke="midnightblue" points="385.03,-145.575 374.438,-145.809 382.863,-152.232 385.03,-145.575"/>
</g>
<!-- Node24 -->
<g id="node11" class="node"><title>Node24</title>
<g id="a_node11"><a xlink:href="interface_holo_gen_1_1_hierarchy_1_1_hierarchy_1_1_i_can_enable.html" target="_top" xlink:title="Interface implemented by any classes that can be enabled Enabled. ">
<polygon fill="white" stroke="black" points="169.5,-143.728 169.5,-162.728 235.5,-162.728 235.5,-143.728 169.5,-143.728"/>
<text text-anchor="middle" x="202.5" y="-150.728" font-family="Helvetica,sans-Serif" font-size="10.00">ICanEnable</text>
</a>
</g>
</g>
<!-- Node24&#45;&gt;Node20 -->
<g id="edge10" class="edge"><title>Node24&#45;&gt;Node20</title>
<path fill="none" stroke="midnightblue" d="M215.712,-135.485C230.012,-116.443 255.644,-87.3069 286,-75.2285 356.627,-47.1268 449.172,-70.5806 491.323,-84.183"/>
<polygon fill="midnightblue" stroke="midnightblue" points="212.821,-133.51 209.797,-143.664 218.493,-137.612 212.821,-133.51"/>
</g>
<!-- Node27 -->
<g id="node14" class="node"><title>Node27</title>
<g id="a_node14"><a xlink:href="class_holo_gen_1_1_hierarchy_1_1_hierarchy_1_1_hierarchy_folder.html" target="_top" xlink:title="Folder hierarchy element. Extends HierarchyElement and extends it to split the ReflectiveChildrenElem...">
<polygon fill="white" stroke="black" points="1042,-123.228 1042,-153.228 1188,-153.228 1188,-123.228 1042,-123.228"/>
<text text-anchor="start" x="1050" y="-141.228" font-family="Helvetica,sans-Serif" font-size="10.00">HoloGen.Hierarchy.Hierarchy.</text>
<text text-anchor="middle" x="1115" y="-130.228" font-family="Helvetica,sans-Serif" font-size="10.00">HierarchyFolder</text>
</a>
</g>
</g>
<!-- Node24&#45;&gt;Node27 -->
<g id="edge29" class="edge"><title>Node24&#45;&gt;Node27</title>
<path fill="none" stroke="midnightblue" d="M212.041,-133.954C230.226,-96.2156 276.6,-16.2285 343,-16.2285 343,-16.2285 343,-16.2285 934.5,-16.2285 972.086,-16.2285 1060.1,-90.3195 1097.12,-123.024"/>
<polygon fill="midnightblue" stroke="midnightblue" points="208.703,-132.832 207.667,-143.376 215.052,-135.78 208.703,-132.832"/>
</g>
<!-- Node24&#45;&gt;Node32 -->
<g id="edge28" class="edge"><title>Node24&#45;&gt;Node32</title>
<path fill="none" stroke="midnightblue" d="M215.675,-171.339C229.941,-190.832 255.544,-220.838 286,-234.228 341,-258.409 362.738,-255.898 421,-241.228 451.931,-233.441 483.779,-213.141 501.008,-200.935"/>
<polygon fill="midnightblue" stroke="midnightblue" points="218.4,-169.13 209.776,-162.976 212.68,-173.165 218.4,-169.13"/>
</g>
<!-- Node33 -->
<g id="node20" class="node"><title>Node33</title>
<g id="a_node20"><a xlink:href="interface_holo_gen_1_1_hierarchy_1_1_hierarchy_1_1_i_can_recursively_enable.html" target="_top" xlink:title="Interface implemented by any classes that can be enabled Enabled and have children that can be Enable...">
<polygon fill="white" stroke="black" points="286,-281.728 286,-300.728 402,-300.728 402,-281.728 286,-281.728"/>
<text text-anchor="middle" x="344" y="-288.728" font-family="Helvetica,sans-Serif" font-size="10.00">ICanRecursivelyEnable</text>
</a>
</g>
</g>
<!-- Node24&#45;&gt;Node33 -->
<g id="edge27" class="edge"><title>Node24&#45;&gt;Node33</title>
<path fill="none" stroke="midnightblue" d="M209.194,-172.339C217.702,-197.657 236.124,-242.044 267,-267.228 274.72,-273.525 284.109,-278.179 293.618,-281.615"/>
<polygon fill="midnightblue" stroke="midnightblue" points="212.516,-171.235 206.147,-162.768 205.845,-173.358 212.516,-171.235"/>
</g>
<!-- Node25 -->
<g id="node12" class="node"><title>Node25</title>
<g id="a_node12"><a xlink:href="interface_holo_gen_1_1_hierarchy_1_1_hierarchy_1_1_i_can_reset.html" target="_top" xlink:title="Interface implemented by any classes that can be reset. ">
<polygon fill="white" stroke="black" points="313,-205.728 313,-224.728 375,-224.728 375,-205.728 313,-205.728"/>
<text text-anchor="middle" x="344" y="-212.728" font-family="Helvetica,sans-Serif" font-size="10.00">ICanReset</text>
</a>
</g>
</g>
<!-- Node25&#45;&gt;Node20 -->
<g id="edge12" class="edge"><title>Node25&#45;&gt;Node20</title>
<path fill="none" stroke="midnightblue" d="M384.473,-203.749C390.532,-201.32 396.571,-198.487 402,-195.228 446.623,-168.449 488.892,-121.891 506.006,-101.852"/>
<polygon fill="midnightblue" stroke="midnightblue" points="383.193,-200.49 375.021,-207.234 385.614,-207.058 383.193,-200.49"/>
</g>
<!-- Node25&#45;&gt;Node32 -->
<g id="edge25" class="edge"><title>Node25&#45;&gt;Node32</title>
<path fill="none" stroke="midnightblue" d="M384.932,-226.676C396.583,-228.627 409.321,-229.41 421,-227.228 447.89,-222.206 477.013,-209.67 495.37,-200.808"/>
<polygon fill="midnightblue" stroke="midnightblue" points="385.517,-223.224 375.027,-224.706 384.152,-230.09 385.517,-223.224"/>
</g>
<!-- Node26 -->
<g id="node13" class="node"><title>Node26</title>
<g id="a_node13"><a xlink:href="interface_holo_gen_1_1_hierarchy_1_1_option_types_1_1_i_select_option.html" target="_top" xlink:title="Base interface for the SelectOption that doesn&#39;t need a template parameter. Necessary for a number of...">
<polygon fill="white" stroke="black" points="1077.5,-46.7285 1077.5,-65.7285 1152.5,-65.7285 1152.5,-46.7285 1077.5,-46.7285"/>
<text text-anchor="middle" x="1115" y="-53.7285" font-family="Helvetica,sans-Serif" font-size="10.00">ISelectOption</text>
</a>
</g>
</g>
<!-- Node26&#45;&gt;Node16 -->
<g id="edge13" class="edge"><title>Node26&#45;&gt;Node16</title>
<path fill="none" stroke="midnightblue" d="M1163.03,-55.3817C1204.8,-56.1193 1266.8,-60.9194 1317,-80.2285 1342.39,-89.9949 1367.28,-109.396 1382.86,-123.063"/>
<polygon fill="midnightblue" stroke="midnightblue" points="1162.91,-51.8803 1152.87,-55.2754 1162.83,-58.8799 1162.91,-51.8803"/>
</g>
<!-- Node27&#45;&gt;Node16 -->
<g id="edge15" class="edge"><title>Node27&#45;&gt;Node16</title>
<path fill="none" stroke="#9a32cd" stroke-dasharray="5,2" d="M1198.41,-138.228C1241.84,-138.228 1294.32,-138.228 1334.71,-138.228"/>
<polygon fill="#9a32cd" stroke="#9a32cd" points="1198.15,-134.729 1188.15,-138.228 1198.15,-141.729 1198.15,-134.729"/>
<text text-anchor="middle" x="1261.5" y="-141.228" font-family="Helvetica,sans-Serif" font-size="10.00"> PushLocation</text>
</g>
<!-- Node28 -->
<g id="node15" class="node"><title>Node28</title>
<g id="a_node15"><a xlink:href="class_holo_gen_1_1_hierarchy_1_1_hierarchy_1_1_hierarchy_element.html" target="_top" xlink:title="HierarchyElement\&lt; IOption \&gt;">
<polygon fill="white" stroke="black" points="862,-172.728 862,-191.728 1005,-191.728 1005,-172.728 862,-172.728"/>
<text text-anchor="middle" x="933.5" y="-179.728" font-family="Helvetica,sans-Serif" font-size="10.00">HierarchyElement&lt; IOption &gt;</text>
</a>
</g>
</g>
<!-- Node28&#45;&gt;Node27 -->
<g id="edge16" class="edge"><title>Node28&#45;&gt;Node27</title>
<path fill="none" stroke="midnightblue" d="M983.271,-170.273C1004.62,-165.039 1029.92,-158.839 1052.54,-153.294"/>
<polygon fill="midnightblue" stroke="midnightblue" points="982.328,-166.901 973.449,-172.681 983.995,-173.7 982.328,-166.901"/>
</g>
<!-- Node37 -->
<g id="node24" class="node"><title>Node37</title>
<g id="a_node24"><a xlink:href="class_holo_gen_1_1_hierarchy_1_1_hierarchy_1_1_option_collection.html" target="_top" xlink:title="Option collection. Extends HierarchyElement. The base class ReflectiveChildrenElement finds all membe...">
<polygon fill="white" stroke="black" points="1071,-172.728 1071,-191.728 1159,-191.728 1159,-172.728 1071,-172.728"/>
<text text-anchor="middle" x="1115" y="-179.728" font-family="Helvetica,sans-Serif" font-size="10.00">OptionCollection</text>
</a>
</g>
</g>
<!-- Node28&#45;&gt;Node37 -->
<g id="edge34" class="edge"><title>Node28&#45;&gt;Node37</title>
<path fill="none" stroke="midnightblue" d="M1015.41,-182.228C1034.51,-182.228 1054.15,-182.228 1070.83,-182.228"/>
<polygon fill="midnightblue" stroke="midnightblue" points="1015.19,-178.729 1005.19,-182.228 1015.19,-185.729 1015.19,-178.729"/>
</g>
<!-- Node29 -->
<g id="node16" class="node"><title>Node29</title>
<g id="a_node16"><a xlink:href="class_holo_gen_1_1_hierarchy_1_1_hierarchy_1_1_hierarchy_element.html" target="_top" xlink:title="Root hierarchy element. Defines Name and ToolTip fields that must be implemented by any implementors...">
<polygon fill="white" stroke="black" points="628,-169.228 628,-199.228 774,-199.228 774,-169.228 628,-169.228"/>
<text text-anchor="start" x="636" y="-187.228" font-family="Helvetica,sans-Serif" font-size="10.00">HoloGen.Hierarchy.Hierarchy.</text>
<text text-anchor="middle" x="701" y="-176.228" font-family="Helvetica,sans-Serif" font-size="10.00">HierarchyElement&lt; T &gt;</text>
</a>
</g>
</g>
<!-- Node29&#45;&gt;Node28 -->
<g id="edge17" class="edge"><title>Node29&#45;&gt;Node28</title>
<path fill="none" stroke="orange" stroke-dasharray="5,2" d="M784.577,-183.512C809.791,-183.293 837.279,-183.055 861.642,-182.843"/>
<polygon fill="orange" stroke="orange" points="784.268,-180.014 774.299,-183.601 784.329,-187.014 784.268,-180.014"/>
<text text-anchor="middle" x="818" y="-187.228" font-family="Helvetica,sans-Serif" font-size="10.00"> &lt; IOption &gt;</text>
</g>
<!-- Node30 -->
<g id="node17" class="node"><title>Node30</title>
<g id="a_node17"><a xlink:href="class_holo_gen_1_1_hierarchy_1_1_hierarchy_1_1_reflective_children_element.html" target="_top" xlink:title="Reflective hierarchy element template T . The constructor finds all members assignable from T &#160;and us...">
<polygon fill="white" stroke="black" points="439,-275.728 439,-294.728 591,-294.728 591,-275.728 439,-275.728"/>
<text text-anchor="middle" x="515" y="-282.728" font-family="Helvetica,sans-Serif" font-size="10.00">ReflectiveChildrenElement&lt; T &gt;</text>
</a>
</g>
</g>
<!-- Node30&#45;&gt;Node29 -->
<g id="edge18" class="edge"><title>Node30&#45;&gt;Node29</title>
<path fill="none" stroke="midnightblue" d="M535.861,-269.375C557.511,-252.677 593.668,-226.461 628,-209.228 635.214,-205.608 643.078,-202.293 650.873,-199.344"/>
<polygon fill="midnightblue" stroke="midnightblue" points="533.507,-266.773 527.781,-275.687 537.816,-272.289 533.507,-266.773"/>
</g>
<!-- Node39 -->
<g id="node26" class="node"><title>Node39</title>
<g id="a_node26"><a xlink:href="class_holo_gen_1_1_hierarchy_1_1_hierarchy_1_1_possibility_collection.html" target="_top" xlink:title="Collection of Possibilitys. Is wrapped by a SelectOption. Extends ReflectiveChildrenElement. The base class ReflectiveChildrenElement finds all members assignable from T &#160;and uses them to populate the ReflectiveChildrenElement.Children member collection. ">
<polygon fill="white" stroke="black" points="1042,-270.228 1042,-300.228 1188,-300.228 1188,-270.228 1042,-270.228"/>
<text text-anchor="start" x="1050" y="-288.228" font-family="Helvetica,sans-Serif" font-size="10.00">HoloGen.Hierarchy.Hierarchy.</text>
<text text-anchor="middle" x="1115" y="-277.228" font-family="Helvetica,sans-Serif" font-size="10.00">PossibilityCollection&lt; T &gt;</text>
</a>
</g>
</g>
<!-- Node30&#45;&gt;Node39 -->
<g id="edge37" class="edge"><title>Node30&#45;&gt;Node39</title>
<path fill="none" stroke="midnightblue" d="M601.227,-285.228C719.469,-285.228 931.201,-285.228 1041.97,-285.228"/>
<polygon fill="midnightblue" stroke="midnightblue" points="601.132,-281.729 591.132,-285.228 601.132,-288.729 601.132,-281.729"/>
</g>
<!-- Node31&#45;&gt;Node30 -->
<g id="edge19" class="edge"><title>Node31&#45;&gt;Node30</title>
<path fill="none" stroke="midnightblue" d="M391.685,-317.074C418.728,-310.033 452.281,-301.297 477.401,-294.757"/>
<polygon fill="midnightblue" stroke="midnightblue" points="390.466,-313.774 381.67,-319.681 392.23,-320.549 390.466,-313.774"/>
</g>
<!-- Node32&#45;&gt;Node29 -->
<g id="edge21" class="edge"><title>Node32&#45;&gt;Node29</title>
<path fill="none" stroke="midnightblue" d="M573.777,-189.03C590.891,-188.379 609.848,-187.658 627.757,-186.977"/>
<polygon fill="midnightblue" stroke="midnightblue" points="573.244,-185.548 563.385,-189.426 573.51,-192.543 573.244,-185.548"/>
</g>
<!-- Node33&#45;&gt;Node32 -->
<g id="edge26" class="edge"><title>Node33&#45;&gt;Node32</title>
<path fill="none" stroke="midnightblue" d="M411.835,-281.199C414.988,-280.018 418.061,-278.7 421,-277.228 440.467,-267.481 485.454,-221.366 504.84,-200.97"/>
<polygon fill="midnightblue" stroke="midnightblue" points="410.606,-277.918 402.183,-284.344 412.775,-284.574 410.606,-277.918"/>
</g>
<!-- Node34 -->
<g id="node21" class="node"><title>Node34</title>
<g id="a_node21"><a xlink:href="interface_holo_gen_1_1_options_1_1_algorithm_1_1_algorithms_1_1_variants_1_1_variant_option.html" target="_top" xlink:title="VariantOption">
<polygon fill="white" stroke="black" points="1716,-263.728 1716,-282.728 1792,-282.728 1792,-263.728 1716,-263.728"/>
<text text-anchor="middle" x="1754" y="-270.728" font-family="Helvetica,sans-Serif" font-size="10.00">VariantOption</text>
</a>
</g>
</g>
<!-- Node34&#45;&gt;Node14 -->
<g id="edge30" class="edge"><title>Node34&#45;&gt;Node14</title>
<path fill="none" stroke="midnightblue" d="M1802.27,-267.16C1840.94,-262.169 1897.02,-254.862 1946,-248.228 1951.82,-247.44 1957.83,-246.619 1963.88,-245.786"/>
<polygon fill="midnightblue" stroke="midnightblue" points="1801.81,-263.691 1792.34,-268.441 1802.71,-270.633 1801.81,-263.691"/>
</g>
<!-- Node35 -->
<g id="node22" class="node"><title>Node35</title>
<g id="a_node22"><a xlink:href="class_holo_gen_1_1_options_1_1_algorithm_1_1_algorithms_1_1_variants_1_1_variant_possibility.html" target="_top" xlink:title="Variant posibility. ">
<polygon fill="white" stroke="black" points="1663.5,-167.228 1663.5,-197.228 1844.5,-197.228 1844.5,-167.228 1663.5,-167.228"/>
<text text-anchor="start" x="1671.5" y="-185.228" font-family="Helvetica,sans-Serif" font-size="10.00">HoloGen.Options.Algorithm.</text>
<text text-anchor="middle" x="1754" y="-174.228" font-family="Helvetica,sans-Serif" font-size="10.00">Algorithms.Variants.VariantPossibility</text>
</a>
</g>
</g>
<!-- Node35&#45;&gt;Node14 -->
<g id="edge31" class="edge"><title>Node35&#45;&gt;Node14</title>
<path fill="none" stroke="#9a32cd" stroke-dasharray="5,2" d="M1855,-194.358C1884.42,-198.467 1916.6,-203.491 1946,-209.228 1952.85,-210.565 1959.93,-212.075 1967.02,-213.673"/>
<polygon fill="#9a32cd" stroke="#9a32cd" points="1855.1,-190.839 1844.72,-192.943 1854.15,-197.773 1855.1,-190.839"/>
<text text-anchor="middle" x="1906.5" y="-212.228" font-family="Helvetica,sans-Serif" font-size="10.00"> VariantPossibility</text>
</g>
<!-- Node36 -->
<g id="node23" class="node"><title>Node36</title>
<g id="a_node23"><a xlink:href="class_holo_gen_1_1_hierarchy_1_1_option_types_1_1_possibility.html" target="_top" xlink:title="Possibility for a PossibilityCollection wrapped by a SelectOption. Extends OptionCollection. The base class ReflectiveChildrenElement finds all members assignable from T &#160;and uses them to populate the ReflectiveChildrenElement.Children member collection. ">
<polygon fill="white" stroke="black" points="1369,-172.728 1369,-191.728 1431,-191.728 1431,-172.728 1369,-172.728"/>
<text text-anchor="middle" x="1400" y="-179.728" font-family="Helvetica,sans-Serif" font-size="10.00">Possibility</text>
</a>
</g>
</g>
<!-- Node36&#45;&gt;Node35 -->
<g id="edge32" class="edge"><title>Node36&#45;&gt;Node35</title>
<path fill="none" stroke="midnightblue" d="M1441.17,-182.228C1494.91,-182.228 1591.73,-182.228 1663.28,-182.228"/>
<polygon fill="midnightblue" stroke="midnightblue" points="1441.01,-178.729 1431.01,-182.228 1441.01,-185.729 1441.01,-178.729"/>
</g>
<!-- Node37&#45;&gt;Node36 -->
<g id="edge33" class="edge"><title>Node37&#45;&gt;Node36</title>
<path fill="none" stroke="midnightblue" d="M1169.53,-182.228C1228.5,-182.228 1321.26,-182.228 1368.77,-182.228"/>
<polygon fill="midnightblue" stroke="midnightblue" points="1169.29,-178.729 1159.29,-182.228 1169.29,-185.729 1169.29,-178.729"/>
</g>
<!-- Node38 -->
<g id="node25" class="node"><title>Node38</title>
<g id="a_node25"><a xlink:href="class_holo_gen_1_1_hierarchy_1_1_hierarchy_1_1_possibility_collection.html" target="_top" xlink:title="HoloGen.Hierarchy.Hierarchy.\lPossibilityCollection\&lt; SAVariant\lPossibility \&gt;">
<polygon fill="white" stroke="black" points="1483,-225.728 1483,-266.728 1641,-266.728 1641,-225.728 1483,-225.728"/>
<text text-anchor="start" x="1491" y="-254.728" font-family="Helvetica,sans-Serif" font-size="10.00">HoloGen.Hierarchy.Hierarchy.</text>
<text text-anchor="start" x="1491" y="-243.728" font-family="Helvetica,sans-Serif" font-size="10.00">PossibilityCollection&lt; SAVariant</text>
<text text-anchor="middle" x="1562" y="-232.728" font-family="Helvetica,sans-Serif" font-size="10.00">Possibility &gt;</text>
</a>
</g>
</g>
<!-- Node38&#45;&gt;Node14 -->
<g id="edge35" class="edge"><title>Node38&#45;&gt;Node14</title>
<path fill="none" stroke="#9a32cd" stroke-dasharray="5,2" d="M1651.24,-243.444C1653.86,-243.37 1656.45,-243.298 1659,-243.228 1764.14,-240.363 1885.36,-237.638 1963.71,-235.952"/>
<polygon fill="#9a32cd" stroke="#9a32cd" points="1650.96,-239.95 1641.06,-243.737 1651.16,-246.948 1650.96,-239.95"/>
<text text-anchor="middle" x="1754" y="-246.228" font-family="Helvetica,sans-Serif" font-size="10.00"> Possibilities</text>
</g>
<!-- Node39&#45;&gt;Node38 -->
<g id="edge36" class="edge"><title>Node39&#45;&gt;Node38</title>
<path fill="none" stroke="orange" stroke-dasharray="5,2" d="M1198.69,-277.982C1280.01,-270.854 1403.23,-260.055 1482.93,-253.071"/>
<polygon fill="orange" stroke="orange" points="1198.14,-274.516 1188.49,-278.876 1198.75,-281.489 1198.14,-274.516"/>
<text text-anchor="middle" x="1261.5" y="-280.228" font-family="Helvetica,sans-Serif" font-size="10.00"> &lt; SAVariantPossibility &gt;</text>
</g>
<!-- Node41 -->
<g id="node28" class="node"><title>Node41</title>
<g id="a_node28"><a xlink:href="class_holo_gen_1_1_hierarchy_1_1_hierarchy_1_1_possibility_collection.html" target="_top" xlink:title="PossibilityCollection\l\&lt; SAVariantPossibility \&gt;">
<polygon fill="white" stroke="black" points="1338,-293.228 1338,-323.228 1462,-323.228 1462,-293.228 1338,-293.228"/>
<text text-anchor="start" x="1346" y="-311.228" font-family="Helvetica,sans-Serif" font-size="10.00">PossibilityCollection</text>
<text text-anchor="middle" x="1400" y="-300.228" font-family="Helvetica,sans-Serif" font-size="10.00">&lt; SAVariantPossibility &gt;</text>
</a>
</g>
</g>
<!-- Node39&#45;&gt;Node41 -->
<g id="edge40" class="edge"><title>Node39&#45;&gt;Node41</title>
<path fill="none" stroke="orange" stroke-dasharray="5,2" d="M1198.35,-291.921C1242.81,-295.535 1296.78,-299.92 1337.54,-303.233"/>
<polygon fill="orange" stroke="orange" points="1198.4,-288.413 1188.15,-291.092 1197.83,-295.39 1198.4,-288.413"/>
<text text-anchor="middle" x="1261.5" y="-305.228" font-family="Helvetica,sans-Serif" font-size="10.00"> &lt; SAVariantPossibility &gt;</text>
</g>
<!-- Node40 -->
<g id="node27" class="node"><title>Node40</title>
<g id="a_node27"><a xlink:href="class_holo_gen_1_1_options_1_1_algorithm_1_1_algorithms_1_1_type_1_1_variants_1_1_s_a_1_1_s_a_variant_possibilities.html" target="_top" xlink:title="Possibilities for variant Simulated Annealing algorithms. ">
<polygon fill="white" stroke="black" points="1659,-301.728 1659,-342.728 1849,-342.728 1849,-301.728 1659,-301.728"/>
<text text-anchor="start" x="1667" y="-330.728" font-family="Helvetica,sans-Serif" font-size="10.00">HoloGen.Options.Algorithm.</text>
<text text-anchor="start" x="1667" y="-319.728" font-family="Helvetica,sans-Serif" font-size="10.00">Algorithms.Type.Variants.SA.SAVariant</text>
<text text-anchor="middle" x="1754" y="-308.728" font-family="Helvetica,sans-Serif" font-size="10.00">Possibilities</text>
</a>
</g>
</g>
<!-- Node40&#45;&gt;Node14 -->
<g id="edge38" class="edge"><title>Node40&#45;&gt;Node14</title>
<path fill="none" stroke="#9a32cd" stroke-dasharray="5,2" d="M1841.08,-298.922C1874.01,-289.734 1911.86,-278.851 1946,-268.228 1959.39,-264.061 1973.71,-259.348 1987.21,-254.788"/>
<polygon fill="#9a32cd" stroke="#9a32cd" points="1839.72,-295.666 1831.02,-301.716 1841.59,-302.41 1839.72,-295.666"/>
<text text-anchor="middle" x="1906.5" y="-295.228" font-family="Helvetica,sans-Serif" font-size="10.00"> Possibilities2</text>
</g>
<!-- Node41&#45;&gt;Node40 -->
<g id="edge39" class="edge"><title>Node41&#45;&gt;Node40</title>
<path fill="none" stroke="midnightblue" d="M1472.44,-311.07C1526.21,-313.208 1600.39,-316.159 1658.97,-318.489"/>
<polygon fill="midnightblue" stroke="midnightblue" points="1472.44,-307.567 1462.31,-310.667 1472.17,-314.562 1472.44,-307.567"/>
</g>
</g>
</svg>
