<?xml version="1.0" encoding="UTF-8" standalone="no"?>
<!DOCTYPE svg PUBLIC "-//W3C//DTD SVG 1.1//EN"
 "http://www.w3.org/Graphics/SVG/1.1/DTD/svg11.dtd">
<!-- Generated by graphviz version 2.38.0 (20140413.2041)
 -->
<!-- Title: HoloGen.UI.MainWindowViewModel.NewHologramSetupFile Pages: 1 -->
<svg width="357pt" height="39pt"
 viewBox="0.00 0.00 357.00 39.00" xmlns="http://www.w3.org/2000/svg" xmlns:xlink="http://www.w3.org/1999/xlink">
<g id="graph0" class="graph" transform="scale(1 1) rotate(0) translate(4 35)">
<title>HoloGen.UI.MainWindowViewModel.NewHologramSetupFile</title>
<polygon fill="white" stroke="none" points="-4,4 -4,-35 353,-35 353,4 -4,4"/>
<!-- Node19 -->
<g id="node1" class="node"><title>Node19</title>
<polygon fill="#bfbfbf" stroke="black" points="0,-0.5 0,-30.5 147,-30.5 147,-0.5 0,-0.5"/>
<text text-anchor="start" x="8" y="-18.5" font-family="Helvetica,sans-Serif" font-size="10.00">HoloGen.UI.MainWindowView</text>
<text text-anchor="middle" x="73.5" y="-7.5" font-family="Helvetica,sans-Serif" font-size="10.00">Model.NewHologramSetupFile</text>
</g>
<!-- Node20 -->
<g id="node2" class="node"><title>Node20</title>
<g id="a_node2"><a xlink:href="class_holo_gen_1_1_u_i_1_1_commands_1_1_new_setup_file.html#a5ba724850ce18aac64881b4cf24735a3" target="_top" xlink:title="HoloGen.UI.Commands.NewSetup\lFile.Execute">
<polygon fill="white" stroke="black" points="183,-0.5 183,-30.5 349,-30.5 349,-0.5 183,-0.5"/>
<text text-anchor="start" x="191" y="-18.5" font-family="Helvetica,sans-Serif" font-size="10.00">HoloGen.UI.Commands.NewSetup</text>
<text text-anchor="middle" x="266" y="-7.5" font-family="Helvetica,sans-Serif" font-size="10.00">File.Execute</text>
</a>
</g>
</g>
<!-- Node19&#45;&gt;Node20 -->
<g id="edge1" class="edge"><title>Node19&#45;&gt;Node20</title>
<path fill="none" stroke="midnightblue" d="M157.287,-15.5C165.738,-15.5 174.322,-15.5 182.767,-15.5"/>
<polygon fill="midnightblue" stroke="midnightblue" points="157.063,-12.0001 147.063,-15.5 157.063,-19.0001 157.063,-12.0001"/>
</g>
</g>
</svg>
