<?xml version="1.0" encoding="UTF-8" standalone="no"?>
<!DOCTYPE svg PUBLIC "-//W3C//DTD SVG 1.1//EN"
 "http://www.w3.org/Graphics/SVG/1.1/DTD/svg11.dtd">
<!-- Generated by graphviz version 2.38.0 (20140413.2041)
 -->
<!-- Title: HoloGen::Alg::Common::Man::AlgorithmFFTMan::SetAlgorithmParameters Pages: 1 -->
<svg width="340pt" height="50pt"
 viewBox="0.00 0.00 340.00 50.00" xmlns="http://www.w3.org/2000/svg" xmlns:xlink="http://www.w3.org/1999/xlink">
<g id="graph0" class="graph" transform="scale(1 1) rotate(0) translate(4 46)">
<title>HoloGen::Alg::Common::Man::AlgorithmFFTMan::SetAlgorithmParameters</title>
<polygon fill="white" stroke="none" points="-4,4 -4,-46 336,-46 336,4 -4,4"/>
<!-- Node7 -->
<g id="node1" class="node"><title>Node7</title>
<polygon fill="#bfbfbf" stroke="black" points="0,-0.5 0,-41.5 129,-41.5 129,-0.5 0,-0.5"/>
<text text-anchor="start" x="8" y="-29.5" font-family="Helvetica,sans-Serif" font-size="10.00">HoloGen::Alg::Common</text>
<text text-anchor="start" x="8" y="-18.5" font-family="Helvetica,sans-Serif" font-size="10.00">::Man::AlgorithmFFTMan</text>
<text text-anchor="middle" x="64.5" y="-7.5" font-family="Helvetica,sans-Serif" font-size="10.00">::SetAlgorithmParameters</text>
</g>
<!-- Node8 -->
<g id="node2" class="node"><title>Node8</title>
<g id="a_node2"><a xlink:href="class_holo_gen_1_1_alg_1_1_common_1_1_algorithm_f_f_t_wrap.html#a9463053041a555188673c03f4f786a6a" target="_top" xlink:title="HoloGen.Alg.Common.Algorithm\lFFTWrap.SetAlgorithmParameters">
<polygon fill="white" stroke="black" points="165,-6 165,-36 332,-36 332,-6 165,-6"/>
<text text-anchor="start" x="173" y="-24" font-family="Helvetica,sans-Serif" font-size="10.00">HoloGen.Alg.Common.Algorithm</text>
<text text-anchor="middle" x="248.5" y="-13" font-family="Helvetica,sans-Serif" font-size="10.00">FFTWrap.SetAlgorithmParameters</text>
</a>
</g>
</g>
<!-- Node7&#45;&gt;Node8 -->
<g id="edge1" class="edge"><title>Node7&#45;&gt;Node8</title>
<path fill="none" stroke="midnightblue" d="M139.251,-21C147.627,-21 156.205,-21 164.688,-21"/>
<polygon fill="midnightblue" stroke="midnightblue" points="139.155,-17.5001 129.155,-21 139.155,-24.5001 139.155,-17.5001"/>
</g>
</g>
</svg>
