<?xml version="1.0" encoding="UTF-8" standalone="no"?>
<!DOCTYPE svg PUBLIC "-//W3C//DTD SVG 1.1//EN"
 "http://www.w3.org/Graphics/SVG/1.1/DTD/svg11.dtd">
<!-- Generated by graphviz version 2.38.0 (20140413.2041)
 -->
<!-- Title: HoloGen.UI.Utils.MVVM.BindableBase Pages: 1 -->
<svg width="1006pt" height="94pt"
 viewBox="0.00 0.00 1006.00 93.50" xmlns="http://www.w3.org/2000/svg" xmlns:xlink="http://www.w3.org/1999/xlink">
<g id="graph0" class="graph" transform="scale(1 1) rotate(0) translate(4 89.5)">
<title>HoloGen.UI.Utils.MVVM.BindableBase</title>
<polygon fill="white" stroke="none" points="-4,4 -4,-89.5 1002,-89.5 1002,4 -4,4"/>
<!-- Node0 -->
<g id="node1" class="node"><title>Node0</title>
<polygon fill="#bfbfbf" stroke="black" points="156,-47.5 156,-66.5 341,-66.5 341,-47.5 156,-47.5"/>
<text text-anchor="middle" x="248.5" y="-54.5" font-family="Helvetica,sans-Serif" font-size="10.00">HoloGen.UI.Utils.MVVM.BindableBase</text>
</g>
<!-- Node2 -->
<g id="node3" class="node"><title>Node2</title>
<g id="a_node3"><a xlink:href="class_holo_gen_1_1_u_i_1_1_graph_1_1_view_models_1_1_graph_view_model.html" target="_top" xlink:title="ViewModel for the GraphViewModel control. ">
<polygon fill="white" stroke="black" points="378,-55 378,-85 532,-85 532,-55 378,-55"/>
<text text-anchor="start" x="386" y="-73" font-family="Helvetica,sans-Serif" font-size="10.00">HoloGen.UI.Graph.ViewModels.</text>
<text text-anchor="middle" x="455" y="-62" font-family="Helvetica,sans-Serif" font-size="10.00">GraphViewModel</text>
</a>
</g>
</g>
<!-- Node0&#45;&gt;Node2 -->
<g id="edge2" class="edge"><title>Node0&#45;&gt;Node2</title>
<path fill="none" stroke="midnightblue" d="M351.329,-63.4732C360.243,-64.0399 369.16,-64.6068 377.811,-65.1567"/>
<polygon fill="midnightblue" stroke="midnightblue" points="351.484,-59.9761 341.282,-62.8345 351.039,-66.962 351.484,-59.9761"/>
</g>
<!-- Node3 -->
<g id="node4" class="node"><title>Node3</title>
<g id="a_node4"><a xlink:href="class_holo_gen_1_1_u_i_1_1_hamburger_1_1_view_models_1_1_hamburger_item.html" target="_top" xlink:title="For the top&#45;level of a Options hierarchy, simple databinding isn&#39;t sufficient to work with simple dat...">
<polygon fill="white" stroke="black" points="385,-6 385,-36 525,-36 525,-6 385,-6"/>
<text text-anchor="start" x="393" y="-24" font-family="Helvetica,sans-Serif" font-size="10.00">HoloGen.UI.Hamburger.View</text>
<text text-anchor="middle" x="455" y="-13" font-family="Helvetica,sans-Serif" font-size="10.00">Models.HamburgerItem&lt; T &gt;</text>
</a>
</g>
</g>
<!-- Node0&#45;&gt;Node3 -->
<g id="edge3" class="edge"><title>Node0&#45;&gt;Node3</title>
<path fill="none" stroke="midnightblue" d="M313.641,-45.7088C336.201,-41.7372 361.65,-37.2572 384.622,-33.2133"/>
<polygon fill="midnightblue" stroke="midnightblue" points="312.739,-42.3135 303.497,-47.4943 313.953,-49.2075 312.739,-42.3135"/>
</g>
<!-- Node1 -->
<g id="node2" class="node"><title>Node1</title>
<polygon fill="white" stroke="#bfbfbf" points="0,-47.5 0,-66.5 119,-66.5 119,-47.5 0,-47.5"/>
<text text-anchor="middle" x="59.5" y="-54.5" font-family="Helvetica,sans-Serif" font-size="10.00">INotifyPropertyChanged</text>
</g>
<!-- Node1&#45;&gt;Node0 -->
<g id="edge1" class="edge"><title>Node1&#45;&gt;Node0</title>
<path fill="none" stroke="midnightblue" d="M129.187,-57C137.87,-57 146.86,-57 155.829,-57"/>
<polygon fill="midnightblue" stroke="midnightblue" points="129.155,-53.5001 119.155,-57 129.155,-60.5001 129.155,-53.5001"/>
</g>
<!-- Node4 -->
<g id="node5" class="node"><title>Node4</title>
<g id="a_node5"><a xlink:href="class_holo_gen_1_1_u_i_1_1_hamburger_1_1_view_models_1_1_hamburger_item.html" target="_top" xlink:title="HoloGen.UI.Hamburger.View\lModels.HamburgerItem\&lt; Hierarchy\lPage \&gt;">
<polygon fill="white" stroke="black" points="653,-0.5 653,-41.5 820,-41.5 820,-0.5 653,-0.5"/>
<text text-anchor="start" x="661" y="-29.5" font-family="Helvetica,sans-Serif" font-size="10.00">HoloGen.UI.Hamburger.View</text>
<text text-anchor="start" x="661" y="-18.5" font-family="Helvetica,sans-Serif" font-size="10.00">Models.HamburgerItem&lt; Hierarchy</text>
<text text-anchor="middle" x="736.5" y="-7.5" font-family="Helvetica,sans-Serif" font-size="10.00">Page &gt;</text>
</a>
</g>
</g>
<!-- Node3&#45;&gt;Node4 -->
<g id="edge4" class="edge"><title>Node3&#45;&gt;Node4</title>
<path fill="none" stroke="orange" stroke-dasharray="5,2" d="M535.256,-21C571.989,-21 615.632,-21 652.784,-21"/>
<polygon fill="orange" stroke="orange" points="535.09,-17.5001 525.09,-21 535.09,-24.5001 535.09,-17.5001"/>
<text text-anchor="middle" x="592.5" y="-24" font-family="Helvetica,sans-Serif" font-size="10.00"> &lt; HierarchyPage &gt;</text>
</g>
<!-- Node5 -->
<g id="node6" class="node"><title>Node5</title>
<g id="a_node6"><a xlink:href="class_holo_gen_1_1_u_i_1_1_hamburger_1_1_view_models_1_1_hamburger_menu_item.html" target="_top" xlink:title="Instantiation of HamburgerItem ">
<polygon fill="white" stroke="black" points="857,-6 857,-36 998,-36 998,-6 857,-6"/>
<text text-anchor="start" x="865" y="-24" font-family="Helvetica,sans-Serif" font-size="10.00">HoloGen.UI.Hamburger.View</text>
<text text-anchor="middle" x="927.5" y="-13" font-family="Helvetica,sans-Serif" font-size="10.00">Models.HamburgerMenuItem</text>
</a>
</g>
</g>
<!-- Node4&#45;&gt;Node5 -->
<g id="edge5" class="edge"><title>Node4&#45;&gt;Node5</title>
<path fill="none" stroke="midnightblue" d="M830.189,-21C839.127,-21 848.087,-21 856.749,-21"/>
<polygon fill="midnightblue" stroke="midnightblue" points="830.123,-17.5001 820.123,-21 830.123,-24.5001 830.123,-17.5001"/>
</g>
</g>
</svg>
