<?xml version="1.0" encoding="UTF-8" standalone="no"?>
<!DOCTYPE svg PUBLIC "-//W3C//DTD SVG 1.1//EN"
 "http://www.w3.org/Graphics/SVG/1.1/DTD/svg11.dtd">
<!-- Generated by graphviz version 2.38.0 (20140413.2041)
 -->
<!-- Title: HoloGen.Hierarchy.OptionTypes.TextOption Pages: 1 -->
<svg width="1137pt" height="218pt"
 viewBox="0.00 0.00 1137.00 218.00" xmlns="http://www.w3.org/2000/svg" xmlns:xlink="http://www.w3.org/1999/xlink">
<g id="graph0" class="graph" transform="scale(1 1) rotate(0) translate(4 214)">
<title>HoloGen.Hierarchy.OptionTypes.TextOption</title>
<polygon fill="white" stroke="none" points="-4,4 -4,-214 1133,-214 1133,4 -4,4"/>
<!-- Node0 -->
<g id="node1" class="node"><title>Node0</title>
<polygon fill="#bfbfbf" stroke="black" points="622,-101 622,-131 752,-131 752,-101 622,-101"/>
<text text-anchor="start" x="630" y="-119" font-family="Helvetica,sans-Serif" font-size="10.00">HoloGen.Hierarchy.Option</text>
<text text-anchor="middle" x="687" y="-108" font-family="Helvetica,sans-Serif" font-size="10.00">Types.TextOption</text>
</g>
<!-- Node12 -->
<g id="node13" class="node"><title>Node12</title>
<g id="a_node13"><a xlink:href="class_holo_gen_1_1_hierarchy_1_1_option_types_1_1_large_text_option.html" target="_top" xlink:title="Extends TextOption and implements ILargeOption. This tells HierarchyFolder that this should be made a...">
<polygon fill="white" stroke="black" points="789,-101 789,-131 919,-131 919,-101 789,-101"/>
<text text-anchor="start" x="797" y="-119" font-family="Helvetica,sans-Serif" font-size="10.00">HoloGen.Hierarchy.Option</text>
<text text-anchor="middle" x="854" y="-108" font-family="Helvetica,sans-Serif" font-size="10.00">Types.LargeTextOption</text>
</a>
</g>
</g>
<!-- Node0&#45;&gt;Node12 -->
<g id="edge13" class="edge"><title>Node0&#45;&gt;Node12</title>
<path fill="none" stroke="midnightblue" d="M762.525,-116C771.333,-116 780.263,-116 788.91,-116"/>
<polygon fill="midnightblue" stroke="midnightblue" points="762.266,-112.5 752.266,-116 762.266,-119.5 762.266,-112.5"/>
</g>
<!-- Node1 -->
<g id="node2" class="node"><title>Node1</title>
<g id="a_node2"><a xlink:href="class_holo_gen_1_1_hierarchy_1_1_option_types_1_1_option.html" target="_top" xlink:title="Option\&lt; string \&gt;">
<polygon fill="white" stroke="black" points="498,-129.5 498,-148.5 585,-148.5 585,-129.5 498,-129.5"/>
<text text-anchor="middle" x="541.5" y="-136.5" font-family="Helvetica,sans-Serif" font-size="10.00">Option&lt; string &gt;</text>
</a>
</g>
</g>
<!-- Node1&#45;&gt;Node0 -->
<g id="edge1" class="edge"><title>Node1&#45;&gt;Node0</title>
<path fill="none" stroke="midnightblue" d="M595.179,-130.557C603.897,-129.159 613.019,-127.697 621.978,-126.261"/>
<polygon fill="midnightblue" stroke="midnightblue" points="594.486,-127.123 585.166,-132.162 595.594,-134.035 594.486,-127.123"/>
</g>
<!-- Node2 -->
<g id="node3" class="node"><title>Node2</title>
<g id="a_node3"><a xlink:href="class_holo_gen_1_1_hierarchy_1_1_option_types_1_1_option.html" target="_top" xlink:title="Root hierarchy element. Defines Name and ToolTip fields that must be implemented by any implementors...">
<polygon fill="white" stroke="black" points="286,-124 286,-154 416,-154 416,-124 286,-124"/>
<text text-anchor="start" x="294" y="-142" font-family="Helvetica,sans-Serif" font-size="10.00">HoloGen.Hierarchy.Option</text>
<text text-anchor="middle" x="351" y="-131" font-family="Helvetica,sans-Serif" font-size="10.00">Types.Option&lt; T &gt;</text>
</a>
</g>
</g>
<!-- Node2&#45;&gt;Node1 -->
<g id="edge2" class="edge"><title>Node2&#45;&gt;Node1</title>
<path fill="none" stroke="orange" stroke-dasharray="5,2" d="M426.36,-139C450.655,-139 476.798,-139 497.927,-139"/>
<polygon fill="orange" stroke="orange" points="426.081,-135.5 416.081,-139 426.08,-142.5 426.081,-135.5"/>
<text text-anchor="middle" x="457" y="-142" font-family="Helvetica,sans-Serif" font-size="10.00"> &lt; string &gt;</text>
</g>
<!-- Node3 -->
<g id="node4" class="node"><title>Node3</title>
<g id="a_node4"><a xlink:href="class_holo_gen_1_1_utils_1_1_observable_object.html" target="_top" xlink:title="Observable object with INotifyPropertyChanged implemented ">
<polygon fill="white" stroke="black" points="156,-171.5 156,-190.5 249,-190.5 249,-171.5 156,-171.5"/>
<text text-anchor="middle" x="202.5" y="-178.5" font-family="Helvetica,sans-Serif" font-size="10.00">ObservableObject</text>
</a>
</g>
</g>
<!-- Node3&#45;&gt;Node2 -->
<g id="edge3" class="edge"><title>Node3&#45;&gt;Node2</title>
<path fill="none" stroke="midnightblue" d="M246.391,-168.704C262.432,-164.105 280.834,-158.829 297.635,-154.012"/>
<polygon fill="midnightblue" stroke="midnightblue" points="245.391,-165.349 236.743,-171.47 247.32,-172.078 245.391,-165.349"/>
</g>
<!-- Node4 -->
<g id="node5" class="node"><title>Node4</title>
<polygon fill="white" stroke="#bfbfbf" points="0,-190.5 0,-209.5 119,-209.5 119,-190.5 0,-190.5"/>
<text text-anchor="middle" x="59.5" y="-197.5" font-family="Helvetica,sans-Serif" font-size="10.00">INotifyPropertyChanged</text>
</g>
<!-- Node4&#45;&gt;Node3 -->
<g id="edge4" class="edge"><title>Node4&#45;&gt;Node3</title>
<path fill="none" stroke="midnightblue" d="M129.206,-190.742C138.225,-189.526 147.283,-188.306 155.79,-187.16"/>
<polygon fill="midnightblue" stroke="midnightblue" points="128.515,-187.303 119.072,-192.107 129.45,-194.24 128.515,-187.303"/>
</g>
<!-- Node5 -->
<g id="node6" class="node"><title>Node5</title>
<g id="a_node6"><a xlink:href="interface_holo_gen_1_1_hierarchy_1_1_option_types_1_1_i_option.html" target="_top" xlink:title="Base interface for the Option that doesn&#39;t need a template parameter. Necessary for a number of refle...">
<polygon fill="white" stroke="black" points="179,-114.5 179,-133.5 226,-133.5 226,-114.5 179,-114.5"/>
<text text-anchor="middle" x="202.5" y="-121.5" font-family="Helvetica,sans-Serif" font-size="10.00">IOption</text>
</a>
</g>
</g>
<!-- Node4&#45;&gt;Node5 -->
<g id="edge10" class="edge"><title>Node4&#45;&gt;Node5</title>
<path fill="none" stroke="midnightblue" d="M105.211,-186.983C109.945,-185.162 114.624,-183.164 119,-181 146.152,-167.571 174.507,-146.064 189.886,-133.665"/>
<polygon fill="midnightblue" stroke="midnightblue" points="103.726,-183.797 95.4963,-190.469 106.091,-190.385 103.726,-183.797"/>
</g>
<!-- Node5&#45;&gt;Node2 -->
<g id="edge5" class="edge"><title>Node5&#45;&gt;Node2</title>
<path fill="none" stroke="midnightblue" d="M236.149,-127.343C250.84,-128.847 268.717,-130.677 285.909,-132.438"/>
<polygon fill="midnightblue" stroke="midnightblue" points="236.374,-123.848 226.07,-126.311 235.661,-130.811 236.374,-123.848"/>
</g>
<!-- Node6 -->
<g id="node7" class="node"><title>Node6</title>
<g id="a_node7"><a xlink:href="interface_holo_gen_1_1_hierarchy_1_1_hierarchy_1_1_i_can_error.html" target="_top" xlink:title="Interface implemented by any classes that can be in an error state. Defines the Valid property that c...">
<polygon fill="white" stroke="black" points="31,-152.5 31,-171.5 88,-171.5 88,-152.5 31,-152.5"/>
<text text-anchor="middle" x="59.5" y="-159.5" font-family="Helvetica,sans-Serif" font-size="10.00">ICanError</text>
</a>
</g>
</g>
<!-- Node6&#45;&gt;Node5 -->
<g id="edge6" class="edge"><title>Node6&#45;&gt;Node5</title>
<path fill="none" stroke="midnightblue" d="M97.8117,-151.944C123.523,-145.015 156.864,-136.03 178.703,-130.144"/>
<polygon fill="midnightblue" stroke="midnightblue" points="96.7656,-148.601 88.0209,-154.583 98.5872,-155.36 96.7656,-148.601"/>
</g>
<!-- Node7 -->
<g id="node8" class="node"><title>Node7</title>
<g id="a_node8"><a xlink:href="interface_holo_gen_1_1_hierarchy_1_1_hierarchy_1_1_i_has_name.html" target="_top" xlink:title="Interface implemented by any classes that have a Name property. ">
<polygon fill="white" stroke="black" points="28.5,-114.5 28.5,-133.5 90.5,-133.5 90.5,-114.5 28.5,-114.5"/>
<text text-anchor="middle" x="59.5" y="-121.5" font-family="Helvetica,sans-Serif" font-size="10.00">IHasName</text>
</a>
</g>
</g>
<!-- Node7&#45;&gt;Node5 -->
<g id="edge7" class="edge"><title>Node7&#45;&gt;Node5</title>
<path fill="none" stroke="midnightblue" d="M100.784,-124C126.053,-124 157.709,-124 178.715,-124"/>
<polygon fill="midnightblue" stroke="midnightblue" points="100.748,-120.5 90.748,-124 100.748,-127.5 100.748,-120.5"/>
</g>
<!-- Node8 -->
<g id="node9" class="node"><title>Node8</title>
<g id="a_node9"><a xlink:href="interface_holo_gen_1_1_hierarchy_1_1_hierarchy_1_1_i_has_tool_tip.html" target="_top" xlink:title="Interface implemented by any classes that have a ToolTip property. ">
<polygon fill="white" stroke="black" points="26,-76.5 26,-95.5 93,-95.5 93,-76.5 26,-76.5"/>
<text text-anchor="middle" x="59.5" y="-83.5" font-family="Helvetica,sans-Serif" font-size="10.00">IHasToolTip</text>
</a>
</g>
</g>
<!-- Node8&#45;&gt;Node5 -->
<g id="edge8" class="edge"><title>Node8&#45;&gt;Node5</title>
<path fill="none" stroke="midnightblue" d="M103.113,-97.4845C127.947,-104.177 158.285,-112.353 178.65,-117.842"/>
<polygon fill="midnightblue" stroke="midnightblue" points="103.769,-94.0363 93.2026,-94.8135 101.947,-100.795 103.769,-94.0363"/>
</g>
<!-- Node9 -->
<g id="node10" class="node"><title>Node9</title>
<g id="a_node10"><a xlink:href="interface_holo_gen_1_1_hierarchy_1_1_hierarchy_1_1_i_can_enable.html" target="_top" xlink:title="Interface implemented by any classes that can be enabled Enabled. ">
<polygon fill="white" stroke="black" points="26.5,-38.5 26.5,-57.5 92.5,-57.5 92.5,-38.5 26.5,-38.5"/>
<text text-anchor="middle" x="59.5" y="-45.5" font-family="Helvetica,sans-Serif" font-size="10.00">ICanEnable</text>
</a>
</g>
</g>
<!-- Node9&#45;&gt;Node5 -->
<g id="edge9" class="edge"><title>Node9&#45;&gt;Node5</title>
<path fill="none" stroke="midnightblue" d="M102.294,-59.9196C108.013,-62.0262 113.727,-64.3918 119,-67 146.152,-80.4294 174.507,-101.936 189.886,-114.335"/>
<polygon fill="midnightblue" stroke="midnightblue" points="103.335,-56.5761 92.7398,-56.6218 101.051,-63.193 103.335,-56.5761"/>
</g>
<!-- Node10 -->
<g id="node11" class="node"><title>Node10</title>
<g id="a_node11"><a xlink:href="interface_holo_gen_1_1_hierarchy_1_1_hierarchy_1_1_i_can_reset.html" target="_top" xlink:title="Interface implemented by any classes that can be reset. ">
<polygon fill="white" stroke="black" points="28.5,-0.5 28.5,-19.5 90.5,-19.5 90.5,-0.5 28.5,-0.5"/>
<text text-anchor="middle" x="59.5" y="-7.5" font-family="Helvetica,sans-Serif" font-size="10.00">ICanReset</text>
</a>
</g>
</g>
<!-- Node10&#45;&gt;Node5 -->
<g id="edge11" class="edge"><title>Node10&#45;&gt;Node5</title>
<path fill="none" stroke="midnightblue" d="M100.296,-19.6842C106.831,-22.1693 113.317,-25.237 119,-29 154.516,-52.517 183.793,-95.3278 195.729,-114.395"/>
<polygon fill="midnightblue" stroke="midnightblue" points="101.369,-16.3521 90.7745,-16.4468 99.1155,-22.9795 101.369,-16.3521"/>
</g>
<!-- Node11 -->
<g id="node12" class="node"><title>Node11</title>
<g id="a_node12"><a xlink:href="interface_holo_gen_1_1_hierarchy_1_1_hierarchy_1_1_i_has_watermark.html" target="_top" xlink:title="Interface implemented by any classes that have a Watermark property. ">
<polygon fill="white" stroke="black" points="499.5,-91.5 499.5,-110.5 583.5,-110.5 583.5,-91.5 499.5,-91.5"/>
<text text-anchor="middle" x="541.5" y="-98.5" font-family="Helvetica,sans-Serif" font-size="10.00">IHasWatermark</text>
</a>
</g>
</g>
<!-- Node11&#45;&gt;Node0 -->
<g id="edge12" class="edge"><title>Node11&#45;&gt;Node0</title>
<path fill="none" stroke="midnightblue" d="M593.681,-106.35C602.805,-107.304 612.413,-108.308 621.844,-109.294"/>
<polygon fill="midnightblue" stroke="midnightblue" points="593.931,-102.857 583.621,-105.298 593.203,-109.819 593.931,-102.857"/>
</g>
<!-- Node13 -->
<g id="node14" class="node"><title>Node13</title>
<g id="a_node14"><a xlink:href="class_holo_gen_1_1_options_1_1_hardware_1_1_details_1_1_details_text.html" target="_top" xlink:title="Computer details option. ">
<polygon fill="white" stroke="black" points="974,-150 974,-180 1111,-180 1111,-150 974,-150"/>
<text text-anchor="start" x="982" y="-168" font-family="Helvetica,sans-Serif" font-size="10.00">HoloGen.Options.Hardware.</text>
<text text-anchor="middle" x="1042.5" y="-157" font-family="Helvetica,sans-Serif" font-size="10.00">Details.DetailsText</text>
</a>
</g>
</g>
<!-- Node12&#45;&gt;Node13 -->
<g id="edge14" class="edge"><title>Node12&#45;&gt;Node13</title>
<path fill="none" stroke="midnightblue" d="M922.075,-133.623C942.479,-138.984 964.702,-144.823 984.385,-149.994"/>
<polygon fill="midnightblue" stroke="midnightblue" points="922.785,-130.191 912.224,-131.035 921.006,-136.961 922.785,-130.191"/>
</g>
<!-- Node14 -->
<g id="node15" class="node"><title>Node14</title>
<g id="a_node15"><a xlink:href="class_holo_gen_1_1_options_1_1_output_1_1_error_1_1_error_text.html" target="_top" xlink:title="Text of all the setup errors. ">
<polygon fill="white" stroke="black" points="967.5,-101 967.5,-131 1117.5,-131 1117.5,-101 967.5,-101"/>
<text text-anchor="start" x="975.5" y="-119" font-family="Helvetica,sans-Serif" font-size="10.00">HoloGen.Options.Output.Error.</text>
<text text-anchor="middle" x="1042.5" y="-108" font-family="Helvetica,sans-Serif" font-size="10.00">ErrorText</text>
</a>
</g>
</g>
<!-- Node12&#45;&gt;Node14 -->
<g id="edge15" class="edge"><title>Node12&#45;&gt;Node14</title>
<path fill="none" stroke="midnightblue" d="M929.497,-116C941.931,-116 954.829,-116 967.256,-116"/>
<polygon fill="midnightblue" stroke="midnightblue" points="929.183,-112.5 919.183,-116 929.183,-119.5 929.183,-112.5"/>
</g>
<!-- Node15 -->
<g id="node16" class="node"><title>Node15</title>
<g id="a_node16"><a xlink:href="class_holo_gen_1_1_options_1_1_output_1_1_reference_1_1_reference_text.html" target="_top" xlink:title="Text of all the setup errors. ">
<polygon fill="white" stroke="black" points="956,-52 956,-82 1129,-82 1129,-52 956,-52"/>
<text text-anchor="start" x="964" y="-70" font-family="Helvetica,sans-Serif" font-size="10.00">HoloGen.Options.Output.Reference.</text>
<text text-anchor="middle" x="1042.5" y="-59" font-family="Helvetica,sans-Serif" font-size="10.00">ReferenceText</text>
</a>
</g>
</g>
<!-- Node12&#45;&gt;Node15 -->
<g id="edge16" class="edge"><title>Node12&#45;&gt;Node15</title>
<path fill="none" stroke="midnightblue" d="M922.075,-98.3771C942.479,-93.0163 964.702,-87.1775 984.385,-82.0062"/>
<polygon fill="midnightblue" stroke="midnightblue" points="921.006,-95.0391 912.224,-100.965 922.785,-101.809 921.006,-95.0391"/>
</g>
</g>
</svg>
