<?xml version="1.0" encoding="UTF-8" standalone="no"?>
<!DOCTYPE svg PUBLIC "-//W3C//DTD SVG 1.1//EN"
 "http://www.w3.org/Graphics/SVG/1.1/DTD/svg11.dtd">
<!-- Generated by graphviz version 2.38.0 (20140413.2041)
 -->
<!-- Title: HoloGen.UI.Commands.ImportMatFileCommand.Execute Pages: 1 -->
<svg width="342pt" height="137pt"
 viewBox="0.00 0.00 342.00 137.00" xmlns="http://www.w3.org/2000/svg" xmlns:xlink="http://www.w3.org/1999/xlink">
<g id="graph0" class="graph" transform="scale(1 1) rotate(0) translate(4 133)">
<title>HoloGen.UI.Commands.ImportMatFileCommand.Execute</title>
<polygon fill="white" stroke="none" points="-4,4 -4,-133 338,-133 338,4 -4,4"/>
<!-- Node2 -->
<g id="node1" class="node"><title>Node2</title>
<polygon fill="#bfbfbf" stroke="black" points="0,-49.5 0,-79.5 149,-79.5 149,-49.5 0,-49.5"/>
<text text-anchor="start" x="8" y="-67.5" font-family="Helvetica,sans-Serif" font-size="10.00">HoloGen.UI.Commands.Import</text>
<text text-anchor="middle" x="74.5" y="-56.5" font-family="Helvetica,sans-Serif" font-size="10.00">MatFileCommand.Execute</text>
</g>
<!-- Node3 -->
<g id="node2" class="node"><title>Node3</title>
<g id="a_node2"><a xlink:href="class_holo_gen_1_1_u_i_1_1_utils_1_1_tab_handler_framework.html#a44d3e2cdde5c80b9278faf280df91673" target="_top" xlink:title="HoloGen.UI.Utils.TabHandler\lFramework.GetActiveHandler">
<polygon fill="white" stroke="black" points="188,-98.5 188,-128.5 331,-128.5 331,-98.5 188,-98.5"/>
<text text-anchor="start" x="196" y="-116.5" font-family="Helvetica,sans-Serif" font-size="10.00">HoloGen.UI.Utils.TabHandler</text>
<text text-anchor="middle" x="259.5" y="-105.5" font-family="Helvetica,sans-Serif" font-size="10.00">Framework.GetActiveHandler</text>
</a>
</g>
</g>
<!-- Node2&#45;&gt;Node3 -->
<g id="edge1" class="edge"><title>Node2&#45;&gt;Node3</title>
<path fill="none" stroke="midnightblue" d="M131.899,-79.6014C151.035,-84.7253 172.586,-90.4956 192.408,-95.8032"/>
<polygon fill="midnightblue" stroke="midnightblue" points="191.722,-99.2428 202.287,-98.4484 193.533,-92.481 191.722,-99.2428"/>
</g>
<!-- Node4 -->
<g id="node3" class="node"><title>Node4</title>
<g id="a_node3"><a xlink:href="class_holo_gen_1_1_i_o_1_1_convertors_1_1_import_1_1_mat_importer.html#ab8f8671038f0412642a60af0cf5e6036" target="_top" xlink:title="HoloGen.IO.Convertors.Import.\lMatImporter.Import">
<polygon fill="white" stroke="black" points="185,-49.5 185,-79.5 334,-79.5 334,-49.5 185,-49.5"/>
<text text-anchor="start" x="193" y="-67.5" font-family="Helvetica,sans-Serif" font-size="10.00">HoloGen.IO.Convertors.Import.</text>
<text text-anchor="middle" x="259.5" y="-56.5" font-family="Helvetica,sans-Serif" font-size="10.00">MatImporter.Import</text>
</a>
</g>
</g>
<!-- Node2&#45;&gt;Node4 -->
<g id="edge2" class="edge"><title>Node2&#45;&gt;Node4</title>
<path fill="none" stroke="midnightblue" d="M149.142,-64.5C157.474,-64.5 166.011,-64.5 174.463,-64.5"/>
<polygon fill="midnightblue" stroke="midnightblue" points="174.711,-68.0001 184.711,-64.5 174.711,-61.0001 174.711,-68.0001"/>
</g>
<!-- Node5 -->
<g id="node4" class="node"><title>Node5</title>
<g id="a_node4"><a xlink:href="class_holo_gen_1_1_utils_1_1_file_utils.html#a5c6623caf06284735a194b8296bd0ad4" target="_top" xlink:title="HoloGen.Utils.FileUtils.\lGetUniqueName">
<polygon fill="white" stroke="black" points="200.5,-0.5 200.5,-30.5 318.5,-30.5 318.5,-0.5 200.5,-0.5"/>
<text text-anchor="start" x="208.5" y="-18.5" font-family="Helvetica,sans-Serif" font-size="10.00">HoloGen.Utils.FileUtils.</text>
<text text-anchor="middle" x="259.5" y="-7.5" font-family="Helvetica,sans-Serif" font-size="10.00">GetUniqueName</text>
</a>
</g>
</g>
<!-- Node2&#45;&gt;Node5 -->
<g id="edge3" class="edge"><title>Node2&#45;&gt;Node5</title>
<path fill="none" stroke="midnightblue" d="M131.899,-49.3986C151.035,-44.2747 172.586,-38.5044 192.408,-33.1968"/>
<polygon fill="midnightblue" stroke="midnightblue" points="193.533,-36.519 202.287,-30.5516 191.722,-29.7572 193.533,-36.519"/>
</g>
</g>
</svg>
