<?xml version="1.0" encoding="UTF-8" standalone="no"?>
<!DOCTYPE svg PUBLIC "-//W3C//DTD SVG 1.1//EN"
 "http://www.w3.org/Graphics/SVG/1.1/DTD/svg11.dtd">
<!-- Generated by graphviz version 2.38.0 (20140413.2041)
 -->
<!-- Title: HoloGen.IO.JsonSettingsFileLoader Pages: 1 -->
<svg width="808pt" height="62pt"
 viewBox="0.00 0.00 808.00 62.00" xmlns="http://www.w3.org/2000/svg" xmlns:xlink="http://www.w3.org/1999/xlink">
<g id="graph0" class="graph" transform="scale(1 1) rotate(0) translate(4 58)">
<title>HoloGen.IO.JsonSettingsFileLoader</title>
<polygon fill="white" stroke="none" points="-4,4 -4,-58 804,-58 804,4 -4,4"/>
<!-- Node4 -->
<g id="node1" class="node"><title>Node4</title>
<polygon fill="#bfbfbf" stroke="black" points="658,-6 658,-36 800,-36 800,-6 658,-6"/>
<text text-anchor="start" x="666" y="-24" font-family="Helvetica,sans-Serif" font-size="10.00">HoloGen.IO.JsonSettingsFile</text>
<text text-anchor="middle" x="729" y="-13" font-family="Helvetica,sans-Serif" font-size="10.00">Loader</text>
</g>
<!-- Node5 -->
<g id="node2" class="node"><title>Node5</title>
<g id="a_node2"><a xlink:href="class_holo_gen_1_1_i_o_1_1_json_file_loader.html" target="_top" xlink:title="JsonFileLoader\&lt; Application\lSettings, ApplicationSettingsVersion,\l JsonSettingsDeserialiser \&gt;">
<polygon fill="white" stroke="black" points="442,-0.5 442,-41.5 621,-41.5 621,-0.5 442,-0.5"/>
<text text-anchor="start" x="450" y="-29.5" font-family="Helvetica,sans-Serif" font-size="10.00">JsonFileLoader&lt; Application</text>
<text text-anchor="start" x="450" y="-18.5" font-family="Helvetica,sans-Serif" font-size="10.00">Settings, ApplicationSettingsVersion,</text>
<text text-anchor="middle" x="531.5" y="-7.5" font-family="Helvetica,sans-Serif" font-size="10.00"> JsonSettingsDeserialiser &gt;</text>
</a>
</g>
</g>
<!-- Node5&#45;&gt;Node4 -->
<g id="edge1" class="edge"><title>Node5&#45;&gt;Node4</title>
<path fill="none" stroke="midnightblue" d="M631.236,-21C640.226,-21 649.205,-21 657.869,-21"/>
<polygon fill="midnightblue" stroke="midnightblue" points="631.098,-17.5001 621.098,-21 631.098,-24.5001 631.098,-17.5001"/>
</g>
<!-- Node6 -->
<g id="node3" class="node"><title>Node6</title>
<g id="a_node3"><a xlink:href="class_holo_gen_1_1_i_o_1_1_json_file_loader.html" target="_top" xlink:title="Loader for files in a JSON format ">
<polygon fill="white" stroke="black" points="147,-6 147,-36 282,-36 282,-6 147,-6"/>
<text text-anchor="start" x="155" y="-24" font-family="Helvetica,sans-Serif" font-size="10.00">HoloGen.IO.JsonFileLoader</text>
<text text-anchor="middle" x="214.5" y="-13" font-family="Helvetica,sans-Serif" font-size="10.00">&lt; S, T, U &gt;</text>
</a>
</g>
</g>
<!-- Node6&#45;&gt;Node5 -->
<g id="edge2" class="edge"><title>Node6&#45;&gt;Node5</title>
<path fill="none" stroke="orange" stroke-dasharray="5,2" d="M292.34,-21C337.538,-21 394.874,-21 441.963,-21"/>
<polygon fill="orange" stroke="orange" points="292.303,-17.5001 282.303,-21 292.303,-24.5001 292.303,-17.5001"/>
<text text-anchor="start" x="300" y="-46" font-family="Helvetica,sans-Serif" font-size="10.00"> &lt; ApplicationSettings,</text>
<text text-anchor="start" x="300" y="-35" font-family="Helvetica,sans-Serif" font-size="10.00"> ApplicationSettingsVersion,</text>
<text text-anchor="middle" x="362" y="-24" font-family="Helvetica,sans-Serif" font-size="10.00"> JsonSettingsDeserialiser &gt;</text>
</g>
<!-- Node7 -->
<g id="node4" class="node"><title>Node7</title>
<g id="a_node4"><a xlink:href="class_holo_gen_1_1_i_o_1_1_file_loader.html" target="_top" xlink:title="Abstract file loader interface ">
<polygon fill="white" stroke="black" points="0,-11.5 0,-30.5 110,-30.5 110,-11.5 0,-11.5"/>
<text text-anchor="middle" x="55" y="-18.5" font-family="Helvetica,sans-Serif" font-size="10.00">FileLoader&lt; S, T, U &gt;</text>
</a>
</g>
</g>
<!-- Node7&#45;&gt;Node6 -->
<g id="edge3" class="edge"><title>Node7&#45;&gt;Node6</title>
<path fill="none" stroke="midnightblue" d="M120.356,-21C129.125,-21 138.14,-21 146.947,-21"/>
<polygon fill="midnightblue" stroke="midnightblue" points="120.203,-17.5001 110.203,-21 120.203,-24.5001 120.203,-17.5001"/>
</g>
</g>
</svg>
