<?xml version="1.0" encoding="UTF-8" standalone="no"?>
<!DOCTYPE svg PUBLIC "-//W3C//DTD SVG 1.1//EN"
 "http://www.w3.org/Graphics/SVG/1.1/DTD/svg11.dtd">
<!-- Generated by graphviz version 2.38.0 (20140413.2041)
 -->
<!-- Title: HoloGen.UI.Menus.ViewModels.ThemeMenuViewModel Pages: 1 -->
<svg width="165pt" height="207pt"
 viewBox="0.00 0.00 165.00 207.00" xmlns="http://www.w3.org/2000/svg" xmlns:xlink="http://www.w3.org/1999/xlink">
<g id="graph0" class="graph" transform="scale(1 1) rotate(0) translate(4 203)">
<title>HoloGen.UI.Menus.ViewModels.ThemeMenuViewModel</title>
<polygon fill="white" stroke="none" points="-4,4 -4,-203 161,-203 161,4 -4,4"/>
<!-- Node0 -->
<g id="node1" class="node"><title>Node0</title>
<polygon fill="#bfbfbf" stroke="black" points="0,-0.5 0,-30.5 157,-30.5 157,-0.5 0,-0.5"/>
<text text-anchor="start" x="8" y="-18.5" font-family="Helvetica,sans-Serif" font-size="10.00">HoloGen.UI.Menus.ViewModels.</text>
<text text-anchor="middle" x="78.5" y="-7.5" font-family="Helvetica,sans-Serif" font-size="10.00">ThemeMenuViewModel</text>
</g>
<!-- Node1 -->
<g id="node2" class="node"><title>Node1</title>
<g id="a_node2"><a xlink:href="class_holo_gen_1_1_u_i_1_1_menus_1_1_view_models_1_1_abstract_menu_view_model.html" target="_top" xlink:title="HoloGen menu view model ">
<polygon fill="white" stroke="black" points="16,-67.5 16,-86.5 141,-86.5 141,-67.5 16,-67.5"/>
<text text-anchor="middle" x="78.5" y="-74.5" font-family="Helvetica,sans-Serif" font-size="10.00">AbstractMenuViewModel</text>
</a>
</g>
</g>
<!-- Node1&#45;&gt;Node0 -->
<g id="edge1" class="edge"><title>Node1&#45;&gt;Node0</title>
<path fill="none" stroke="midnightblue" d="M78.5,-57.2349C78.5,-48.5864 78.5,-38.4969 78.5,-30.523"/>
<polygon fill="midnightblue" stroke="midnightblue" points="75.0001,-57.4751 78.5,-67.4751 82.0001,-57.4751 75.0001,-57.4751"/>
</g>
<!-- Node2 -->
<g id="node3" class="node"><title>Node2</title>
<g id="a_node3"><a xlink:href="class_holo_gen_1_1_utils_1_1_observable_object.html" target="_top" xlink:title="Observable object with INotifyPropertyChanged implemented ">
<polygon fill="white" stroke="black" points="32,-123.5 32,-142.5 125,-142.5 125,-123.5 32,-123.5"/>
<text text-anchor="middle" x="78.5" y="-130.5" font-family="Helvetica,sans-Serif" font-size="10.00">ObservableObject</text>
</a>
</g>
</g>
<!-- Node2&#45;&gt;Node1 -->
<g id="edge2" class="edge"><title>Node2&#45;&gt;Node1</title>
<path fill="none" stroke="midnightblue" d="M78.5,-112.805C78.5,-103.91 78.5,-93.7798 78.5,-86.7511"/>
<polygon fill="midnightblue" stroke="midnightblue" points="75.0001,-113.083 78.5,-123.083 82.0001,-113.083 75.0001,-113.083"/>
</g>
<!-- Node3 -->
<g id="node4" class="node"><title>Node3</title>
<polygon fill="white" stroke="#bfbfbf" points="19,-179.5 19,-198.5 138,-198.5 138,-179.5 19,-179.5"/>
<text text-anchor="middle" x="78.5" y="-186.5" font-family="Helvetica,sans-Serif" font-size="10.00">INotifyPropertyChanged</text>
</g>
<!-- Node3&#45;&gt;Node2 -->
<g id="edge3" class="edge"><title>Node3&#45;&gt;Node2</title>
<path fill="none" stroke="midnightblue" d="M78.5,-168.805C78.5,-159.91 78.5,-149.78 78.5,-142.751"/>
<polygon fill="midnightblue" stroke="midnightblue" points="75.0001,-169.083 78.5,-179.083 82.0001,-169.083 75.0001,-169.083"/>
</g>
</g>
</svg>
