<?xml version="1.0" encoding="UTF-8" standalone="no"?>
<!DOCTYPE svg PUBLIC "-//W3C//DTD SVG 1.1//EN"
 "http://www.w3.org/Graphics/SVG/1.1/DTD/svg11.dtd">
<!-- Generated by graphviz version 2.38.0 (20140413.2041)
 -->
<!-- Title: HoloGen.UI.Utils.MVVM.BindableBase Pages: 1 -->
<svg width="193pt" height="84pt"
 viewBox="0.00 0.00 193.00 84.00" xmlns="http://www.w3.org/2000/svg" xmlns:xlink="http://www.w3.org/1999/xlink">
<g id="graph0" class="graph" transform="scale(1 1) rotate(0) translate(4 80)">
<title>HoloGen.UI.Utils.MVVM.BindableBase</title>
<polygon fill="white" stroke="none" points="-4,4 -4,-80 189,-80 189,4 -4,4"/>
<!-- Node6 -->
<g id="node1" class="node"><title>Node6</title>
<polygon fill="#bfbfbf" stroke="black" points="0,-0.5 0,-19.5 185,-19.5 185,-0.5 0,-0.5"/>
<text text-anchor="middle" x="92.5" y="-7.5" font-family="Helvetica,sans-Serif" font-size="10.00">HoloGen.UI.Utils.MVVM.BindableBase</text>
</g>
<!-- Node7 -->
<g id="node2" class="node"><title>Node7</title>
<polygon fill="white" stroke="#bfbfbf" points="33,-56.5 33,-75.5 152,-75.5 152,-56.5 33,-56.5"/>
<text text-anchor="middle" x="92.5" y="-63.5" font-family="Helvetica,sans-Serif" font-size="10.00">INotifyPropertyChanged</text>
</g>
<!-- Node7&#45;&gt;Node6 -->
<g id="edge1" class="edge"><title>Node7&#45;&gt;Node6</title>
<path fill="none" stroke="midnightblue" d="M92.5,-45.8045C92.5,-36.9102 92.5,-26.7798 92.5,-19.7511"/>
<polygon fill="midnightblue" stroke="midnightblue" points="89.0001,-46.083 92.5,-56.083 96.0001,-46.083 89.0001,-46.083"/>
</g>
</g>
</svg>
