<?xml version="1.0" encoding="UTF-8" standalone="no"?>
<!DOCTYPE svg PUBLIC "-//W3C//DTD SVG 1.1//EN"
 "http://www.w3.org/Graphics/SVG/1.1/DTD/svg11.dtd">
<!-- Generated by graphviz version 2.38.0 (20140413.2041)
 -->
<!-- Title: HoloGen.Image.Options.ImageViewOption Pages: 1 -->
<!--zoomable 363 -->
<svg id="main" version="1.1" xmlns="http://www.w3.org/2000/svg" xmlns:xlink="http://www.w3.org/1999/xlink" xml:space="preserve" onload="init(evt)">
<style type="text/css"><![CDATA[
.edge:hover path { stroke: red; }
.edge:hover polygon { stroke: red; fill: red; }
]]></style>
<script type="text/javascript"><![CDATA[
var edges = document.getElementsByTagName('g');
if (edges && edges.length) {
  for (var i=0;i<edges.length;i++) {
    if (edges[i].id.substr(0,4)=='edge') {
      edges[i].setAttribute('class','edge');
    }
  }
}
]]></script>
        <defs>
                <circle id="rim" cx="0" cy="0" r="7"/>
                <circle id="rim2" cx="0" cy="0" r="3.5"/>
                <g id="zoomPlus">
                        <use xlink:href="#rim" fill="#404040">
                                <set attributeName="fill" to="#808080" begin="zoomplus.mouseover" end="zoomplus.mouseout"/>
                        </use>
                        <path d="M-4,0h8M0,-4v8" fill="none" stroke="white" stroke-width="1.5" pointer-events="none"/>
                </g>
                <g id="zoomMin">
                        <use xlink:href="#rim" fill="#404040">
                                <set attributeName="fill" to="#808080" begin="zoomminus.mouseover" end="zoomminus.mouseout"/>
                        </use>
                        <path d="M-4,0h8" fill="none" stroke="white" stroke-width="1.5" pointer-events="none"/>
                </g>
                <g id="dirArrow">
                        <path fill="none" stroke="white" stroke-width="1.5" d="M0,-3.0v7 M-2.5,-0.5L0,-3.0L2.5,-0.5"/>
                </g>
               <g id="resetDef">
                       <use xlink:href="#rim2" fill="#404040">
                               <set attributeName="fill" to="#808080" begin="reset.mouseover" end="reset.mouseout"/>
                       </use>
               </g>
        </defs>

<script type="text/javascript">
var viewWidth = 2133;
var viewHeight = 363;
var sectionId = 'dynsection-1';
</script>
<script xlink:href="svgpan.js"/>
<svg id="graph" class="graph">
<g id="viewport">
<title>HoloGen.Image.Options.ImageViewOption</title>
<polygon fill="white" stroke="none" points="-4,4 -4,-359.165 2129,-359.165 2129,4 -4,4"/>
<!-- Node13 -->
<g id="node1" class="node"><title>Node13</title>
<polygon fill="#bfbfbf" stroke="black" points="1976,-191.2 1976,-221.2 2125,-221.2 2125,-191.2 1976,-191.2"/>
<text text-anchor="start" x="1984" y="-209.2" font-family="Helvetica,sans-Serif" font-size="10.00">HoloGen.Image.Options.Image</text>
<text text-anchor="middle" x="2050.5" y="-198.2" font-family="Helvetica,sans-Serif" font-size="10.00">ViewOption</text>
</g>
<!-- Node14 -->
<g id="node2" class="node"><title>Node14</title>
<g id="a_node2"><a xlink:href="class_holo_gen_1_1_hierarchy_1_1_option_types_1_1_select_option.html" target="_top" xlink:title="SelectOption\&lt; ImageViewPossibility \&gt;">
<polygon fill="white" stroke="black" points="1696,-128.7 1696,-147.7 1879,-147.7 1879,-128.7 1696,-128.7"/>
<text text-anchor="middle" x="1787.5" y="-135.7" font-family="Helvetica,sans-Serif" font-size="10.00">SelectOption&lt; ImageViewPossibility &gt;</text>
</a>
</g>
</g>
<!-- Node14&#45;&gt;Node13 -->
<g id="edge1" class="edge"><title>Node14&#45;&gt;Node13</title>
<path fill="none" stroke="midnightblue" d="M1844.17,-149.98C1855.71,-152.568 1867.77,-155.382 1879,-158.2 1919.56,-168.383 1965.15,-181.294 1998.97,-191.16"/>
<polygon fill="midnightblue" stroke="midnightblue" points="1844.71,-146.516 1834.19,-147.768 1843.2,-153.35 1844.71,-146.516"/>
</g>
<!-- Node15 -->
<g id="node3" class="node"><title>Node15</title>
<g id="a_node3"><a xlink:href="class_holo_gen_1_1_hierarchy_1_1_option_types_1_1_select_option.html" target="_top" xlink:title="Extends Option wrapping a multiple&#45;choice PossibilityCollection. Due to the limits of the C# reflecti...">
<polygon fill="white" stroke="black" points="1346,-121.2 1346,-151.2 1476,-151.2 1476,-121.2 1346,-121.2"/>
<text text-anchor="start" x="1354" y="-139.2" font-family="Helvetica,sans-Serif" font-size="10.00">HoloGen.Hierarchy.Option</text>
<text text-anchor="middle" x="1411" y="-128.2" font-family="Helvetica,sans-Serif" font-size="10.00">Types.SelectOption&lt; T &gt;</text>
</a>
</g>
</g>
<!-- Node15&#45;&gt;Node14 -->
<g id="edge2" class="edge"><title>Node15&#45;&gt;Node14</title>
<path fill="none" stroke="orange" stroke-dasharray="5,2" d="M1486.56,-136.598C1546.7,-136.919 1631.54,-137.372 1695.65,-137.715"/>
<polygon fill="orange" stroke="orange" points="1486.4,-133.097 1476.38,-136.544 1486.36,-140.097 1486.4,-133.097"/>
<text text-anchor="middle" x="1586" y="-141.2" font-family="Helvetica,sans-Serif" font-size="10.00"> &lt; ImageViewPossibility &gt;</text>
</g>
<!-- Node16 -->
<g id="node4" class="node"><title>Node16</title>
<g id="a_node4"><a xlink:href="class_holo_gen_1_1_hierarchy_1_1_option_types_1_1_option.html" target="_top" xlink:title="Root hierarchy element. Defines Name and ToolTip fields that must be implemented by any implementors...">
<polygon fill="white" stroke="black" points="667,-223.7 667,-242.7 735,-242.7 735,-223.7 667,-223.7"/>
<text text-anchor="middle" x="701" y="-230.7" font-family="Helvetica,sans-Serif" font-size="10.00">Option&lt; T &gt;</text>
</a>
</g>
</g>
<!-- Node16&#45;&gt;Node15 -->
<g id="edge3" class="edge"><title>Node16&#45;&gt;Node15</title>
<path fill="none" stroke="midnightblue" d="M745.385,-233.158C830.786,-232.417 1026.44,-227.462 1188,-199.2 1251.34,-188.12 1322.52,-166.17 1366.81,-151.335"/>
<polygon fill="midnightblue" stroke="midnightblue" points="745.26,-229.658 735.285,-233.23 745.31,-236.658 745.26,-229.658"/>
</g>
<!-- Node17 -->
<g id="node5" class="node"><title>Node17</title>
<g id="a_node5"><a xlink:href="class_holo_gen_1_1_utils_1_1_observable_object.html" target="_top" xlink:title="Observable object with INotifyPropertyChanged implemented ">
<polygon fill="white" stroke="black" points="156,-319.7 156,-338.7 249,-338.7 249,-319.7 156,-319.7"/>
<text text-anchor="middle" x="202.5" y="-326.7" font-family="Helvetica,sans-Serif" font-size="10.00">ObservableObject</text>
</a>
</g>
</g>
<!-- Node17&#45;&gt;Node16 -->
<g id="edge4" class="edge"><title>Node17&#45;&gt;Node16</title>
<path fill="none" stroke="midnightblue" d="M246.693,-341.084C259.267,-344.015 273.094,-346.733 286,-348.2 422.278,-363.69 464.712,-354.706 591,-301.2 628.583,-285.277 668.133,-257.371 687.633,-242.75"/>
<polygon fill="midnightblue" stroke="midnightblue" points="247.462,-337.669 236.918,-338.707 245.808,-344.471 247.462,-337.669"/>
</g>
<!-- Node30 -->
<g id="node18" class="node"><title>Node30</title>
<g id="a_node18"><a xlink:href="class_holo_gen_1_1_hierarchy_1_1_hierarchy_1_1_hierarchy_saveable.html" target="_top" xlink:title="Declares that this object should be serialisable and saveable ">
<polygon fill="white" stroke="black" points="295.5,-319.7 295.5,-338.7 392.5,-338.7 392.5,-319.7 295.5,-319.7"/>
<text text-anchor="middle" x="344" y="-326.7" font-family="Helvetica,sans-Serif" font-size="10.00">HierarchySaveable</text>
</a>
</g>
</g>
<!-- Node17&#45;&gt;Node30 -->
<g id="edge20" class="edge"><title>Node17&#45;&gt;Node30</title>
<path fill="none" stroke="midnightblue" d="M259.44,-329.2C271.322,-329.2 283.762,-329.2 295.303,-329.2"/>
<polygon fill="midnightblue" stroke="midnightblue" points="259.178,-325.7 249.178,-329.2 259.177,-332.7 259.178,-325.7"/>
</g>
<!-- Node18 -->
<g id="node6" class="node"><title>Node18</title>
<polygon fill="white" stroke="#bfbfbf" points="0,-62.7 0,-81.7 119,-81.7 119,-62.7 0,-62.7"/>
<text text-anchor="middle" x="59.5" y="-69.7" font-family="Helvetica,sans-Serif" font-size="10.00">INotifyPropertyChanged</text>
</g>
<!-- Node18&#45;&gt;Node17 -->
<g id="edge5" class="edge"><title>Node18&#45;&gt;Node17</title>
<path fill="none" stroke="midnightblue" d="M70.7535,-90.889C98.6434,-141.724 175.191,-281.247 196.139,-319.429"/>
<polygon fill="midnightblue" stroke="midnightblue" points="73.7338,-89.0446 65.8552,-81.9609 67.5967,-92.4116 73.7338,-89.0446"/>
</g>
<!-- Node19 -->
<g id="node7" class="node"><title>Node19</title>
<g id="a_node7"><a xlink:href="interface_holo_gen_1_1_hierarchy_1_1_option_types_1_1_i_option.html" target="_top" xlink:title="Base interface for the Option that doesn&#39;t need a template parameter. Necessary for a number of refle...">
<polygon fill="white" stroke="black" points="491.5,-81.7 491.5,-100.7 538.5,-100.7 538.5,-81.7 491.5,-81.7"/>
<text text-anchor="middle" x="515" y="-88.7" font-family="Helvetica,sans-Serif" font-size="10.00">IOption</text>
</a>
</g>
</g>
<!-- Node18&#45;&gt;Node19 -->
<g id="edge11" class="edge"><title>Node18&#45;&gt;Node19</title>
<path fill="none" stroke="midnightblue" d="M82.8034,-56.7068C120.187,-32.5739 198.265,10.0268 268,-2.20002 356.128,-17.6518 454.297,-62.0262 494.866,-81.6593"/>
<polygon fill="midnightblue" stroke="midnightblue" points="80.6112,-53.9606 74.2056,-62.3997 84.4758,-59.7971 80.6112,-53.9606"/>
</g>
<!-- Node19&#45;&gt;Node15 -->
<g id="edge14" class="edge"><title>Node19&#45;&gt;Node15</title>
<path fill="none" stroke="midnightblue" d="M548.806,-91.4858C585.609,-91.7813 647.084,-92.2 700,-92.2 700,-92.2 700,-92.2 1116,-92.2 1196.25,-92.2 1287.49,-108.434 1346.75,-121.181"/>
<polygon fill="midnightblue" stroke="midnightblue" points="548.69,-87.9848 538.661,-91.4024 548.632,-94.9846 548.69,-87.9848"/>
</g>
<!-- Node19&#45;&gt;Node16 -->
<g id="edge6" class="edge"><title>Node19&#45;&gt;Node16</title>
<path fill="none" stroke="midnightblue" d="M532.206,-108.573C547.44,-124.935 570.849,-150.156 591,-172.2 607.561,-190.317 607.123,-200.291 628,-213.2 639.696,-220.432 654.051,-225.104 666.857,-228.096"/>
<polygon fill="midnightblue" stroke="midnightblue" points="534.423,-105.818 525.045,-100.888 529.302,-110.59 534.423,-105.818"/>
</g>
<!-- Node20 -->
<g id="node8" class="node"><title>Node20</title>
<g id="a_node8"><a xlink:href="interface_holo_gen_1_1_hierarchy_1_1_hierarchy_1_1_i_can_error.html" target="_top" xlink:title="Interface implemented by any classes that can be in an error state. Defines the Valid property that c...">
<polygon fill="white" stroke="black" points="315.5,-166.7 315.5,-185.7 372.5,-185.7 372.5,-166.7 315.5,-166.7"/>
<text text-anchor="middle" x="344" y="-173.7" font-family="Helvetica,sans-Serif" font-size="10.00">ICanError</text>
</a>
</g>
</g>
<!-- Node20&#45;&gt;Node19 -->
<g id="edge7" class="edge"><title>Node20&#45;&gt;Node19</title>
<path fill="none" stroke="midnightblue" d="M382.209,-163.508C388.879,-160.946 395.706,-158.133 402,-155.2 438.133,-138.363 478.166,-113.998 499.207,-100.714"/>
<polygon fill="midnightblue" stroke="midnightblue" points="380.787,-160.302 372.631,-167.065 383.224,-166.865 380.787,-160.302"/>
</g>
<!-- Node31 -->
<g id="node19" class="node"><title>Node31</title>
<g id="a_node19"><a xlink:href="interface_holo_gen_1_1_hierarchy_1_1_hierarchy_1_1_i_hierarchy_element.html" target="_top" xlink:title="Base interface for the HierarchyElement that doesn&#39;t need a template parameter. Necessary for a numbe...">
<polygon fill="white" stroke="black" points="467,-181.7 467,-200.7 563,-200.7 563,-181.7 467,-181.7"/>
<text text-anchor="middle" x="515" y="-188.7" font-family="Helvetica,sans-Serif" font-size="10.00">IHierarchyElement</text>
</a>
</g>
</g>
<!-- Node20&#45;&gt;Node31 -->
<g id="edge22" class="edge"><title>Node20&#45;&gt;Node31</title>
<path fill="none" stroke="midnightblue" d="M382.672,-179.544C407.567,-181.753 440.389,-184.666 466.992,-187.028"/>
<polygon fill="midnightblue" stroke="midnightblue" points="382.799,-176.041 372.529,-178.643 382.18,-183.014 382.799,-176.041"/>
</g>
<!-- Node21 -->
<g id="node9" class="node"><title>Node21</title>
<g id="a_node9"><a xlink:href="interface_holo_gen_1_1_hierarchy_1_1_hierarchy_1_1_i_has_name.html" target="_top" xlink:title="Interface implemented by any classes that have a Name property. ">
<polygon fill="white" stroke="black" points="313,-84.7 313,-103.7 375,-103.7 375,-84.7 313,-84.7"/>
<text text-anchor="middle" x="344" y="-91.7" font-family="Helvetica,sans-Serif" font-size="10.00">IHasName</text>
</a>
</g>
</g>
<!-- Node21&#45;&gt;Node19 -->
<g id="edge8" class="edge"><title>Node21&#45;&gt;Node19</title>
<path fill="none" stroke="midnightblue" d="M385.088,-85.3046C396.325,-83.1971 408.589,-81.2559 420,-80.2 444.378,-77.9442 472.222,-82.0407 491.239,-85.8592"/>
<polygon fill="midnightblue" stroke="midnightblue" points="384.247,-81.9027 375.11,-87.2662 385.598,-88.7713 384.247,-81.9027"/>
</g>
<!-- Node21&#45;&gt;Node31 -->
<g id="edge23" class="edge"><title>Node21&#45;&gt;Node31</title>
<path fill="none" stroke="midnightblue" d="M381.243,-107.551C388.246,-110.485 395.44,-113.754 402,-117.2 439.962,-137.142 481.213,-166.646 501.414,-181.665"/>
<polygon fill="midnightblue" stroke="midnightblue" points="382.473,-104.274 371.89,-103.772 379.851,-110.764 382.473,-104.274"/>
</g>
<!-- Node22 -->
<g id="node10" class="node"><title>Node22</title>
<g id="a_node10"><a xlink:href="interface_holo_gen_1_1_hierarchy_1_1_hierarchy_1_1_i_has_tool_tip.html" target="_top" xlink:title="Interface implemented by any classes that have a ToolTip property. ">
<polygon fill="white" stroke="black" points="310.5,-126.7 310.5,-145.7 377.5,-145.7 377.5,-126.7 310.5,-126.7"/>
<text text-anchor="middle" x="344" y="-133.7" font-family="Helvetica,sans-Serif" font-size="10.00">IHasToolTip</text>
</a>
</g>
</g>
<!-- Node22&#45;&gt;Node19 -->
<g id="edge9" class="edge"><title>Node22&#45;&gt;Node19</title>
<path fill="none" stroke="midnightblue" d="M378.644,-122.85C386.34,-119.733 394.47,-116.391 402,-113.2 410.06,-109.784 411.594,-107.645 420,-105.2 443.764,-98.2882 471.952,-94.6697 491.221,-92.8581"/>
<polygon fill="midnightblue" stroke="midnightblue" points="377.176,-119.668 369.206,-126.648 379.789,-126.162 377.176,-119.668"/>
</g>
<!-- Node22&#45;&gt;Node31 -->
<g id="edge24" class="edge"><title>Node22&#45;&gt;Node31</title>
<path fill="none" stroke="midnightblue" d="M383.964,-148.88C414.639,-158.864 456.731,-172.562 484.617,-181.637"/>
<polygon fill="midnightblue" stroke="midnightblue" points="385.03,-145.547 374.438,-145.78 382.863,-152.203 385.03,-145.547"/>
</g>
<!-- Node23 -->
<g id="node11" class="node"><title>Node23</title>
<g id="a_node11"><a xlink:href="interface_holo_gen_1_1_hierarchy_1_1_hierarchy_1_1_i_can_enable.html" target="_top" xlink:title="Interface implemented by any classes that can be enabled Enabled. ">
<polygon fill="white" stroke="black" points="169.5,-143.7 169.5,-162.7 235.5,-162.7 235.5,-143.7 169.5,-143.7"/>
<text text-anchor="middle" x="202.5" y="-150.7" font-family="Helvetica,sans-Serif" font-size="10.00">ICanEnable</text>
</a>
</g>
</g>
<!-- Node23&#45;&gt;Node19 -->
<g id="edge10" class="edge"><title>Node23&#45;&gt;Node19</title>
<path fill="none" stroke="midnightblue" d="M215.712,-135.456C230.012,-116.414 255.644,-87.2784 286,-75.2 356.605,-47.1072 449.161,-69.9971 491.319,-83.3147"/>
<polygon fill="midnightblue" stroke="midnightblue" points="212.821,-133.482 209.797,-143.636 218.493,-137.583 212.821,-133.482"/>
</g>
<!-- Node26 -->
<g id="node14" class="node"><title>Node26</title>
<g id="a_node14"><a xlink:href="class_holo_gen_1_1_hierarchy_1_1_hierarchy_1_1_hierarchy_folder.html" target="_top" xlink:title="Folder hierarchy element. Extends HierarchyElement and extends it to split the ReflectiveChildrenElem...">
<polygon fill="white" stroke="black" points="1042,-121.2 1042,-151.2 1188,-151.2 1188,-121.2 1042,-121.2"/>
<text text-anchor="start" x="1050" y="-139.2" font-family="Helvetica,sans-Serif" font-size="10.00">HoloGen.Hierarchy.Hierarchy.</text>
<text text-anchor="middle" x="1115" y="-128.2" font-family="Helvetica,sans-Serif" font-size="10.00">HierarchyFolder</text>
</a>
</g>
</g>
<!-- Node23&#45;&gt;Node26 -->
<g id="edge29" class="edge"><title>Node23&#45;&gt;Node26</title>
<path fill="none" stroke="midnightblue" d="M212.041,-133.925C230.226,-96.1871 276.6,-16.2 343,-16.2 343,-16.2 343,-16.2 934.5,-16.2 971.798,-16.2 1059.57,-88.7116 1096.81,-121.002"/>
<polygon fill="midnightblue" stroke="midnightblue" points="208.703,-132.803 207.667,-143.347 215.052,-135.751 208.703,-132.803"/>
</g>
<!-- Node23&#45;&gt;Node31 -->
<g id="edge28" class="edge"><title>Node23&#45;&gt;Node31</title>
<path fill="none" stroke="midnightblue" d="M215.675,-171.31C229.941,-190.803 255.544,-220.81 286,-234.2 341,-258.38 362.738,-255.869 421,-241.2 451.931,-233.412 483.779,-213.112 501.008,-200.907"/>
<polygon fill="midnightblue" stroke="midnightblue" points="218.4,-169.102 209.776,-162.948 212.68,-173.137 218.4,-169.102"/>
</g>
<!-- Node32 -->
<g id="node20" class="node"><title>Node32</title>
<g id="a_node20"><a xlink:href="interface_holo_gen_1_1_hierarchy_1_1_hierarchy_1_1_i_can_recursively_enable.html" target="_top" xlink:title="Interface implemented by any classes that can be enabled Enabled and have children that can be Enable...">
<polygon fill="white" stroke="black" points="286,-281.7 286,-300.7 402,-300.7 402,-281.7 286,-281.7"/>
<text text-anchor="middle" x="344" y="-288.7" font-family="Helvetica,sans-Serif" font-size="10.00">ICanRecursivelyEnable</text>
</a>
</g>
</g>
<!-- Node23&#45;&gt;Node32 -->
<g id="edge27" class="edge"><title>Node23&#45;&gt;Node32</title>
<path fill="none" stroke="midnightblue" d="M209.194,-172.311C217.702,-197.629 236.124,-242.015 267,-267.2 274.72,-273.497 284.109,-278.15 293.618,-281.587"/>
<polygon fill="midnightblue" stroke="midnightblue" points="212.516,-171.207 206.147,-162.739 205.845,-173.33 212.516,-171.207"/>
</g>
<!-- Node24 -->
<g id="node12" class="node"><title>Node24</title>
<g id="a_node12"><a xlink:href="interface_holo_gen_1_1_hierarchy_1_1_hierarchy_1_1_i_can_reset.html" target="_top" xlink:title="Interface implemented by any classes that can be reset. ">
<polygon fill="white" stroke="black" points="313,-205.7 313,-224.7 375,-224.7 375,-205.7 313,-205.7"/>
<text text-anchor="middle" x="344" y="-212.7" font-family="Helvetica,sans-Serif" font-size="10.00">ICanReset</text>
</a>
</g>
</g>
<!-- Node24&#45;&gt;Node19 -->
<g id="edge12" class="edge"><title>Node24&#45;&gt;Node19</title>
<path fill="none" stroke="midnightblue" d="M384.487,-203.743C390.544,-201.312 396.579,-198.471 402,-195.2 446.757,-168.194 488.954,-121.165 506.027,-100.923"/>
<polygon fill="midnightblue" stroke="midnightblue" points="383.206,-200.485 375.036,-207.23 385.629,-207.052 383.206,-200.485"/>
</g>
<!-- Node24&#45;&gt;Node31 -->
<g id="edge25" class="edge"><title>Node24&#45;&gt;Node31</title>
<path fill="none" stroke="midnightblue" d="M384.932,-226.648C396.583,-228.599 409.321,-229.382 421,-227.2 447.89,-222.177 477.013,-209.641 495.37,-200.78"/>
<polygon fill="midnightblue" stroke="midnightblue" points="385.517,-223.196 375.027,-224.678 384.152,-230.061 385.517,-223.196"/>
</g>
<!-- Node25 -->
<g id="node13" class="node"><title>Node25</title>
<g id="a_node13"><a xlink:href="interface_holo_gen_1_1_hierarchy_1_1_option_types_1_1_i_select_option.html" target="_top" xlink:title="Base interface for the SelectOption that doesn&#39;t need a template parameter. Necessary for a number of...">
<polygon fill="white" stroke="black" points="1077.5,-44.7 1077.5,-63.7 1152.5,-63.7 1152.5,-44.7 1077.5,-44.7"/>
<text text-anchor="middle" x="1115" y="-51.7" font-family="Helvetica,sans-Serif" font-size="10.00">ISelectOption</text>
</a>
</g>
</g>
<!-- Node25&#45;&gt;Node15 -->
<g id="edge13" class="edge"><title>Node25&#45;&gt;Node15</title>
<path fill="none" stroke="midnightblue" d="M1162.67,-52.9015C1206.7,-53.1832 1273.85,-57.5586 1328,-78.2 1353.42,-87.8888 1378.31,-107.307 1393.87,-120.999"/>
<polygon fill="midnightblue" stroke="midnightblue" points="1162.54,-49.4014 1152.55,-52.9064 1162.55,-56.4014 1162.54,-49.4014"/>
</g>
<!-- Node26&#45;&gt;Node15 -->
<g id="edge15" class="edge"><title>Node26&#45;&gt;Node15</title>
<path fill="none" stroke="#9a32cd" stroke-dasharray="5,2" d="M1198.39,-136.2C1245.11,-136.2 1302.69,-136.2 1345.99,-136.2"/>
<polygon fill="#9a32cd" stroke="#9a32cd" points="1198.3,-132.7 1188.3,-136.2 1198.3,-139.7 1198.3,-132.7"/>
<text text-anchor="middle" x="1267" y="-139.2" font-family="Helvetica,sans-Serif" font-size="10.00"> PushLocation</text>
</g>
<!-- Node27 -->
<g id="node15" class="node"><title>Node27</title>
<g id="a_node15"><a xlink:href="class_holo_gen_1_1_hierarchy_1_1_hierarchy_1_1_hierarchy_element.html" target="_top" xlink:title="HierarchyElement\&lt; IOption \&gt;">
<polygon fill="white" stroke="black" points="862,-170.7 862,-189.7 1005,-189.7 1005,-170.7 862,-170.7"/>
<text text-anchor="middle" x="933.5" y="-177.7" font-family="Helvetica,sans-Serif" font-size="10.00">HierarchyElement&lt; IOption &gt;</text>
</a>
</g>
</g>
<!-- Node27&#45;&gt;Node26 -->
<g id="edge16" class="edge"><title>Node27&#45;&gt;Node26</title>
<path fill="none" stroke="midnightblue" d="M983.271,-168.245C1004.62,-163.011 1029.92,-156.811 1052.54,-151.265"/>
<polygon fill="midnightblue" stroke="midnightblue" points="982.328,-164.872 973.449,-170.653 983.995,-171.671 982.328,-164.872"/>
</g>
<!-- Node35 -->
<g id="node23" class="node"><title>Node35</title>
<g id="a_node23"><a xlink:href="class_holo_gen_1_1_hierarchy_1_1_hierarchy_1_1_option_collection.html" target="_top" xlink:title="Option collection. Extends HierarchyElement. The base class ReflectiveChildrenElement finds all membe...">
<polygon fill="white" stroke="black" points="1071,-170.7 1071,-189.7 1159,-189.7 1159,-170.7 1071,-170.7"/>
<text text-anchor="middle" x="1115" y="-177.7" font-family="Helvetica,sans-Serif" font-size="10.00">OptionCollection</text>
</a>
</g>
</g>
<!-- Node27&#45;&gt;Node35 -->
<g id="edge33" class="edge"><title>Node27&#45;&gt;Node35</title>
<path fill="none" stroke="midnightblue" d="M1015.41,-180.2C1034.51,-180.2 1054.15,-180.2 1070.83,-180.2"/>
<polygon fill="midnightblue" stroke="midnightblue" points="1015.19,-176.7 1005.19,-180.2 1015.19,-183.7 1015.19,-176.7"/>
</g>
<!-- Node28 -->
<g id="node16" class="node"><title>Node28</title>
<g id="a_node16"><a xlink:href="class_holo_gen_1_1_hierarchy_1_1_hierarchy_1_1_hierarchy_element.html" target="_top" xlink:title="Root hierarchy element. Defines Name and ToolTip fields that must be implemented by any implementors...">
<polygon fill="white" stroke="black" points="628,-174.2 628,-204.2 774,-204.2 774,-174.2 628,-174.2"/>
<text text-anchor="start" x="636" y="-192.2" font-family="Helvetica,sans-Serif" font-size="10.00">HoloGen.Hierarchy.Hierarchy.</text>
<text text-anchor="middle" x="701" y="-181.2" font-family="Helvetica,sans-Serif" font-size="10.00">HierarchyElement&lt; T &gt;</text>
</a>
</g>
</g>
<!-- Node28&#45;&gt;Node27 -->
<g id="edge17" class="edge"><title>Node28&#45;&gt;Node27</title>
<path fill="none" stroke="orange" stroke-dasharray="5,2" d="M784.577,-185.976C809.791,-184.991 837.279,-183.918 861.642,-182.967"/>
<polygon fill="orange" stroke="orange" points="784.155,-182.489 774.299,-186.377 784.428,-189.484 784.155,-182.489"/>
<text text-anchor="middle" x="818" y="-189.2" font-family="Helvetica,sans-Serif" font-size="10.00"> &lt; IOption &gt;</text>
</g>
<!-- Node29 -->
<g id="node17" class="node"><title>Node29</title>
<g id="a_node17"><a xlink:href="class_holo_gen_1_1_hierarchy_1_1_hierarchy_1_1_reflective_children_element.html" target="_top" xlink:title="Reflective hierarchy element template T . The constructor finds all members assignable from T &#160;and us...">
<polygon fill="white" stroke="black" points="439,-272.7 439,-291.7 591,-291.7 591,-272.7 439,-272.7"/>
<text text-anchor="middle" x="515" y="-279.7" font-family="Helvetica,sans-Serif" font-size="10.00">ReflectiveChildrenElement&lt; T &gt;</text>
</a>
</g>
</g>
<!-- Node29&#45;&gt;Node28 -->
<g id="edge18" class="edge"><title>Node29&#45;&gt;Node28</title>
<path fill="none" stroke="midnightblue" d="M537.925,-266.967C559.959,-252.128 595.258,-229.611 628,-214.2 635.662,-210.594 643.993,-207.228 652.18,-204.208"/>
<polygon fill="midnightblue" stroke="midnightblue" points="535.911,-264.105 529.614,-272.625 539.85,-269.891 535.911,-264.105"/>
</g>
<!-- Node38 -->
<g id="node26" class="node"><title>Node38</title>
<g id="a_node26"><a xlink:href="class_holo_gen_1_1_hierarchy_1_1_hierarchy_1_1_possibility_collection.html" target="_top" xlink:title="Collection of Possibilitys. Is wrapped by a SelectOption. Extends ReflectiveChildrenElement. The base class ReflectiveChildrenElement finds all members assignable from T &#160;and uses them to populate the ReflectiveChildrenElement.Children member collection. ">
<polygon fill="white" stroke="black" points="1042,-267.2 1042,-297.2 1188,-297.2 1188,-267.2 1042,-267.2"/>
<text text-anchor="start" x="1050" y="-285.2" font-family="Helvetica,sans-Serif" font-size="10.00">HoloGen.Hierarchy.Hierarchy.</text>
<text text-anchor="middle" x="1115" y="-274.2" font-family="Helvetica,sans-Serif" font-size="10.00">PossibilityCollection&lt; T &gt;</text>
</a>
</g>
</g>
<!-- Node29&#45;&gt;Node38 -->
<g id="edge37" class="edge"><title>Node29&#45;&gt;Node38</title>
<path fill="none" stroke="midnightblue" d="M601.227,-282.2C719.469,-282.2 931.201,-282.2 1041.97,-282.2"/>
<polygon fill="midnightblue" stroke="midnightblue" points="601.132,-278.7 591.132,-282.2 601.132,-285.7 601.132,-278.7"/>
</g>
<!-- Node30&#45;&gt;Node29 -->
<g id="edge19" class="edge"><title>Node30&#45;&gt;Node29</title>
<path fill="none" stroke="midnightblue" d="M388.838,-317.008C417.111,-309.145 453.358,-299.065 479.562,-291.778"/>
<polygon fill="midnightblue" stroke="midnightblue" points="387.896,-313.637 379.2,-319.689 389.772,-320.381 387.896,-313.637"/>
</g>
<!-- Node31&#45;&gt;Node28 -->
<g id="edge21" class="edge"><title>Node31&#45;&gt;Node28</title>
<path fill="none" stroke="midnightblue" d="M573.777,-190.572C590.891,-190.386 609.848,-190.18 627.757,-189.985"/>
<polygon fill="midnightblue" stroke="midnightblue" points="573.346,-187.076 563.385,-190.685 573.422,-194.076 573.346,-187.076"/>
</g>
<!-- Node32&#45;&gt;Node31 -->
<g id="edge26" class="edge"><title>Node32&#45;&gt;Node31</title>
<path fill="none" stroke="midnightblue" d="M411.835,-281.171C414.988,-279.99 418.061,-278.672 421,-277.2 430.881,-272.252 482.577,-222.058 504.335,-200.718"/>
<polygon fill="midnightblue" stroke="midnightblue" points="410.606,-277.89 402.183,-284.316 412.775,-284.545 410.606,-277.89"/>
</g>
<!-- Node33 -->
<g id="node21" class="node"><title>Node33</title>
<g id="a_node21"><a xlink:href="class_holo_gen_1_1_image_1_1_options_1_1_image_view_possibility.html" target="_top" xlink:title="Base level possibility for the image viewing style. ">
<polygon fill="white" stroke="black" points="1713,-168.2 1713,-198.2 1862,-198.2 1862,-168.2 1713,-168.2"/>
<text text-anchor="start" x="1721" y="-186.2" font-family="Helvetica,sans-Serif" font-size="10.00">HoloGen.Image.Options.Image</text>
<text text-anchor="middle" x="1787.5" y="-175.2" font-family="Helvetica,sans-Serif" font-size="10.00">ViewPossibility</text>
</a>
</g>
</g>
<!-- Node33&#45;&gt;Node13 -->
<g id="edge30" class="edge"><title>Node33&#45;&gt;Node13</title>
<path fill="none" stroke="#9a32cd" stroke-dasharray="5,2" d="M1872.36,-186.01C1899.71,-187.365 1930.19,-189.341 1958,-192.2 1963.75,-192.792 1969.7,-193.494 1975.67,-194.263"/>
<polygon fill="#9a32cd" stroke="#9a32cd" points="1872.2,-182.499 1862.04,-185.521 1871.87,-189.491 1872.2,-182.499"/>
<text text-anchor="middle" x="1927.5" y="-195.2" font-family="Helvetica,sans-Serif" font-size="10.00"> Default</text>
</g>
<!-- Node34 -->
<g id="node22" class="node"><title>Node34</title>
<g id="a_node22"><a xlink:href="class_holo_gen_1_1_hierarchy_1_1_option_types_1_1_possibility.html" target="_top" xlink:title="Possibility for a PossibilityCollection wrapped by a SelectOption. Extends OptionCollection. The base class ReflectiveChildrenElement finds all members assignable from T &#160;and uses them to populate the ReflectiveChildrenElement.Children member collection. ">
<polygon fill="white" stroke="black" points="1380,-171.7 1380,-190.7 1442,-190.7 1442,-171.7 1380,-171.7"/>
<text text-anchor="middle" x="1411" y="-178.7" font-family="Helvetica,sans-Serif" font-size="10.00">Possibility</text>
</a>
</g>
</g>
<!-- Node34&#45;&gt;Node33 -->
<g id="edge31" class="edge"><title>Node34&#45;&gt;Node33</title>
<path fill="none" stroke="midnightblue" d="M1452.19,-181.415C1514.31,-181.746 1634.6,-182.389 1712.67,-182.806"/>
<polygon fill="midnightblue" stroke="midnightblue" points="1452.03,-177.914 1442.01,-181.36 1451.99,-184.914 1452.03,-177.914"/>
</g>
<!-- Node35&#45;&gt;Node34 -->
<g id="edge32" class="edge"><title>Node35&#45;&gt;Node34</title>
<path fill="none" stroke="midnightblue" d="M1169.37,-180.382C1231,-180.591 1330.26,-180.929 1379.82,-181.097"/>
<polygon fill="midnightblue" stroke="midnightblue" points="1169.08,-176.881 1159.06,-180.347 1169.05,-183.881 1169.08,-176.881"/>
</g>
<!-- Node36 -->
<g id="node24" class="node"><title>Node36</title>
<g id="a_node24"><a xlink:href="class_holo_gen_1_1_image_1_1_options_1_1_image_view_possibilities.html" target="_top" xlink:title="Possibilities for viewing the image. ">
<polygon fill="white" stroke="black" points="1713,-217.2 1713,-247.2 1862,-247.2 1862,-217.2 1713,-217.2"/>
<text text-anchor="start" x="1721" y="-235.2" font-family="Helvetica,sans-Serif" font-size="10.00">HoloGen.Image.Options.Image</text>
<text text-anchor="middle" x="1787.5" y="-224.2" font-family="Helvetica,sans-Serif" font-size="10.00">ViewPossibilities</text>
</a>
</g>
</g>
<!-- Node36&#45;&gt;Node13 -->
<g id="edge34" class="edge"><title>Node36&#45;&gt;Node13</title>
<path fill="none" stroke="#9a32cd" stroke-dasharray="5,2" d="M1872.42,-223.84C1905.74,-220.521 1943.72,-216.738 1975.94,-213.528"/>
<polygon fill="#9a32cd" stroke="#9a32cd" points="1871.85,-220.38 1862.25,-224.854 1872.54,-227.345 1871.85,-220.38"/>
<text text-anchor="middle" x="1927.5" y="-224.2" font-family="Helvetica,sans-Serif" font-size="10.00"> Possibilities2</text>
</g>
<!-- Node37 -->
<g id="node25" class="node"><title>Node37</title>
<g id="a_node25"><a xlink:href="class_holo_gen_1_1_hierarchy_1_1_hierarchy_1_1_possibility_collection.html" target="_top" xlink:title="PossibilityCollection\l\&lt; ImageViewPossibility \&gt;">
<polygon fill="white" stroke="black" points="1347.5,-222.2 1347.5,-252.2 1474.5,-252.2 1474.5,-222.2 1347.5,-222.2"/>
<text text-anchor="start" x="1355.5" y="-240.2" font-family="Helvetica,sans-Serif" font-size="10.00">PossibilityCollection</text>
<text text-anchor="middle" x="1411" y="-229.2" font-family="Helvetica,sans-Serif" font-size="10.00">&lt; ImageViewPossibility &gt;</text>
</a>
</g>
</g>
<!-- Node37&#45;&gt;Node36 -->
<g id="edge35" class="edge"><title>Node37&#45;&gt;Node36</title>
<path fill="none" stroke="midnightblue" d="M1484.97,-236.226C1550.77,-235.347 1647.04,-234.062 1713,-233.181"/>
<polygon fill="midnightblue" stroke="midnightblue" points="1484.64,-232.73 1474.68,-236.363 1484.73,-239.729 1484.64,-232.73"/>
</g>
<!-- Node38&#45;&gt;Node37 -->
<g id="edge36" class="edge"><title>Node38&#45;&gt;Node37</title>
<path fill="none" stroke="orange" stroke-dasharray="5,2" d="M1163.93,-263.776C1177.36,-259.288 1192.09,-254.984 1206,-252.2 1252.83,-242.824 1306.77,-239.16 1347.41,-237.794"/>
<polygon fill="orange" stroke="orange" points="1162.73,-260.49 1154.41,-267.057 1165.01,-267.107 1162.73,-260.49"/>
<text text-anchor="middle" x="1267" y="-255.2" font-family="Helvetica,sans-Serif" font-size="10.00"> &lt; ImageViewPossibility &gt;</text>
</g>
<!-- Node39 -->
<g id="node27" class="node"><title>Node39</title>
<g id="a_node27"><a xlink:href="class_holo_gen_1_1_hierarchy_1_1_hierarchy_1_1_possibility_collection.html" target="_top" xlink:title="HoloGen.Hierarchy.Hierarchy.\lPossibilityCollection\&lt; HoloGen.\lImage.Options.ImageViewPossibility \&gt;">
<polygon fill="white" stroke="black" points="1494,-263.7 1494,-304.7 1678,-304.7 1678,-263.7 1494,-263.7"/>
<text text-anchor="start" x="1502" y="-292.7" font-family="Helvetica,sans-Serif" font-size="10.00">HoloGen.Hierarchy.Hierarchy.</text>
<text text-anchor="start" x="1502" y="-281.7" font-family="Helvetica,sans-Serif" font-size="10.00">PossibilityCollection&lt; HoloGen.</text>
<text text-anchor="middle" x="1586" y="-270.7" font-family="Helvetica,sans-Serif" font-size="10.00">Image.Options.ImageViewPossibility &gt;</text>
</a>
</g>
</g>
<!-- Node38&#45;&gt;Node39 -->
<g id="edge39" class="edge"><title>Node38&#45;&gt;Node39</title>
<path fill="none" stroke="orange" stroke-dasharray="5,2" d="M1198.36,-282.551C1281.02,-282.904 1408.05,-283.445 1493.74,-283.811"/>
<polygon fill="orange" stroke="orange" points="1198.27,-279.051 1188.25,-282.508 1198.24,-286.051 1198.27,-279.051"/>
<text text-anchor="start" x="1206" y="-297.2" font-family="Helvetica,sans-Serif" font-size="10.00"> &lt; HoloGen::Image::Options</text>
<text text-anchor="middle" x="1267" y="-286.2" font-family="Helvetica,sans-Serif" font-size="10.00">::ImageViewPossibility &gt;</text>
</g>
<!-- Node39&#45;&gt;Node13 -->
<g id="edge38" class="edge"><title>Node39&#45;&gt;Node13</title>
<path fill="none" stroke="#9a32cd" stroke-dasharray="5,2" d="M1688.23,-278.303C1744.66,-274.064 1816.04,-267.122 1879,-256.2 1914.69,-250.009 1923.22,-246.292 1958,-236.2 1973.57,-231.681 1990.48,-226.28 2005.48,-221.313"/>
<polygon fill="#9a32cd" stroke="#9a32cd" points="1687.95,-274.815 1678.23,-279.038 1688.46,-281.796 1687.95,-274.815"/>
<text text-anchor="middle" x="1787.5" y="-281.2" font-family="Helvetica,sans-Serif" font-size="10.00"> Possibilities</text>
</g>
</g>
</svg>
        <g id="navigator" transform="translate(0 0)" fill="#404254">
                <rect fill="#f2f5e9" fill-opacity="0.5" stroke="#606060" stroke-width=".5" x="0" y="0" width="60" height="60"/>
                <use id="zoomplus" xlink:href="#zoomPlus" x="17" y="9" onmousedown="handleZoom(evt,'in')"/>
                <use id="zoomminus" xlink:href="#zoomMin" x="42" y="9" onmousedown="handleZoom(evt,'out')"/>
                <use id="reset" xlink:href="#resetDef" x="30" y="36" onmousedown="handleReset()"/>
                <g id="arrowUp" xlink:href="#dirArrow" transform="translate(30 24)" onmousedown="handlePan(0,-1)">
                  <use xlink:href="#rim" fill="#404040">
                        <set attributeName="fill" to="#808080" begin="arrowUp.mouseover" end="arrowUp.mouseout"/>
                  </use>
                  <path fill="none" stroke="white" stroke-width="1.5" d="M0,-3.0v7 M-2.5,-0.5L0,-3.0L2.5,-0.5"/>
                </g>
                <g id="arrowRight" xlink:href="#dirArrow" transform="rotate(90) translate(36 -43)" onmousedown="handlePan(1,0)">
                  <use xlink:href="#rim" fill="#404040">
                        <set attributeName="fill" to="#808080" begin="arrowRight.mouseover" end="arrowRight.mouseout"/>
                  </use>
                  <path fill="none" stroke="white" stroke-width="1.5" d="M0,-3.0v7 M-2.5,-0.5L0,-3.0L2.5,-0.5"/>
                </g>
                <g id="arrowDown" xlink:href="#dirArrow" transform="rotate(180) translate(-30 -48)" onmousedown="handlePan(0,1)">
                  <use xlink:href="#rim" fill="#404040">
                        <set attributeName="fill" to="#808080" begin="arrowDown.mouseover" end="arrowDown.mouseout"/>
                  </use>
                  <path fill="none" stroke="white" stroke-width="1.5" d="M0,-3.0v7 M-2.5,-0.5L0,-3.0L2.5,-0.5"/>
                </g>
                <g id="arrowLeft" xlink:href="#dirArrow" transform="rotate(270) translate(-36 17)" onmousedown="handlePan(-1,0)">
                  <use xlink:href="#rim" fill="#404040">
                        <set attributeName="fill" to="#808080" begin="arrowLeft.mouseover" end="arrowLeft.mouseout"/>
                  </use>
                  <path fill="none" stroke="white" stroke-width="1.5" d="M0,-3.0v7 M-2.5,-0.5L0,-3.0L2.5,-0.5"/>
                </g>
        </g>
        <svg viewBox="0 0 15 15" width="100%" height="30px" preserveAspectRatio="xMaxYMin meet">
         <g id="arrow_out" transform="scale(0.3 0.3)">
          <a xlink:href="class_holo_gen_1_1_image_1_1_options_1_1_image_view_option__coll__graph_org.svg" target="_base">
           <rect id="button" ry="5" rx="5" y="6" x="6" height="38" width="38"
                fill="#f2f5e9" fill-opacity="0.5" stroke="#606060" stroke-width="1.0"/>
           <path id="arrow"
             d="M 11.500037,31.436501 C 11.940474,20.09759 22.043105,11.32322 32.158766,21.979434 L 37.068811,17.246167 C 37.068811,17.246167 37.088388,32 37.088388,32 L 22.160133,31.978069 C 22.160133,31.978069 26.997745,27.140456 26.997745,27.140456 C 18.528582,18.264221 13.291696,25.230495 11.500037,31.436501 z"
             style="fill:#404040;"/>
          </a>
         </g>
        </svg>
</svg>
