<?xml version="1.0" encoding="UTF-8" standalone="no"?>
<!DOCTYPE svg PUBLIC "-//W3C//DTD SVG 1.1//EN"
 "http://www.w3.org/Graphics/SVG/1.1/DTD/svg11.dtd">
<!-- Generated by graphviz version 2.38.0 (20140413.2041)
 -->
<!-- Title: HoloGen.UI.OptionEditors.LargeTextEditor Pages: 1 -->
<svg width="139pt" height="151pt"
 viewBox="0.00 0.00 139.00 151.00" xmlns="http://www.w3.org/2000/svg" xmlns:xlink="http://www.w3.org/1999/xlink">
<g id="graph0" class="graph" transform="scale(1 1) rotate(0) translate(4 147)">
<title>HoloGen.UI.OptionEditors.LargeTextEditor</title>
<polygon fill="white" stroke="none" points="-4,4 -4,-147 135,-147 135,4 -4,4"/>
<!-- Node3 -->
<g id="node1" class="node"><title>Node3</title>
<polygon fill="#bfbfbf" stroke="black" points="0,-0.5 0,-30.5 131,-30.5 131,-0.5 0,-0.5"/>
<text text-anchor="start" x="8" y="-18.5" font-family="Helvetica,sans-Serif" font-size="10.00">HoloGen.UI.OptionEditors.</text>
<text text-anchor="middle" x="65.5" y="-7.5" font-family="Helvetica,sans-Serif" font-size="10.00">LargeTextEditor</text>
</g>
<!-- Node4 -->
<g id="node2" class="node"><title>Node4</title>
<g id="a_node2"><a xlink:href="class_holo_gen_1_1_u_i_1_1_option_editors_1_1_text_editor.html" target="_top" xlink:title="User interface editor for TextOptions. ">
<polygon fill="white" stroke="black" points="35,-67.5 35,-86.5 96,-86.5 96,-67.5 35,-67.5"/>
<text text-anchor="middle" x="65.5" y="-74.5" font-family="Helvetica,sans-Serif" font-size="10.00">TextEditor</text>
</a>
</g>
</g>
<!-- Node4&#45;&gt;Node3 -->
<g id="edge1" class="edge"><title>Node4&#45;&gt;Node3</title>
<path fill="none" stroke="midnightblue" d="M65.5,-57.2349C65.5,-48.5864 65.5,-38.4969 65.5,-30.523"/>
<polygon fill="midnightblue" stroke="midnightblue" points="62.0001,-57.4751 65.5,-67.4751 69.0001,-57.4751 62.0001,-57.4751"/>
</g>
<!-- Node5 -->
<g id="node3" class="node"><title>Node5</title>
<polygon fill="white" stroke="#bfbfbf" points="31.5,-123.5 31.5,-142.5 99.5,-142.5 99.5,-123.5 31.5,-123.5"/>
<text text-anchor="middle" x="65.5" y="-130.5" font-family="Helvetica,sans-Serif" font-size="10.00">UserControl</text>
</g>
<!-- Node5&#45;&gt;Node4 -->
<g id="edge2" class="edge"><title>Node5&#45;&gt;Node4</title>
<path fill="none" stroke="midnightblue" d="M65.5,-112.805C65.5,-103.91 65.5,-93.7798 65.5,-86.7511"/>
<polygon fill="midnightblue" stroke="midnightblue" points="62.0001,-113.083 65.5,-123.083 69.0001,-113.083 62.0001,-113.083"/>
</g>
</g>
</svg>
