<?xml version="1.0" encoding="UTF-8" standalone="no"?>
<!DOCTYPE svg PUBLIC "-//W3C//DTD SVG 1.1//EN"
 "http://www.w3.org/Graphics/SVG/1.1/DTD/svg11.dtd">
<!-- Generated by graphviz version 2.38.0 (20140413.2041)
 -->
<!-- Title: HoloGen.Serial.JsonDeserialiser&lt; S, T &gt; Pages: 1 -->
<svg width="870pt" height="149pt"
 viewBox="0.00 0.00 870.00 149.00" xmlns="http://www.w3.org/2000/svg" xmlns:xlink="http://www.w3.org/1999/xlink">
<g id="graph0" class="graph" transform="scale(1 1) rotate(0) translate(4 145)">
<title>HoloGen.Serial.JsonDeserialiser&lt; S, T &gt;</title>
<polygon fill="white" stroke="none" points="-4,4 -4,-145 866,-145 866,4 -4,4"/>
<!-- Node0 -->
<g id="node1" class="node"><title>Node0</title>
<polygon fill="#bfbfbf" stroke="black" points="141,-61 141,-91 297,-91 297,-61 141,-61"/>
<text text-anchor="start" x="149" y="-79" font-family="Helvetica,sans-Serif" font-size="10.00">HoloGen.Serial.JsonDeserialiser</text>
<text text-anchor="middle" x="219" y="-68" font-family="Helvetica,sans-Serif" font-size="10.00">&lt; S, T &gt;</text>
</g>
<!-- Node2 -->
<g id="node3" class="node"><title>Node2</title>
<g id="a_node3"><a xlink:href="class_holo_gen_1_1_serial_1_1_json_deserialiser.html" target="_top" xlink:title="HoloGen.Serial.JsonDeserialiser\l\&lt; OptionsRoot, OptionsRootVersion \&gt;">
<polygon fill="white" stroke="black" points="491.5,-110 491.5,-140 673.5,-140 673.5,-110 491.5,-110"/>
<text text-anchor="start" x="499.5" y="-128" font-family="Helvetica,sans-Serif" font-size="10.00">HoloGen.Serial.JsonDeserialiser</text>
<text text-anchor="middle" x="582.5" y="-117" font-family="Helvetica,sans-Serif" font-size="10.00">&lt; OptionsRoot, OptionsRootVersion &gt;</text>
</a>
</g>
</g>
<!-- Node0&#45;&gt;Node2 -->
<g id="edge2" class="edge"><title>Node0&#45;&gt;Node2</title>
<path fill="none" stroke="orange" stroke-dasharray="5,2" d="M280.728,-93.5939C292.046,-96.4121 303.826,-99.0409 315,-101 373.225,-111.209 439.413,-117.199 491.261,-120.641"/>
<polygon fill="orange" stroke="orange" points="281.484,-90.1746 270.928,-91.0806 279.745,-96.9552 281.484,-90.1746"/>
<text text-anchor="start" x="325.5" y="-133" font-family="Helvetica,sans-Serif" font-size="10.00"> &lt; OptionsRoot, OptionsRoot</text>
<text text-anchor="middle" x="389" y="-122" font-family="Helvetica,sans-Serif" font-size="10.00">Version &gt;</text>
</g>
<!-- Node4 -->
<g id="node5" class="node"><title>Node4</title>
<g id="a_node5"><a xlink:href="class_holo_gen_1_1_serial_1_1_json_deserialiser.html" target="_top" xlink:title="HoloGen.Serial.JsonDeserialiser\l\&lt; ComplexImage, ComplexImageVersion \&gt;">
<polygon fill="white" stroke="black" points="481,-61 481,-91 684,-91 684,-61 481,-61"/>
<text text-anchor="start" x="489" y="-79" font-family="Helvetica,sans-Serif" font-size="10.00">HoloGen.Serial.JsonDeserialiser</text>
<text text-anchor="middle" x="582.5" y="-68" font-family="Helvetica,sans-Serif" font-size="10.00">&lt; ComplexImage, ComplexImageVersion &gt;</text>
</a>
</g>
</g>
<!-- Node0&#45;&gt;Node4 -->
<g id="edge4" class="edge"><title>Node0&#45;&gt;Node4</title>
<path fill="none" stroke="orange" stroke-dasharray="5,2" d="M307.365,-76C359.652,-76 426.313,-76 480.807,-76"/>
<polygon fill="orange" stroke="orange" points="307.107,-72.5001 297.107,-76 307.107,-79.5001 307.107,-72.5001"/>
<text text-anchor="start" x="315" y="-90" font-family="Helvetica,sans-Serif" font-size="10.00"> &lt; ComplexImage, ComplexImage</text>
<text text-anchor="middle" x="389" y="-79" font-family="Helvetica,sans-Serif" font-size="10.00">Version &gt;</text>
</g>
<!-- Node6 -->
<g id="node7" class="node"><title>Node6</title>
<g id="a_node7"><a xlink:href="class_holo_gen_1_1_serial_1_1_json_deserialiser.html" target="_top" xlink:title="HoloGen.Serial.JsonDeserialiser\l\&lt; ApplicationSettings, Application\lSettingsVersion \&gt;">
<polygon fill="white" stroke="black" points="500.5,-0.5 500.5,-41.5 664.5,-41.5 664.5,-0.5 500.5,-0.5"/>
<text text-anchor="start" x="508.5" y="-29.5" font-family="Helvetica,sans-Serif" font-size="10.00">HoloGen.Serial.JsonDeserialiser</text>
<text text-anchor="start" x="508.5" y="-18.5" font-family="Helvetica,sans-Serif" font-size="10.00">&lt; ApplicationSettings, Application</text>
<text text-anchor="middle" x="582.5" y="-7.5" font-family="Helvetica,sans-Serif" font-size="10.00">SettingsVersion &gt;</text>
</a>
</g>
</g>
<!-- Node0&#45;&gt;Node6 -->
<g id="edge6" class="edge"><title>Node0&#45;&gt;Node6</title>
<path fill="none" stroke="orange" stroke-dasharray="5,2" d="M279.191,-58.2447C290.976,-55.1512 303.319,-52.2194 315,-50 376.611,-38.2936 447.199,-30.8761 500.244,-26.4759"/>
<polygon fill="orange" stroke="orange" points="278.195,-54.8881 269.45,-60.8692 280.016,-61.6471 278.195,-54.8881"/>
<text text-anchor="start" x="324" y="-64" font-family="Helvetica,sans-Serif" font-size="10.00"> &lt; ApplicationSettings,</text>
<text text-anchor="middle" x="389" y="-53" font-family="Helvetica,sans-Serif" font-size="10.00"> ApplicationSettingsVersion &gt;</text>
</g>
<!-- Node1 -->
<g id="node2" class="node"><title>Node1</title>
<g id="a_node2"><a xlink:href="class_holo_gen_1_1_serial_1_1_deserialiser.html" target="_top" xlink:title="Abstract deserialiser class ">
<polygon fill="white" stroke="black" points="0,-66.5 0,-85.5 104,-85.5 104,-66.5 0,-66.5"/>
<text text-anchor="middle" x="52" y="-73.5" font-family="Helvetica,sans-Serif" font-size="10.00">Deserialiser&lt; S, T &gt;</text>
</a>
</g>
</g>
<!-- Node1&#45;&gt;Node0 -->
<g id="edge1" class="edge"><title>Node1&#45;&gt;Node0</title>
<path fill="none" stroke="midnightblue" d="M114.326,-76C123.017,-76 132.044,-76 140.986,-76"/>
<polygon fill="midnightblue" stroke="midnightblue" points="114.303,-72.5001 104.303,-76 114.303,-79.5001 114.303,-72.5001"/>
</g>
<!-- Node3 -->
<g id="node4" class="node"><title>Node3</title>
<g id="a_node4"><a xlink:href="class_holo_gen_1_1_serial_1_1_json_options_deserialiser.html" target="_top" xlink:title="JSON format options deserialisation class ">
<polygon fill="white" stroke="black" points="722,-110 722,-140 861,-140 861,-110 722,-110"/>
<text text-anchor="start" x="730" y="-128" font-family="Helvetica,sans-Serif" font-size="10.00">HoloGen.Serial.JsonOptions</text>
<text text-anchor="middle" x="791.5" y="-117" font-family="Helvetica,sans-Serif" font-size="10.00">Deserialiser</text>
</a>
</g>
</g>
<!-- Node2&#45;&gt;Node3 -->
<g id="edge3" class="edge"><title>Node2&#45;&gt;Node3</title>
<path fill="none" stroke="midnightblue" d="M683.938,-125C696.751,-125 709.627,-125 721.779,-125"/>
<polygon fill="midnightblue" stroke="midnightblue" points="683.691,-121.5 673.691,-125 683.691,-128.5 683.691,-121.5"/>
</g>
<!-- Node5 -->
<g id="node6" class="node"><title>Node5</title>
<g id="a_node6"><a xlink:href="class_holo_gen_1_1_serial_1_1_json_image_deserialiser.html" target="_top" xlink:title="JSON format image deserialisation class ">
<polygon fill="white" stroke="black" points="726,-61 726,-91 857,-91 857,-61 726,-61"/>
<text text-anchor="start" x="734" y="-79" font-family="Helvetica,sans-Serif" font-size="10.00">HoloGen.Serial.JsonImage</text>
<text text-anchor="middle" x="791.5" y="-68" font-family="Helvetica,sans-Serif" font-size="10.00">Deserialiser</text>
</a>
</g>
</g>
<!-- Node4&#45;&gt;Node5 -->
<g id="edge5" class="edge"><title>Node4&#45;&gt;Node5</title>
<path fill="none" stroke="midnightblue" d="M694.577,-76C705.308,-76 715.929,-76 725.976,-76"/>
<polygon fill="midnightblue" stroke="midnightblue" points="694.271,-72.5001 684.271,-76 694.271,-79.5001 694.271,-72.5001"/>
</g>
<!-- Node7 -->
<g id="node8" class="node"><title>Node7</title>
<g id="a_node8"><a xlink:href="class_holo_gen_1_1_serial_1_1_json_settings_deserialiser.html" target="_top" xlink:title="JSON format settings deserialisation class ">
<polygon fill="white" stroke="black" points="721,-6 721,-36 862,-36 862,-6 721,-6"/>
<text text-anchor="start" x="729" y="-24" font-family="Helvetica,sans-Serif" font-size="10.00">HoloGen.Serial.JsonSettings</text>
<text text-anchor="middle" x="791.5" y="-13" font-family="Helvetica,sans-Serif" font-size="10.00">Deserialiser</text>
</a>
</g>
</g>
<!-- Node6&#45;&gt;Node7 -->
<g id="edge7" class="edge"><title>Node6&#45;&gt;Node7</title>
<path fill="none" stroke="midnightblue" d="M674.814,-21C690.28,-21 706.115,-21 720.911,-21"/>
<polygon fill="midnightblue" stroke="midnightblue" points="674.718,-17.5001 664.718,-21 674.718,-24.5001 674.718,-17.5001"/>
</g>
</g>
</svg>
