<?xml version="1.0" encoding="UTF-8" standalone="no"?>
<!DOCTYPE svg PUBLIC "-//W3C//DTD SVG 1.1//EN"
 "http://www.w3.org/Graphics/SVG/1.1/DTD/svg11.dtd">
<!-- Generated by graphviz version 2.38.0 (20140413.2041)
 -->
<!-- Title: HoloGen.Hierarchy.OptionTypes.DoubleOption Pages: 1 -->
<!--zoomable 578 -->
<svg id="main" version="1.1" xmlns="http://www.w3.org/2000/svg" xmlns:xlink="http://www.w3.org/1999/xlink" xml:space="preserve" onload="init(evt)">
<style type="text/css"><![CDATA[
.edge:hover path { stroke: red; }
.edge:hover polygon { stroke: red; fill: red; }
]]></style>
<script type="text/javascript"><![CDATA[
var edges = document.getElementsByTagName('g');
if (edges && edges.length) {
  for (var i=0;i<edges.length;i++) {
    if (edges[i].id.substr(0,4)=='edge') {
      edges[i].setAttribute('class','edge');
    }
  }
}
]]></script>
        <defs>
                <circle id="rim" cx="0" cy="0" r="7"/>
                <circle id="rim2" cx="0" cy="0" r="3.5"/>
                <g id="zoomPlus">
                        <use xlink:href="#rim" fill="#404040">
                                <set attributeName="fill" to="#808080" begin="zoomplus.mouseover" end="zoomplus.mouseout"/>
                        </use>
                        <path d="M-4,0h8M0,-4v8" fill="none" stroke="white" stroke-width="1.5" pointer-events="none"/>
                </g>
                <g id="zoomMin">
                        <use xlink:href="#rim" fill="#404040">
                                <set attributeName="fill" to="#808080" begin="zoomminus.mouseover" end="zoomminus.mouseout"/>
                        </use>
                        <path d="M-4,0h8" fill="none" stroke="white" stroke-width="1.5" pointer-events="none"/>
                </g>
                <g id="dirArrow">
                        <path fill="none" stroke="white" stroke-width="1.5" d="M0,-3.0v7 M-2.5,-0.5L0,-3.0L2.5,-0.5"/>
                </g>
               <g id="resetDef">
                       <use xlink:href="#rim2" fill="#404040">
                               <set attributeName="fill" to="#808080" begin="reset.mouseover" end="reset.mouseout"/>
                       </use>
               </g>
        </defs>

<script type="text/javascript">
var viewWidth = 1132;
var viewHeight = 578;
var sectionId = 'dynsection-0';
</script>
<script xlink:href="svgpan.js"/>
<svg id="graph" class="graph">
<g id="viewport">
<title>HoloGen.Hierarchy.OptionTypes.DoubleOption</title>
<polygon fill="white" stroke="none" points="-4,4 -4,-574 1128,-574 1128,4 -4,4"/>
<!-- Node0 -->
<g id="node1" class="node"><title>Node0</title>
<polygon fill="#bfbfbf" stroke="black" points="792,-269.5 792,-299.5 922,-299.5 922,-269.5 792,-269.5"/>
<text text-anchor="start" x="800" y="-287.5" font-family="Helvetica,sans-Serif" font-size="10.00">HoloGen.Hierarchy.Option</text>
<text text-anchor="middle" x="857" y="-276.5" font-family="Helvetica,sans-Serif" font-size="10.00">Types.DoubleOption</text>
</g>
<!-- Node13 -->
<g id="node14" class="node"><title>Node13</title>
<g id="a_node14"><a xlink:href="class_holo_gen_1_1_options_1_1_algorithm_1_1_algorithms_1_1_starting_temperature.html" target="_top" xlink:title="Starting temperature for Simulated Annealing. ">
<polygon fill="white" stroke="black" points="964.5,-539.5 964.5,-569.5 1118.5,-569.5 1118.5,-539.5 964.5,-539.5"/>
<text text-anchor="start" x="972.5" y="-557.5" font-family="Helvetica,sans-Serif" font-size="10.00">HoloGen.Options.Algorithm.</text>
<text text-anchor="middle" x="1041.5" y="-546.5" font-family="Helvetica,sans-Serif" font-size="10.00">Algorithms.StartingTemperature</text>
</a>
</g>
</g>
<!-- Node0&#45;&gt;Node13 -->
<g id="edge14" class="edge"><title>Node0&#45;&gt;Node13</title>
<path fill="none" stroke="midnightblue" d="M861.163,-310.009C868.705,-359.827 892.381,-470.424 959,-530.5 962.834,-533.957 967.143,-536.918 971.725,-539.453"/>
<polygon fill="midnightblue" stroke="midnightblue" points="864.585,-309.207 859.717,-299.797 857.654,-310.189 864.585,-309.207"/>
</g>
<!-- Node14 -->
<g id="node15" class="node"><title>Node14</title>
<g id="a_node15"><a xlink:href="class_holo_gen_1_1_options_1_1_algorithm_1_1_algorithms_1_1_temperature_coefficient.html" target="_top" xlink:title="Temperature coefficinet for Simulated Annealing. ">
<polygon fill="white" stroke="black" points="959,-490.5 959,-520.5 1124,-520.5 1124,-490.5 959,-490.5"/>
<text text-anchor="start" x="967" y="-508.5" font-family="Helvetica,sans-Serif" font-size="10.00">HoloGen.Options.Algorithm.</text>
<text text-anchor="middle" x="1041.5" y="-497.5" font-family="Helvetica,sans-Serif" font-size="10.00">Algorithms.TemperatureCoefficient</text>
</a>
</g>
</g>
<!-- Node0&#45;&gt;Node14 -->
<g id="edge15" class="edge"><title>Node0&#45;&gt;Node14</title>
<path fill="none" stroke="midnightblue" d="M863.956,-309.591C875.208,-351.487 903.587,-435.606 959,-481.5 963.09,-484.887 967.641,-487.796 972.442,-490.295"/>
<polygon fill="midnightblue" stroke="midnightblue" points="867.283,-308.475 861.401,-299.663 860.504,-310.22 867.283,-308.475"/>
</g>
<!-- Node15 -->
<g id="node16" class="node"><title>Node15</title>
<g id="a_node16"><a xlink:href="class_holo_gen_1_1_options_1_1_algorithm_1_1_target_1_1_efficiency_limit.html" target="_top" xlink:title="Limit in the innefficiency allowable during hologram generation. ">
<polygon fill="white" stroke="black" points="972.5,-441.5 972.5,-471.5 1110.5,-471.5 1110.5,-441.5 972.5,-441.5"/>
<text text-anchor="start" x="980.5" y="-459.5" font-family="Helvetica,sans-Serif" font-size="10.00">HoloGen.Options.Algorithm.</text>
<text text-anchor="middle" x="1041.5" y="-448.5" font-family="Helvetica,sans-Serif" font-size="10.00">Target.EfficiencyLimit</text>
</a>
</g>
</g>
<!-- Node0&#45;&gt;Node15 -->
<g id="edge16" class="edge"><title>Node0&#45;&gt;Node15</title>
<path fill="none" stroke="midnightblue" d="M868.272,-308.984C883.342,-341.937 914.554,-400.15 959,-432.5 963.77,-435.972 969.04,-438.945 974.535,-441.49"/>
<polygon fill="midnightblue" stroke="midnightblue" points="871.374,-307.344 864.117,-299.624 864.976,-310.184 871.374,-307.344"/>
</g>
<!-- Node16 -->
<g id="node17" class="node"><title>Node16</title>
<g id="a_node17"><a xlink:href="class_holo_gen_1_1_options_1_1_algorithm_1_1_target_1_1_error_limit.html" target="_top" xlink:title="Limit in the error allowable during hologram generation. ">
<polygon fill="white" stroke="black" points="972.5,-392.5 972.5,-422.5 1110.5,-422.5 1110.5,-392.5 972.5,-392.5"/>
<text text-anchor="start" x="980.5" y="-410.5" font-family="Helvetica,sans-Serif" font-size="10.00">HoloGen.Options.Algorithm.</text>
<text text-anchor="middle" x="1041.5" y="-399.5" font-family="Helvetica,sans-Serif" font-size="10.00">Target.ErrorLimit</text>
</a>
</g>
</g>
<!-- Node0&#45;&gt;Node16 -->
<g id="edge17" class="edge"><title>Node0&#45;&gt;Node16</title>
<path fill="none" stroke="midnightblue" d="M875.8,-307.598C894.289,-330.075 925.204,-363.658 959,-383.5 964.851,-386.935 971.231,-389.911 977.76,-392.481"/>
<polygon fill="midnightblue" stroke="midnightblue" points="878.34,-305.172 869.342,-299.579 872.889,-309.563 878.34,-305.172"/>
</g>
<!-- Node17 -->
<g id="node18" class="node"><title>Node17</title>
<g id="a_node18"><a xlink:href="class_holo_gen_1_1_options_1_1_algorithm_1_1_termination_1_1_error_value.html" target="_top" xlink:title="Terminate at target error. ">
<polygon fill="white" stroke="black" points="972.5,-343.5 972.5,-373.5 1110.5,-373.5 1110.5,-343.5 972.5,-343.5"/>
<text text-anchor="start" x="980.5" y="-361.5" font-family="Helvetica,sans-Serif" font-size="10.00">HoloGen.Options.Algorithm.</text>
<text text-anchor="middle" x="1041.5" y="-350.5" font-family="Helvetica,sans-Serif" font-size="10.00">Termination.ErrorValue</text>
</a>
</g>
</g>
<!-- Node0&#45;&gt;Node17 -->
<g id="edge18" class="edge"><title>Node0&#45;&gt;Node17</title>
<path fill="none" stroke="midnightblue" d="M894.165,-304.309C913.117,-314.197 936.922,-325.86 959,-334.5 967.104,-337.672 975.802,-340.656 984.389,-343.371"/>
<polygon fill="midnightblue" stroke="midnightblue" points="895.758,-301.192 885.28,-299.618 892.489,-307.382 895.758,-301.192"/>
</g>
<!-- Node18 -->
<g id="node19" class="node"><title>Node18</title>
<g id="a_node19"><a xlink:href="class_holo_gen_1_1_options_1_1_projector_1_1_hologram_1_1_focal_length.html" target="_top" xlink:title="System focal length. ">
<polygon fill="white" stroke="black" points="973.5,-294.5 973.5,-324.5 1109.5,-324.5 1109.5,-294.5 973.5,-294.5"/>
<text text-anchor="start" x="981.5" y="-312.5" font-family="Helvetica,sans-Serif" font-size="10.00">HoloGen.Options.Projector.</text>
<text text-anchor="middle" x="1041.5" y="-301.5" font-family="Helvetica,sans-Serif" font-size="10.00">Hologram.FocalLength</text>
</a>
</g>
</g>
<!-- Node0&#45;&gt;Node18 -->
<g id="edge19" class="edge"><title>Node0&#45;&gt;Node18</title>
<path fill="none" stroke="midnightblue" d="M932.368,-294.687C945.974,-296.551 960.098,-298.486 973.474,-300.318"/>
<polygon fill="midnightblue" stroke="midnightblue" points="932.469,-291.169 922.086,-293.279 931.518,-298.104 932.469,-291.169"/>
</g>
<!-- Node19 -->
<g id="node20" class="node"><title>Node19</title>
<g id="a_node20"><a xlink:href="class_holo_gen_1_1_options_1_1_projector_1_1_hologram_1_1_maximum_angle.html" target="_top" xlink:title="System focal length. ">
<polygon fill="white" stroke="black" points="973.5,-245.5 973.5,-275.5 1109.5,-275.5 1109.5,-245.5 973.5,-245.5"/>
<text text-anchor="start" x="981.5" y="-263.5" font-family="Helvetica,sans-Serif" font-size="10.00">HoloGen.Options.Projector.</text>
<text text-anchor="middle" x="1041.5" y="-252.5" font-family="Helvetica,sans-Serif" font-size="10.00">Hologram.MaximumAngle</text>
</a>
</g>
</g>
<!-- Node0&#45;&gt;Node19 -->
<g id="edge20" class="edge"><title>Node0&#45;&gt;Node19</title>
<path fill="none" stroke="midnightblue" d="M932.368,-274.72C945.974,-272.931 960.098,-271.073 973.474,-269.314"/>
<polygon fill="midnightblue" stroke="midnightblue" points="931.544,-271.298 922.086,-276.072 932.457,-278.238 931.544,-271.298"/>
</g>
<!-- Node20 -->
<g id="node21" class="node"><title>Node20</title>
<g id="a_node21"><a xlink:href="class_holo_gen_1_1_options_1_1_projector_1_1_hologram_1_1_maximum_level.html" target="_top" xlink:title="System focal length. ">
<polygon fill="white" stroke="black" points="973.5,-196.5 973.5,-226.5 1109.5,-226.5 1109.5,-196.5 973.5,-196.5"/>
<text text-anchor="start" x="981.5" y="-214.5" font-family="Helvetica,sans-Serif" font-size="10.00">HoloGen.Options.Projector.</text>
<text text-anchor="middle" x="1041.5" y="-203.5" font-family="Helvetica,sans-Serif" font-size="10.00">Hologram.MaximumLevel</text>
</a>
</g>
</g>
<!-- Node0&#45;&gt;Node20 -->
<g id="edge21" class="edge"><title>Node0&#45;&gt;Node20</title>
<path fill="none" stroke="midnightblue" d="M894.871,-264.793C913.724,-255.186 937.23,-243.92 959,-235.5 967.254,-232.308 976.116,-229.293 984.848,-226.549"/>
<polygon fill="midnightblue" stroke="midnightblue" points="893.028,-261.804 885.744,-269.498 896.236,-268.026 893.028,-261.804"/>
</g>
<!-- Node21 -->
<g id="node22" class="node"><title>Node21</title>
<g id="a_node22"><a xlink:href="class_holo_gen_1_1_options_1_1_projector_1_1_hologram_1_1_minimum_angle.html" target="_top" xlink:title="System focal length. ">
<polygon fill="white" stroke="black" points="973.5,-147.5 973.5,-177.5 1109.5,-177.5 1109.5,-147.5 973.5,-147.5"/>
<text text-anchor="start" x="981.5" y="-165.5" font-family="Helvetica,sans-Serif" font-size="10.00">HoloGen.Options.Projector.</text>
<text text-anchor="middle" x="1041.5" y="-154.5" font-family="Helvetica,sans-Serif" font-size="10.00">Hologram.MinimumAngle</text>
</a>
</g>
</g>
<!-- Node0&#45;&gt;Node21 -->
<g id="edge22" class="edge"><title>Node0&#45;&gt;Node21</title>
<path fill="none" stroke="midnightblue" d="M876.16,-261.271C894.721,-239.03 925.508,-206.049 959,-186.5 964.86,-183.08 971.245,-180.113 977.778,-177.549"/>
<polygon fill="midnightblue" stroke="midnightblue" points="873.282,-259.261 869.664,-269.219 878.702,-263.691 873.282,-259.261"/>
</g>
<!-- Node22 -->
<g id="node23" class="node"><title>Node22</title>
<g id="a_node23"><a xlink:href="class_holo_gen_1_1_options_1_1_projector_1_1_hologram_1_1_minimum_level.html" target="_top" xlink:title="System focal length. ">
<polygon fill="white" stroke="black" points="973.5,-98.5 973.5,-128.5 1109.5,-128.5 1109.5,-98.5 973.5,-98.5"/>
<text text-anchor="start" x="981.5" y="-116.5" font-family="Helvetica,sans-Serif" font-size="10.00">HoloGen.Options.Projector.</text>
<text text-anchor="middle" x="1041.5" y="-105.5" font-family="Helvetica,sans-Serif" font-size="10.00">Hologram.MinimumLevel</text>
</a>
</g>
</g>
<!-- Node0&#45;&gt;Node22 -->
<g id="edge23" class="edge"><title>Node0&#45;&gt;Node22</title>
<path fill="none" stroke="midnightblue" d="M868.316,-260.181C883.437,-227.451 914.708,-169.631 959,-137.5 963.776,-134.036 969.049,-131.068 974.547,-128.526"/>
<polygon fill="midnightblue" stroke="midnightblue" points="865.046,-258.921 864.146,-269.478 871.433,-261.786 865.046,-258.921"/>
</g>
<!-- Node23 -->
<g id="node24" class="node"><title>Node23</title>
<g id="a_node24"><a xlink:href="class_holo_gen_1_1_options_1_1_projector_1_1_hologram_1_1_pixel_pitch.html" target="_top" xlink:title="Pitch spacing between pixels. ">
<polygon fill="white" stroke="black" points="973.5,-49.5 973.5,-79.5 1109.5,-79.5 1109.5,-49.5 973.5,-49.5"/>
<text text-anchor="start" x="981.5" y="-67.5" font-family="Helvetica,sans-Serif" font-size="10.00">HoloGen.Options.Projector.</text>
<text text-anchor="middle" x="1041.5" y="-56.5" font-family="Helvetica,sans-Serif" font-size="10.00">Hologram.PixelPitch</text>
</a>
</g>
</g>
<!-- Node0&#45;&gt;Node23 -->
<g id="edge24" class="edge"><title>Node0&#45;&gt;Node23</title>
<path fill="none" stroke="midnightblue" d="M863.994,-259.534C875.302,-217.848 903.762,-134.153 959,-88.5 963.32,-84.9293 968.154,-81.8898 973.253,-79.3025"/>
<polygon fill="midnightblue" stroke="midnightblue" points="860.555,-258.854 861.425,-269.413 867.33,-260.616 860.555,-258.854"/>
</g>
<!-- Node24 -->
<g id="node25" class="node"><title>Node24</title>
<g id="a_node25"><a xlink:href="class_holo_gen_1_1_options_1_1_projector_1_1_hologram_1_1_wavelength.html" target="_top" xlink:title="Illumination wavelength option. ">
<polygon fill="white" stroke="black" points="973.5,-0.5 973.5,-30.5 1109.5,-30.5 1109.5,-0.5 973.5,-0.5"/>
<text text-anchor="start" x="981.5" y="-18.5" font-family="Helvetica,sans-Serif" font-size="10.00">HoloGen.Options.Projector.</text>
<text text-anchor="middle" x="1041.5" y="-7.5" font-family="Helvetica,sans-Serif" font-size="10.00">Hologram.Wavelength</text>
</a>
</g>
</g>
<!-- Node0&#45;&gt;Node24 -->
<g id="edge25" class="edge"><title>Node0&#45;&gt;Node24</title>
<path fill="none" stroke="midnightblue" d="M861.196,-259.093C868.796,-209.473 892.57,-99.3193 959,-39.5 963.275,-35.6506 968.139,-32.4171 973.313,-29.7011"/>
<polygon fill="midnightblue" stroke="midnightblue" points="857.692,-258.869 859.738,-269.264 864.622,-259.862 857.692,-258.869"/>
</g>
<!-- Node1 -->
<g id="node2" class="node"><title>Node1</title>
<g id="a_node2"><a xlink:href="class_holo_gen_1_1_hierarchy_1_1_option_types_1_1_numeric_option.html" target="_top" xlink:title="NumericOption\&lt; double \&gt;">
<polygon fill="white" stroke="black" points="627,-275 627,-294 755,-294 755,-275 627,-275"/>
<text text-anchor="middle" x="691" y="-282" font-family="Helvetica,sans-Serif" font-size="10.00">NumericOption&lt; double &gt;</text>
</a>
</g>
</g>
<!-- Node1&#45;&gt;Node0 -->
<g id="edge1" class="edge"><title>Node1&#45;&gt;Node0</title>
<path fill="none" stroke="midnightblue" d="M765.63,-284.5C774.41,-284.5 783.32,-284.5 791.95,-284.5"/>
<polygon fill="midnightblue" stroke="midnightblue" points="765.407,-281 755.407,-284.5 765.407,-288 765.407,-281"/>
</g>
<!-- Node2 -->
<g id="node3" class="node"><title>Node2</title>
<g id="a_node3"><a xlink:href="class_holo_gen_1_1_hierarchy_1_1_option_types_1_1_numeric_option.html" target="_top" xlink:title="Extends Option wrapping a numeric parameter. Implements the IHasWatermark interface in addition...">
<polygon fill="white" stroke="black" points="407,-269.5 407,-299.5 541,-299.5 541,-269.5 407,-269.5"/>
<text text-anchor="start" x="415" y="-287.5" font-family="Helvetica,sans-Serif" font-size="10.00">HoloGen.Hierarchy.Option</text>
<text text-anchor="middle" x="474" y="-276.5" font-family="Helvetica,sans-Serif" font-size="10.00">Types.NumericOption&lt; T &gt;</text>
</a>
</g>
</g>
<!-- Node2&#45;&gt;Node1 -->
<g id="edge2" class="edge"><title>Node2&#45;&gt;Node1</title>
<path fill="none" stroke="orange" stroke-dasharray="5,2" d="M551.335,-284.5C576.077,-284.5 603.23,-284.5 626.899,-284.5"/>
<polygon fill="orange" stroke="orange" points="551.261,-281 541.261,-284.5 551.261,-288 551.261,-281"/>
<text text-anchor="middle" x="584" y="-287.5" font-family="Helvetica,sans-Serif" font-size="10.00"> &lt; double &gt;</text>
</g>
<!-- Node3 -->
<g id="node4" class="node"><title>Node3</title>
<g id="a_node4"><a xlink:href="class_holo_gen_1_1_hierarchy_1_1_option_types_1_1_option.html" target="_top" xlink:title="Root hierarchy element. Defines Name and ToolTip fields that must be implemented by any implementors...">
<polygon fill="white" stroke="black" points="294,-298 294,-317 362,-317 362,-298 294,-298"/>
<text text-anchor="middle" x="328" y="-305" font-family="Helvetica,sans-Serif" font-size="10.00">Option&lt; T &gt;</text>
</a>
</g>
</g>
<!-- Node3&#45;&gt;Node2 -->
<g id="edge3" class="edge"><title>Node3&#45;&gt;Node2</title>
<path fill="none" stroke="midnightblue" d="M372.159,-300.607C383.101,-298.859 395.107,-296.941 406.901,-295.057"/>
<polygon fill="midnightblue" stroke="midnightblue" points="371.359,-297.19 362.037,-302.223 372.463,-304.102 371.359,-297.19"/>
</g>
<!-- Node4 -->
<g id="node5" class="node"><title>Node4</title>
<g id="a_node5"><a xlink:href="class_holo_gen_1_1_utils_1_1_observable_object.html" target="_top" xlink:title="Observable object with INotifyPropertyChanged implemented ">
<polygon fill="white" stroke="black" points="156,-333 156,-352 249,-352 249,-333 156,-333"/>
<text text-anchor="middle" x="202.5" y="-340" font-family="Helvetica,sans-Serif" font-size="10.00">ObservableObject</text>
</a>
</g>
</g>
<!-- Node4&#45;&gt;Node3 -->
<g id="edge4" class="edge"><title>Node4&#45;&gt;Node3</title>
<path fill="none" stroke="midnightblue" d="M247.044,-330.159C262.382,-325.813 279.366,-320.999 293.721,-316.931"/>
<polygon fill="midnightblue" stroke="midnightblue" points="245.914,-326.842 237.247,-332.936 247.822,-333.577 245.914,-326.842"/>
</g>
<!-- Node5 -->
<g id="node6" class="node"><title>Node5</title>
<polygon fill="white" stroke="#bfbfbf" points="0,-352 0,-371 119,-371 119,-352 0,-352"/>
<text text-anchor="middle" x="59.5" y="-359" font-family="Helvetica,sans-Serif" font-size="10.00">INotifyPropertyChanged</text>
</g>
<!-- Node5&#45;&gt;Node4 -->
<g id="edge5" class="edge"><title>Node5&#45;&gt;Node4</title>
<path fill="none" stroke="midnightblue" d="M129.206,-352.242C138.225,-351.026 147.283,-349.806 155.79,-348.66"/>
<polygon fill="midnightblue" stroke="midnightblue" points="128.515,-348.803 119.072,-353.607 129.45,-355.74 128.515,-348.803"/>
</g>
<!-- Node6 -->
<g id="node7" class="node"><title>Node6</title>
<g id="a_node7"><a xlink:href="interface_holo_gen_1_1_hierarchy_1_1_option_types_1_1_i_option.html" target="_top" xlink:title="Base interface for the Option that doesn&#39;t need a template parameter. Necessary for a number of refle...">
<polygon fill="white" stroke="black" points="179,-276 179,-295 226,-295 226,-276 179,-276"/>
<text text-anchor="middle" x="202.5" y="-283" font-family="Helvetica,sans-Serif" font-size="10.00">IOption</text>
</a>
</g>
</g>
<!-- Node5&#45;&gt;Node6 -->
<g id="edge11" class="edge"><title>Node5&#45;&gt;Node6</title>
<path fill="none" stroke="midnightblue" d="M105.211,-348.483C109.945,-346.662 114.624,-344.664 119,-342.5 146.152,-329.071 174.507,-307.564 189.886,-295.165"/>
<polygon fill="midnightblue" stroke="midnightblue" points="103.726,-345.297 95.4963,-351.969 106.091,-351.885 103.726,-345.297"/>
</g>
<!-- Node6&#45;&gt;Node3 -->
<g id="edge6" class="edge"><title>Node6&#45;&gt;Node3</title>
<path fill="none" stroke="midnightblue" d="M236.085,-291.305C253.885,-294.476 275.884,-298.394 293.782,-301.583"/>
<polygon fill="midnightblue" stroke="midnightblue" points="236.611,-287.843 226.152,-289.535 235.383,-294.735 236.611,-287.843"/>
</g>
<!-- Node7 -->
<g id="node8" class="node"><title>Node7</title>
<g id="a_node8"><a xlink:href="interface_holo_gen_1_1_hierarchy_1_1_hierarchy_1_1_i_can_error.html" target="_top" xlink:title="Interface implemented by any classes that can be in an error state. Defines the Valid property that c...">
<polygon fill="white" stroke="black" points="31,-314 31,-333 88,-333 88,-314 31,-314"/>
<text text-anchor="middle" x="59.5" y="-321" font-family="Helvetica,sans-Serif" font-size="10.00">ICanError</text>
</a>
</g>
</g>
<!-- Node7&#45;&gt;Node6 -->
<g id="edge7" class="edge"><title>Node7&#45;&gt;Node6</title>
<path fill="none" stroke="midnightblue" d="M97.8117,-313.444C123.523,-306.515 156.864,-297.53 178.703,-291.644"/>
<polygon fill="midnightblue" stroke="midnightblue" points="96.7656,-310.101 88.0209,-316.083 98.5872,-316.86 96.7656,-310.101"/>
</g>
<!-- Node8 -->
<g id="node9" class="node"><title>Node8</title>
<g id="a_node9"><a xlink:href="interface_holo_gen_1_1_hierarchy_1_1_hierarchy_1_1_i_has_name.html" target="_top" xlink:title="Interface implemented by any classes that have a Name property. ">
<polygon fill="white" stroke="black" points="28.5,-276 28.5,-295 90.5,-295 90.5,-276 28.5,-276"/>
<text text-anchor="middle" x="59.5" y="-283" font-family="Helvetica,sans-Serif" font-size="10.00">IHasName</text>
</a>
</g>
</g>
<!-- Node8&#45;&gt;Node6 -->
<g id="edge8" class="edge"><title>Node8&#45;&gt;Node6</title>
<path fill="none" stroke="midnightblue" d="M100.784,-285.5C126.053,-285.5 157.709,-285.5 178.715,-285.5"/>
<polygon fill="midnightblue" stroke="midnightblue" points="100.748,-282 90.748,-285.5 100.748,-289 100.748,-282"/>
</g>
<!-- Node9 -->
<g id="node10" class="node"><title>Node9</title>
<g id="a_node10"><a xlink:href="interface_holo_gen_1_1_hierarchy_1_1_hierarchy_1_1_i_has_tool_tip.html" target="_top" xlink:title="Interface implemented by any classes that have a ToolTip property. ">
<polygon fill="white" stroke="black" points="26,-238 26,-257 93,-257 93,-238 26,-238"/>
<text text-anchor="middle" x="59.5" y="-245" font-family="Helvetica,sans-Serif" font-size="10.00">IHasToolTip</text>
</a>
</g>
</g>
<!-- Node9&#45;&gt;Node6 -->
<g id="edge9" class="edge"><title>Node9&#45;&gt;Node6</title>
<path fill="none" stroke="midnightblue" d="M103.113,-258.984C127.947,-265.677 158.285,-273.853 178.65,-279.342"/>
<polygon fill="midnightblue" stroke="midnightblue" points="103.769,-255.536 93.2026,-256.313 101.947,-262.295 103.769,-255.536"/>
</g>
<!-- Node10 -->
<g id="node11" class="node"><title>Node10</title>
<g id="a_node11"><a xlink:href="interface_holo_gen_1_1_hierarchy_1_1_hierarchy_1_1_i_can_enable.html" target="_top" xlink:title="Interface implemented by any classes that can be enabled Enabled. ">
<polygon fill="white" stroke="black" points="26.5,-200 26.5,-219 92.5,-219 92.5,-200 26.5,-200"/>
<text text-anchor="middle" x="59.5" y="-207" font-family="Helvetica,sans-Serif" font-size="10.00">ICanEnable</text>
</a>
</g>
</g>
<!-- Node10&#45;&gt;Node6 -->
<g id="edge10" class="edge"><title>Node10&#45;&gt;Node6</title>
<path fill="none" stroke="midnightblue" d="M102.294,-221.42C108.013,-223.526 113.727,-225.892 119,-228.5 146.152,-241.929 174.507,-263.436 189.886,-275.835"/>
<polygon fill="midnightblue" stroke="midnightblue" points="103.335,-218.076 92.7398,-218.122 101.051,-224.693 103.335,-218.076"/>
</g>
<!-- Node11 -->
<g id="node12" class="node"><title>Node11</title>
<g id="a_node12"><a xlink:href="interface_holo_gen_1_1_hierarchy_1_1_hierarchy_1_1_i_can_reset.html" target="_top" xlink:title="Interface implemented by any classes that can be reset. ">
<polygon fill="white" stroke="black" points="28.5,-162 28.5,-181 90.5,-181 90.5,-162 28.5,-162"/>
<text text-anchor="middle" x="59.5" y="-169" font-family="Helvetica,sans-Serif" font-size="10.00">ICanReset</text>
</a>
</g>
</g>
<!-- Node11&#45;&gt;Node6 -->
<g id="edge12" class="edge"><title>Node11&#45;&gt;Node6</title>
<path fill="none" stroke="midnightblue" d="M100.296,-181.184C106.831,-183.669 113.317,-186.737 119,-190.5 154.516,-214.017 183.793,-256.828 195.729,-275.895"/>
<polygon fill="midnightblue" stroke="midnightblue" points="101.369,-177.852 90.7745,-177.947 99.1155,-184.48 101.369,-177.852"/>
</g>
<!-- Node12 -->
<g id="node13" class="node"><title>Node12</title>
<g id="a_node13"><a xlink:href="interface_holo_gen_1_1_hierarchy_1_1_hierarchy_1_1_i_has_watermark.html" target="_top" xlink:title="Interface implemented by any classes that have a Watermark property. ">
<polygon fill="white" stroke="black" points="286,-260 286,-279 370,-279 370,-260 286,-260"/>
<text text-anchor="middle" x="328" y="-267" font-family="Helvetica,sans-Serif" font-size="10.00">IHasWatermark</text>
</a>
</g>
</g>
<!-- Node12&#45;&gt;Node2 -->
<g id="edge13" class="edge"><title>Node12&#45;&gt;Node2</title>
<path fill="none" stroke="midnightblue" d="M380.212,-274.835C388.886,-275.738 398.001,-276.688 406.991,-277.624"/>
<polygon fill="midnightblue" stroke="midnightblue" points="380.573,-271.353 370.265,-273.798 379.848,-278.316 380.573,-271.353"/>
</g>
</g>
</svg>
        <g id="navigator" transform="translate(0 0)" fill="#404254">
                <rect fill="#f2f5e9" fill-opacity="0.5" stroke="#606060" stroke-width=".5" x="0" y="0" width="60" height="60"/>
                <use id="zoomplus" xlink:href="#zoomPlus" x="17" y="9" onmousedown="handleZoom(evt,'in')"/>
                <use id="zoomminus" xlink:href="#zoomMin" x="42" y="9" onmousedown="handleZoom(evt,'out')"/>
                <use id="reset" xlink:href="#resetDef" x="30" y="36" onmousedown="handleReset()"/>
                <g id="arrowUp" xlink:href="#dirArrow" transform="translate(30 24)" onmousedown="handlePan(0,-1)">
                  <use xlink:href="#rim" fill="#404040">
                        <set attributeName="fill" to="#808080" begin="arrowUp.mouseover" end="arrowUp.mouseout"/>
                  </use>
                  <path fill="none" stroke="white" stroke-width="1.5" d="M0,-3.0v7 M-2.5,-0.5L0,-3.0L2.5,-0.5"/>
                </g>
                <g id="arrowRight" xlink:href="#dirArrow" transform="rotate(90) translate(36 -43)" onmousedown="handlePan(1,0)">
                  <use xlink:href="#rim" fill="#404040">
                        <set attributeName="fill" to="#808080" begin="arrowRight.mouseover" end="arrowRight.mouseout"/>
                  </use>
                  <path fill="none" stroke="white" stroke-width="1.5" d="M0,-3.0v7 M-2.5,-0.5L0,-3.0L2.5,-0.5"/>
                </g>
                <g id="arrowDown" xlink:href="#dirArrow" transform="rotate(180) translate(-30 -48)" onmousedown="handlePan(0,1)">
                  <use xlink:href="#rim" fill="#404040">
                        <set attributeName="fill" to="#808080" begin="arrowDown.mouseover" end="arrowDown.mouseout"/>
                  </use>
                  <path fill="none" stroke="white" stroke-width="1.5" d="M0,-3.0v7 M-2.5,-0.5L0,-3.0L2.5,-0.5"/>
                </g>
                <g id="arrowLeft" xlink:href="#dirArrow" transform="rotate(270) translate(-36 17)" onmousedown="handlePan(-1,0)">
                  <use xlink:href="#rim" fill="#404040">
                        <set attributeName="fill" to="#808080" begin="arrowLeft.mouseover" end="arrowLeft.mouseout"/>
                  </use>
                  <path fill="none" stroke="white" stroke-width="1.5" d="M0,-3.0v7 M-2.5,-0.5L0,-3.0L2.5,-0.5"/>
                </g>
        </g>
        <svg viewBox="0 0 15 15" width="100%" height="30px" preserveAspectRatio="xMaxYMin meet">
         <g id="arrow_out" transform="scale(0.3 0.3)">
          <a xlink:href="class_holo_gen_1_1_hierarchy_1_1_option_types_1_1_double_option__inherit__graph_org.svg" target="_base">
           <rect id="button" ry="5" rx="5" y="6" x="6" height="38" width="38"
                fill="#f2f5e9" fill-opacity="0.5" stroke="#606060" stroke-width="1.0"/>
           <path id="arrow"
             d="M 11.500037,31.436501 C 11.940474,20.09759 22.043105,11.32322 32.158766,21.979434 L 37.068811,17.246167 C 37.068811,17.246167 37.088388,32 37.088388,32 L 22.160133,31.978069 C 22.160133,31.978069 26.997745,27.140456 26.997745,27.140456 C 18.528582,18.264221 13.291696,25.230495 11.500037,31.436501 z"
             style="fill:#404040;"/>
          </a>
         </g>
        </svg>
</svg>
