<?xml version="1.0" encoding="UTF-8" standalone="no"?>
<!DOCTYPE svg PUBLIC "-//W3C//DTD SVG 1.1//EN"
 "http://www.w3.org/Graphics/SVG/1.1/DTD/svg11.dtd">
<!-- Generated by graphviz version 2.38.0 (20140413.2041)
 -->
<!-- Title: HoloGen.Image.Options.ScaleLocationPossibilities Pages: 1 -->
<svg width="212pt" height="413pt"
 viewBox="0.00 0.00 212.00 413.00" xmlns="http://www.w3.org/2000/svg" xmlns:xlink="http://www.w3.org/1999/xlink">
<g id="graph0" class="graph" transform="scale(1 1) rotate(0) translate(4 409)">
<title>HoloGen.Image.Options.ScaleLocationPossibilities</title>
<polygon fill="white" stroke="none" points="-4,4 -4,-409 208,-409 208,4 -4,4"/>
<!-- Node0 -->
<g id="node1" class="node"><title>Node0</title>
<polygon fill="#bfbfbf" stroke="black" points="2,-0.5 2,-30.5 150,-30.5 150,-0.5 2,-0.5"/>
<text text-anchor="start" x="10" y="-18.5" font-family="Helvetica,sans-Serif" font-size="10.00">HoloGen.Image.Options.Scale</text>
<text text-anchor="middle" x="76" y="-7.5" font-family="Helvetica,sans-Serif" font-size="10.00">LocationPossibilities</text>
</g>
<!-- Node1 -->
<g id="node2" class="node"><title>Node1</title>
<g id="a_node2"><a xlink:href="class_holo_gen_1_1_hierarchy_1_1_hierarchy_1_1_possibility_collection.html" target="_top" xlink:title="PossibilityCollection\l\&lt; ScaleLocationPossibility \&gt;">
<polygon fill="white" stroke="black" points="5.5,-68.5 5.5,-98.5 146.5,-98.5 146.5,-68.5 5.5,-68.5"/>
<text text-anchor="start" x="13.5" y="-86.5" font-family="Helvetica,sans-Serif" font-size="10.00">PossibilityCollection</text>
<text text-anchor="middle" x="76" y="-75.5" font-family="Helvetica,sans-Serif" font-size="10.00">&lt; ScaleLocationPossibility &gt;</text>
</a>
</g>
</g>
<!-- Node1&#45;&gt;Node0 -->
<g id="edge1" class="edge"><title>Node1&#45;&gt;Node0</title>
<path fill="none" stroke="midnightblue" d="M76,-58.0322C76,-48.8606 76,-38.7449 76,-30.7931"/>
<polygon fill="midnightblue" stroke="midnightblue" points="72.5001,-58.1789 76,-68.179 79.5001,-58.179 72.5001,-58.1789"/>
</g>
<!-- Node2 -->
<g id="node3" class="node"><title>Node2</title>
<g id="a_node3"><a xlink:href="class_holo_gen_1_1_hierarchy_1_1_hierarchy_1_1_possibility_collection.html" target="_top" xlink:title="Collection of Possibilitys. Is wrapped by a SelectOption. Extends ReflectiveChildrenElement. The base class ReflectiveChildrenElement finds all members assignable from T &#160;and uses them to populate the ReflectiveChildrenElement.Children member collection. ">
<polygon fill="white" stroke="black" points="3,-146.5 3,-176.5 149,-176.5 149,-146.5 3,-146.5"/>
<text text-anchor="start" x="11" y="-164.5" font-family="Helvetica,sans-Serif" font-size="10.00">HoloGen.Hierarchy.Hierarchy.</text>
<text text-anchor="middle" x="76" y="-153.5" font-family="Helvetica,sans-Serif" font-size="10.00">PossibilityCollection&lt; T &gt;</text>
</a>
</g>
</g>
<!-- Node2&#45;&gt;Node1 -->
<g id="edge2" class="edge"><title>Node2&#45;&gt;Node1</title>
<path fill="none" stroke="orange" stroke-dasharray="5,2" d="M76,-136.09C76,-123.757 76,-109.224 76,-98.7309"/>
<polygon fill="orange" stroke="orange" points="72.5001,-136.205 76,-146.205 79.5001,-136.205 72.5001,-136.205"/>
<text text-anchor="middle" x="140" y="-120" font-family="Helvetica,sans-Serif" font-size="10.00"> &lt; ScaleLocationPossibility &gt;</text>
</g>
<!-- Node3 -->
<g id="node4" class="node"><title>Node3</title>
<g id="a_node4"><a xlink:href="class_holo_gen_1_1_hierarchy_1_1_hierarchy_1_1_reflective_children_element.html" target="_top" xlink:title="Reflective hierarchy element template T . The constructor finds all members assignable from T &#160;and us...">
<polygon fill="white" stroke="black" points="0,-214.5 0,-233.5 152,-233.5 152,-214.5 0,-214.5"/>
<text text-anchor="middle" x="76" y="-221.5" font-family="Helvetica,sans-Serif" font-size="10.00">ReflectiveChildrenElement&lt; T &gt;</text>
</a>
</g>
</g>
<!-- Node3&#45;&gt;Node2 -->
<g id="edge3" class="edge"><title>Node3&#45;&gt;Node2</title>
<path fill="none" stroke="midnightblue" d="M76,-204.215C76,-195.356 76,-184.958 76,-176.759"/>
<polygon fill="midnightblue" stroke="midnightblue" points="72.5001,-204.332 76,-214.332 79.5001,-204.332 72.5001,-204.332"/>
</g>
<!-- Node4 -->
<g id="node5" class="node"><title>Node4</title>
<g id="a_node5"><a xlink:href="class_holo_gen_1_1_hierarchy_1_1_hierarchy_1_1_hierarchy_saveable.html" target="_top" xlink:title="Declares that this object should be serialisable and saveable ">
<polygon fill="white" stroke="black" points="27.5,-271.5 27.5,-290.5 124.5,-290.5 124.5,-271.5 27.5,-271.5"/>
<text text-anchor="middle" x="76" y="-278.5" font-family="Helvetica,sans-Serif" font-size="10.00">HierarchySaveable</text>
</a>
</g>
</g>
<!-- Node4&#45;&gt;Node3 -->
<g id="edge4" class="edge"><title>Node4&#45;&gt;Node3</title>
<path fill="none" stroke="midnightblue" d="M76,-261.117C76,-251.817 76,-241.056 76,-233.715"/>
<polygon fill="midnightblue" stroke="midnightblue" points="72.5001,-261.406 76,-271.406 79.5001,-261.406 72.5001,-261.406"/>
</g>
<!-- Node5 -->
<g id="node6" class="node"><title>Node5</title>
<g id="a_node6"><a xlink:href="class_holo_gen_1_1_utils_1_1_observable_object.html" target="_top" xlink:title="Observable object with INotifyPropertyChanged implemented ">
<polygon fill="white" stroke="black" points="29.5,-328.5 29.5,-347.5 122.5,-347.5 122.5,-328.5 29.5,-328.5"/>
<text text-anchor="middle" x="76" y="-335.5" font-family="Helvetica,sans-Serif" font-size="10.00">ObservableObject</text>
</a>
</g>
</g>
<!-- Node5&#45;&gt;Node4 -->
<g id="edge5" class="edge"><title>Node5&#45;&gt;Node4</title>
<path fill="none" stroke="midnightblue" d="M76,-318.117C76,-308.817 76,-298.056 76,-290.715"/>
<polygon fill="midnightblue" stroke="midnightblue" points="72.5001,-318.406 76,-328.406 79.5001,-318.406 72.5001,-318.406"/>
</g>
<!-- Node6 -->
<g id="node7" class="node"><title>Node6</title>
<polygon fill="white" stroke="#bfbfbf" points="16.5,-385.5 16.5,-404.5 135.5,-404.5 135.5,-385.5 16.5,-385.5"/>
<text text-anchor="middle" x="76" y="-392.5" font-family="Helvetica,sans-Serif" font-size="10.00">INotifyPropertyChanged</text>
</g>
<!-- Node6&#45;&gt;Node5 -->
<g id="edge6" class="edge"><title>Node6&#45;&gt;Node5</title>
<path fill="none" stroke="midnightblue" d="M76,-375.117C76,-365.817 76,-355.056 76,-347.715"/>
<polygon fill="midnightblue" stroke="midnightblue" points="72.5001,-375.406 76,-385.406 79.5001,-375.406 72.5001,-375.406"/>
</g>
</g>
</svg>
