<?xml version="1.0" encoding="UTF-8" standalone="no"?>
<!DOCTYPE svg PUBLIC "-//W3C//DTD SVG 1.1//EN"
 "http://www.w3.org/Graphics/SVG/1.1/DTD/svg11.dtd">
<!-- Generated by graphviz version 2.38.0 (20140413.2041)
 -->
<!-- Title: HoloGen.Utils.LogFileHandle Pages: 1 -->
<svg width="207pt" height="28pt"
 viewBox="0.00 0.00 207.00 28.00" xmlns="http://www.w3.org/2000/svg" xmlns:xlink="http://www.w3.org/1999/xlink">
<g id="graph0" class="graph" transform="scale(1 1) rotate(0) translate(4 24)">
<title>HoloGen.Utils.LogFileHandle</title>
<polygon fill="white" stroke="none" points="-4,4 -4,-24 203,-24 203,4 -4,4"/>
<!-- Node1 -->
<g id="node1" class="node"><title>Node1</title>
<polygon fill="#bfbfbf" stroke="black" points="0,-0.5 0,-19.5 141,-19.5 141,-0.5 0,-0.5"/>
<text text-anchor="middle" x="70.5" y="-7.5" font-family="Helvetica,sans-Serif" font-size="10.00">HoloGen.Utils.LogFileHandle</text>
</g>
<!-- Node1&#45;&gt;Node1 -->
<g id="edge1" class="edge"><title>Node1&#45;&gt;Node1</title>
<path fill="none" stroke="#9a32cd" stroke-dasharray="5,2" d="M151.551,-12.5511C156.214,-11.9368 159,-11.0864 159,-10 159,-8.26172 151.869,-7.12776 141.326,-6.59813"/>
<polygon fill="#9a32cd" stroke="#9a32cd" points="151.001,-9.08468 141.326,-13.4019 151.581,-16.0606 151.001,-9.08468"/>
<text text-anchor="middle" x="179" y="-7.5" font-family="Helvetica,sans-Serif" font-size="10.00"> Instance</text>
</g>
</g>
</svg>
