<?xml version="1.0" encoding="UTF-8" standalone="no"?>
<!DOCTYPE svg PUBLIC "-//W3C//DTD SVG 1.1//EN"
 "http://www.w3.org/Graphics/SVG/1.1/DTD/svg11.dtd">
<!-- Generated by graphviz version 2.38.0 (20140413.2041)
 -->
<!-- Title: HoloGen.Alg.GS.VariantGSStandardWrap Pages: 1 -->
<svg width="258pt" height="262pt"
 viewBox="0.00 0.00 258.00 262.00" xmlns="http://www.w3.org/2000/svg" xmlns:xlink="http://www.w3.org/1999/xlink">
<g id="graph0" class="graph" transform="scale(1 1) rotate(0) translate(4 258)">
<title>HoloGen.Alg.GS.VariantGSStandardWrap</title>
<polygon fill="white" stroke="none" points="-4,4 -4,-258 254,-258 254,4 -4,4"/>
<!-- Node3 -->
<g id="node1" class="node"><title>Node3</title>
<polygon fill="#bfbfbf" stroke="black" points="0,-0.5 0,-19.5 199,-19.5 199,-0.5 0,-0.5"/>
<text text-anchor="middle" x="99.5" y="-7.5" font-family="Helvetica,sans-Serif" font-size="10.00">HoloGen.Alg.GS.VariantGSStandardWrap</text>
</g>
<!-- Node4 -->
<g id="node2" class="node"><title>Node4</title>
<g id="a_node2"><a xlink:href="class_holo_gen_1_1_alg_1_1_g_s_1_1_algorithm_g_s_wrap.html" target="_top" xlink:title="GS algorithm. ">
<polygon fill="white" stroke="black" points="12,-73 12,-92 107,-92 107,-73 12,-73"/>
<text text-anchor="middle" x="59.5" y="-80" font-family="Helvetica,sans-Serif" font-size="10.00">AlgorithmGSWrap</text>
</a>
</g>
</g>
<!-- Node4&#45;&gt;Node3 -->
<g id="edge1" class="edge"><title>Node4&#45;&gt;Node3</title>
<path fill="none" stroke="midnightblue" d="M69.378,-64.09C77.3726,-49.9995 88.2975,-30.7445 94.5551,-19.7154"/>
<polygon fill="midnightblue" stroke="midnightblue" points="66.2955,-62.4305 64.4048,-72.8553 72.3838,-65.8849 66.2955,-62.4305"/>
</g>
<!-- Node5 -->
<g id="node3" class="node"><title>Node5</title>
<g id="a_node3"><a xlink:href="class_holo_gen_1_1_alg_1_1_base_1_1_wrap_1_1_algorithm_wrap.html" target="_top" xlink:title="Top level algorithm wrapper ">
<polygon fill="white" stroke="black" points="19,-151 19,-170 100,-170 100,-151 19,-151"/>
<text text-anchor="middle" x="59.5" y="-158" font-family="Helvetica,sans-Serif" font-size="10.00">AlgorithmWrap</text>
</a>
</g>
</g>
<!-- Node5&#45;&gt;Node4 -->
<g id="edge2" class="edge"><title>Node5&#45;&gt;Node4</title>
<path fill="none" stroke="midnightblue" d="M59.5,-140.724C59.5,-125.197 59.5,-103.858 59.5,-92.1165"/>
<polygon fill="midnightblue" stroke="midnightblue" points="56.0001,-140.782 59.5,-150.782 63.0001,-140.782 56.0001,-140.782"/>
</g>
<!-- Node6 -->
<g id="node4" class="node"><title>Node6</title>
<g id="a_node4"><a xlink:href="class_holo_gen_1_1_alg_1_1_base_1_1_man_1_1_algorithm_man.html" target="_top" xlink:title="Top&#45;level algorithm wrapper in Managed C++. ">
<polygon fill="white" stroke="black" points="67,-223.5 67,-253.5 174,-253.5 174,-223.5 67,-223.5"/>
<text text-anchor="start" x="75" y="-241.5" font-family="Helvetica,sans-Serif" font-size="10.00">HoloGen::Alg::Base</text>
<text text-anchor="middle" x="120.5" y="-230.5" font-family="Helvetica,sans-Serif" font-size="10.00">::Man::AlgorithmMan</text>
</a>
</g>
</g>
<!-- Node6&#45;&gt;Node5 -->
<g id="edge3" class="edge"><title>Node6&#45;&gt;Node5</title>
<path fill="none" stroke="#9a32cd" stroke-dasharray="5,2" d="M82.5599,-217.42C78.011,-213.772 73.8134,-209.631 70.5,-205 63.0662,-194.61 60.6425,-179.68 59.8606,-170.291"/>
<polygon fill="#9a32cd" stroke="#9a32cd" points="80.8396,-220.493 91.0122,-223.454 84.9066,-214.795 80.8396,-220.493"/>
<text text-anchor="middle" x="110.5" y="-197" font-family="Helvetica,sans-Serif" font-size="10.00"> managedAlgBase</text>
</g>
<!-- Node7 -->
<g id="node5" class="node"><title>Node7</title>
<g id="a_node5"><a xlink:href="class_holo_gen_1_1_alg_1_1_g_s_1_1_man_1_1_algorithm_g_s_man.html" target="_top" xlink:title="GS algorithm Managed C++ wrapper. ">
<polygon fill="white" stroke="black" points="118,-145.5 118,-175.5 237,-175.5 237,-145.5 118,-145.5"/>
<text text-anchor="start" x="126" y="-163.5" font-family="Helvetica,sans-Serif" font-size="10.00">HoloGen::Alg::GS::Man</text>
<text text-anchor="middle" x="177.5" y="-152.5" font-family="Helvetica,sans-Serif" font-size="10.00">::AlgorithmGSMan</text>
</a>
</g>
</g>
<!-- Node6&#45;&gt;Node7 -->
<g id="edge5" class="edge"><title>Node6&#45;&gt;Node7</title>
<path fill="none" stroke="midnightblue" d="M144.688,-216.279C148.181,-212.69 151.577,-208.868 154.5,-205 161.299,-196.004 167.201,-184.72 171.324,-175.899"/>
<polygon fill="midnightblue" stroke="midnightblue" points="142.237,-213.781 137.505,-223.26 147.115,-218.801 142.237,-213.781"/>
</g>
<!-- Node7&#45;&gt;Node4 -->
<g id="edge4" class="edge"><title>Node7&#45;&gt;Node4</title>
<path fill="none" stroke="#9a32cd" stroke-dasharray="5,2" d="M130.686,-141.119C122.032,-136.963 113.279,-132.217 105.5,-127 90.3463,-116.838 75.5034,-101.564 66.9399,-92.0809"/>
<polygon fill="#9a32cd" stroke="#9a32cd" points="129.438,-144.397 139.986,-145.391 132.36,-138.036 129.438,-144.397"/>
<text text-anchor="middle" x="141.5" y="-119" font-family="Helvetica,sans-Serif" font-size="10.00"> managedAlgAlg</text>
</g>
<!-- Node8 -->
<g id="node6" class="node"><title>Node8</title>
<g id="a_node6"><a xlink:href="class_holo_gen_1_1_alg_1_1_g_s_1_1_man_1_1_variant_g_s_standard_man.html" target="_top" xlink:title="GS algorithm standard variant Managed C++ wrapper. ">
<polygon fill="white" stroke="black" points="125,-67.5 125,-97.5 250,-97.5 250,-67.5 125,-67.5"/>
<text text-anchor="start" x="133" y="-85.5" font-family="Helvetica,sans-Serif" font-size="10.00">HoloGen::Alg::GS::Man</text>
<text text-anchor="middle" x="187.5" y="-74.5" font-family="Helvetica,sans-Serif" font-size="10.00">::VariantGSStandardMan</text>
</a>
</g>
</g>
<!-- Node7&#45;&gt;Node8 -->
<g id="edge7" class="edge"><title>Node7&#45;&gt;Node8</title>
<path fill="none" stroke="midnightblue" d="M180.712,-135.09C182.335,-122.757 184.247,-108.224 185.628,-97.7309"/>
<polygon fill="midnightblue" stroke="midnightblue" points="177.215,-134.834 179.381,-145.205 184.156,-135.747 177.215,-134.834"/>
</g>
<!-- Node8&#45;&gt;Node3 -->
<g id="edge6" class="edge"><title>Node8&#45;&gt;Node3</title>
<path fill="none" stroke="#9a32cd" stroke-dasharray="5,2" d="M161.765,-60.8826C144.778,-47.274 123.376,-30.1278 110.601,-19.8932"/>
<polygon fill="#9a32cd" stroke="#9a32cd" points="159.699,-63.7124 169.692,-67.2333 164.076,-58.2493 159.699,-63.7124"/>
<text text-anchor="middle" x="189.5" y="-41" font-family="Helvetica,sans-Serif" font-size="10.00"> managedAlgVariant</text>
</g>
</g>
</svg>
