<?xml version="1.0" encoding="UTF-8" standalone="no"?>
<!DOCTYPE svg PUBLIC "-//W3C//DTD SVG 1.1//EN"
 "http://www.w3.org/Graphics/SVG/1.1/DTD/svg11.dtd">
<!-- Generated by graphviz version 2.38.0 (20140413.2041)
 -->
<!-- Title: HoloGen.Serial.JsonSettingsSerialiser Pages: 1 -->
<svg width="231pt" height="253pt"
 viewBox="0.00 0.00 230.50 253.00" xmlns="http://www.w3.org/2000/svg" xmlns:xlink="http://www.w3.org/1999/xlink">
<g id="graph0" class="graph" transform="scale(1 1) rotate(0) translate(4 249)">
<title>HoloGen.Serial.JsonSettingsSerialiser</title>
<polygon fill="white" stroke="none" points="-4,4 -4,-249 226.5,-249 226.5,4 -4,4"/>
<!-- Node0 -->
<g id="node1" class="node"><title>Node0</title>
<polygon fill="#bfbfbf" stroke="black" points="22,-0.5 22,-30.5 163,-30.5 163,-0.5 22,-0.5"/>
<text text-anchor="start" x="30" y="-18.5" font-family="Helvetica,sans-Serif" font-size="10.00">HoloGen.Serial.JsonSettings</text>
<text text-anchor="middle" x="92.5" y="-7.5" font-family="Helvetica,sans-Serif" font-size="10.00">Serialiser</text>
</g>
<!-- Node1 -->
<g id="node2" class="node"><title>Node1</title>
<g id="a_node2"><a xlink:href="class_holo_gen_1_1_serial_1_1_json_serialiser.html" target="_top" xlink:title="JsonSerialiser\&lt; Application\lSettings, ApplicationSettingsVersion \&gt;">
<polygon fill="white" stroke="black" points="0,-68.5 0,-98.5 185,-98.5 185,-68.5 0,-68.5"/>
<text text-anchor="start" x="8" y="-86.5" font-family="Helvetica,sans-Serif" font-size="10.00">JsonSerialiser&lt; Application</text>
<text text-anchor="middle" x="92.5" y="-75.5" font-family="Helvetica,sans-Serif" font-size="10.00">Settings, ApplicationSettingsVersion &gt;</text>
</a>
</g>
</g>
<!-- Node1&#45;&gt;Node0 -->
<g id="edge1" class="edge"><title>Node1&#45;&gt;Node0</title>
<path fill="none" stroke="midnightblue" d="M92.5,-58.0322C92.5,-48.8606 92.5,-38.7449 92.5,-30.7931"/>
<polygon fill="midnightblue" stroke="midnightblue" points="89.0001,-58.1789 92.5,-68.179 96.0001,-58.179 89.0001,-58.1789"/>
</g>
<!-- Node2 -->
<g id="node3" class="node"><title>Node2</title>
<g id="a_node3"><a xlink:href="class_holo_gen_1_1_serial_1_1_json_serialiser.html" target="_top" xlink:title="JSON format serialisation class ">
<polygon fill="white" stroke="black" points="19.5,-157.5 19.5,-187.5 165.5,-187.5 165.5,-157.5 19.5,-157.5"/>
<text text-anchor="start" x="27.5" y="-175.5" font-family="Helvetica,sans-Serif" font-size="10.00">HoloGen.Serial.JsonSerialiser</text>
<text text-anchor="middle" x="92.5" y="-164.5" font-family="Helvetica,sans-Serif" font-size="10.00">&lt; S, T &gt;</text>
</a>
</g>
</g>
<!-- Node2&#45;&gt;Node1 -->
<g id="edge2" class="edge"><title>Node2&#45;&gt;Node1</title>
<path fill="none" stroke="orange" stroke-dasharray="5,2" d="M92.5,-147.09C92.5,-131.443 92.5,-111.685 92.5,-98.599"/>
<polygon fill="orange" stroke="orange" points="89.0001,-147.134 92.5,-157.134 96.0001,-147.134 89.0001,-147.134"/>
<text text-anchor="start" x="92.5" y="-131" font-family="Helvetica,sans-Serif" font-size="10.00"> &lt; ApplicationSettings,</text>
<text text-anchor="middle" x="157.5" y="-120" font-family="Helvetica,sans-Serif" font-size="10.00"> ApplicationSettingsVersion &gt;</text>
</g>
<!-- Node3 -->
<g id="node4" class="node"><title>Node3</title>
<g id="a_node4"><a xlink:href="class_holo_gen_1_1_serial_1_1_serialiser.html" target="_top" xlink:title="Abstract serialiser class ">
<polygon fill="white" stroke="black" points="46,-225.5 46,-244.5 139,-244.5 139,-225.5 46,-225.5"/>
<text text-anchor="middle" x="92.5" y="-232.5" font-family="Helvetica,sans-Serif" font-size="10.00">Serialiser&lt; S, T &gt;</text>
</a>
</g>
</g>
<!-- Node3&#45;&gt;Node2 -->
<g id="edge3" class="edge"><title>Node3&#45;&gt;Node2</title>
<path fill="none" stroke="midnightblue" d="M92.5,-215.215C92.5,-206.356 92.5,-195.958 92.5,-187.759"/>
<polygon fill="midnightblue" stroke="midnightblue" points="89.0001,-215.332 92.5,-225.332 96.0001,-215.332 89.0001,-215.332"/>
</g>
</g>
</svg>
