<?xml version="1.0" encoding="UTF-8" standalone="no"?>
<!DOCTYPE svg PUBLIC "-//W3C//DTD SVG 1.1//EN"
 "http://www.w3.org/Graphics/SVG/1.1/DTD/svg11.dtd">
<!-- Generated by graphviz version 2.38.0 (20140413.2041)
 -->
<!-- Title: HoloGen.UI.Hamburger.ViewModels.HamburgerMenuItem Pages: 1 -->
<svg width="164pt" height="299pt"
 viewBox="0.00 0.00 163.50 299.00" xmlns="http://www.w3.org/2000/svg" xmlns:xlink="http://www.w3.org/1999/xlink">
<g id="graph0" class="graph" transform="scale(1 1) rotate(0) translate(4 295)">
<title>HoloGen.UI.Hamburger.ViewModels.HamburgerMenuItem</title>
<polygon fill="white" stroke="none" points="-4,4 -4,-295 159.5,-295 159.5,4 -4,4"/>
<!-- Node0 -->
<g id="node1" class="node"><title>Node0</title>
<polygon fill="#bfbfbf" stroke="black" points="0,-0.5 0,-30.5 141,-30.5 141,-0.5 0,-0.5"/>
<text text-anchor="start" x="8" y="-18.5" font-family="Helvetica,sans-Serif" font-size="10.00">HoloGen.UI.Hamburger.View</text>
<text text-anchor="middle" x="70.5" y="-7.5" font-family="Helvetica,sans-Serif" font-size="10.00">Models.HamburgerMenuItem</text>
</g>
<!-- Node1 -->
<g id="node2" class="node"><title>Node1</title>
<g id="a_node2"><a xlink:href="class_holo_gen_1_1_u_i_1_1_hamburger_1_1_view_models_1_1_hamburger_item.html" target="_top" xlink:title="HamburgerItem\&lt; Hierarchy\lPage \&gt;">
<polygon fill="white" stroke="black" points="4,-68.5 4,-98.5 137,-98.5 137,-68.5 4,-68.5"/>
<text text-anchor="start" x="12" y="-86.5" font-family="Helvetica,sans-Serif" font-size="10.00">HamburgerItem&lt; Hierarchy</text>
<text text-anchor="middle" x="70.5" y="-75.5" font-family="Helvetica,sans-Serif" font-size="10.00">Page &gt;</text>
</a>
</g>
</g>
<!-- Node1&#45;&gt;Node0 -->
<g id="edge1" class="edge"><title>Node1&#45;&gt;Node0</title>
<path fill="none" stroke="midnightblue" d="M70.5,-58.0322C70.5,-48.8606 70.5,-38.7449 70.5,-30.7931"/>
<polygon fill="midnightblue" stroke="midnightblue" points="67.0001,-58.1789 70.5,-68.179 74.0001,-58.179 67.0001,-58.1789"/>
</g>
<!-- Node2 -->
<g id="node3" class="node"><title>Node2</title>
<g id="a_node3"><a xlink:href="class_holo_gen_1_1_u_i_1_1_hamburger_1_1_view_models_1_1_hamburger_item.html" target="_top" xlink:title="For the top&#45;level of a Options hierarchy, simple databinding isn&#39;t sufficient to work with simple dat...">
<polygon fill="white" stroke="black" points="0.5,-146.5 0.5,-176.5 140.5,-176.5 140.5,-146.5 0.5,-146.5"/>
<text text-anchor="start" x="8.5" y="-164.5" font-family="Helvetica,sans-Serif" font-size="10.00">HoloGen.UI.Hamburger.View</text>
<text text-anchor="middle" x="70.5" y="-153.5" font-family="Helvetica,sans-Serif" font-size="10.00">Models.HamburgerItem&lt; T &gt;</text>
</a>
</g>
</g>
<!-- Node2&#45;&gt;Node1 -->
<g id="edge2" class="edge"><title>Node2&#45;&gt;Node1</title>
<path fill="none" stroke="orange" stroke-dasharray="5,2" d="M70.5,-136.09C70.5,-123.757 70.5,-109.224 70.5,-98.7309"/>
<polygon fill="orange" stroke="orange" points="67.0001,-136.205 70.5,-146.205 74.0001,-136.205 67.0001,-136.205"/>
<text text-anchor="middle" x="113" y="-120" font-family="Helvetica,sans-Serif" font-size="10.00"> &lt; HierarchyPage &gt;</text>
</g>
<!-- Node3 -->
<g id="node4" class="node"><title>Node3</title>
<g id="a_node4"><a xlink:href="class_holo_gen_1_1_u_i_1_1_utils_1_1_m_v_v_m_1_1_bindable_base.html" target="_top" xlink:title="Implementation of INotifyPropertyChanged to simplify models. Similar to ObservableObject. ">
<polygon fill="white" stroke="black" points="32,-214.5 32,-233.5 109,-233.5 109,-214.5 32,-214.5"/>
<text text-anchor="middle" x="70.5" y="-221.5" font-family="Helvetica,sans-Serif" font-size="10.00">BindableBase</text>
</a>
</g>
</g>
<!-- Node3&#45;&gt;Node2 -->
<g id="edge3" class="edge"><title>Node3&#45;&gt;Node2</title>
<path fill="none" stroke="midnightblue" d="M70.5,-204.215C70.5,-195.356 70.5,-184.958 70.5,-176.759"/>
<polygon fill="midnightblue" stroke="midnightblue" points="67.0001,-204.332 70.5,-214.332 74.0001,-204.332 67.0001,-204.332"/>
</g>
<!-- Node4 -->
<g id="node5" class="node"><title>Node4</title>
<polygon fill="white" stroke="#bfbfbf" points="11,-271.5 11,-290.5 130,-290.5 130,-271.5 11,-271.5"/>
<text text-anchor="middle" x="70.5" y="-278.5" font-family="Helvetica,sans-Serif" font-size="10.00">INotifyPropertyChanged</text>
</g>
<!-- Node4&#45;&gt;Node3 -->
<g id="edge4" class="edge"><title>Node4&#45;&gt;Node3</title>
<path fill="none" stroke="midnightblue" d="M70.5,-261.117C70.5,-251.817 70.5,-241.056 70.5,-233.715"/>
<polygon fill="midnightblue" stroke="midnightblue" points="67.0001,-261.406 70.5,-271.406 74.0001,-261.406 67.0001,-261.406"/>
</g>
</g>
</svg>
