<?xml version="1.0" encoding="UTF-8" standalone="no"?>
<!DOCTYPE svg PUBLIC "-//W3C//DTD SVG 1.1//EN"
 "http://www.w3.org/Graphics/SVG/1.1/DTD/svg11.dtd">
<!-- Generated by graphviz version 2.38.0 (20140413.2041)
 -->
<!-- Title: HoloGen.Options.Output.Error.ErrorText Pages: 1 -->
<!--zoomable 411 -->
<svg id="main" version="1.1" xmlns="http://www.w3.org/2000/svg" xmlns:xlink="http://www.w3.org/1999/xlink" xml:space="preserve" onload="init(evt)">
<style type="text/css"><![CDATA[
.edge:hover path { stroke: red; }
.edge:hover polygon { stroke: red; fill: red; }
]]></style>
<script type="text/javascript"><![CDATA[
var edges = document.getElementsByTagName('g');
if (edges && edges.length) {
  for (var i=0;i<edges.length;i++) {
    if (edges[i].id.substr(0,4)=='edge') {
      edges[i].setAttribute('class','edge');
    }
  }
}
]]></script>
        <defs>
                <circle id="rim" cx="0" cy="0" r="7"/>
                <circle id="rim2" cx="0" cy="0" r="3.5"/>
                <g id="zoomPlus">
                        <use xlink:href="#rim" fill="#404040">
                                <set attributeName="fill" to="#808080" begin="zoomplus.mouseover" end="zoomplus.mouseout"/>
                        </use>
                        <path d="M-4,0h8M0,-4v8" fill="none" stroke="white" stroke-width="1.5" pointer-events="none"/>
                </g>
                <g id="zoomMin">
                        <use xlink:href="#rim" fill="#404040">
                                <set attributeName="fill" to="#808080" begin="zoomminus.mouseover" end="zoomminus.mouseout"/>
                        </use>
                        <path d="M-4,0h8" fill="none" stroke="white" stroke-width="1.5" pointer-events="none"/>
                </g>
                <g id="dirArrow">
                        <path fill="none" stroke="white" stroke-width="1.5" d="M0,-3.0v7 M-2.5,-0.5L0,-3.0L2.5,-0.5"/>
                </g>
               <g id="resetDef">
                       <use xlink:href="#rim2" fill="#404040">
                               <set attributeName="fill" to="#808080" begin="reset.mouseover" end="reset.mouseout"/>
                       </use>
               </g>
        </defs>

<script type="text/javascript">
var viewWidth = 533;
var viewHeight = 411;
var sectionId = 'dynsection-0';
</script>
<script xlink:href="svgpan.js"/>
<svg id="graph" class="graph">
<g id="viewport">
<title>HoloGen.Options.Output.Error.ErrorText</title>
<polygon fill="white" stroke="none" points="-4,4 -4,-407 528.5,-407 528.5,4 -4,4"/>
<!-- Node0 -->
<g id="node1" class="node"><title>Node0</title>
<polygon fill="#bfbfbf" stroke="black" points="144.5,-0.5 144.5,-30.5 294.5,-30.5 294.5,-0.5 144.5,-0.5"/>
<text text-anchor="start" x="152.5" y="-18.5" font-family="Helvetica,sans-Serif" font-size="10.00">HoloGen.Options.Output.Error.</text>
<text text-anchor="middle" x="219.5" y="-7.5" font-family="Helvetica,sans-Serif" font-size="10.00">ErrorText</text>
</g>
<!-- Node1 -->
<g id="node2" class="node"><title>Node1</title>
<g id="a_node2"><a xlink:href="class_holo_gen_1_1_hierarchy_1_1_option_types_1_1_large_text_option.html" target="_top" xlink:title="Extends TextOption and implements ILargeOption. This tells HierarchyFolder that this should be made a...">
<polygon fill="white" stroke="black" points="175.5,-68.5 175.5,-87.5 263.5,-87.5 263.5,-68.5 175.5,-68.5"/>
<text text-anchor="middle" x="219.5" y="-75.5" font-family="Helvetica,sans-Serif" font-size="10.00">LargeTextOption</text>
</a>
</g>
</g>
<!-- Node1&#45;&gt;Node0 -->
<g id="edge1" class="edge"><title>Node1&#45;&gt;Node0</title>
<path fill="none" stroke="midnightblue" d="M219.5,-58.2154C219.5,-49.3565 219.5,-38.9577 219.5,-30.7587"/>
<polygon fill="midnightblue" stroke="midnightblue" points="216,-58.3318 219.5,-68.3318 223,-58.3319 216,-58.3318"/>
</g>
<!-- Node2 -->
<g id="node3" class="node"><title>Node2</title>
<g id="a_node3"><a xlink:href="class_holo_gen_1_1_hierarchy_1_1_option_types_1_1_text_option.html" target="_top" xlink:title="Extends Option wrapping a boolean parameter. Implements the IHasWatermark interface in addition...">
<polygon fill="white" stroke="black" points="141.5,-125.5 141.5,-144.5 205.5,-144.5 205.5,-125.5 141.5,-125.5"/>
<text text-anchor="middle" x="173.5" y="-132.5" font-family="Helvetica,sans-Serif" font-size="10.00">TextOption</text>
</a>
</g>
</g>
<!-- Node2&#45;&gt;Node1 -->
<g id="edge2" class="edge"><title>Node2&#45;&gt;Node1</title>
<path fill="none" stroke="midnightblue" d="M187.273,-117.532C195.466,-107.736 205.532,-95.701 212.211,-87.7149"/>
<polygon fill="midnightblue" stroke="midnightblue" points="184.418,-115.49 180.688,-125.406 189.788,-119.981 184.418,-115.49"/>
</g>
<!-- Node3 -->
<g id="node4" class="node"><title>Node3</title>
<g id="a_node4"><a xlink:href="class_holo_gen_1_1_hierarchy_1_1_option_types_1_1_option.html" target="_top" xlink:title="Option\&lt; string \&gt;">
<polygon fill="white" stroke="black" points="26,-182.5 26,-201.5 113,-201.5 113,-182.5 26,-182.5"/>
<text text-anchor="middle" x="69.5" y="-189.5" font-family="Helvetica,sans-Serif" font-size="10.00">Option&lt; string &gt;</text>
</a>
</g>
</g>
<!-- Node3&#45;&gt;Node2 -->
<g id="edge3" class="edge"><title>Node3&#45;&gt;Node2</title>
<path fill="none" stroke="midnightblue" d="M94.6942,-177.676C114.195,-167.363 140.617,-153.39 157.364,-144.533"/>
<polygon fill="midnightblue" stroke="midnightblue" points="92.9537,-174.637 85.75,-182.406 96.2262,-180.825 92.9537,-174.637"/>
</g>
<!-- Node4 -->
<g id="node5" class="node"><title>Node4</title>
<g id="a_node5"><a xlink:href="class_holo_gen_1_1_hierarchy_1_1_option_types_1_1_option.html" target="_top" xlink:title="Root hierarchy element. Defines Name and ToolTip fields that must be implemented by any implementors...">
<polygon fill="white" stroke="black" points="4.5,-258.5 4.5,-288.5 134.5,-288.5 134.5,-258.5 4.5,-258.5"/>
<text text-anchor="start" x="12.5" y="-276.5" font-family="Helvetica,sans-Serif" font-size="10.00">HoloGen.Hierarchy.Option</text>
<text text-anchor="middle" x="69.5" y="-265.5" font-family="Helvetica,sans-Serif" font-size="10.00">Types.Option&lt; T &gt;</text>
</a>
</g>
</g>
<!-- Node4&#45;&gt;Node3 -->
<g id="edge4" class="edge"><title>Node4&#45;&gt;Node3</title>
<path fill="none" stroke="orange" stroke-dasharray="5,2" d="M69.5,-248.128C69.5,-232.354 69.5,-212.76 69.5,-201.688"/>
<polygon fill="orange" stroke="orange" points="66.0001,-248.287 69.5,-258.287 73.0001,-248.287 66.0001,-248.287"/>
<text text-anchor="middle" x="92.5" y="-227.5" font-family="Helvetica,sans-Serif" font-size="10.00"> &lt; string &gt;</text>
</g>
<!-- Node5 -->
<g id="node6" class="node"><title>Node5</title>
<g id="a_node6"><a xlink:href="class_holo_gen_1_1_utils_1_1_observable_object.html" target="_top" xlink:title="Observable object with INotifyPropertyChanged implemented ">
<polygon fill="white" stroke="black" points="16,-326.5 16,-345.5 109,-345.5 109,-326.5 16,-326.5"/>
<text text-anchor="middle" x="62.5" y="-333.5" font-family="Helvetica,sans-Serif" font-size="10.00">ObservableObject</text>
</a>
</g>
</g>
<!-- Node5&#45;&gt;Node4 -->
<g id="edge5" class="edge"><title>Node5&#45;&gt;Node4</title>
<path fill="none" stroke="midnightblue" d="M64.6734,-316.215C65.6984,-307.356 66.9016,-296.958 67.8502,-288.759"/>
<polygon fill="midnightblue" stroke="midnightblue" points="61.1756,-315.996 63.5029,-326.332 68.1292,-316.8 61.1756,-315.996"/>
</g>
<!-- Node6 -->
<g id="node7" class="node"><title>Node6</title>
<polygon fill="white" stroke="#bfbfbf" points="0,-383.5 0,-402.5 119,-402.5 119,-383.5 0,-383.5"/>
<text text-anchor="middle" x="59.5" y="-390.5" font-family="Helvetica,sans-Serif" font-size="10.00">INotifyPropertyChanged</text>
</g>
<!-- Node6&#45;&gt;Node5 -->
<g id="edge6" class="edge"><title>Node6&#45;&gt;Node5</title>
<path fill="none" stroke="midnightblue" d="M60.53,-373.117C61.0372,-363.817 61.6242,-353.056 62.0246,-345.715"/>
<polygon fill="midnightblue" stroke="midnightblue" points="57.0187,-373.23 59.9688,-383.406 64.0083,-373.612 57.0187,-373.23"/>
</g>
<!-- Node7 -->
<g id="node8" class="node"><title>Node7</title>
<g id="a_node8"><a xlink:href="interface_holo_gen_1_1_hierarchy_1_1_option_types_1_1_i_option.html" target="_top" xlink:title="Base interface for the Option that doesn&#39;t need a template parameter. Necessary for a number of refle...">
<polygon fill="white" stroke="black" points="220,-326.5 220,-345.5 267,-345.5 267,-326.5 220,-326.5"/>
<text text-anchor="middle" x="243.5" y="-333.5" font-family="Helvetica,sans-Serif" font-size="10.00">IOption</text>
</a>
</g>
</g>
<!-- Node6&#45;&gt;Node7 -->
<g id="edge12" class="edge"><title>Node6&#45;&gt;Node7</title>
<path fill="none" stroke="midnightblue" d="M98.1346,-380.452C134.938,-369.451 189.156,-353.244 219.916,-344.05"/>
<polygon fill="midnightblue" stroke="midnightblue" points="96.8287,-377.189 88.25,-383.406 98.8335,-383.896 96.8287,-377.189"/>
</g>
<!-- Node7&#45;&gt;Node4 -->
<g id="edge7" class="edge"><title>Node7&#45;&gt;Node4</title>
<path fill="none" stroke="midnightblue" d="M210.145,-323.402C181.617,-313.483 140.466,-299.175 110.042,-288.597"/>
<polygon fill="midnightblue" stroke="midnightblue" points="209.076,-326.736 219.671,-326.715 211.375,-320.124 209.076,-326.736"/>
</g>
<!-- Node14 -->
<g id="node15" class="node"><title>Node14</title>
<g id="a_node15"><a xlink:href="interface_holo_gen_1_1_hierarchy_1_1_option_types_1_1_i_large_option.html" target="_top" xlink:title="Implements the IOption interface and is implemented by any Option extensions that want to be picked u...">
<polygon fill="white" stroke="black" points="208,-220.5 208,-239.5 279,-239.5 279,-220.5 208,-220.5"/>
<text text-anchor="middle" x="243.5" y="-227.5" font-family="Helvetica,sans-Serif" font-size="10.00">ILargeOption</text>
</a>
</g>
</g>
<!-- Node7&#45;&gt;Node14 -->
<g id="edge16" class="edge"><title>Node7&#45;&gt;Node14</title>
<path fill="none" stroke="midnightblue" d="M243.5,-316.434C243.5,-293.774 243.5,-256.408 243.5,-239.628"/>
<polygon fill="midnightblue" stroke="midnightblue" points="240,-316.489 243.5,-326.489 247,-316.489 240,-316.489"/>
</g>
<!-- Node8 -->
<g id="node9" class="node"><title>Node8</title>
<g id="a_node9"><a xlink:href="interface_holo_gen_1_1_hierarchy_1_1_hierarchy_1_1_i_can_error.html" target="_top" xlink:title="Interface implemented by any classes that can be in an error state. Defines the Valid property that c...">
<polygon fill="white" stroke="black" points="137,-383.5 137,-402.5 194,-402.5 194,-383.5 137,-383.5"/>
<text text-anchor="middle" x="165.5" y="-390.5" font-family="Helvetica,sans-Serif" font-size="10.00">ICanError</text>
</a>
</g>
</g>
<!-- Node8&#45;&gt;Node7 -->
<g id="edge8" class="edge"><title>Node8&#45;&gt;Node7</title>
<path fill="none" stroke="midnightblue" d="M186.011,-377.537C200.453,-367.354 219.295,-354.068 231.398,-345.533"/>
<polygon fill="midnightblue" stroke="midnightblue" points="183.843,-374.783 177.688,-383.406 187.877,-380.504 183.843,-374.783"/>
</g>
<!-- Node9 -->
<g id="node10" class="node"><title>Node9</title>
<g id="a_node10"><a xlink:href="interface_holo_gen_1_1_hierarchy_1_1_hierarchy_1_1_i_has_name.html" target="_top" xlink:title="Interface implemented by any classes that have a Name property. ">
<polygon fill="white" stroke="black" points="212.5,-383.5 212.5,-402.5 274.5,-402.5 274.5,-383.5 212.5,-383.5"/>
<text text-anchor="middle" x="243.5" y="-390.5" font-family="Helvetica,sans-Serif" font-size="10.00">IHasName</text>
</a>
</g>
</g>
<!-- Node9&#45;&gt;Node7 -->
<g id="edge9" class="edge"><title>Node9&#45;&gt;Node7</title>
<path fill="none" stroke="midnightblue" d="M243.5,-373.117C243.5,-363.817 243.5,-353.056 243.5,-345.715"/>
<polygon fill="midnightblue" stroke="midnightblue" points="240,-373.406 243.5,-383.406 247,-373.406 240,-373.406"/>
</g>
<!-- Node10 -->
<g id="node11" class="node"><title>Node10</title>
<g id="a_node11"><a xlink:href="interface_holo_gen_1_1_hierarchy_1_1_hierarchy_1_1_i_has_tool_tip.html" target="_top" xlink:title="Interface implemented by any classes that have a ToolTip property. ">
<polygon fill="white" stroke="black" points="293,-383.5 293,-402.5 360,-402.5 360,-383.5 293,-383.5"/>
<text text-anchor="middle" x="326.5" y="-390.5" font-family="Helvetica,sans-Serif" font-size="10.00">IHasToolTip</text>
</a>
</g>
</g>
<!-- Node10&#45;&gt;Node7 -->
<g id="edge10" class="edge"><title>Node10&#45;&gt;Node7</title>
<path fill="none" stroke="midnightblue" d="M305.108,-377.824C289.686,-367.605 269.378,-354.148 256.378,-345.533"/>
<polygon fill="midnightblue" stroke="midnightblue" points="303.262,-380.8 313.531,-383.406 307.129,-374.965 303.262,-380.8"/>
</g>
<!-- Node11 -->
<g id="node12" class="node"><title>Node11</title>
<g id="a_node12"><a xlink:href="interface_holo_gen_1_1_hierarchy_1_1_hierarchy_1_1_i_can_enable.html" target="_top" xlink:title="Interface implemented by any classes that can be enabled Enabled. ">
<polygon fill="white" stroke="black" points="378.5,-383.5 378.5,-402.5 444.5,-402.5 444.5,-383.5 378.5,-383.5"/>
<text text-anchor="middle" x="411.5" y="-390.5" font-family="Helvetica,sans-Serif" font-size="10.00">ICanEnable</text>
</a>
</g>
</g>
<!-- Node11&#45;&gt;Node7 -->
<g id="edge11" class="edge"><title>Node11&#45;&gt;Node7</title>
<path fill="none" stroke="midnightblue" d="M375.592,-380.244C342.827,-369.518 295.341,-353.972 267.125,-344.734"/>
<polygon fill="midnightblue" stroke="midnightblue" points="374.657,-383.621 385.25,-383.406 376.835,-376.969 374.657,-383.621"/>
</g>
<!-- Node12 -->
<g id="node13" class="node"><title>Node12</title>
<g id="a_node13"><a xlink:href="interface_holo_gen_1_1_hierarchy_1_1_hierarchy_1_1_i_can_reset.html" target="_top" xlink:title="Interface implemented by any classes that can be reset. ">
<polygon fill="white" stroke="black" points="462.5,-383.5 462.5,-402.5 524.5,-402.5 524.5,-383.5 462.5,-383.5"/>
<text text-anchor="middle" x="493.5" y="-390.5" font-family="Helvetica,sans-Serif" font-size="10.00">ICanReset</text>
</a>
</g>
</g>
<!-- Node12&#45;&gt;Node7 -->
<g id="edge13" class="edge"><title>Node12&#45;&gt;Node7</title>
<path fill="none" stroke="midnightblue" d="M452.608,-382.811C379.121,-366.514 304.341,-350.219 267.13,-342.13"/>
<polygon fill="midnightblue" stroke="midnightblue" points="451.974,-386.256 462.495,-385.006 453.491,-379.422 451.974,-386.256"/>
</g>
<!-- Node13 -->
<g id="node14" class="node"><title>Node13</title>
<g id="a_node14"><a xlink:href="interface_holo_gen_1_1_hierarchy_1_1_hierarchy_1_1_i_has_watermark.html" target="_top" xlink:title="Interface implemented by any classes that have a Watermark property. ">
<polygon fill="white" stroke="black" points="131.5,-182.5 131.5,-201.5 215.5,-201.5 215.5,-182.5 131.5,-182.5"/>
<text text-anchor="middle" x="173.5" y="-189.5" font-family="Helvetica,sans-Serif" font-size="10.00">IHasWatermark</text>
</a>
</g>
</g>
<!-- Node13&#45;&gt;Node2 -->
<g id="edge14" class="edge"><title>Node13&#45;&gt;Node2</title>
<path fill="none" stroke="midnightblue" d="M173.5,-172.117C173.5,-162.817 173.5,-152.056 173.5,-144.715"/>
<polygon fill="midnightblue" stroke="midnightblue" points="170,-172.406 173.5,-182.406 177,-172.406 170,-172.406"/>
</g>
<!-- Node14&#45;&gt;Node1 -->
<g id="edge15" class="edge"><title>Node14&#45;&gt;Node1</title>
<path fill="none" stroke="midnightblue" d="M240.456,-209.978C235.213,-177.206 224.675,-111.344 220.892,-87.6993"/>
<polygon fill="midnightblue" stroke="midnightblue" points="237.035,-210.745 242.071,-220.066 243.947,-209.639 237.035,-210.745"/>
</g>
</g>
</svg>
        <g id="navigator" transform="translate(0 0)" fill="#404254">
                <rect fill="#f2f5e9" fill-opacity="0.5" stroke="#606060" stroke-width=".5" x="0" y="0" width="60" height="60"/>
                <use id="zoomplus" xlink:href="#zoomPlus" x="17" y="9" onmousedown="handleZoom(evt,'in')"/>
                <use id="zoomminus" xlink:href="#zoomMin" x="42" y="9" onmousedown="handleZoom(evt,'out')"/>
                <use id="reset" xlink:href="#resetDef" x="30" y="36" onmousedown="handleReset()"/>
                <g id="arrowUp" xlink:href="#dirArrow" transform="translate(30 24)" onmousedown="handlePan(0,-1)">
                  <use xlink:href="#rim" fill="#404040">
                        <set attributeName="fill" to="#808080" begin="arrowUp.mouseover" end="arrowUp.mouseout"/>
                  </use>
                  <path fill="none" stroke="white" stroke-width="1.5" d="M0,-3.0v7 M-2.5,-0.5L0,-3.0L2.5,-0.5"/>
                </g>
                <g id="arrowRight" xlink:href="#dirArrow" transform="rotate(90) translate(36 -43)" onmousedown="handlePan(1,0)">
                  <use xlink:href="#rim" fill="#404040">
                        <set attributeName="fill" to="#808080" begin="arrowRight.mouseover" end="arrowRight.mouseout"/>
                  </use>
                  <path fill="none" stroke="white" stroke-width="1.5" d="M0,-3.0v7 M-2.5,-0.5L0,-3.0L2.5,-0.5"/>
                </g>
                <g id="arrowDown" xlink:href="#dirArrow" transform="rotate(180) translate(-30 -48)" onmousedown="handlePan(0,1)">
                  <use xlink:href="#rim" fill="#404040">
                        <set attributeName="fill" to="#808080" begin="arrowDown.mouseover" end="arrowDown.mouseout"/>
                  </use>
                  <path fill="none" stroke="white" stroke-width="1.5" d="M0,-3.0v7 M-2.5,-0.5L0,-3.0L2.5,-0.5"/>
                </g>
                <g id="arrowLeft" xlink:href="#dirArrow" transform="rotate(270) translate(-36 17)" onmousedown="handlePan(-1,0)">
                  <use xlink:href="#rim" fill="#404040">
                        <set attributeName="fill" to="#808080" begin="arrowLeft.mouseover" end="arrowLeft.mouseout"/>
                  </use>
                  <path fill="none" stroke="white" stroke-width="1.5" d="M0,-3.0v7 M-2.5,-0.5L0,-3.0L2.5,-0.5"/>
                </g>
        </g>
        <svg viewBox="0 0 15 15" width="100%" height="30px" preserveAspectRatio="xMaxYMin meet">
         <g id="arrow_out" transform="scale(0.3 0.3)">
          <a xlink:href="class_holo_gen_1_1_options_1_1_output_1_1_error_1_1_error_text__inherit__graph_org.svg" target="_base">
           <rect id="button" ry="5" rx="5" y="6" x="6" height="38" width="38"
                fill="#f2f5e9" fill-opacity="0.5" stroke="#606060" stroke-width="1.0"/>
           <path id="arrow"
             d="M 11.500037,31.436501 C 11.940474,20.09759 22.043105,11.32322 32.158766,21.979434 L 37.068811,17.246167 C 37.068811,17.246167 37.088388,32 37.088388,32 L 22.160133,31.978069 C 22.160133,31.978069 26.997745,27.140456 26.997745,27.140456 C 18.528582,18.264221 13.291696,25.230495 11.500037,31.436501 z"
             style="fill:#404040;"/>
          </a>
         </g>
        </svg>
</svg>
