<?xml version="1.0" encoding="UTF-8" standalone="no"?>
<!DOCTYPE svg PUBLIC "-//W3C//DTD SVG 1.1//EN"
 "http://www.w3.org/Graphics/SVG/1.1/DTD/svg11.dtd">
<!-- Generated by graphviz version 2.38.0 (20140413.2041)
 -->
<!-- Title: HoloGen.Mask.Options.MaskFolder Pages: 1 -->
<svg width="668pt" height="459pt"
 viewBox="0.00 0.00 668.00 459.00" xmlns="http://www.w3.org/2000/svg" xmlns:xlink="http://www.w3.org/1999/xlink">
<g id="graph0" class="graph" transform="scale(1 1) rotate(0) translate(4 455)">
<title>HoloGen.Mask.Options.MaskFolder</title>
<polygon fill="white" stroke="none" points="-4,4 -4,-455 664,-455 664,4 -4,4"/>
<!-- Node0 -->
<g id="node1" class="node"><title>Node0</title>
<polygon fill="#bfbfbf" stroke="black" points="515,-0.5 515,-30.5 660,-30.5 660,-0.5 515,-0.5"/>
<text text-anchor="start" x="523" y="-18.5" font-family="Helvetica,sans-Serif" font-size="10.00">HoloGen.Mask.Options.Mask</text>
<text text-anchor="middle" x="587.5" y="-7.5" font-family="Helvetica,sans-Serif" font-size="10.00">Folder</text>
</g>
<!-- Node1 -->
<g id="node2" class="node"><title>Node1</title>
<g id="a_node2"><a xlink:href="class_holo_gen_1_1_hierarchy_1_1_hierarchy_1_1_hierarchy_folder.html" target="_top" xlink:title="Folder hierarchy element. Extends HierarchyElement and extends it to split the ReflectiveChildrenElem...">
<polygon fill="white" stroke="black" points="545,-68.5 545,-87.5 630,-87.5 630,-68.5 545,-68.5"/>
<text text-anchor="middle" x="587.5" y="-75.5" font-family="Helvetica,sans-Serif" font-size="10.00">HierarchyFolder</text>
</a>
</g>
</g>
<!-- Node1&#45;&gt;Node0 -->
<g id="edge1" class="edge"><title>Node1&#45;&gt;Node0</title>
<path fill="none" stroke="midnightblue" d="M587.5,-58.2154C587.5,-49.3565 587.5,-38.9577 587.5,-30.7587"/>
<polygon fill="midnightblue" stroke="midnightblue" points="584,-58.3318 587.5,-68.3318 591,-58.3319 584,-58.3318"/>
</g>
<!-- Node2 -->
<g id="node3" class="node"><title>Node2</title>
<g id="a_node3"><a xlink:href="class_holo_gen_1_1_hierarchy_1_1_hierarchy_1_1_hierarchy_element.html" target="_top" xlink:title="HierarchyElement\&lt; IOption \&gt;">
<polygon fill="white" stroke="black" points="415,-125.5 415,-144.5 558,-144.5 558,-125.5 415,-125.5"/>
<text text-anchor="middle" x="486.5" y="-132.5" font-family="Helvetica,sans-Serif" font-size="10.00">HierarchyElement&lt; IOption &gt;</text>
</a>
</g>
</g>
<!-- Node2&#45;&gt;Node1 -->
<g id="edge2" class="edge"><title>Node2&#45;&gt;Node1</title>
<path fill="none" stroke="midnightblue" d="M511.226,-120.535C530.138,-110.236 555.64,-96.3496 571.83,-87.5334"/>
<polygon fill="midnightblue" stroke="midnightblue" points="509.39,-117.55 502.281,-125.406 512.737,-123.698 509.39,-117.55"/>
</g>
<!-- Node3 -->
<g id="node4" class="node"><title>Node3</title>
<g id="a_node4"><a xlink:href="class_holo_gen_1_1_hierarchy_1_1_hierarchy_1_1_hierarchy_element.html" target="_top" xlink:title="Root hierarchy element. Defines Name and ToolTip fields that must be implemented by any implementors...">
<polygon fill="white" stroke="black" points="284.5,-192.5 284.5,-222.5 430.5,-222.5 430.5,-192.5 284.5,-192.5"/>
<text text-anchor="start" x="292.5" y="-210.5" font-family="Helvetica,sans-Serif" font-size="10.00">HoloGen.Hierarchy.Hierarchy.</text>
<text text-anchor="middle" x="357.5" y="-199.5" font-family="Helvetica,sans-Serif" font-size="10.00">HierarchyElement&lt; T &gt;</text>
</a>
</g>
</g>
<!-- Node3&#45;&gt;Node2 -->
<g id="edge3" class="edge"><title>Node3&#45;&gt;Node2</title>
<path fill="none" stroke="orange" stroke-dasharray="5,2" d="M392.327,-187.467C417.934,-173.472 451.519,-155.117 470.885,-144.534"/>
<polygon fill="orange" stroke="orange" points="390.392,-184.536 383.295,-192.403 393.749,-190.678 390.392,-184.536"/>
<text text-anchor="middle" x="459.5" y="-166" font-family="Helvetica,sans-Serif" font-size="10.00"> &lt; IOption &gt;</text>
</g>
<!-- Node4 -->
<g id="node5" class="node"><title>Node4</title>
<g id="a_node5"><a xlink:href="class_holo_gen_1_1_hierarchy_1_1_hierarchy_1_1_reflective_children_element.html" target="_top" xlink:title="Reflective hierarchy element template T . The constructor finds all members assignable from T &#160;and us...">
<polygon fill="white" stroke="black" points="61.5,-260.5 61.5,-279.5 213.5,-279.5 213.5,-260.5 61.5,-260.5"/>
<text text-anchor="middle" x="137.5" y="-267.5" font-family="Helvetica,sans-Serif" font-size="10.00">ReflectiveChildrenElement&lt; T &gt;</text>
</a>
</g>
</g>
<!-- Node4&#45;&gt;Node3 -->
<g id="edge4" class="edge"><title>Node4&#45;&gt;Node3</title>
<path fill="none" stroke="midnightblue" d="M178.272,-257.788C214.395,-247.854 267.298,-233.306 306.269,-222.589"/>
<polygon fill="midnightblue" stroke="midnightblue" points="177.268,-254.434 168.554,-260.46 179.124,-261.183 177.268,-254.434"/>
</g>
<!-- Node5 -->
<g id="node6" class="node"><title>Node5</title>
<g id="a_node6"><a xlink:href="class_holo_gen_1_1_hierarchy_1_1_hierarchy_1_1_hierarchy_saveable.html" target="_top" xlink:title="Declares that this object should be serialisable and saveable ">
<polygon fill="white" stroke="black" points="11,-317.5 11,-336.5 108,-336.5 108,-317.5 11,-317.5"/>
<text text-anchor="middle" x="59.5" y="-324.5" font-family="Helvetica,sans-Serif" font-size="10.00">HierarchySaveable</text>
</a>
</g>
</g>
<!-- Node5&#45;&gt;Node4 -->
<g id="edge5" class="edge"><title>Node5&#45;&gt;Node4</title>
<path fill="none" stroke="midnightblue" d="M80.0111,-311.537C94.4526,-301.354 113.295,-288.068 125.398,-279.533"/>
<polygon fill="midnightblue" stroke="midnightblue" points="77.8431,-308.783 71.6875,-317.406 81.8771,-314.504 77.8431,-308.783"/>
</g>
<!-- Node6 -->
<g id="node7" class="node"><title>Node6</title>
<g id="a_node7"><a xlink:href="class_holo_gen_1_1_utils_1_1_observable_object.html" target="_top" xlink:title="Observable object with INotifyPropertyChanged implemented ">
<polygon fill="white" stroke="black" points="13,-374.5 13,-393.5 106,-393.5 106,-374.5 13,-374.5"/>
<text text-anchor="middle" x="59.5" y="-381.5" font-family="Helvetica,sans-Serif" font-size="10.00">ObservableObject</text>
</a>
</g>
</g>
<!-- Node6&#45;&gt;Node5 -->
<g id="edge6" class="edge"><title>Node6&#45;&gt;Node5</title>
<path fill="none" stroke="midnightblue" d="M59.5,-364.117C59.5,-354.817 59.5,-344.056 59.5,-336.715"/>
<polygon fill="midnightblue" stroke="midnightblue" points="56.0001,-364.406 59.5,-374.406 63.0001,-364.406 56.0001,-364.406"/>
</g>
<!-- Node7 -->
<g id="node8" class="node"><title>Node7</title>
<polygon fill="white" stroke="#bfbfbf" points="0,-431.5 0,-450.5 119,-450.5 119,-431.5 0,-431.5"/>
<text text-anchor="middle" x="59.5" y="-438.5" font-family="Helvetica,sans-Serif" font-size="10.00">INotifyPropertyChanged</text>
</g>
<!-- Node7&#45;&gt;Node6 -->
<g id="edge7" class="edge"><title>Node7&#45;&gt;Node6</title>
<path fill="none" stroke="midnightblue" d="M59.5,-421.117C59.5,-411.817 59.5,-401.056 59.5,-393.715"/>
<polygon fill="midnightblue" stroke="midnightblue" points="56.0001,-421.406 59.5,-431.406 63.0001,-421.406 56.0001,-421.406"/>
</g>
<!-- Node8 -->
<g id="node9" class="node"><title>Node8</title>
<g id="a_node9"><a xlink:href="interface_holo_gen_1_1_hierarchy_1_1_hierarchy_1_1_i_hierarchy_element.html" target="_top" xlink:title="Base interface for the HierarchyElement that doesn&#39;t need a template parameter. Necessary for a numbe...">
<polygon fill="white" stroke="black" points="309.5,-260.5 309.5,-279.5 405.5,-279.5 405.5,-260.5 309.5,-260.5"/>
<text text-anchor="middle" x="357.5" y="-267.5" font-family="Helvetica,sans-Serif" font-size="10.00">IHierarchyElement</text>
</a>
</g>
</g>
<!-- Node8&#45;&gt;Node3 -->
<g id="edge8" class="edge"><title>Node8&#45;&gt;Node3</title>
<path fill="none" stroke="midnightblue" d="M357.5,-250.215C357.5,-241.356 357.5,-230.958 357.5,-222.759"/>
<polygon fill="midnightblue" stroke="midnightblue" points="354,-250.332 357.5,-260.332 361,-250.332 354,-250.332"/>
</g>
<!-- Node9 -->
<g id="node10" class="node"><title>Node9</title>
<g id="a_node10"><a xlink:href="interface_holo_gen_1_1_hierarchy_1_1_hierarchy_1_1_i_can_error.html" target="_top" xlink:title="Interface implemented by any classes that can be in an error state. Defines the Valid property that c...">
<polygon fill="white" stroke="black" points="126,-317.5 126,-336.5 183,-336.5 183,-317.5 126,-317.5"/>
<text text-anchor="middle" x="154.5" y="-324.5" font-family="Helvetica,sans-Serif" font-size="10.00">ICanError</text>
</a>
</g>
</g>
<!-- Node9&#45;&gt;Node8 -->
<g id="edge9" class="edge"><title>Node9&#45;&gt;Node8</title>
<path fill="none" stroke="midnightblue" d="M192.975,-315.576C231.515,-305.134 290.118,-289.256 325.989,-279.537"/>
<polygon fill="midnightblue" stroke="midnightblue" points="191.891,-312.243 183.154,-318.236 193.722,-319 191.891,-312.243"/>
</g>
<!-- Node10 -->
<g id="node11" class="node"><title>Node10</title>
<g id="a_node11"><a xlink:href="interface_holo_gen_1_1_hierarchy_1_1_hierarchy_1_1_i_has_name.html" target="_top" xlink:title="Interface implemented by any classes that have a Name property. ">
<polygon fill="white" stroke="black" points="201.5,-317.5 201.5,-336.5 263.5,-336.5 263.5,-317.5 201.5,-317.5"/>
<text text-anchor="middle" x="232.5" y="-324.5" font-family="Helvetica,sans-Serif" font-size="10.00">IHasName</text>
</a>
</g>
</g>
<!-- Node10&#45;&gt;Node8 -->
<g id="edge10" class="edge"><title>Node10&#45;&gt;Node8</title>
<path fill="none" stroke="midnightblue" d="M261.197,-313.374C284.77,-303.001 317.52,-288.591 338.106,-279.533"/>
<polygon fill="midnightblue" stroke="midnightblue" points="259.775,-310.175 252.031,-317.406 262.594,-316.582 259.775,-310.175"/>
</g>
<!-- Node11 -->
<g id="node12" class="node"><title>Node11</title>
<g id="a_node12"><a xlink:href="interface_holo_gen_1_1_hierarchy_1_1_hierarchy_1_1_i_has_tool_tip.html" target="_top" xlink:title="Interface implemented by any classes that have a ToolTip property. ">
<polygon fill="white" stroke="black" points="282,-317.5 282,-336.5 349,-336.5 349,-317.5 282,-317.5"/>
<text text-anchor="middle" x="315.5" y="-324.5" font-family="Helvetica,sans-Serif" font-size="10.00">IHasToolTip</text>
</a>
</g>
</g>
<!-- Node11&#45;&gt;Node8 -->
<g id="edge11" class="edge"><title>Node11&#45;&gt;Node8</title>
<path fill="none" stroke="midnightblue" d="M328.303,-309.234C335.742,-299.493 344.808,-287.62 350.845,-279.715"/>
<polygon fill="midnightblue" stroke="midnightblue" points="325.35,-307.334 322.063,-317.406 330.913,-311.583 325.35,-307.334"/>
</g>
<!-- Node12 -->
<g id="node13" class="node"><title>Node12</title>
<g id="a_node13"><a xlink:href="interface_holo_gen_1_1_hierarchy_1_1_hierarchy_1_1_i_can_reset.html" target="_top" xlink:title="Interface implemented by any classes that can be reset. ">
<polygon fill="white" stroke="black" points="367.5,-317.5 367.5,-336.5 429.5,-336.5 429.5,-317.5 367.5,-317.5"/>
<text text-anchor="middle" x="398.5" y="-324.5" font-family="Helvetica,sans-Serif" font-size="10.00">ICanReset</text>
</a>
</g>
</g>
<!-- Node12&#45;&gt;Node8 -->
<g id="edge12" class="edge"><title>Node12&#45;&gt;Node8</title>
<path fill="none" stroke="midnightblue" d="M386.002,-309.234C378.74,-299.493 369.89,-287.62 363.997,-279.715"/>
<polygon fill="midnightblue" stroke="midnightblue" points="383.311,-311.481 392.094,-317.406 388.923,-307.297 383.311,-311.481"/>
</g>
<!-- Node13 -->
<g id="node14" class="node"><title>Node13</title>
<g id="a_node14"><a xlink:href="interface_holo_gen_1_1_hierarchy_1_1_hierarchy_1_1_i_can_recursively_enable.html" target="_top" xlink:title="Interface implemented by any classes that can be enabled Enabled and have children that can be Enable...">
<polygon fill="white" stroke="black" points="485.5,-317.5 485.5,-336.5 601.5,-336.5 601.5,-317.5 485.5,-317.5"/>
<text text-anchor="middle" x="543.5" y="-324.5" font-family="Helvetica,sans-Serif" font-size="10.00">ICanRecursivelyEnable</text>
</a>
</g>
</g>
<!-- Node13&#45;&gt;Node8 -->
<g id="edge13" class="edge"><title>Node13&#45;&gt;Node8</title>
<path fill="none" stroke="midnightblue" d="M514.247,-313.564C501.295,-308.335 485.787,-302.446 471.5,-298 448.001,-290.687 421.248,-284.255 399.567,-279.505"/>
<polygon fill="midnightblue" stroke="midnightblue" points="513.011,-316.84 523.591,-317.4 515.669,-310.365 513.011,-316.84"/>
</g>
<!-- Node14 -->
<g id="node15" class="node"><title>Node14</title>
<g id="a_node15"><a xlink:href="interface_holo_gen_1_1_hierarchy_1_1_hierarchy_1_1_i_can_enable.html" target="_top" xlink:title="Interface implemented by any classes that can be enabled Enabled. ">
<polygon fill="white" stroke="black" points="510.5,-374.5 510.5,-393.5 576.5,-393.5 576.5,-374.5 510.5,-374.5"/>
<text text-anchor="middle" x="543.5" y="-381.5" font-family="Helvetica,sans-Serif" font-size="10.00">ICanEnable</text>
</a>
</g>
</g>
<!-- Node14&#45;&gt;Node1 -->
<g id="edge16" class="edge"><title>Node14&#45;&gt;Node1</title>
<path fill="none" stroke="midnightblue" d="M586.035,-372.688C607.689,-364.633 629.5,-350.849 629.5,-328 629.5,-328 629.5,-328 629.5,-134 629.5,-114.296 612.263,-97.2661 599.874,-87.5702"/>
<polygon fill="midnightblue" stroke="midnightblue" points="584.864,-369.389 576.504,-375.898 587.098,-376.023 584.864,-369.389"/>
</g>
<!-- Node14&#45;&gt;Node8 -->
<g id="edge15" class="edge"><title>Node14&#45;&gt;Node8</title>
<path fill="none" stroke="midnightblue" d="M521.823,-368.978C500.713,-355.417 467.638,-334.42 438.5,-317 416.013,-303.557 389.55,-288.707 373.147,-279.614"/>
<polygon fill="midnightblue" stroke="midnightblue" points="520.055,-372.002 530.357,-374.474 523.845,-366.117 520.055,-372.002"/>
</g>
<!-- Node14&#45;&gt;Node13 -->
<g id="edge14" class="edge"><title>Node14&#45;&gt;Node13</title>
<path fill="none" stroke="midnightblue" d="M543.5,-364.117C543.5,-354.817 543.5,-344.056 543.5,-336.715"/>
<polygon fill="midnightblue" stroke="midnightblue" points="540,-364.406 543.5,-374.406 547,-364.406 540,-364.406"/>
</g>
</g>
</svg>
