<?xml version="1.0" encoding="UTF-8" standalone="no"?>
<!DOCTYPE svg PUBLIC "-//W3C//DTD SVG 1.1//EN"
 "http://www.w3.org/Graphics/SVG/1.1/DTD/svg11.dtd">
<!-- Generated by graphviz version 2.38.0 (20140413.2041)
 -->
<!-- Title: HoloGen.UI.ViewModels.HologramViewModel Pages: 1 -->
<svg width="273pt" height="334pt"
 viewBox="0.00 0.00 272.50 334.00" xmlns="http://www.w3.org/2000/svg" xmlns:xlink="http://www.w3.org/1999/xlink">
<g id="graph0" class="graph" transform="scale(1 1) rotate(0) translate(4 330)">
<title>HoloGen.UI.ViewModels.HologramViewModel</title>
<polygon fill="white" stroke="none" points="-4,4 -4,-330 268.5,-330 268.5,4 -4,4"/>
<!-- Node6 -->
<g id="node1" class="node"><title>Node6</title>
<polygon fill="#bfbfbf" stroke="black" points="77.5,-0.5 77.5,-30.5 243.5,-30.5 243.5,-0.5 77.5,-0.5"/>
<text text-anchor="start" x="85.5" y="-18.5" font-family="Helvetica,sans-Serif" font-size="10.00">HoloGen.UI.ViewModels.Hologram</text>
<text text-anchor="middle" x="160.5" y="-7.5" font-family="Helvetica,sans-Serif" font-size="10.00">ViewModel</text>
</g>
<!-- Node7 -->
<g id="node2" class="node"><title>Node7</title>
<g id="a_node2"><a xlink:href="class_holo_gen_1_1_u_i_1_1_mask_1_1_mask_view_model.html" target="_top" xlink:title="ViewModel for MaskViewer. ">
<polygon fill="white" stroke="black" points="116.5,-68.5 116.5,-87.5 204.5,-87.5 204.5,-68.5 116.5,-68.5"/>
<text text-anchor="middle" x="160.5" y="-75.5" font-family="Helvetica,sans-Serif" font-size="10.00">MaskViewModel</text>
</a>
</g>
</g>
<!-- Node7&#45;&gt;Node6 -->
<g id="edge1" class="edge"><title>Node7&#45;&gt;Node6</title>
<path fill="none" stroke="midnightblue" d="M160.5,-58.2154C160.5,-49.3565 160.5,-38.9577 160.5,-30.7587"/>
<polygon fill="midnightblue" stroke="midnightblue" points="157,-58.3318 160.5,-68.3318 164,-58.3319 157,-58.3318"/>
</g>
<!-- Node8 -->
<g id="node3" class="node"><title>Node8</title>
<g id="a_node3"><a xlink:href="class_holo_gen_1_1_u_i_1_1_x3_1_1_viewer_1_1_x3_plotter_view_model.html" target="_top" xlink:title="ViewModel for viewing a ComplexImage in 3D. ">
<polygon fill="white" stroke="black" points="109,-125.5 109,-144.5 212,-144.5 212,-125.5 109,-125.5"/>
<text text-anchor="middle" x="160.5" y="-132.5" font-family="Helvetica,sans-Serif" font-size="10.00">X3PlotterViewModel</text>
</a>
</g>
</g>
<!-- Node8&#45;&gt;Node7 -->
<g id="edge2" class="edge"><title>Node8&#45;&gt;Node7</title>
<path fill="none" stroke="midnightblue" d="M160.5,-115.117C160.5,-105.817 160.5,-95.0557 160.5,-87.7149"/>
<polygon fill="midnightblue" stroke="midnightblue" points="157,-115.406 160.5,-125.406 164,-115.406 157,-115.406"/>
</g>
<!-- Node9 -->
<g id="node4" class="node"><title>Node9</title>
<g id="a_node4"><a xlink:href="class_holo_gen_1_1_u_i_1_1_image_1_1_viewer_1_1_image_view_model.html" target="_top" xlink:title="ViewModel for ImageViewer. ">
<polygon fill="white" stroke="black" points="115.5,-182.5 115.5,-201.5 205.5,-201.5 205.5,-182.5 115.5,-182.5"/>
<text text-anchor="middle" x="160.5" y="-189.5" font-family="Helvetica,sans-Serif" font-size="10.00">ImageViewModel</text>
</a>
</g>
</g>
<!-- Node9&#45;&gt;Node8 -->
<g id="edge3" class="edge"><title>Node9&#45;&gt;Node8</title>
<path fill="none" stroke="midnightblue" d="M160.5,-172.117C160.5,-162.817 160.5,-152.056 160.5,-144.715"/>
<polygon fill="midnightblue" stroke="midnightblue" points="157,-172.406 160.5,-182.406 164,-172.406 157,-172.406"/>
</g>
<!-- Node10 -->
<g id="node5" class="node"><title>Node10</title>
<g id="a_node5"><a xlink:href="class_holo_gen_1_1_utils_1_1_observable_object.html" target="_top" xlink:title="Observable object with INotifyPropertyChanged implemented ">
<polygon fill="white" stroke="black" points="13,-249.5 13,-268.5 106,-268.5 106,-249.5 13,-249.5"/>
<text text-anchor="middle" x="59.5" y="-256.5" font-family="Helvetica,sans-Serif" font-size="10.00">ObservableObject</text>
</a>
</g>
</g>
<!-- Node10&#45;&gt;Node9 -->
<g id="edge4" class="edge"><title>Node10&#45;&gt;Node9</title>
<path fill="none" stroke="midnightblue" d="M81.6132,-243.769C101.605,-230.903 130.388,-212.379 147.094,-201.627"/>
<polygon fill="midnightblue" stroke="midnightblue" points="79.6363,-240.879 73.1213,-249.234 83.4245,-246.765 79.6363,-240.879"/>
</g>
<!-- Node11 -->
<g id="node6" class="node"><title>Node11</title>
<polygon fill="white" stroke="#bfbfbf" points="0,-306.5 0,-325.5 119,-325.5 119,-306.5 0,-306.5"/>
<text text-anchor="middle" x="59.5" y="-313.5" font-family="Helvetica,sans-Serif" font-size="10.00">INotifyPropertyChanged</text>
</g>
<!-- Node11&#45;&gt;Node10 -->
<g id="edge5" class="edge"><title>Node11&#45;&gt;Node10</title>
<path fill="none" stroke="midnightblue" d="M59.5,-296.117C59.5,-286.817 59.5,-276.056 59.5,-268.715"/>
<polygon fill="midnightblue" stroke="midnightblue" points="56.0001,-296.406 59.5,-306.406 63.0001,-296.406 56.0001,-296.406"/>
</g>
<!-- Node12 -->
<g id="node7" class="node"><title>Node12</title>
<g id="a_node7"><a xlink:href="class_holo_gen_1_1_image_1_1_image_cache.html" target="_top" xlink:title="Cache for ComplexImage objects for defined ImageScaleTypes, TransformTypes and ColorSchemes ...">
<polygon fill="white" stroke="black" points="124.5,-249.5 124.5,-268.5 264.5,-268.5 264.5,-249.5 124.5,-249.5"/>
<text text-anchor="middle" x="194.5" y="-256.5" font-family="Helvetica,sans-Serif" font-size="10.00">HoloGen.Image.ImageCache</text>
</a>
</g>
</g>
<!-- Node12&#45;&gt;Node9 -->
<g id="edge6" class="edge"><title>Node12&#45;&gt;Node9</title>
<path fill="none" stroke="#9a32cd" stroke-dasharray="5,2" d="M185.17,-240.163C178.613,-227.628 170.13,-211.41 165.013,-201.627"/>
<polygon fill="#9a32cd" stroke="#9a32cd" points="182.178,-241.995 189.915,-249.234 188.381,-238.751 182.178,-241.995"/>
<text text-anchor="middle" x="209.5" y="-223" font-family="Helvetica,sans-Serif" font-size="10.00"> ImageCache</text>
</g>
</g>
</svg>
