<?xml version="1.0" encoding="UTF-8" standalone="no"?>
<!DOCTYPE svg PUBLIC "-//W3C//DTD SVG 1.1//EN"
 "http://www.w3.org/Graphics/SVG/1.1/DTD/svg11.dtd">
<!-- Generated by graphviz version 2.38.0 (20140413.2041)
 -->
<!-- Title: HoloGen.UI.Graph.ViewModels.GraphViewModel.IncrementAxisLimits Pages: 1 -->
<svg width="407pt" height="39pt"
 viewBox="0.00 0.00 407.00 39.00" xmlns="http://www.w3.org/2000/svg" xmlns:xlink="http://www.w3.org/1999/xlink">
<g id="graph0" class="graph" transform="scale(1 1) rotate(0) translate(4 35)">
<title>HoloGen.UI.Graph.ViewModels.GraphViewModel.IncrementAxisLimits</title>
<polygon fill="white" stroke="none" points="-4,4 -4,-35 403,-35 403,4 -4,4"/>
<!-- Node3 -->
<g id="node1" class="node"><title>Node3</title>
<polygon fill="#bfbfbf" stroke="black" points="0,-0.5 0,-30.5 182,-30.5 182,-0.5 0,-0.5"/>
<text text-anchor="start" x="8" y="-18.5" font-family="Helvetica,sans-Serif" font-size="10.00">HoloGen.UI.Graph.ViewModels.</text>
<text text-anchor="middle" x="91" y="-7.5" font-family="Helvetica,sans-Serif" font-size="10.00">GraphViewModel.IncrementAxisLimits</text>
</g>
<!-- Node4 -->
<g id="node2" class="node"><title>Node4</title>
<g id="a_node2"><a xlink:href="class_holo_gen_1_1_u_i_1_1_process_1_1_monitor_1_1_view_models_1_1_process_view_model.html#a1719b6b0f33c17e33eedb5abf9304870" target="_top" xlink:title="HoloGen.UI.Process.Monitor.\lViewModels.ProcessViewModel.Read">
<polygon fill="white" stroke="black" points="218,-0.5 218,-30.5 399,-30.5 399,-0.5 218,-0.5"/>
<text text-anchor="start" x="226" y="-18.5" font-family="Helvetica,sans-Serif" font-size="10.00">HoloGen.UI.Process.Monitor.</text>
<text text-anchor="middle" x="308.5" y="-7.5" font-family="Helvetica,sans-Serif" font-size="10.00">ViewModels.ProcessViewModel.Read</text>
</a>
</g>
</g>
<!-- Node3&#45;&gt;Node4 -->
<g id="edge1" class="edge"><title>Node3&#45;&gt;Node4</title>
<path fill="none" stroke="midnightblue" d="M192.403,-15.5C200.85,-15.5 209.358,-15.5 217.718,-15.5"/>
<polygon fill="midnightblue" stroke="midnightblue" points="192.143,-12.0001 182.143,-15.5 192.143,-19.0001 192.143,-12.0001"/>
</g>
</g>
</svg>
