<?xml version="1.0" encoding="UTF-8" standalone="no"?>
<!DOCTYPE svg PUBLIC "-//W3C//DTD SVG 1.1//EN"
 "http://www.w3.org/Graphics/SVG/1.1/DTD/svg11.dtd">
<!-- Generated by graphviz version 2.38.0 (20140413.2041)
 -->
<!-- Title: HoloGen.UI.Commands.ExportMatFileCommand Pages: 1 -->
<svg width="195pt" height="263pt"
 viewBox="0.00 0.00 195.00 263.00" xmlns="http://www.w3.org/2000/svg" xmlns:xlink="http://www.w3.org/1999/xlink">
<g id="graph0" class="graph" transform="scale(1 1) rotate(0) translate(4 259)">
<title>HoloGen.UI.Commands.ExportMatFileCommand</title>
<polygon fill="white" stroke="none" points="-4,4 -4,-259 191,-259 191,4 -4,4"/>
<!-- Node0 -->
<g id="node1" class="node"><title>Node0</title>
<polygon fill="#bfbfbf" stroke="black" points="32.5,-0.5 32.5,-30.5 182.5,-30.5 182.5,-0.5 32.5,-0.5"/>
<text text-anchor="start" x="40.5" y="-18.5" font-family="Helvetica,sans-Serif" font-size="10.00">HoloGen.UI.Commands.Export</text>
<text text-anchor="middle" x="107.5" y="-7.5" font-family="Helvetica,sans-Serif" font-size="10.00">MatFileCommand</text>
</g>
<!-- Node1 -->
<g id="node2" class="node"><title>Node1</title>
<g id="a_node2"><a xlink:href="class_holo_gen_1_1_u_i_1_1_commands_1_1_import_command.html" target="_top" xlink:title="HoloGen menu command ">
<polygon fill="white" stroke="black" points="63.5,-67.5 63.5,-86.5 151.5,-86.5 151.5,-67.5 63.5,-67.5"/>
<text text-anchor="middle" x="107.5" y="-74.5" font-family="Helvetica,sans-Serif" font-size="10.00">ImportCommand</text>
</a>
</g>
</g>
<!-- Node1&#45;&gt;Node0 -->
<g id="edge1" class="edge"><title>Node1&#45;&gt;Node0</title>
<path fill="none" stroke="midnightblue" d="M107.5,-57.2349C107.5,-48.5864 107.5,-38.4969 107.5,-30.523"/>
<polygon fill="midnightblue" stroke="midnightblue" points="104,-57.4751 107.5,-67.4751 111,-57.4751 104,-57.4751"/>
</g>
<!-- Node2 -->
<g id="node3" class="node"><title>Node2</title>
<g id="a_node3"><a xlink:href="class_holo_gen_1_1_u_i_1_1_commands_1_1_connected_command.html" target="_top" xlink:title="HoloGen menu command ">
<polygon fill="white" stroke="black" points="54,-123.5 54,-142.5 161,-142.5 161,-123.5 54,-123.5"/>
<text text-anchor="middle" x="107.5" y="-130.5" font-family="Helvetica,sans-Serif" font-size="10.00">ConnectedCommand</text>
</a>
</g>
</g>
<!-- Node2&#45;&gt;Node1 -->
<g id="edge2" class="edge"><title>Node2&#45;&gt;Node1</title>
<path fill="none" stroke="midnightblue" d="M107.5,-112.805C107.5,-103.91 107.5,-93.7798 107.5,-86.7511"/>
<polygon fill="midnightblue" stroke="midnightblue" points="104,-113.083 107.5,-123.083 111,-113.083 104,-113.083"/>
</g>
<!-- Node3 -->
<g id="node4" class="node"><title>Node3</title>
<g id="a_node4"><a xlink:href="class_holo_gen_1_1_utils_1_1_observable_object.html" target="_top" xlink:title="Observable object with INotifyPropertyChanged implemented ">
<polygon fill="white" stroke="black" points="13,-179.5 13,-198.5 106,-198.5 106,-179.5 13,-179.5"/>
<text text-anchor="middle" x="59.5" y="-186.5" font-family="Helvetica,sans-Serif" font-size="10.00">ObservableObject</text>
</a>
</g>
</g>
<!-- Node3&#45;&gt;Node2 -->
<g id="edge3" class="edge"><title>Node3&#45;&gt;Node2</title>
<path fill="none" stroke="midnightblue" d="M74.2277,-171.431C82.6401,-161.967 92.8487,-150.483 99.7213,-142.751"/>
<polygon fill="midnightblue" stroke="midnightblue" points="71.454,-169.284 67.4262,-179.083 76.6858,-173.934 71.454,-169.284"/>
</g>
<!-- Node4 -->
<g id="node5" class="node"><title>Node4</title>
<polygon fill="white" stroke="#bfbfbf" points="0,-235.5 0,-254.5 119,-254.5 119,-235.5 0,-235.5"/>
<text text-anchor="middle" x="59.5" y="-242.5" font-family="Helvetica,sans-Serif" font-size="10.00">INotifyPropertyChanged</text>
</g>
<!-- Node4&#45;&gt;Node3 -->
<g id="edge4" class="edge"><title>Node4&#45;&gt;Node3</title>
<path fill="none" stroke="midnightblue" d="M59.5,-224.805C59.5,-215.91 59.5,-205.78 59.5,-198.751"/>
<polygon fill="midnightblue" stroke="midnightblue" points="56.0001,-225.083 59.5,-235.083 63.0001,-225.083 56.0001,-225.083"/>
</g>
<!-- Node5 -->
<g id="node6" class="node"><title>Node5</title>
<polygon fill="white" stroke="#bfbfbf" points="124,-179.5 124,-198.5 187,-198.5 187,-179.5 124,-179.5"/>
<text text-anchor="middle" x="155.5" y="-186.5" font-family="Helvetica,sans-Serif" font-size="10.00">ICommand</text>
</g>
<!-- Node5&#45;&gt;Node2 -->
<g id="edge5" class="edge"><title>Node5&#45;&gt;Node2</title>
<path fill="none" stroke="midnightblue" d="M140.772,-171.431C132.36,-161.967 122.151,-150.483 115.279,-142.751"/>
<polygon fill="midnightblue" stroke="midnightblue" points="138.314,-173.934 147.574,-179.083 143.546,-169.284 138.314,-173.934"/>
</g>
</g>
</svg>
