<?xml version="1.0" encoding="UTF-8" standalone="no"?>
<!DOCTYPE svg PUBLIC "-//W3C//DTD SVG 1.1//EN"
 "http://www.w3.org/Graphics/SVG/1.1/DTD/svg11.dtd">
<!-- Generated by graphviz version 2.38.0 (20140413.2041)
 -->
<!-- Title: HoloGen.Image.Options.TransformTypeOption Pages: 1 -->
<svg width="533pt" height="356pt"
 viewBox="0.00 0.00 532.50 356.00" xmlns="http://www.w3.org/2000/svg" xmlns:xlink="http://www.w3.org/1999/xlink">
<g id="graph0" class="graph" transform="scale(1 1) rotate(0) translate(4 352)">
<title>HoloGen.Image.Options.TransformTypeOption</title>
<polygon fill="white" stroke="none" points="-4,4 -4,-352 528.5,-352 528.5,4 -4,4"/>
<!-- Node0 -->
<g id="node1" class="node"><title>Node0</title>
<polygon fill="#bfbfbf" stroke="black" points="160.5,-0.5 160.5,-30.5 326.5,-30.5 326.5,-0.5 160.5,-0.5"/>
<text text-anchor="start" x="168.5" y="-18.5" font-family="Helvetica,sans-Serif" font-size="10.00">HoloGen.Image.Options.Transform</text>
<text text-anchor="middle" x="243.5" y="-7.5" font-family="Helvetica,sans-Serif" font-size="10.00">TypeOption</text>
</g>
<!-- Node1 -->
<g id="node2" class="node"><title>Node1</title>
<g id="a_node2"><a xlink:href="class_holo_gen_1_1_hierarchy_1_1_option_types_1_1_select_option.html" target="_top" xlink:title="SelectOption\&lt; TransformType\lPossibility \&gt;">
<polygon fill="white" stroke="black" points="170.5,-68.5 170.5,-98.5 316.5,-98.5 316.5,-68.5 170.5,-68.5"/>
<text text-anchor="start" x="178.5" y="-86.5" font-family="Helvetica,sans-Serif" font-size="10.00">SelectOption&lt; TransformType</text>
<text text-anchor="middle" x="243.5" y="-75.5" font-family="Helvetica,sans-Serif" font-size="10.00">Possibility &gt;</text>
</a>
</g>
</g>
<!-- Node1&#45;&gt;Node0 -->
<g id="edge1" class="edge"><title>Node1&#45;&gt;Node0</title>
<path fill="none" stroke="midnightblue" d="M243.5,-58.0322C243.5,-48.8606 243.5,-38.7449 243.5,-30.7931"/>
<polygon fill="midnightblue" stroke="midnightblue" points="240,-58.1789 243.5,-68.179 247,-58.179 240,-58.1789"/>
</g>
<!-- Node2 -->
<g id="node3" class="node"><title>Node2</title>
<g id="a_node3"><a xlink:href="class_holo_gen_1_1_hierarchy_1_1_option_types_1_1_select_option.html" target="_top" xlink:title="Extends Option wrapping a multiple&#45;choice PossibilityCollection. Due to the limits of the C# reflecti...">
<polygon fill="white" stroke="black" points="178.5,-146.5 178.5,-176.5 308.5,-176.5 308.5,-146.5 178.5,-146.5"/>
<text text-anchor="start" x="186.5" y="-164.5" font-family="Helvetica,sans-Serif" font-size="10.00">HoloGen.Hierarchy.Option</text>
<text text-anchor="middle" x="243.5" y="-153.5" font-family="Helvetica,sans-Serif" font-size="10.00">Types.SelectOption&lt; T &gt;</text>
</a>
</g>
</g>
<!-- Node2&#45;&gt;Node1 -->
<g id="edge2" class="edge"><title>Node2&#45;&gt;Node1</title>
<path fill="none" stroke="orange" stroke-dasharray="5,2" d="M243.5,-136.09C243.5,-123.757 243.5,-109.224 243.5,-98.7309"/>
<polygon fill="orange" stroke="orange" points="240,-136.205 243.5,-146.205 247,-136.205 240,-136.205"/>
<text text-anchor="middle" x="308.5" y="-120" font-family="Helvetica,sans-Serif" font-size="10.00"> &lt; TransformTypePossibility &gt;</text>
</g>
<!-- Node3 -->
<g id="node4" class="node"><title>Node3</title>
<g id="a_node4"><a xlink:href="class_holo_gen_1_1_hierarchy_1_1_option_types_1_1_option.html" target="_top" xlink:title="Root hierarchy element. Defines Name and ToolTip fields that must be implemented by any implementors...">
<polygon fill="white" stroke="black" points="147.5,-214.5 147.5,-233.5 215.5,-233.5 215.5,-214.5 147.5,-214.5"/>
<text text-anchor="middle" x="181.5" y="-221.5" font-family="Helvetica,sans-Serif" font-size="10.00">Option&lt; T &gt;</text>
</a>
</g>
</g>
<!-- Node3&#45;&gt;Node2 -->
<g id="edge3" class="edge"><title>Node3&#45;&gt;Node2</title>
<path fill="none" stroke="midnightblue" d="M197.788,-207.106C207.433,-197.694 219.552,-185.869 228.888,-176.759"/>
<polygon fill="midnightblue" stroke="midnightblue" points="195.096,-204.843 190.383,-214.332 199.985,-209.853 195.096,-204.843"/>
</g>
<!-- Node4 -->
<g id="node5" class="node"><title>Node4</title>
<g id="a_node5"><a xlink:href="class_holo_gen_1_1_utils_1_1_observable_object.html" target="_top" xlink:title="Observable object with INotifyPropertyChanged implemented ">
<polygon fill="white" stroke="black" points="61,-271.5 61,-290.5 154,-290.5 154,-271.5 61,-271.5"/>
<text text-anchor="middle" x="107.5" y="-278.5" font-family="Helvetica,sans-Serif" font-size="10.00">ObservableObject</text>
</a>
</g>
</g>
<!-- Node4&#45;&gt;Node3 -->
<g id="edge4" class="edge"><title>Node4&#45;&gt;Node3</title>
<path fill="none" stroke="midnightblue" d="M127.296,-265.287C140.854,-255.21 158.378,-242.185 169.774,-233.715"/>
<polygon fill="midnightblue" stroke="midnightblue" points="125.001,-262.632 119.063,-271.406 129.176,-268.25 125.001,-262.632"/>
</g>
<!-- Node5 -->
<g id="node6" class="node"><title>Node5</title>
<polygon fill="white" stroke="#bfbfbf" points="0,-328.5 0,-347.5 119,-347.5 119,-328.5 0,-328.5"/>
<text text-anchor="middle" x="59.5" y="-335.5" font-family="Helvetica,sans-Serif" font-size="10.00">INotifyPropertyChanged</text>
</g>
<!-- Node5&#45;&gt;Node4 -->
<g id="edge5" class="edge"><title>Node5&#45;&gt;Node4</title>
<path fill="none" stroke="midnightblue" d="M73.6136,-320.828C82.2088,-310.979 92.8541,-298.782 99.8943,-290.715"/>
<polygon fill="midnightblue" stroke="midnightblue" points="70.9384,-318.571 67,-328.406 76.2124,-323.173 70.9384,-318.571"/>
</g>
<!-- Node6 -->
<g id="node7" class="node"><title>Node6</title>
<g id="a_node7"><a xlink:href="interface_holo_gen_1_1_hierarchy_1_1_option_types_1_1_i_option.html" target="_top" xlink:title="Base interface for the Option that doesn&#39;t need a template parameter. Necessary for a number of refle...">
<polygon fill="white" stroke="black" points="220,-271.5 220,-290.5 267,-290.5 267,-271.5 220,-271.5"/>
<text text-anchor="middle" x="243.5" y="-278.5" font-family="Helvetica,sans-Serif" font-size="10.00">IOption</text>
</a>
</g>
</g>
<!-- Node5&#45;&gt;Node6 -->
<g id="edge11" class="edge"><title>Node5&#45;&gt;Node6</title>
<path fill="none" stroke="midnightblue" d="M98.1346,-325.452C134.938,-314.451 189.156,-298.244 219.916,-289.05"/>
<polygon fill="midnightblue" stroke="midnightblue" points="96.8287,-322.189 88.25,-328.406 98.8335,-328.896 96.8287,-322.189"/>
</g>
<!-- Node6&#45;&gt;Node2 -->
<g id="edge14" class="edge"><title>Node6&#45;&gt;Node2</title>
<path fill="none" stroke="midnightblue" d="M243.5,-261.062C243.5,-237.534 243.5,-197.92 243.5,-176.789"/>
<polygon fill="midnightblue" stroke="midnightblue" points="240,-261.168 243.5,-271.168 247,-261.168 240,-261.168"/>
</g>
<!-- Node6&#45;&gt;Node3 -->
<g id="edge6" class="edge"><title>Node6&#45;&gt;Node3</title>
<path fill="none" stroke="midnightblue" d="M226.262,-264.708C214.997,-254.715 200.69,-242.024 191.324,-233.715"/>
<polygon fill="midnightblue" stroke="midnightblue" points="224.009,-267.388 233.813,-271.406 228.654,-262.152 224.009,-267.388"/>
</g>
<!-- Node7 -->
<g id="node8" class="node"><title>Node7</title>
<g id="a_node8"><a xlink:href="interface_holo_gen_1_1_hierarchy_1_1_hierarchy_1_1_i_can_error.html" target="_top" xlink:title="Interface implemented by any classes that can be in an error state. Defines the Valid property that c...">
<polygon fill="white" stroke="black" points="137,-328.5 137,-347.5 194,-347.5 194,-328.5 137,-328.5"/>
<text text-anchor="middle" x="165.5" y="-335.5" font-family="Helvetica,sans-Serif" font-size="10.00">ICanError</text>
</a>
</g>
</g>
<!-- Node7&#45;&gt;Node6 -->
<g id="edge7" class="edge"><title>Node7&#45;&gt;Node6</title>
<path fill="none" stroke="midnightblue" d="M186.011,-322.537C200.453,-312.354 219.295,-299.068 231.398,-290.533"/>
<polygon fill="midnightblue" stroke="midnightblue" points="183.843,-319.783 177.688,-328.406 187.877,-325.504 183.843,-319.783"/>
</g>
<!-- Node8 -->
<g id="node9" class="node"><title>Node8</title>
<g id="a_node9"><a xlink:href="interface_holo_gen_1_1_hierarchy_1_1_hierarchy_1_1_i_has_name.html" target="_top" xlink:title="Interface implemented by any classes that have a Name property. ">
<polygon fill="white" stroke="black" points="212.5,-328.5 212.5,-347.5 274.5,-347.5 274.5,-328.5 212.5,-328.5"/>
<text text-anchor="middle" x="243.5" y="-335.5" font-family="Helvetica,sans-Serif" font-size="10.00">IHasName</text>
</a>
</g>
</g>
<!-- Node8&#45;&gt;Node6 -->
<g id="edge8" class="edge"><title>Node8&#45;&gt;Node6</title>
<path fill="none" stroke="midnightblue" d="M243.5,-318.117C243.5,-308.817 243.5,-298.056 243.5,-290.715"/>
<polygon fill="midnightblue" stroke="midnightblue" points="240,-318.406 243.5,-328.406 247,-318.406 240,-318.406"/>
</g>
<!-- Node9 -->
<g id="node10" class="node"><title>Node9</title>
<g id="a_node10"><a xlink:href="interface_holo_gen_1_1_hierarchy_1_1_hierarchy_1_1_i_has_tool_tip.html" target="_top" xlink:title="Interface implemented by any classes that have a ToolTip property. ">
<polygon fill="white" stroke="black" points="293,-328.5 293,-347.5 360,-347.5 360,-328.5 293,-328.5"/>
<text text-anchor="middle" x="326.5" y="-335.5" font-family="Helvetica,sans-Serif" font-size="10.00">IHasToolTip</text>
</a>
</g>
</g>
<!-- Node9&#45;&gt;Node6 -->
<g id="edge9" class="edge"><title>Node9&#45;&gt;Node6</title>
<path fill="none" stroke="midnightblue" d="M305.108,-322.824C289.686,-312.605 269.378,-299.148 256.378,-290.533"/>
<polygon fill="midnightblue" stroke="midnightblue" points="303.262,-325.8 313.531,-328.406 307.129,-319.965 303.262,-325.8"/>
</g>
<!-- Node10 -->
<g id="node11" class="node"><title>Node10</title>
<g id="a_node11"><a xlink:href="interface_holo_gen_1_1_hierarchy_1_1_hierarchy_1_1_i_can_enable.html" target="_top" xlink:title="Interface implemented by any classes that can be enabled Enabled. ">
<polygon fill="white" stroke="black" points="378.5,-328.5 378.5,-347.5 444.5,-347.5 444.5,-328.5 378.5,-328.5"/>
<text text-anchor="middle" x="411.5" y="-335.5" font-family="Helvetica,sans-Serif" font-size="10.00">ICanEnable</text>
</a>
</g>
</g>
<!-- Node10&#45;&gt;Node6 -->
<g id="edge10" class="edge"><title>Node10&#45;&gt;Node6</title>
<path fill="none" stroke="midnightblue" d="M375.592,-325.244C342.827,-314.518 295.341,-298.972 267.125,-289.734"/>
<polygon fill="midnightblue" stroke="midnightblue" points="374.657,-328.621 385.25,-328.406 376.835,-321.969 374.657,-328.621"/>
</g>
<!-- Node11 -->
<g id="node12" class="node"><title>Node11</title>
<g id="a_node12"><a xlink:href="interface_holo_gen_1_1_hierarchy_1_1_hierarchy_1_1_i_can_reset.html" target="_top" xlink:title="Interface implemented by any classes that can be reset. ">
<polygon fill="white" stroke="black" points="462.5,-328.5 462.5,-347.5 524.5,-347.5 524.5,-328.5 462.5,-328.5"/>
<text text-anchor="middle" x="493.5" y="-335.5" font-family="Helvetica,sans-Serif" font-size="10.00">ICanReset</text>
</a>
</g>
</g>
<!-- Node11&#45;&gt;Node6 -->
<g id="edge12" class="edge"><title>Node11&#45;&gt;Node6</title>
<path fill="none" stroke="midnightblue" d="M452.608,-327.811C379.121,-311.514 304.341,-295.219 267.13,-287.13"/>
<polygon fill="midnightblue" stroke="midnightblue" points="451.974,-331.256 462.495,-330.006 453.491,-324.422 451.974,-331.256"/>
</g>
<!-- Node12 -->
<g id="node13" class="node"><title>Node12</title>
<g id="a_node13"><a xlink:href="interface_holo_gen_1_1_hierarchy_1_1_option_types_1_1_i_select_option.html" target="_top" xlink:title="Base interface for the SelectOption that doesn&#39;t need a template parameter. Necessary for a number of...">
<polygon fill="white" stroke="black" points="272,-214.5 272,-233.5 347,-233.5 347,-214.5 272,-214.5"/>
<text text-anchor="middle" x="309.5" y="-221.5" font-family="Helvetica,sans-Serif" font-size="10.00">ISelectOption</text>
</a>
</g>
</g>
<!-- Node12&#45;&gt;Node2 -->
<g id="edge13" class="edge"><title>Node12&#45;&gt;Node2</title>
<path fill="none" stroke="midnightblue" d="M292.413,-207.337C282.018,-197.809 268.854,-185.741 258.801,-176.526"/>
<polygon fill="midnightblue" stroke="midnightblue" points="290.307,-210.155 300.044,-214.332 295.037,-204.994 290.307,-210.155"/>
</g>
</g>
</svg>
