<?xml version="1.0" encoding="UTF-8" standalone="no"?>
<!DOCTYPE svg PUBLIC "-//W3C//DTD SVG 1.1//EN"
 "http://www.w3.org/Graphics/SVG/1.1/DTD/svg11.dtd">
<!-- Generated by graphviz version 2.38.0 (20140413.2041)
 -->
<!-- Title: Graphical Class Hierarchy Pages: 1 -->
<svg width="370pt" height="50pt"
 viewBox="0.00 0.00 370.00 50.00" xmlns="http://www.w3.org/2000/svg" xmlns:xlink="http://www.w3.org/1999/xlink">
<g id="graph0" class="graph" transform="scale(1 1) rotate(0) translate(4 46)">
<title>Graphical Class Hierarchy</title>
<polygon fill="white" stroke="none" points="-4,4 -4,-46 366,-46 366,4 -4,4"/>
<!-- Node0 -->
<g id="node1" class="node"><title>Node0</title>
<g id="a_node1"><a xlink:href="class_holo_gen_1_1_hierarchy_1_1_option_types_1_1_select_option.html" target="_top" xlink:title="HoloGen.Hierarchy.Option\lTypes.SelectOption\&lt; Dimension\lPossibility \&gt;">
<polygon fill="white" stroke="black" points="0,-0.5 0,-41.5 157,-41.5 157,-0.5 0,-0.5"/>
<text text-anchor="start" x="8" y="-29.5" font-family="Helvetica,sans-Serif" font-size="10.00">HoloGen.Hierarchy.Option</text>
<text text-anchor="start" x="8" y="-18.5" font-family="Helvetica,sans-Serif" font-size="10.00">Types.SelectOption&lt; Dimension</text>
<text text-anchor="middle" x="78.5" y="-7.5" font-family="Helvetica,sans-Serif" font-size="10.00">Possibility &gt;</text>
</a>
</g>
</g>
<!-- Node1 -->
<g id="node2" class="node"><title>Node1</title>
<g id="a_node2"><a xlink:href="class_holo_gen_1_1_image_1_1_options_1_1_dimension_option.html" target="_top" xlink:title="Selection option for the numberof dimensions to view this image in. ">
<polygon fill="white" stroke="black" points="193,-6 193,-36 362,-36 362,-6 193,-6"/>
<text text-anchor="start" x="201" y="-24" font-family="Helvetica,sans-Serif" font-size="10.00">HoloGen.Image.Options.Dimension</text>
<text text-anchor="middle" x="277.5" y="-13" font-family="Helvetica,sans-Serif" font-size="10.00">Option</text>
</a>
</g>
</g>
<!-- Node0&#45;&gt;Node1 -->
<g id="edge1" class="edge"><title>Node0&#45;&gt;Node1</title>
<path fill="none" stroke="midnightblue" d="M167.341,-21C175.814,-21 184.393,-21 192.823,-21"/>
<polygon fill="midnightblue" stroke="midnightblue" points="167.077,-17.5001 157.077,-21 167.077,-24.5001 167.077,-17.5001"/>
</g>
</g>
</svg>
