<?xml version="1.0" encoding="UTF-8" standalone="no"?>
<!DOCTYPE svg PUBLIC "-//W3C//DTD SVG 1.1//EN"
 "http://www.w3.org/Graphics/SVG/1.1/DTD/svg11.dtd">
<!-- Generated by graphviz version 2.38.0 (20140413.2041)
 -->
<!-- Title: Graphical Class Hierarchy Pages: 1 -->
<svg width="220pt" height="39pt"
 viewBox="0.00 0.00 220.00 39.00" xmlns="http://www.w3.org/2000/svg" xmlns:xlink="http://www.w3.org/1999/xlink">
<g id="graph0" class="graph" transform="scale(1 1) rotate(0) translate(4 35)">
<title>Graphical Class Hierarchy</title>
<polygon fill="white" stroke="none" points="-4,4 -4,-35 216,-35 216,4 -4,4"/>
<!-- Node495 -->
<g id="node1" class="node"><title>Node495</title>
<polygon fill="white" stroke="#bfbfbf" points="0,-6 0,-25 45,-25 45,-6 0,-6"/>
<text text-anchor="middle" x="22.5" y="-13" font-family="Helvetica,sans-Serif" font-size="10.00">Border</text>
</g>
<!-- Node0 -->
<g id="node2" class="node"><title>Node0</title>
<g id="a_node2"><a xlink:href="class_holo_gen_1_1_u_i_1_1_image_1_1_viewer_1_1_zoom_border.html" target="_top" xlink:title="Border control that acts as a zoomable image control. ">
<polygon fill="white" stroke="black" points="81,-0.5 81,-30.5 212,-30.5 212,-0.5 81,-0.5"/>
<text text-anchor="start" x="89" y="-18.5" font-family="Helvetica,sans-Serif" font-size="10.00">HoloGen.UI.Image.Viewer.</text>
<text text-anchor="middle" x="146.5" y="-7.5" font-family="Helvetica,sans-Serif" font-size="10.00">ZoomBorder</text>
</a>
</g>
</g>
<!-- Node495&#45;&gt;Node0 -->
<g id="edge1" class="edge"><title>Node495&#45;&gt;Node0</title>
<path fill="none" stroke="midnightblue" d="M55.2685,-15.5C63.2242,-15.5 72.0488,-15.5 80.9743,-15.5"/>
<polygon fill="midnightblue" stroke="midnightblue" points="55.0304,-12.0001 45.0303,-15.5 55.0303,-19.0001 55.0304,-12.0001"/>
</g>
</g>
</svg>
