<?xml version="1.0" encoding="UTF-8" standalone="no"?>
<!DOCTYPE svg PUBLIC "-//W3C//DTD SVG 1.1//EN"
 "http://www.w3.org/Graphics/SVG/1.1/DTD/svg11.dtd">
<!-- Generated by graphviz version 2.38.0 (20140413.2041)
 -->
<!-- Title: Graphical Class Hierarchy Pages: 1 -->
<svg width="219pt" height="83pt"
 viewBox="0.00 0.00 219.00 83.00" xmlns="http://www.w3.org/2000/svg" xmlns:xlink="http://www.w3.org/1999/xlink">
<g id="graph0" class="graph" transform="scale(1 1) rotate(0) translate(4 79)">
<title>Graphical Class Hierarchy</title>
<polygon fill="white" stroke="none" points="-4,4 -4,-79 215,-79 215,4 -4,4"/>
<!-- Node0 -->
<g id="node1" class="node"><title>Node0</title>
<g id="a_node1"><a xlink:href="class_holo_gen_1_1_utils_1_1_generic_cache.html" target="_top" xlink:title="HoloGen.Utils.GenericCache\l\&lt; TransformType, ImageViewType,\l ColorScheme, ImageScaleType,\l HoloGen.Image.ComplexImage,\l TransformImage, FactoredImage,\l ColoredImage, HoloGen.Image.ImageView \&gt;">
<polygon fill="white" stroke="black" points="0,-0.5 0,-74.5 211,-74.5 211,-0.5 0,-0.5"/>
<text text-anchor="start" x="8" y="-62.5" font-family="Helvetica,sans-Serif" font-size="10.00">HoloGen.Utils.GenericCache</text>
<text text-anchor="start" x="8" y="-51.5" font-family="Helvetica,sans-Serif" font-size="10.00">&lt; TransformType, ImageViewType,</text>
<text text-anchor="start" x="8" y="-40.5" font-family="Helvetica,sans-Serif" font-size="10.00"> ColorScheme, ImageScaleType,</text>
<text text-anchor="start" x="8" y="-29.5" font-family="Helvetica,sans-Serif" font-size="10.00"> HoloGen.Image.ComplexImage,</text>
<text text-anchor="start" x="8" y="-18.5" font-family="Helvetica,sans-Serif" font-size="10.00"> TransformImage, FactoredImage,</text>
<text text-anchor="middle" x="105.5" y="-7.5" font-family="Helvetica,sans-Serif" font-size="10.00"> ColoredImage, HoloGen.Image.ImageView &gt;</text>
</a>
</g>
</g>
</g>
</svg>
