<?xml version="1.0" encoding="UTF-8" standalone="no"?>
<!DOCTYPE svg PUBLIC "-//W3C//DTD SVG 1.1//EN"
 "http://www.w3.org/Graphics/SVG/1.1/DTD/svg11.dtd">
<!-- Generated by graphviz version 2.38.0 (20140413.2041)
 -->
<!-- Title: Graphical Class Hierarchy Pages: 1 -->
<svg width="269pt" height="39pt"
 viewBox="0.00 0.00 269.00 39.00" xmlns="http://www.w3.org/2000/svg" xmlns:xlink="http://www.w3.org/1999/xlink">
<g id="graph0" class="graph" transform="scale(1 1) rotate(0) translate(4 35)">
<title>Graphical Class Hierarchy</title>
<polygon fill="white" stroke="none" points="-4,4 -4,-35 265,-35 265,4 -4,4"/>
<!-- Node226 -->
<g id="node1" class="node"><title>Node226</title>
<polygon fill="white" stroke="#bfbfbf" points="0,-6 0,-25 89,-25 89,-6 0,-6"/>
<text text-anchor="middle" x="44.5" y="-13" font-family="Helvetica,sans-Serif" font-size="10.00">MarkupConverter</text>
</g>
<!-- Node0 -->
<g id="node2" class="node"><title>Node0</title>
<g id="a_node2"><a xlink:href="class_holo_gen_1_1_u_i_1_1_hamburger_1_1_null_to_unset_value_converter.html" target="_top" xlink:title="Convert null values to unset to avoid xaml bind crashes ">
<polygon fill="white" stroke="black" points="125,-0.5 125,-30.5 261,-30.5 261,-0.5 125,-0.5"/>
<text text-anchor="start" x="133" y="-18.5" font-family="Helvetica,sans-Serif" font-size="10.00">HoloGen.UI.Hamburger.Null</text>
<text text-anchor="middle" x="193" y="-7.5" font-family="Helvetica,sans-Serif" font-size="10.00">ToUnsetValueConverter</text>
</a>
</g>
</g>
<!-- Node226&#45;&gt;Node0 -->
<g id="edge1" class="edge"><title>Node226&#45;&gt;Node0</title>
<path fill="none" stroke="midnightblue" d="M99.3097,-15.5C107.581,-15.5 116.209,-15.5 124.729,-15.5"/>
<polygon fill="midnightblue" stroke="midnightblue" points="99.0582,-12.0001 89.0582,-15.5 99.0581,-19.0001 99.0582,-12.0001"/>
</g>
</g>
</svg>
