<?xml version="1.0" encoding="UTF-8" standalone="no"?>
<!DOCTYPE svg PUBLIC "-//W3C//DTD SVG 1.1//EN"
 "http://www.w3.org/Graphics/SVG/1.1/DTD/svg11.dtd">
<!-- Generated by graphviz version 2.38.0 (20140413.2041)
 -->
<!-- Title: Graphical Class Hierarchy Pages: 1 -->
<svg width="304pt" height="137pt"
 viewBox="0.00 0.00 304.00 137.00" xmlns="http://www.w3.org/2000/svg" xmlns:xlink="http://www.w3.org/1999/xlink">
<g id="graph0" class="graph" transform="scale(1 1) rotate(0) translate(4 133)">
<title>Graphical Class Hierarchy</title>
<polygon fill="white" stroke="none" points="-4,4 -4,-133 300,-133 300,4 -4,4"/>
<!-- Node488 -->
<g id="node1" class="node"><title>Node488</title>
<polygon fill="white" stroke="#bfbfbf" points="0,-55 0,-74 113,-74 113,-55 0,-55"/>
<text text-anchor="middle" x="56.5" y="-62" font-family="Helvetica,sans-Serif" font-size="10.00">DataTemplateSelector</text>
</g>
<!-- Node0 -->
<g id="node2" class="node"><title>Node0</title>
<g id="a_node2"><a xlink:href="class_holo_gen_1_1_u_i_1_1_common_1_1_tab_data_template_selector.html" target="_top" xlink:title="Select the type of template for tab data dependent on type ">
<polygon fill="white" stroke="black" points="149,-98.5 149,-128.5 296,-128.5 296,-98.5 149,-98.5"/>
<text text-anchor="start" x="157" y="-116.5" font-family="Helvetica,sans-Serif" font-size="10.00">HoloGen.UI.Common.TabData</text>
<text text-anchor="middle" x="222.5" y="-105.5" font-family="Helvetica,sans-Serif" font-size="10.00">TemplateSelector</text>
</a>
</g>
</g>
<!-- Node488&#45;&gt;Node0 -->
<g id="edge1" class="edge"><title>Node488&#45;&gt;Node0</title>
<path fill="none" stroke="midnightblue" d="M99.183,-76.9541C121.089,-83.4992 148.106,-91.5713 171.172,-98.463"/>
<polygon fill="midnightblue" stroke="midnightblue" points="100.094,-73.5733 89.5102,-74.064 98.0897,-80.2804 100.094,-73.5733"/>
</g>
<!-- Node490 -->
<g id="node3" class="node"><title>Node490</title>
<g id="a_node3"><a xlink:href="class_holo_gen_1_1_u_i_1_1_hamburger_1_1_page_data_template_selector.html" target="_top" xlink:title="Select page template dependent on type ">
<polygon fill="white" stroke="black" points="151.5,-49.5 151.5,-79.5 293.5,-79.5 293.5,-49.5 151.5,-49.5"/>
<text text-anchor="start" x="159.5" y="-67.5" font-family="Helvetica,sans-Serif" font-size="10.00">HoloGen.UI.Hamburger.Page</text>
<text text-anchor="middle" x="222.5" y="-56.5" font-family="Helvetica,sans-Serif" font-size="10.00">DataTemplateSelector</text>
</a>
</g>
</g>
<!-- Node488&#45;&gt;Node490 -->
<g id="edge2" class="edge"><title>Node488&#45;&gt;Node490</title>
<path fill="none" stroke="midnightblue" d="M123.037,-64.5C132.397,-64.5 142.055,-64.5 151.496,-64.5"/>
<polygon fill="midnightblue" stroke="midnightblue" points="123.023,-61.0001 113.023,-64.5 123.023,-68.0001 123.023,-61.0001"/>
</g>
<!-- Node491 -->
<g id="node4" class="node"><title>Node491</title>
<g id="a_node4"><a xlink:href="class_holo_gen_1_1_u_i_1_1_option_editors_1_1_option_data_template_selector.html" target="_top" xlink:title="User interface selector for different Option types. ">
<polygon fill="white" stroke="black" points="152,-0.5 152,-30.5 293,-30.5 293,-0.5 152,-0.5"/>
<text text-anchor="start" x="160" y="-18.5" font-family="Helvetica,sans-Serif" font-size="10.00">HoloGen.UI.OptionEditors.</text>
<text text-anchor="middle" x="222.5" y="-7.5" font-family="Helvetica,sans-Serif" font-size="10.00">OptionDataTemplateSelector</text>
</a>
</g>
</g>
<!-- Node488&#45;&gt;Node491 -->
<g id="edge3" class="edge"><title>Node488&#45;&gt;Node491</title>
<path fill="none" stroke="midnightblue" d="M99.183,-52.0459C121.089,-45.5008 148.106,-37.4287 171.172,-30.537"/>
<polygon fill="midnightblue" stroke="midnightblue" points="98.0897,-48.7196 89.5102,-54.936 100.094,-55.4267 98.0897,-48.7196"/>
</g>
</g>
</svg>
