<?xml version="1.0" encoding="UTF-8" standalone="no"?>
<!DOCTYPE svg PUBLIC "-//W3C//DTD SVG 1.1//EN"
 "http://www.w3.org/Graphics/SVG/1.1/DTD/svg11.dtd">
<!-- Generated by graphviz version 2.38.0 (20140413.2041)
 -->
<!-- Title: Graphical Class Hierarchy Pages: 1 -->
<svg width="371pt" height="142pt"
 viewBox="0.00 0.00 371.00 142.00" xmlns="http://www.w3.org/2000/svg" xmlns:xlink="http://www.w3.org/1999/xlink">
<g id="graph0" class="graph" transform="scale(1 1) rotate(0) translate(4 138)">
<title>Graphical Class Hierarchy</title>
<polygon fill="white" stroke="none" points="-4,4 -4,-138 367,-138 367,4 -4,4"/>
<!-- Node0 -->
<g id="node1" class="node"><title>Node0</title>
<g id="a_node1"><a xlink:href="class_holo_gen_1_1_u_i_1_1_mask_1_1_model_1_1_d_shape.html" target="_top" xlink:title="Modified from: https://wpfshapedemo.codeplex.com/ ">
<polygon fill="white" stroke="black" points="0,-57.5 0,-76.5 160,-76.5 160,-57.5 0,-57.5"/>
<text text-anchor="middle" x="80" y="-64.5" font-family="Helvetica,sans-Serif" font-size="10.00">HoloGen.UI.Mask.Model.DShape</text>
</a>
</g>
</g>
<!-- Node1 -->
<g id="node2" class="node"><title>Node1</title>
<g id="a_node2"><a xlink:href="class_holo_gen_1_1_u_i_1_1_mask_1_1_model_1_1_d_ellipse.html" target="_top" xlink:title="Modified from: https://wpfshapedemo.codeplex.com/ ">
<polygon fill="white" stroke="black" points="199,-114.5 199,-133.5 360,-133.5 360,-114.5 199,-114.5"/>
<text text-anchor="middle" x="279.5" y="-121.5" font-family="Helvetica,sans-Serif" font-size="10.00">HoloGen.UI.Mask.Model.DEllipse</text>
</a>
</g>
</g>
<!-- Node0&#45;&gt;Node1 -->
<g id="edge1" class="edge"><title>Node0&#45;&gt;Node1</title>
<path fill="none" stroke="midnightblue" d="M117.23,-79.9296C139.74,-87.7233 169.364,-97.5495 196,-105 208.173,-108.405 221.478,-111.666 233.78,-114.497"/>
<polygon fill="midnightblue" stroke="midnightblue" points="118.332,-76.6072 107.737,-76.6175 116.026,-83.2164 118.332,-76.6072"/>
</g>
<!-- Node2 -->
<g id="node3" class="node"><title>Node2</title>
<g id="a_node3"><a xlink:href="class_holo_gen_1_1_u_i_1_1_mask_1_1_model_1_1_d_point.html" target="_top" xlink:title="Modified from: https://wpfshapedemo.codeplex.com/ ">
<polygon fill="white" stroke="black" points="202,-76.5 202,-95.5 357,-95.5 357,-76.5 202,-76.5"/>
<text text-anchor="middle" x="279.5" y="-83.5" font-family="Helvetica,sans-Serif" font-size="10.00">HoloGen.UI.Mask.Model.DPoint</text>
</a>
</g>
</g>
<!-- Node0&#45;&gt;Node2 -->
<g id="edge2" class="edge"><title>Node0&#45;&gt;Node2</title>
<path fill="none" stroke="midnightblue" d="M170.25,-75.5861C180.803,-76.6013 191.502,-77.6305 201.859,-78.6269"/>
<polygon fill="midnightblue" stroke="midnightblue" points="170.482,-72.0923 160.193,-74.6185 169.812,-79.0602 170.482,-72.0923"/>
</g>
<!-- Node3 -->
<g id="node4" class="node"><title>Node3</title>
<g id="a_node4"><a xlink:href="class_holo_gen_1_1_u_i_1_1_mask_1_1_model_1_1_d_polygon.html" target="_top" xlink:title="Modified from: https://wpfshapedemo.codeplex.com/ ">
<polygon fill="white" stroke="black" points="196,-38.5 196,-57.5 363,-57.5 363,-38.5 196,-38.5"/>
<text text-anchor="middle" x="279.5" y="-45.5" font-family="Helvetica,sans-Serif" font-size="10.00">HoloGen.UI.Mask.Model.DPolygon</text>
</a>
</g>
</g>
<!-- Node0&#45;&gt;Node3 -->
<g id="edge3" class="edge"><title>Node0&#45;&gt;Node3</title>
<path fill="none" stroke="midnightblue" d="M170.416,-58.398C178.847,-57.5868 187.371,-56.7669 195.737,-55.962"/>
<polygon fill="midnightblue" stroke="midnightblue" points="169.812,-54.9398 160.193,-59.3815 170.482,-61.9077 169.812,-54.9398"/>
</g>
<!-- Node4 -->
<g id="node5" class="node"><title>Node4</title>
<g id="a_node5"><a xlink:href="class_holo_gen_1_1_u_i_1_1_mask_1_1_model_1_1_d_rect.html" target="_top" xlink:title="Modified from: https://wpfshapedemo.codeplex.com/ ">
<polygon fill="white" stroke="black" points="203.5,-0.5 203.5,-19.5 355.5,-19.5 355.5,-0.5 203.5,-0.5"/>
<text text-anchor="middle" x="279.5" y="-7.5" font-family="Helvetica,sans-Serif" font-size="10.00">HoloGen.UI.Mask.Model.DRect</text>
</a>
</g>
</g>
<!-- Node0&#45;&gt;Node4 -->
<g id="edge4" class="edge"><title>Node0&#45;&gt;Node4</title>
<path fill="none" stroke="midnightblue" d="M117.23,-54.0704C139.74,-46.2767 169.364,-36.4505 196,-29 208.173,-25.595 221.478,-22.3335 233.78,-19.5034"/>
<polygon fill="midnightblue" stroke="midnightblue" points="116.026,-50.7836 107.737,-57.3825 118.332,-57.3928 116.026,-50.7836"/>
</g>
</g>
</svg>
