<?xml version="1.0" encoding="UTF-8" standalone="no"?>
<!DOCTYPE svg PUBLIC "-//W3C//DTD SVG 1.1//EN"
 "http://www.w3.org/Graphics/SVG/1.1/DTD/svg11.dtd">
<!-- Generated by graphviz version 2.38.0 (20140413.2041)
 -->
<!-- Title: Graphical Class Hierarchy Pages: 1 -->
<svg width="268pt" height="39pt"
 viewBox="0.00 0.00 268.00 39.00" xmlns="http://www.w3.org/2000/svg" xmlns:xlink="http://www.w3.org/1999/xlink">
<g id="graph0" class="graph" transform="scale(1 1) rotate(0) translate(4 35)">
<title>Graphical Class Hierarchy</title>
<polygon fill="white" stroke="none" points="-4,4 -4,-35 264,-35 264,4 -4,4"/>
<!-- Node314 -->
<g id="node1" class="node"><title>Node314</title>
<polygon fill="white" stroke="#bfbfbf" points="0,-6 0,-25 78,-25 78,-6 0,-6"/>
<text text-anchor="middle" x="39" y="-13" font-family="Helvetica,sans-Serif" font-size="10.00">IInterTabClient</text>
</g>
<!-- Node0 -->
<g id="node2" class="node"><title>Node0</title>
<g id="a_node2"><a xlink:href="class_holo_gen_1_1_u_i_1_1_common_1_1_inter_tab_client.html" target="_top" xlink:title="Handler for dragablz inter tab client ">
<polygon fill="white" stroke="black" points="114,-0.5 114,-30.5 260,-30.5 260,-0.5 114,-0.5"/>
<text text-anchor="start" x="122" y="-18.5" font-family="Helvetica,sans-Serif" font-size="10.00">HoloGen.UI.Common.InterTab</text>
<text text-anchor="middle" x="187" y="-7.5" font-family="Helvetica,sans-Serif" font-size="10.00">Client</text>
</a>
</g>
</g>
<!-- Node314&#45;&gt;Node0 -->
<g id="edge1" class="edge"><title>Node314&#45;&gt;Node0</title>
<path fill="none" stroke="midnightblue" d="M88.4653,-15.5C96.6697,-15.5 105.342,-15.5 113.996,-15.5"/>
<polygon fill="midnightblue" stroke="midnightblue" points="88.3598,-12.0001 78.3598,-15.5 88.3597,-19.0001 88.3598,-12.0001"/>
</g>
</g>
</svg>
