<?xml version="1.0" encoding="UTF-8" standalone="no"?>
<!DOCTYPE svg PUBLIC "-//W3C//DTD SVG 1.1//EN"
 "http://www.w3.org/Graphics/SVG/1.1/DTD/svg11.dtd">
<!-- Generated by graphviz version 2.38.0 (20140413.2041)
 -->
<!-- Title: Graphical Class Hierarchy Pages: 1 -->
<svg width="326pt" height="61pt"
 viewBox="0.00 0.00 326.00 61.00" xmlns="http://www.w3.org/2000/svg" xmlns:xlink="http://www.w3.org/1999/xlink">
<g id="graph0" class="graph" transform="scale(1 1) rotate(0) translate(4 57)">
<title>Graphical Class Hierarchy</title>
<polygon fill="white" stroke="none" points="-4,4 -4,-57 322,-57 322,4 -4,4"/>
<!-- Node0 -->
<g id="node1" class="node"><title>Node0</title>
<g id="a_node1"><a xlink:href="class_holo_gen_1_1_i_o_1_1_json_file_loader.html" target="_top" xlink:title="HoloGen.IO.JsonFileLoader\l\&lt; ApplicationSettings,\l ApplicationSettingsVersion,\l JsonSettingsDeserialiser \&gt;">
<polygon fill="white" stroke="black" points="0,-0.5 0,-52.5 140,-52.5 140,-0.5 0,-0.5"/>
<text text-anchor="start" x="8" y="-40.5" font-family="Helvetica,sans-Serif" font-size="10.00">HoloGen.IO.JsonFileLoader</text>
<text text-anchor="start" x="8" y="-29.5" font-family="Helvetica,sans-Serif" font-size="10.00">&lt; ApplicationSettings,</text>
<text text-anchor="start" x="8" y="-18.5" font-family="Helvetica,sans-Serif" font-size="10.00"> ApplicationSettingsVersion,</text>
<text text-anchor="middle" x="70" y="-7.5" font-family="Helvetica,sans-Serif" font-size="10.00"> JsonSettingsDeserialiser &gt;</text>
</a>
</g>
</g>
<!-- Node1 -->
<g id="node2" class="node"><title>Node1</title>
<g id="a_node2"><a xlink:href="class_holo_gen_1_1_i_o_1_1_json_settings_file_loader.html" target="_top" xlink:title="Loader for settings files in a JSON format ">
<polygon fill="white" stroke="black" points="176,-11.5 176,-41.5 318,-41.5 318,-11.5 176,-11.5"/>
<text text-anchor="start" x="184" y="-29.5" font-family="Helvetica,sans-Serif" font-size="10.00">HoloGen.IO.JsonSettingsFile</text>
<text text-anchor="middle" x="247" y="-18.5" font-family="Helvetica,sans-Serif" font-size="10.00">Loader</text>
</a>
</g>
</g>
<!-- Node0&#45;&gt;Node1 -->
<g id="edge1" class="edge"><title>Node0&#45;&gt;Node1</title>
<path fill="none" stroke="midnightblue" d="M150.169,-26.5C158.751,-26.5 167.441,-26.5 175.904,-26.5"/>
<polygon fill="midnightblue" stroke="midnightblue" points="150.165,-23.0001 140.165,-26.5 150.165,-30.0001 150.165,-23.0001"/>
</g>
</g>
</svg>
