<?xml version="1.0" encoding="UTF-8" standalone="no"?>
<!DOCTYPE svg PUBLIC "-//W3C//DTD SVG 1.1//EN"
 "http://www.w3.org/Graphics/SVG/1.1/DTD/svg11.dtd">
<!-- Generated by graphviz version 2.38.0 (20140413.2041)
 -->
<!-- Title: Graphical Class Hierarchy Pages: 1 -->
<svg width="213pt" height="61pt"
 viewBox="0.00 0.00 213.00 61.00" xmlns="http://www.w3.org/2000/svg" xmlns:xlink="http://www.w3.org/1999/xlink">
<g id="graph0" class="graph" transform="scale(1 1) rotate(0) translate(4 57)">
<title>Graphical Class Hierarchy</title>
<polygon fill="white" stroke="none" points="-4,4 -4,-57 209,-57 209,4 -4,4"/>
<!-- Node0 -->
<g id="node1" class="node"><title>Node0</title>
<g id="a_node1"><a xlink:href="class_holo_gen_1_1_hierarchy_1_1_hierarchy_1_1_possibility_collection.html" target="_top" xlink:title="HoloGen.Hierarchy.Hierarchy.\lPossibilityCollection\&lt; HoloGen.\lOptions.Hardware.Hardware.Type.Hardware\lPossibility \&gt;">
<polygon fill="white" stroke="black" points="0,-0.5 0,-52.5 205,-52.5 205,-0.5 0,-0.5"/>
<text text-anchor="start" x="8" y="-40.5" font-family="Helvetica,sans-Serif" font-size="10.00">HoloGen.Hierarchy.Hierarchy.</text>
<text text-anchor="start" x="8" y="-29.5" font-family="Helvetica,sans-Serif" font-size="10.00">PossibilityCollection&lt; HoloGen.</text>
<text text-anchor="start" x="8" y="-18.5" font-family="Helvetica,sans-Serif" font-size="10.00">Options.Hardware.Hardware.Type.Hardware</text>
<text text-anchor="middle" x="102.5" y="-7.5" font-family="Helvetica,sans-Serif" font-size="10.00">Possibility &gt;</text>
</a>
</g>
</g>
</g>
</svg>
