<?xml version="1.0" encoding="UTF-8" standalone="no"?>
<!DOCTYPE svg PUBLIC "-//W3C//DTD SVG 1.1//EN"
 "http://www.w3.org/Graphics/SVG/1.1/DTD/svg11.dtd">
<!-- Generated by graphviz version 2.38.0 (20140413.2041)
 -->
<!-- Title: HoloGen.UI.Utils.ITabViewModel Pages: 1 -->
<svg width="139pt" height="95pt"
 viewBox="0.00 0.00 139.00 95.00" xmlns="http://www.w3.org/2000/svg" xmlns:xlink="http://www.w3.org/1999/xlink">
<g id="graph0" class="graph" transform="scale(1 1) rotate(0) translate(4 91)">
<title>HoloGen.UI.Utils.ITabViewModel</title>
<polygon fill="white" stroke="none" points="-4,4 -4,-91 135,-91 135,4 -4,4"/>
<!-- Node12 -->
<g id="node1" class="node"><title>Node12</title>
<polygon fill="#bfbfbf" stroke="black" points="0,-0.5 0,-30.5 131,-30.5 131,-0.5 0,-0.5"/>
<text text-anchor="start" x="8" y="-18.5" font-family="Helvetica,sans-Serif" font-size="10.00">HoloGen.UI.Utils.ITabView</text>
<text text-anchor="middle" x="65.5" y="-7.5" font-family="Helvetica,sans-Serif" font-size="10.00">Model</text>
</g>
<!-- Node13 -->
<g id="node2" class="node"><title>Node13</title>
<polygon fill="white" stroke="#bfbfbf" points="6,-67.5 6,-86.5 125,-86.5 125,-67.5 6,-67.5"/>
<text text-anchor="middle" x="65.5" y="-74.5" font-family="Helvetica,sans-Serif" font-size="10.00">INotifyPropertyChanged</text>
</g>
<!-- Node13&#45;&gt;Node12 -->
<g id="edge1" class="edge"><title>Node13&#45;&gt;Node12</title>
<path fill="none" stroke="midnightblue" d="M65.5,-57.2349C65.5,-48.5864 65.5,-38.4969 65.5,-30.523"/>
<polygon fill="midnightblue" stroke="midnightblue" points="62.0001,-57.4751 65.5,-67.4751 69.0001,-57.4751 62.0001,-57.4751"/>
</g>
</g>
</svg>
