<?xml version="1.0" encoding="UTF-8" standalone="no"?>
<!DOCTYPE svg PUBLIC "-//W3C//DTD SVG 1.1//EN"
 "http://www.w3.org/Graphics/SVG/1.1/DTD/svg11.dtd">
<!-- Generated by graphviz version 2.38.0 (20140413.2041)
 -->
<!-- Title: C:/Users/palav/Source/Repos/HoloGen/HoloGenCuda/x64/Debug/kernel.cudafe1.stub.c Pages: 1 -->
<svg width="198pt" height="162pt"
 viewBox="0.00 0.00 198.00 162.00" xmlns="http://www.w3.org/2000/svg" xmlns:xlink="http://www.w3.org/1999/xlink">
<g id="graph0" class="graph" transform="scale(1 1) rotate(0) translate(4 158)">
<title>C:/Users/palav/Source/Repos/HoloGen/HoloGenCuda/x64/Debug/kernel.cudafe1.stub.c</title>
<polygon fill="white" stroke="none" points="-4,4 -4,-158 194,-158 194,4 -4,4"/>
<!-- Node0 -->
<g id="node1" class="node"><title>Node0</title>
<polygon fill="#bfbfbf" stroke="black" points="18.5,-112.5 18.5,-153.5 180.5,-153.5 180.5,-112.5 18.5,-112.5"/>
<text text-anchor="start" x="26.5" y="-141.5" font-family="Helvetica,sans-Serif" font-size="10.00">C:/Users/palav/Source</text>
<text text-anchor="start" x="26.5" y="-130.5" font-family="Helvetica,sans-Serif" font-size="10.00">/Repos/HoloGen/HoloGenCuda</text>
<text text-anchor="middle" x="99.5" y="-119.5" font-family="Helvetica,sans-Serif" font-size="10.00">/x64/Debug/kernel.cudafe1.stub.c</text>
</g>
<!-- Node1 -->
<g id="node2" class="node"><title>Node1</title>
<polygon fill="white" stroke="#bfbfbf" points="0,-56.5 0,-75.5 95,-75.5 95,-56.5 0,-56.5"/>
<text text-anchor="middle" x="47.5" y="-63.5" font-family="Helvetica,sans-Serif" font-size="10.00">crt/host_runtime.h</text>
</g>
<!-- Node0&#45;&gt;Node1 -->
<g id="edge1" class="edge"><title>Node0&#45;&gt;Node1</title>
<path fill="none" stroke="midnightblue" d="M83.8983,-112.498C76.539,-103.299 67.849,-92.4362 60.8058,-83.6323"/>
<polygon fill="midnightblue" stroke="midnightblue" points="63.402,-81.2748 54.422,-75.6525 57.9359,-85.6476 63.402,-81.2748"/>
</g>
<!-- Node2 -->
<g id="node3" class="node"><title>Node2</title>
<g id="a_node3"><a xlink:href="kernel_8fatbin_8c.html" target="_top" xlink:title="kernel.fatbin.c">
<polygon fill="white" stroke="black" points="113,-56.5 113,-75.5 190,-75.5 190,-56.5 113,-56.5"/>
<text text-anchor="middle" x="151.5" y="-63.5" font-family="Helvetica,sans-Serif" font-size="10.00">kernel.fatbin.c</text>
</a>
</g>
</g>
<!-- Node0&#45;&gt;Node2 -->
<g id="edge2" class="edge"><title>Node0&#45;&gt;Node2</title>
<path fill="none" stroke="midnightblue" d="M115.102,-112.498C122.461,-103.299 131.151,-92.4362 138.194,-83.6323"/>
<polygon fill="midnightblue" stroke="midnightblue" points="141.064,-85.6476 144.578,-75.6525 135.598,-81.2748 141.064,-85.6476"/>
</g>
<!-- Node3 -->
<g id="node4" class="node"><title>Node3</title>
<polygon fill="white" stroke="#bfbfbf" points="114,-0.5 114,-19.5 189,-19.5 189,-0.5 114,-0.5"/>
<text text-anchor="middle" x="151.5" y="-7.5" font-family="Helvetica,sans-Serif" font-size="10.00">fatBinaryCtl.h</text>
</g>
<!-- Node2&#45;&gt;Node3 -->
<g id="edge3" class="edge"><title>Node2&#45;&gt;Node3</title>
<path fill="none" stroke="midnightblue" d="M151.5,-56.083C151.5,-49.0059 151.5,-38.8611 151.5,-29.9865"/>
<polygon fill="midnightblue" stroke="midnightblue" points="155,-29.751 151.5,-19.7511 148,-29.7511 155,-29.751"/>
</g>
</g>
</svg>
